%!PS-Adobe-3.0 EPSF-3.0 
%%BoundingBox: 0 0 584 255
%%Pages: 0
%%Creator: LibreOffice 4.4
%%Title: none
%%CreationDate: none
%%LanguageLevel: 2
%%EndComments
%%BeginProlog
%%BeginResource: procset SDRes-Prolog 1.0 0
/b4_inc_state save def
/dict_count countdictstack def
/op_count count 1 sub def
userdict begin
0 setgray 0 setlinecap 1 setlinewidth 0 setlinejoin 10 setmiterlimit[] 0 setdash newpath
/languagelevel where {pop languagelevel 1 ne {false setstrokeadjust false setoverprint} if} if
/bdef {bind def} bind def
/c {setrgbcolor} bdef
/l {neg lineto} bdef
/rl {neg rlineto} bdef
/lc {setlinecap} bdef
/lj {setlinejoin} bdef
/lw {setlinewidth} bdef
/ml {setmiterlimit} bdef
/ld {setdash} bdef
/m {neg moveto} bdef
/ct {6 2 roll neg 6 2 roll neg 6 2 roll neg curveto} bdef
/r {rotate} bdef
/t {neg translate} bdef
/s {scale} bdef
/sw {show} bdef
/gs {gsave} bdef
/gr {grestore} bdef
/f {findfont dup length dict begin
{1 index /FID ne {def} {pop pop} ifelse} forall /Encoding ISOLatin1Encoding def
currentdict end /NFont exch definefont pop /NFont findfont} bdef
/p {closepath} bdef
/sf {scalefont setfont} bdef
/ef {eofill}bdef
/pc {closepath stroke}bdef
/ps {stroke}bdef
/pum {matrix currentmatrix}bdef
/pom {setmatrix}bdef
/bs {/aString exch def /nXOfs exch def /nWidth exch def currentpoint nXOfs 0 rmoveto pum nWidth aString stringwidth pop div 1 scale aString show pom moveto} bdef
%%EndResource
%%EndProlog
%%BeginSetup
%%EndSetup
%%Page: 1 1
%%BeginPageSetup
%%EndPageSetup
pum
0.02834 0.02831 s 
0 -9006 t
/tm matrix currentmatrix def
tm setmatrix
10301 4503 t 
1 1 s 
1.000 1.000 1.000 c 0 4502 m  -10301 4502 l  -10301 -4503 l  10301 -4503 l 
10301 4502 l  0 4502 l  p ef
0 lw 1 lj 0.703 0.703 0.703 c -213 2296 m  -7966 2296 l  -7966 -4124 l 
7539 -4124 l  7539 2296 l  -213 2296 l  pc
7539 2295 m  -7966 2295 l  ps
7539 1492 m  -7966 1492 l  ps
7539 689 m  -7966 689 l  ps
7539 -112 m  -7966 -112 l  ps
7539 -915 m  -7966 -915 l  ps
7539 -1718 m  -7966 -1718 l  ps
7539 -2520 m  -7966 -2520 l  ps
7539 -3323 m  -7966 -3323 l  ps
7539 -4125 m  -7966 -4125 l  ps
-7966 2445 m  -7966 2295 l  ps
-7966 2445 m  -7966 2295 l  ps
-7704 2445 m  -7704 2295 l  ps
-7704 2445 m  -7704 2295 l  ps
-7441 2445 m  -7441 2295 l  ps
-7441 2445 m  -7441 2295 l  ps
-7178 2445 m  -7178 2295 l  ps
-7178 2445 m  -7178 2295 l  ps
-6915 2445 m  -6915 2295 l  ps
-6915 2445 m  -6915 2295 l  ps
-6652 2445 m  -6652 2295 l  ps
-6652 2445 m  -6652 2295 l  ps
-6390 2445 m  -6390 2295 l  ps
-6390 2445 m  -6390 2295 l  ps
-6127 2445 m  -6127 2295 l  ps
-6127 2445 m  -6127 2295 l  ps
-5864 2445 m  -5864 2295 l  ps
-5864 2445 m  -5864 2295 l  ps
-5601 2445 m  -5601 2295 l  ps
-5601 2445 m  -5601 2295 l  ps
-5338 2445 m  -5338 2295 l  ps
-5338 2445 m  -5338 2295 l  ps
-5076 2445 m  -5076 2295 l  ps
-5076 2445 m  -5076 2295 l  ps
-4813 2445 m  -4813 2295 l  ps
-4813 2445 m  -4813 2295 l  ps
-4550 2445 m  -4550 2295 l  ps
-4550 2445 m  -4550 2295 l  ps
-4287 2445 m  -4287 2295 l  ps
-4287 2445 m  -4287 2295 l  ps
-4024 2445 m  -4024 2295 l  ps
-4024 2445 m  -4024 2295 l  ps
-3761 2445 m  -3761 2295 l  ps
-3761 2445 m  -3761 2295 l  ps
-3499 2445 m  -3499 2295 l  ps
-3499 2445 m  -3499 2295 l  ps
-3236 2445 m  -3236 2295 l  ps
-3236 2445 m  -3236 2295 l  ps
-2973 2445 m  -2973 2295 l  ps
-2973 2445 m  -2973 2295 l  ps
-2710 2445 m  -2710 2295 l  ps
-2710 2445 m  -2710 2295 l  ps
-2447 2445 m  -2447 2295 l  ps
-2447 2445 m  -2447 2295 l  ps
-2185 2445 m  -2185 2295 l  ps
-2185 2445 m  -2185 2295 l  ps
-1922 2445 m  -1922 2295 l  ps
-1922 2445 m  -1922 2295 l  ps
-1659 2445 m  -1659 2295 l  ps
-1659 2445 m  -1659 2295 l  ps
-1396 2445 m  -1396 2295 l  ps
-1396 2445 m  -1396 2295 l  ps
-1133 2445 m  -1133 2295 l  ps
-1133 2445 m  -1133 2295 l  ps
-871 2445 m  -871 2295 l  ps
-871 2445 m  -871 2295 l  ps
-608 2445 m  -608 2295 l  ps
-608 2445 m  -608 2295 l  ps
-345 2445 m  -345 2295 l  ps
-345 2445 m  -345 2295 l  ps
-82 2445 m  -82 2295 l  ps
-82 2445 m  -82 2295 l  ps
180 2445 m  180 2295 l  ps
180 2445 m  180 2295 l  ps
443 2445 m  443 2295 l  ps
443 2445 m  443 2295 l  ps
705 2445 m  705 2295 l  ps
705 2445 m  705 2295 l  ps
968 2445 m  968 2295 l  ps
968 2445 m  968 2295 l  ps
1231 2445 m  1231 2295 l  ps
1231 2445 m  1231 2295 l  ps
1494 2445 m  1494 2295 l  ps
1494 2445 m  1494 2295 l  ps
1757 2445 m  1757 2295 l  ps
1757 2445 m  1757 2295 l  ps
2019 2445 m  2019 2295 l  ps
2019 2445 m  2019 2295 l  ps
2282 2445 m  2282 2295 l  ps
2282 2445 m  2282 2295 l  ps
2545 2445 m  2545 2295 l  ps
2545 2445 m  2545 2295 l  ps
2808 2445 m  2808 2295 l  ps
2808 2445 m  2808 2295 l  ps
3071 2445 m  3071 2295 l  ps
3071 2445 m  3071 2295 l  ps
3333 2445 m  3333 2295 l  ps
3333 2445 m  3333 2295 l  ps
3596 2445 m  3596 2295 l  ps
3596 2445 m  3596 2295 l  ps
3859 2445 m  3859 2295 l  ps
3859 2445 m  3859 2295 l  ps
4122 2445 m  4122 2295 l  ps
4122 2445 m  4122 2295 l  ps
4385 2445 m  4385 2295 l  ps
4385 2445 m  4385 2295 l  ps
4648 2445 m  4648 2295 l  ps
4648 2445 m  4648 2295 l  ps
4910 2445 m  4910 2295 l  ps
4910 2445 m  4910 2295 l  ps
5173 2445 m  5173 2295 l  ps
5173 2445 m  5173 2295 l  ps
5436 2445 m  5436 2295 l  ps
5436 2445 m  5436 2295 l  ps
5699 2445 m  5699 2295 l  ps
5699 2445 m  5699 2295 l  ps
5962 2445 m  5962 2295 l  ps
5962 2445 m  5962 2295 l  ps
6224 2445 m  6224 2295 l  ps
6224 2445 m  6224 2295 l  ps
6487 2445 m  6487 2295 l  ps
6487 2445 m  6487 2295 l  ps
6750 2445 m  6750 2295 l  ps
6750 2445 m  6750 2295 l  ps
7013 2445 m  7013 2295 l  ps
7013 2445 m  7013 2295 l  ps
7276 2445 m  7276 2295 l  ps
7276 2445 m  7276 2295 l  ps
7539 2445 m  7539 2295 l  ps
7539 2445 m  7539 2295 l  ps
-7966 2295 m  7539 2295 l  ps
-8116 2295 m  -7966 2295 l  ps
-8116 2295 m  -7966 2295 l  ps
-8116 1492 m  -7966 1492 l  ps
-8116 1492 m  -7966 1492 l  ps
-8116 689 m  -7966 689 l  ps
-8116 689 m  -7966 689 l  ps
-8116 -112 m  -7966 -112 l  ps
-8116 -112 m  -7966 -112 l  ps
-8116 -915 m  -7966 -915 l  ps
-8116 -915 m  -7966 -915 l  ps
-8116 -1718 m  -7966 -1718 l  ps
-8116 -1718 m  -7966 -1718 l  ps
-8116 -2520 m  -7966 -2520 l  ps
-8116 -2520 m  -7966 -2520 l  ps
-8116 -3323 m  -7966 -3323 l  ps
-8116 -3323 m  -7966 -3323 l  ps
-8116 -4125 m  -7966 -4125 l  ps
-8116 -4125 m  -7966 -4125 l  ps
-7966 2295 m  -7966 -4125 l  ps
79.99611 lw 0.003 0.273 0.527 c -7966 -1816 m  -7953 -1828 l  -7940 -1840 l 
-7927 -1851 l  -7914 -1862 l  -7901 -1873 l  -7888 -1884 l  -7875 -1895 l 
-7861 -1905 l  -7848 -1914 l  -7835 -1924 l  -7822 -1932 l  -7809 -1940 l 
-7796 -1948 l  -7783 -1954 l  -7769 -1960 l  -7756 -1965 l  -7743 -1970 l 
-7730 -1973 l  -7717 -1975 l  -7704 -1977 l  -7691 -1977 l  -7677 -1976 l 
-7664 -1975 l  -7651 -1972 l  -7638 -1969 l  -7625 -1966 l  -7612 -1962 l 
-7599 -1958 l  -7585 -1954 l  -7572 -1950 l  -7559 -1945 l  -7546 -1941 l 
-7533 -1938 l  -7520 -1935 l  -7507 -1932 l  -7493 -1930 l  -7480 -1929 l 
-7467 -1929 l  -7454 -1930 l  -7441 -1931 l  -7428 -1935 l  -7415 -1939 l 
-7401 -1944 l  -7388 -1951 l  -7375 -1958 l  -7362 -1966 l  -7349 -1975 l 
-7336 -1984 l  -7323 -1994 l  -7309 -2004 l  -7296 -2014 l  -7283 -2025 l 
-7270 -2035 l  -7257 -2046 l  -7244 -2057 l  -7231 -2067 l  -7217 -2077 l 
-7204 -2087 l  -7191 -2096 l  -7178 -2104 l  -7165 -2112 l  -7152 -2119 l 
-7139 -2125 l  -7125 -2131 l  -7112 -2135 l  -7099 -2139 l  -7086 -2142 l 
-7073 -2144 l  -7060 -2145 l  -7047 -2145 l  -7034 -2144 l  -7020 -2142 l 
-7007 -2139 l  -6994 -2135 l  -6981 -2129 l  -6968 -2122 l  -6955 -2115 l 
-6942 -2106 l  -6928 -2095 l  -6915 -2084 l  -6902 -2071 l  -6889 -2056 l 
-6876 -2041 l  -6863 -2026 l  -6850 -2009 l  -6836 -1992 l  -6823 -1975 l 
-6810 -1958 l  -6797 -1941 l  -6784 -1924 l  -6771 -1908 l  -6758 -1893 l 
-6744 -1878 l  -6731 -1865 l  -6718 -1852 l  -6705 -1841 l  -6692 -1832 l 
-6679 -1825 l  -6666 -1819 l  -6652 -1816 l  -6639 -1815 l  -6626 -1817 l 
-6613 -1820 l  -6600 -1825 l  -6587 -1831 l  -6574 -1839 l  -6560 -1848 l 
-6547 -1858 l  -6534 -1869 l  -6521 -1880 l  -6508 -1892 l  -6495 -1904 l 
-6482 -1915 l  -6468 -1926 l  -6455 -1937 l  -6442 -1947 l  -6429 -1957 l 
-6416 -1965 l  -6403 -1971 l  -6390 -1977 l  -6376 -1980 l  -6363 -1982 l 
-6350 -1983 l  -6337 -1982 l  -6324 -1981 l  -6311 -1978 l  -6298 -1975 l 
-6284 -1970 l  -6271 -1966 l  -6258 -1961 l  -6245 -1956 l  -6232 -1951 l 
-6219 -1947 l  -6206 -1942 l  -6193 -1938 l  -6179 -1935 l  -6166 -1932 l 
-6153 -1931 l  -6140 -1931 l  -6127 -1931 l  -6114 -1934 l  -6101 -1937 l 
-6087 -1942 l  -6074 -1948 l  -6061 -1955 l  -6048 -1963 l  -6035 -1971 l 
-6022 -1981 l  -6009 -1990 l  -5995 -2001 l  -5982 -2011 l  -5969 -2022 l 
-5956 -2033 l  -5943 -2044 l  -5930 -2055 l  -5917 -2066 l  -5903 -2076 l 
-5890 -2086 l  -5877 -2095 l  -5864 -2104 l  -5851 -2112 l  -5838 -2119 l 
-5825 -2126 l  -5811 -2131 l  -5798 -2136 l  -5785 -2140 l  -5772 -2143 l 
-5759 -2145 l  -5746 -2146 l  -5733 -2146 l  -5719 -2145 l  -5706 -2142 l 
-5693 -2139 l  -5680 -2135 l  -5667 -2129 l  -5654 -2123 l  -5641 -2115 l 
-5627 -2106 l  -5614 -2095 l  -5601 -2084 l  -5588 -2071 l  -5575 -2056 l 
-5562 -2041 l  -5549 -2026 l  -5535 -2009 l  -5522 -1992 l  -5509 -1975 l 
-5496 -1958 l  -5483 -1941 l  -5470 -1925 l  -5457 -1908 l  -5443 -1893 l 
-5430 -1878 l  -5417 -1865 l  -5404 -1853 l  -5391 -1842 l  -5378 -1833 l 
-5365 -1825 l  -5352 -1820 l  -5338 -1816 l  -5325 -1815 l  -5312 -1816 l 
-5299 -1819 l  -5286 -1824 l  -5273 -1830 l  -5260 -1838 l  -5246 -1847 l 
-5233 -1857 l  -5220 -1867 l  -5207 -1878 l  -5194 -1890 l  -5181 -1901 l 
-5168 -1913 l  -5154 -1924 l  -5141 -1935 l  -5128 -1945 l  -5115 -1955 l 
-5102 -1963 l  -5089 -1971 l  -5076 -1977 l  -5062 -1981 l  -5049 -1984 l 
-5036 -1985 l  -5023 -1986 l  -5010 -1985 l  -4997 -1983 l  -4984 -1981 l 
-4970 -1977 l  -4957 -1974 l  -4944 -1969 l  -4931 -1965 l  -4918 -1960 l 
-4905 -1955 l  -4892 -1951 l  -4878 -1946 l  -4865 -1942 l  -4852 -1938 l 
-4839 -1935 l  -4826 -1933 l  -4813 -1931 l  -4800 -1931 l  -4786 -1931 l 
-4773 -1933 l  -4760 -1935 l  -4747 -1939 l  -4734 -1943 l  -4721 -1949 l 
-4708 -1955 l  -4694 -1962 l  -4681 -1970 l  -4668 -1980 l  -4655 -1990 l 
-4642 -2001 l  -4629 -2013 l  -4616 -2026 l  -4602 -2040 l  -4589 -2054 l 
-4576 -2070 l  -4563 -2087 l  -4550 -2104 l  -4537 -2122 l  -4524 -2141 l 
-4511 -2160 l  -4497 -2179 l  -4484 -2197 l  -4471 -2213 l  -4458 -2228 l 
-4445 -2241 l  -4432 -2251 l  -4419 -2259 l  -4405 -2263 l  -4392 -2264 l 
-4379 -2260 l  -4366 -2252 l  -4353 -2239 l  -4340 -2220 l  -4327 -2196 l 
-4313 -2165 l  -4300 -2128 l  -4287 -2084 l  -4274 -2032 l  -4261 -1974 l 
-4248 -1910 l  -4235 -1841 l  -4221 -1769 l  -4208 -1694 l  -4195 -1617 l 
-4182 -1540 l  -4169 -1462 l  -4156 -1385 l  -4143 -1311 l  -4129 -1239 l 
-4116 -1172 l  -4103 -1109 l  -4090 -1052 l  -4077 -1001 l  -4064 -959 l 
-4051 -925 l  -4037 -900 l  -4024 -887 l  -4011 -884 l  -3998 -892 l  -3985 -909 l 
-3972 -935 l  -3959 -969 l  -3945 -1009 l  -3932 -1055 l  -3919 -1105 l 
-3906 -1159 l  -3893 -1216 l  -3880 -1274 l  -3867 -1334 l  -3853 -1393 l 
-3840 -1451 l  -3827 -1506 l  -3814 -1559 l  -3801 -1607 l  -3788 -1650 l 
-3775 -1688 l  -3761 -1718 l  -3748 -1740 l  -3735 -1755 l  -3722 -1763 l 
-3709 -1765 l  -3696 -1761 l  -3683 -1752 l  -3669 -1739 l  -3656 -1722 l 
-3643 -1702 l  -3630 -1679 l  -3617 -1655 l  -3604 -1629 l  -3591 -1603 l 
-3578 -1576 l  -3564 -1550 l  -3551 -1525 l  -3538 -1501 l  -3525 -1480 l 
-3512 -1462 l  -3499 -1448 l  -3486 -1438 l  -3472 -1431 l  -3459 -1429 l 
-3446 -1430 l  -3433 -1434 l  -3420 -1441 l  -3407 -1451 l  -3394 -1464 l 
-3380 -1479 l  -3367 -1496 l  -3354 -1515 l  -3341 -1536 l  -3328 -1559 l 
-3315 -1583 l  -3302 -1607 l  -3288 -1633 l  -3275 -1660 l  -3262 -1686 l 
-3249 -1713 l  -3236 -1740 l  -3223 -1767 l  -3210 -1793 l  -3196 -1818 l 
-3183 -1842 l  -3170 -1865 l  -3157 -1885 l  -3144 -1904 l  -3131 -1920 l 
-3118 -1934 l  -3104 -1945 l  -3091 -1952 l  -3078 -1956 l  -3065 -1956 l 
-3052 -1952 l  -3039 -1943 l  -3026 -1930 l  -3012 -1911 l  -2999 -1888 l 
-2986 -1858 l  -2973 -1822 l  -2960 -1781 l  -2947 -1734 l  -2934 -1682 l 
-2920 -1626 l  -2907 -1568 l  -2894 -1507 l  -2881 -1445 l  -2868 -1382 l 
-2855 -1320 l  -2842 -1259 l  -2828 -1199 l  -2815 -1143 l  -2802 -1090 l 
-2789 -1041 l  -2776 -997 l  -2763 -960 l  -2750 -929 l  -2737 -906 l 
-2723 -892 l  -2710 -887 l  -2697 -891 l  -2684 -905 l  -2671 -927 l  -2658 -957 l 
-2645 -993 l  -2631 -1035 l  -2618 -1081 l  -2605 -1132 l  -2592 -1185 l 
-2579 -1241 l  -2566 -1298 l  -2553 -1355 l  -2539 -1412 l  -2526 -1467 l 
-2513 -1520 l  -2500 -1569 l  -2487 -1615 l  -2474 -1655 l  -2461 -1690 l 
-2447 -1718 l  -2434 -1738 l  -2421 -1751 l  -2408 -1758 l  -2395 -1759 l 
-2382 -1754 l  -2369 -1745 l  -2355 -1732 l  -2342 -1715 l  -2329 -1695 l 
-2316 -1673 l  -2303 -1649 l  -2290 -1623 l  -2277 -1597 l  -2263 -1571 l 
-2250 -1546 l  -2237 -1522 l  -2224 -1499 l  -2211 -1479 l  -2198 -1462 l 
-2185 -1448 l  -2171 -1438 l  -2158 -1432 l  -2145 -1430 l  -2132 -1431 l 
-2119 -1435 l  -2106 -1443 l  -2093 -1453 l  -2079 -1466 l  -2066 -1481 l 
-2053 -1498 l  -2040 -1517 l  -2027 -1538 l  -2014 -1560 l  -2001 -1584 l 
-1987 -1608 l  -1974 -1634 l  -1961 -1660 l  -1948 -1687 l  -1935 -1713 l 
-1922 -1740 l  -1909 -1767 l  -1896 -1793 l  -1882 -1818 l  -1869 -1842 l 
-1856 -1864 l  -1843 -1885 l  -1830 -1904 l  -1817 -1920 l  -1804 -1934 l 
-1790 -1944 l  -1777 -1952 l  -1764 -1956 l  -1751 -1956 l  -1738 -1952 l 
-1725 -1943 l  -1712 -1930 l  -1698 -1911 l  -1685 -1887 l  -1672 -1858 l 
-1659 -1822 l  -1646 -1781 l  -1633 -1734 l  -1620 -1682 l  -1606 -1626 l 
-1593 -1568 l  -1580 -1507 l  -1567 -1445 l  -1554 -1382 l  -1541 -1320 l 
-1528 -1259 l  -1514 -1199 l  -1501 -1143 l  -1488 -1090 l  -1475 -1041 l 
-1462 -997 l  -1449 -960 l  -1436 -929 l  -1422 -906 l  -1409 -892 l  -1396 -887 l 
-1383 -891 l  -1370 -905 l  -1357 -927 l  -1344 -957 l  -1330 -993 l  -1317 -1035 l 
-1304 -1082 l  -1291 -1132 l  -1278 -1186 l  -1265 -1241 l  -1252 -1298 l 
-1238 -1355 l  -1225 -1412 l  -1212 -1467 l  -1199 -1520 l  -1186 -1570 l 
-1173 -1615 l  -1160 -1655 l  -1146 -1690 l  -1133 -1718 l  -1120 -1738 l 
-1107 -1751 l  -1094 -1758 l  -1081 -1758 l  -1068 -1754 l  -1055 -1744 l 
-1041 -1731 l  -1028 -1714 l  -1015 -1694 l  -1002 -1672 l  -989 -1647 l 
-976 -1622 l  -963 -1596 l  -949 -1570 l  -936 -1545 l  -923 -1521 l  -910 -1499 l 
-897 -1479 l  -884 -1462 l  -871 -1448 l  -857 -1439 l  -844 -1433 l  -831 -1431 l 
-818 -1433 l  -805 -1438 l  -792 -1446 l  -779 -1456 l  -765 -1469 l  -752 -1485 l 
-739 -1502 l  -726 -1522 l  -713 -1543 l  -700 -1565 l  -687 -1588 l  -673 -1613 l 
-660 -1638 l  -647 -1663 l  -634 -1689 l  -621 -1715 l  -608 -1740 l  -595 -1765 l 
-581 -1789 l  -568 -1813 l  -555 -1835 l  -542 -1855 l  -529 -1874 l  -516 -1891 l 
-503 -1906 l  -489 -1918 l  -476 -1928 l  -463 -1935 l  -450 -1938 l  -437 -1938 l 
-424 -1935 l  -411 -1927 l  -397 -1916 l  -384 -1900 l  -371 -1879 l  -358 -1853 l 
-345 -1822 l  -332 -1786 l  -319 -1746 l  -305 -1701 l  -292 -1652 l  -279 -1600 l 
-266 -1546 l  -253 -1491 l  -240 -1434 l  -227 -1376 l  -213 -1318 l  -200 -1261 l 
-187 -1205 l  -174 -1151 l  -161 -1099 l  -148 -1050 l  -135 -1005 l  -122 -964 l 
-108 -928 l  -95 -897 l  -82 -871 l  -69 -853 l  -56 -840 l  -43 -833 l 
-30 -831 l  -16 -833 l  -3 -839 l  9 -848 l  22 -861 l  35 -875 l  48 -892 l 
61 -910 l  75 -928 l  88 -947 l  101 -965 l  114 -983 l  127 -999 l  140 -1014 l 
153 -1026 l  167 -1035 l  180 -1041 l  193 -1043 l  206 -1041 l  219 -1036 l 
232 -1029 l  245 -1019 l  259 -1008 l  272 -995 l  285 -981 l  298 -967 l 
311 -953 l  324 -939 l  337 -926 l  351 -915 l  364 -905 l  377 -898 l 
390 -893 l  403 -891 l  416 -892 l  429 -898 l  443 -908 l  456 -922 l 
469 -941 l  482 -964 l  495 -990 l  508 -1018 l  521 -1049 l  535 -1081 l 
548 -1115 l  561 -1149 l  574 -1182 l  587 -1216 l  600 -1248 l  613 -1279 l 
627 -1307 l  640 -1333 l  653 -1356 l  666 -1375 l  679 -1389 l  692 -1399 l 
705 -1403 l  718 -1402 l  732 -1395 l  745 -1383 l  758 -1367 l  771 -1347 l 
784 -1323 l  797 -1296 l  810 -1266 l  824 -1234 l  837 -1201 l  850 -1166 l 
863 -1130 l  876 -1094 l  889 -1058 l  902 -1023 l  916 -989 l  929 -956 l 
942 -925 l  955 -897 l  968 -871 l  981 -849 l  994 -831 l  1008 -815 l 
1021 -802 l  1034 -792 l  1047 -784 l  1060 -779 l  1073 -777 l  1086 -776 l 
1100 -778 l  1113 -781 l  1126 -786 l  1139 -793 l  1152 -801 l  1165 -811 l 
1178 -821 l  1192 -833 l  1205 -845 l  1218 -858 l  1231 -871 l  1244 -885 l 
1257 -900 l  1270 -914 l  1284 -928 l  1297 -942 l  1310 -956 l  1323 -969 l 
1336 -982 l  1349 -994 l  1362 -1005 l  1376 -1015 l  1389 -1024 l  1402 -1032 l 
1415 -1038 l  1428 -1043 l  1441 -1047 l  1454 -1048 l  1468 -1048 l  1481 -1045 l 
1494 -1041 l  1507 -1034 l  1520 -1025 l  1533 -1014 l  1546 -1003 l  1559 -990 l 
1573 -976 l  1586 -963 l  1599 -949 l  1612 -935 l  1625 -923 l  1638 -911 l 
1651 -901 l  1665 -892 l  1678 -886 l  1691 -881 l  1704 -880 l  1717 -881 l 
1730 -886 l  1743 -895 l  1757 -908 l  1770 -925 l  1783 -946 l  1796 -970 l 
1809 -997 l  1822 -1026 l  1835 -1057 l  1849 -1090 l  1862 -1123 l  1875 -1157 l 
1888 -1191 l  1901 -1223 l  1914 -1255 l  1927 -1285 l  1941 -1313 l  1954 -1338 l 
1967 -1359 l  1980 -1377 l  1993 -1391 l  2006 -1400 l  2019 -1403 l  2033 -1401 l 
2046 -1394 l  2059 -1382 l  2072 -1365 l  2085 -1345 l  2098 -1321 l  2111 -1293 l 
2125 -1264 l  2138 -1232 l  2151 -1198 l  2164 -1164 l  2177 -1128 l  2190 -1092 l 
2203 -1057 l  2217 -1022 l  2230 -988 l  2243 -955 l  2256 -925 l  2269 -897 l 
2282 -871 l  2295 -850 l  2309 -831 l  2322 -815 l  2335 -802 l  2348 -792 l 
2361 -785 l  2374 -780 l  2387 -777 l  2400 -777 l  2414 -778 l  2427 -782 l 
2440 -787 l  2453 -794 l  2466 -802 l  2479 -811 l  2492 -821 l  2506 -833 l 
2519 -845 l  2532 -858 l  2545 -871 l  2558 -885 l  2571 -899 l  2584 -913 l 
2598 -928 l  2611 -942 l  2624 -955 l  2637 -968 l  2650 -981 l  2663 -993 l 
2676 -1004 l  2690 -1014 l  2703 -1024 l  2716 -1031 l  2729 -1038 l  2742 -1043 l 
2755 -1046 l  2768 -1048 l  2782 -1048 l  2795 -1045 l  2808 -1041 l  2821 -1034 l 
2834 -1025 l  2847 -1015 l  2860 -1003 l  2874 -991 l  2887 -977 l  2900 -964 l 
2913 -950 l  2926 -937 l  2939 -924 l  2952 -913 l  2966 -903 l  2979 -894 l 
2992 -887 l  3005 -883 l  3018 -881 l  3031 -883 l  3044 -887 l  3058 -896 l 
3071 -908 l  3084 -924 l  3097 -944 l  3110 -968 l  3123 -994 l  3136 -1023 l 
3150 -1053 l  3163 -1085 l  3176 -1118 l  3189 -1151 l  3202 -1184 l  3215 -1217 l 
3228 -1248 l  3241 -1278 l  3255 -1306 l  3268 -1331 l  3281 -1354 l  3294 -1373 l 
3307 -1387 l  3320 -1398 l  3333 -1403 l  3347 -1404 l  3360 -1399 l  3373 -1389 l 
3386 -1375 l  3399 -1357 l  3412 -1336 l  3425 -1312 l  3439 -1284 l  3452 -1254 l 
3465 -1222 l  3478 -1189 l  3491 -1154 l  3504 -1118 l  3517 -1082 l  3531 -1045 l 
3544 -1008 l  3557 -972 l  3570 -937 l  3583 -904 l  3596 -871 l  3609 -841 l 
3623 -813 l  3636 -787 l  3649 -762 l  3662 -739 l  3675 -718 l  3688 -698 l 
3701 -679 l  3715 -662 l  3728 -646 l  3741 -631 l  3754 -617 l  3767 -604 l 
3780 -592 l  3793 -580 l  3807 -569 l  3820 -559 l  3833 -549 l  3846 -539 l 
3859 -530 l  3872 -520 l  3885 -511 l  3899 -502 l  3912 -492 l  3925 -482 l 
3938 -471 l  3951 -460 l  3964 -448 l  3977 -435 l  3991 -421 l  4004 -406 l 
4017 -389 l  4030 -371 l  4043 -352 l  4056 -330 l  4069 -307 l  4083 -282 l 
4096 -254 l  4109 -225 l  4122 -193 l  4135 -158 l  4148 -122 l  4161 -84 l 
4174 -46 l  4188 -7 l  4201 31 l  4214 69 l  4227 105 l  4240 139 l  4253 170 l 
4266 199 l  4280 224 l  4293 244 l  4306 259 l  4319 269 l  4332 273 l 
4345 271 l  4358 261 l  4372 244 l  4385 218 l  4398 183 l  4411 141 l 
4424 91 l  4437 36 l  4450 -24 l  4464 -89 l  4477 -158 l  4490 -230 l 
4503 -303 l  4516 -377 l  4529 -450 l  4542 -523 l  4556 -594 l  4569 -662 l 
4582 -726 l  4595 -786 l  4608 -840 l  4621 -887 l  4634 -928 l  4648 -960 l 
4661 -983 l  4674 -998 l  4687 -1005 l  4700 -1005 l  4713 -998 l  4726 -986 l 
4740 -968 l  4753 -946 l  4766 -920 l  4779 -891 l  4792 -859 l  4805 -826 l 
4818 -791 l  4832 -755 l  4845 -720 l  4858 -685 l  4871 -652 l  4884 -621 l 
4897 -592 l  4910 -567 l  4924 -546 l  4937 -528 l  4950 -514 l  4963 -503 l 
4976 -495 l  4989 -490 l  5002 -486 l  5015 -485 l  5029 -486 l  5042 -488 l 
5055 -492 l  5068 -496 l  5081 -501 l  5094 -506 l  5107 -511 l  5121 -517 l 
5134 -521 l  5147 -525 l  5160 -528 l  5173 -530 l  5186 -530 l  5199 -528 l 
5213 -525 l  5226 -520 l  5239 -513 l  5252 -504 l  5265 -494 l  5278 -482 l 
5291 -469 l  5305 -453 l  5318 -436 l  5331 -416 l  5344 -395 l  5357 -372 l 
5370 -347 l  5383 -320 l  5397 -292 l  5410 -261 l  5423 -228 l  5436 -193 l 
5449 -156 l  5462 -117 l  5475 -78 l  5489 -38 l  5502 1 l  5515 40 l 
5528 78 l  5541 114 l  5554 148 l  5567 179 l  5581 207 l  5594 231 l 
5607 250 l  5620 265 l  5633 274 l  5646 277 l  5659 273 l  5673 263 l 
5686 244 l  5699 218 l  5712 183 l  5725 140 l  5738 90 l  5751 34 l  5765 -26 l 
5778 -92 l  5791 -161 l  5804 -232 l  5817 -305 l  5830 -379 l  5843 -452 l 
5856 -525 l  5870 -596 l  5883 -663 l  5896 -727 l  5909 -787 l  5922 -840 l 
5935 -888 l  5948 -928 l  5962 -960 l  5975 -983 l  5988 -998 l  6001 -1005 l 
6014 -1004 l  6027 -998 l  6040 -985 l  6054 -968 l  6067 -945 l  6080 -919 l 
6093 -890 l  6106 -859 l  6119 -825 l  6132 -790 l  6146 -755 l  6159 -719 l 
6172 -685 l  6185 -652 l  6198 -621 l  6211 -592 l  6224 -567 l  6238 -546 l 
6251 -528 l  6264 -514 l  6277 -503 l  6290 -495 l  6303 -490 l  6316 -487 l 
6330 -486 l  6343 -487 l  6356 -489 l  6369 -492 l  6382 -496 l  6395 -501 l 
6408 -507 l  6422 -512 l  6435 -517 l  6448 -522 l  6461 -525 l  6474 -528 l 
6487 -530 l  6500 -529 l  6514 -528 l  6527 -524 l  6540 -519 l  6553 -512 l 
6566 -504 l  6579 -493 l  6592 -481 l  6606 -467 l  6619 -452 l  6632 -434 l 
6645 -415 l  6658 -394 l  6671 -371 l  6684 -346 l  6697 -319 l  6711 -291 l 
6724 -260 l  6737 -227 l  6750 -193 l  6763 -156 l  6776 -118 l  6789 -80 l 
6803 -40 l  6816 -1 l  6829 36 l  6842 74 l  6855 109 l  6868 143 l  6881 174 l 
6895 201 l  6908 225 l  6921 245 l  6934 260 l  6947 269 l  6960 272 l 
6973 270 l  6987 260 l  7000 243 l  7013 218 l  7026 184 l  7039 144 l 
7052 96 l  7065 42 l  7079 -16 l  7092 -79 l  7105 -146 l  7118 -215 l 
7131 -287 l  7144 -359 l  7157 -432 l  7171 -504 l  7184 -575 l  7197 -643 l 
7210 -708 l  7223 -770 l  7236 -826 l  7249 -877 l  7263 -922 l  7276 -960 l 
7289 -990 l  7302 -1012 l  7315 -1027 l  7328 -1035 l  7341 -1037 l  7355 -1033 l 
7368 -1023 l  7381 -1008 l  7394 -988 l  7407 -964 l  7420 -935 l  7433 -904 l 
7447 -869 l  7460 -831 l  7473 -790 l  7486 -748 l  7499 -704 l  7512 -659 l 
7525 -613 l  7539 -567 l  ps
-8091 -1941 m  -8091 -1691 l  -7841 -1691 l  -7841 -1941 l  -8091 -1941 l 
p ef
0 lw -8091 -1941 m  -8091 -1691 l  -7841 -1691 l  -7841 -1941 l  -8091 -1941 l 
pc
-7829 -2102 m  -7829 -1852 l  -7579 -1852 l  -7579 -2102 l  -7829 -2102 l 
p ef
-7829 -2102 m  -7829 -1852 l  -7579 -1852 l  -7579 -2102 l  -7829 -2102 l 
pc
-7566 -2056 m  -7566 -1806 l  -7316 -1806 l  -7316 -2056 l  -7566 -2056 l 
p ef
-7566 -2056 m  -7566 -1806 l  -7316 -1806 l  -7316 -2056 l  -7566 -2056 l 
pc
-7303 -2229 m  -7303 -1979 l  -7053 -1979 l  -7053 -2229 l  -7303 -2229 l 
p ef
-7303 -2229 m  -7303 -1979 l  -7053 -1979 l  -7053 -2229 l  -7303 -2229 l 
pc
-7040 -2209 m  -7040 -1959 l  -6790 -1959 l  -6790 -2209 l  -7040 -2209 l 
p ef
-7040 -2209 m  -7040 -1959 l  -6790 -1959 l  -6790 -2209 l  -7040 -2209 l 
pc
-6777 -1941 m  -6777 -1691 l  -6527 -1691 l  -6527 -1941 l  -6777 -1941 l 
p ef
-6777 -1941 m  -6777 -1691 l  -6527 -1691 l  -6527 -1941 l  -6777 -1941 l 
pc
-6515 -2102 m  -6515 -1852 l  -6265 -1852 l  -6265 -2102 l  -6515 -2102 l 
p ef
-6515 -2102 m  -6515 -1852 l  -6265 -1852 l  -6265 -2102 l  -6515 -2102 l 
pc
-6252 -2056 m  -6252 -1806 l  -6002 -1806 l  -6002 -2056 l  -6252 -2056 l 
p ef
-6252 -2056 m  -6252 -1806 l  -6002 -1806 l  -6002 -2056 l  -6252 -2056 l 
pc
-5989 -2229 m  -5989 -1979 l  -5739 -1979 l  -5739 -2229 l  -5989 -2229 l 
p ef
-5989 -2229 m  -5989 -1979 l  -5739 -1979 l  -5739 -2229 l  -5989 -2229 l 
pc
-5726 -2209 m  -5726 -1959 l  -5476 -1959 l  -5476 -2209 l  -5726 -2209 l 
p ef
-5726 -2209 m  -5726 -1959 l  -5476 -1959 l  -5476 -2209 l  -5726 -2209 l 
pc
-5463 -1941 m  -5463 -1691 l  -5213 -1691 l  -5213 -1941 l  -5463 -1941 l 
p ef
-5463 -1941 m  -5463 -1691 l  -5213 -1691 l  -5213 -1941 l  -5463 -1941 l 
pc
-5201 -2102 m  -5201 -1852 l  -4951 -1852 l  -4951 -2102 l  -5201 -2102 l 
p ef
-5201 -2102 m  -5201 -1852 l  -4951 -1852 l  -4951 -2102 l  -5201 -2102 l 
pc
-4938 -2056 m  -4938 -1806 l  -4688 -1806 l  -4688 -2056 l  -4938 -2056 l 
p ef
-4938 -2056 m  -4938 -1806 l  -4688 -1806 l  -4688 -2056 l  -4938 -2056 l 
pc
-4675 -2229 m  -4675 -1979 l  -4425 -1979 l  -4425 -2229 l  -4675 -2229 l 
p ef
-4675 -2229 m  -4675 -1979 l  -4425 -1979 l  -4425 -2229 l  -4675 -2229 l 
pc
-4412 -2209 m  -4412 -1959 l  -4162 -1959 l  -4162 -2209 l  -4412 -2209 l 
p ef
-4412 -2209 m  -4412 -1959 l  -4162 -1959 l  -4162 -2209 l  -4412 -2209 l 
pc
-4149 -1012 m  -4149 -762 l  -3899 -762 l  -3899 -1012 l  -4149 -1012 l 
p ef
-4149 -1012 m  -4149 -762 l  -3899 -762 l  -3899 -1012 l  -4149 -1012 l 
pc
-3886 -1843 m  -3886 -1593 l  -3636 -1593 l  -3636 -1843 l  -3886 -1843 l 
p ef
-3886 -1843 m  -3886 -1593 l  -3636 -1593 l  -3636 -1843 l  -3886 -1843 l 
pc
-3624 -1573 m  -3624 -1323 l  -3374 -1323 l  -3374 -1573 l  -3624 -1573 l 
p ef
-3624 -1573 m  -3624 -1323 l  -3374 -1323 l  -3374 -1573 l  -3624 -1573 l 
pc
-3361 -1865 m  -3361 -1615 l  -3111 -1615 l  -3111 -1865 l  -3361 -1865 l 
p ef
-3361 -1865 m  -3361 -1615 l  -3111 -1615 l  -3111 -1865 l  -3361 -1865 l 
pc
-3098 -1947 m  -3098 -1697 l  -2848 -1697 l  -2848 -1947 l  -3098 -1947 l 
p ef
-3098 -1947 m  -3098 -1697 l  -2848 -1697 l  -2848 -1947 l  -3098 -1947 l 
pc
-2835 -1012 m  -2835 -762 l  -2585 -762 l  -2585 -1012 l  -2835 -1012 l 
p ef
-2835 -1012 m  -2835 -762 l  -2585 -762 l  -2585 -1012 l  -2835 -1012 l 
pc
-2572 -1843 m  -2572 -1593 l  -2322 -1593 l  -2322 -1843 l  -2572 -1843 l 
p ef
-2572 -1843 m  -2572 -1593 l  -2322 -1593 l  -2322 -1843 l  -2572 -1843 l 
pc
-2310 -1573 m  -2310 -1323 l  -2060 -1323 l  -2060 -1573 l  -2310 -1573 l 
p ef
-2310 -1573 m  -2310 -1323 l  -2060 -1323 l  -2060 -1573 l  -2310 -1573 l 
pc
-2047 -1865 m  -2047 -1615 l  -1797 -1615 l  -1797 -1865 l  -2047 -1865 l 
p ef
-2047 -1865 m  -2047 -1615 l  -1797 -1615 l  -1797 -1865 l  -2047 -1865 l 
pc
-1784 -1947 m  -1784 -1697 l  -1534 -1697 l  -1534 -1947 l  -1784 -1947 l 
p ef
-1784 -1947 m  -1784 -1697 l  -1534 -1697 l  -1534 -1947 l  -1784 -1947 l 
pc
-1521 -1012 m  -1521 -762 l  -1271 -762 l  -1271 -1012 l  -1521 -1012 l 
p ef
-1521 -1012 m  -1521 -762 l  -1271 -762 l  -1271 -1012 l  -1521 -1012 l 
pc
-1258 -1843 m  -1258 -1593 l  -1008 -1593 l  -1008 -1843 l  -1258 -1843 l 
p ef
-1258 -1843 m  -1258 -1593 l  -1008 -1593 l  -1008 -1843 l  -1258 -1843 l 
pc
-996 -1573 m  -996 -1323 l  -746 -1323 l  -746 -1573 l  -996 -1573 l  p ef
-996 -1573 m  -996 -1323 l  -746 -1323 l  -746 -1573 l  -996 -1573 l  pc
-733 -1865 m  -733 -1615 l  -483 -1615 l  -483 -1865 l  -733 -1865 l  p ef
-733 -1865 m  -733 -1615 l  -483 -1615 l  -483 -1865 l  -733 -1865 l  pc
-470 -1947 m  -470 -1697 l  -220 -1697 l  -220 -1947 l  -470 -1947 l  p ef
-470 -1947 m  -470 -1697 l  -220 -1697 l  -220 -1947 l  -470 -1947 l  pc
-207 -996 m  -207 -746 l  42 -746 l  42 -996 l  -207 -996 l  p ef
-207 -996 m  -207 -746 l  42 -746 l  42 -996 l  -207 -996 l  pc
55 -1166 m  55 -916 l  305 -916 l  305 -1166 l  55 -1166 l  p ef
55 -1166 m  55 -916 l  305 -916 l  305 -1166 l  55 -1166 l  pc
318 -1033 m  318 -783 l  568 -783 l  568 -1033 l  318 -1033 l  p ef
318 -1033 m  318 -783 l  568 -783 l  568 -1033 l  318 -1033 l  pc
580 -1528 m  580 -1278 l  830 -1278 l  830 -1528 l  580 -1528 l  p ef
580 -1528 m  580 -1278 l  830 -1278 l  830 -1528 l  580 -1528 l  pc
843 -996 m  843 -746 l  1093 -746 l  1093 -996 l  843 -996 l  p ef
843 -996 m  843 -746 l  1093 -746 l  1093 -996 l  843 -996 l  pc
1106 -996 m  1106 -746 l  1356 -746 l  1356 -996 l  1106 -996 l  p ef
1106 -996 m  1106 -746 l  1356 -746 l  1356 -996 l  1106 -996 l  pc
1369 -1166 m  1369 -916 l  1619 -916 l  1619 -1166 l  1369 -1166 l  p ef
1369 -1166 m  1369 -916 l  1619 -916 l  1619 -1166 l  1369 -1166 l  pc
1632 -1033 m  1632 -783 l  1882 -783 l  1882 -1033 l  1632 -1033 l  p ef
1632 -1033 m  1632 -783 l  1882 -783 l  1882 -1033 l  1632 -1033 l  pc
1894 -1528 m  1894 -1278 l  2144 -1278 l  2144 -1528 l  1894 -1528 l  p ef
1894 -1528 m  1894 -1278 l  2144 -1278 l  2144 -1528 l  1894 -1528 l  pc
2157 -996 m  2157 -746 l  2407 -746 l  2407 -996 l  2157 -996 l  p ef
2157 -996 m  2157 -746 l  2407 -746 l  2407 -996 l  2157 -996 l  pc
2420 -996 m  2420 -746 l  2670 -746 l  2670 -996 l  2420 -996 l  p ef
2420 -996 m  2420 -746 l  2670 -746 l  2670 -996 l  2420 -996 l  pc
2683 -1166 m  2683 -916 l  2933 -916 l  2933 -1166 l  2683 -1166 l  p ef
2683 -1166 m  2683 -916 l  2933 -916 l  2933 -1166 l  2683 -1166 l  pc
2946 -1033 m  2946 -783 l  3196 -783 l  3196 -1033 l  2946 -1033 l  p ef
2946 -1033 m  2946 -783 l  3196 -783 l  3196 -1033 l  2946 -1033 l  pc
3208 -1528 m  3208 -1278 l  3458 -1278 l  3458 -1528 l  3208 -1528 l  p ef
3208 -1528 m  3208 -1278 l  3458 -1278 l  3458 -1528 l  3208 -1528 l  pc
3471 -996 m  3471 -746 l  3721 -746 l  3721 -996 l  3471 -996 l  p ef
3471 -996 m  3471 -746 l  3721 -746 l  3721 -996 l  3471 -996 l  pc
3734 -655 m  3734 -405 l  3984 -405 l  3984 -655 l  3734 -655 l  p ef
3734 -655 m  3734 -405 l  3984 -405 l  3984 -655 l  3734 -655 l  pc
3997 -318 m  3997 -68 l  4247 -68 l  4247 -318 l  3997 -318 l  p ef
3997 -318 m  3997 -68 l  4247 -68 l  4247 -318 l  3997 -318 l  pc
4260 93 m  4260 343 l  4510 343 l  4510 93 l  4260 93 l  p ef
4260 93 m  4260 343 l  4510 343 l  4510 93 l  4260 93 l  pc
4523 -1085 m  4523 -835 l  4773 -835 l  4773 -1085 l  4523 -1085 l  p ef
4523 -1085 m  4523 -835 l  4773 -835 l  4773 -1085 l  4523 -1085 l  pc
4785 -692 m  4785 -442 l  5035 -442 l  5035 -692 l  4785 -692 l  p ef
4785 -692 m  4785 -442 l  5035 -442 l  5035 -692 l  4785 -692 l  pc
5048 -655 m  5048 -405 l  5298 -405 l  5298 -655 l  5048 -655 l  p ef
5048 -655 m  5048 -405 l  5298 -405 l  5298 -655 l  5048 -655 l  pc
5311 -318 m  5311 -68 l  5561 -68 l  5561 -318 l  5311 -318 l  p ef
5311 -318 m  5311 -68 l  5561 -68 l  5561 -318 l  5311 -318 l  pc
5574 93 m  5574 343 l  5824 343 l  5824 93 l  5574 93 l  p ef
5574 93 m  5574 343 l  5824 343 l  5824 93 l  5574 93 l  pc
5837 -1085 m  5837 -835 l  6087 -835 l  6087 -1085 l  5837 -1085 l  p ef
5837 -1085 m  5837 -835 l  6087 -835 l  6087 -1085 l  5837 -1085 l  pc
6099 -692 m  6099 -442 l  6349 -442 l  6349 -692 l  6099 -692 l  p ef
6099 -692 m  6099 -442 l  6349 -442 l  6349 -692 l  6099 -692 l  pc
6362 -655 m  6362 -405 l  6612 -405 l  6612 -655 l  6362 -655 l  p ef
6362 -655 m  6362 -405 l  6612 -405 l  6612 -655 l  6362 -655 l  pc
6625 -318 m  6625 -68 l  6875 -68 l  6875 -318 l  6625 -318 l  p ef
6625 -318 m  6625 -68 l  6875 -68 l  6875 -318 l  6625 -318 l  pc
6888 93 m  6888 343 l  7138 343 l  7138 93 l  6888 93 l  p ef
6888 93 m  6888 343 l  7138 343 l  7138 93 l  6888 93 l  pc
7151 -1085 m  7151 -835 l  7401 -835 l  7401 -1085 l  7151 -1085 l  p ef
7151 -1085 m  7151 -835 l  7401 -835 l  7401 -1085 l  7151 -1085 l  pc
7414 -692 m  7414 -442 l  7664 -442 l  7664 -692 l  7414 -692 l  p ef
7414 -692 m  7414 -442 l  7664 -442 l  7664 -692 l  7414 -692 l  pc
79.99611 lw 1.000 0.261 0.058 c -7966 -2828 m  -7953 -2783 l  -7940 -2738 l 
-7927 -2694 l  -7914 -2650 l  -7901 -2607 l  -7888 -2565 l  -7875 -2524 l 
-7861 -2485 l  -7848 -2447 l  -7835 -2412 l  -7822 -2378 l  -7809 -2346 l 
-7796 -2317 l  -7783 -2291 l  -7769 -2267 l  -7756 -2246 l  -7743 -2229 l 
-7730 -2215 l  -7717 -2205 l  -7704 -2199 l  -7691 -2196 l  -7677 -2198 l 
-7664 -2203 l  -7651 -2211 l  -7638 -2222 l  -7625 -2236 l  -7612 -2253 l 
-7599 -2272 l  -7585 -2292 l  -7572 -2315 l  -7559 -2339 l  -7546 -2364 l 
-7533 -2390 l  -7520 -2417 l  -7507 -2444 l  -7493 -2471 l  -7480 -2499 l 
-7467 -2525 l  -7454 -2552 l  -7441 -2577 l  -7428 -2601 l  -7415 -2624 l 
-7401 -2646 l  -7388 -2665 l  -7375 -2683 l  -7362 -2700 l  -7349 -2714 l 
-7336 -2726 l  -7323 -2735 l  -7309 -2742 l  -7296 -2746 l  -7283 -2748 l 
-7270 -2746 l  -7257 -2741 l  -7244 -2733 l  -7231 -2722 l  -7217 -2707 l 
-7204 -2688 l  -7191 -2665 l  -7178 -2639 l  -7165 -2608 l  -7152 -2573 l 
-7139 -2536 l  -7125 -2497 l  -7112 -2456 l  -7099 -2414 l  -7086 -2371 l 
-7073 -2330 l  -7060 -2289 l  -7047 -2250 l  -7034 -2214 l  -7020 -2180 l 
-7007 -2151 l  -6994 -2125 l  -6981 -2105 l  -6968 -2091 l  -6955 -2083 l 
-6942 -2082 l  -6928 -2089 l  -6915 -2104 l  -6902 -2128 l  -6889 -2160 l 
-6876 -2200 l  -6863 -2245 l  -6850 -2296 l  -6836 -2351 l  -6823 -2410 l 
-6810 -2471 l  -6797 -2534 l  -6784 -2597 l  -6771 -2660 l  -6758 -2722 l 
-6744 -2782 l  -6731 -2838 l  -6718 -2890 l  -6705 -2938 l  -6692 -2979 l 
-6679 -3014 l  -6666 -3040 l  -6652 -3058 l  -6639 -3066 l  -6626 -3066 l 
-6613 -3057 l  -6600 -3040 l  -6587 -3017 l  -6574 -2987 l  -6560 -2951 l 
-6547 -2910 l  -6534 -2865 l  -6521 -2817 l  -6508 -2765 l  -6495 -2712 l 
-6482 -2656 l  -6468 -2600 l  -6455 -2543 l  -6442 -2487 l  -6429 -2432 l 
-6416 -2379 l  -6403 -2329 l  -6390 -2281 l  -6376 -2237 l  -6363 -2197 l 
-6350 -2160 l  -6337 -2127 l  -6324 -2098 l  -6311 -2071 l  -6298 -2048 l 
-6284 -2028 l  -6271 -2010 l  -6258 -1996 l  -6245 -1984 l  -6232 -1975 l 
-6219 -1969 l  -6206 -1965 l  -6193 -1963 l  -6179 -1963 l  -6166 -1966 l 
-6153 -1970 l  -6140 -1977 l  -6127 -1985 l  -6114 -1995 l  -6101 -2006 l 
-6087 -2018 l  -6074 -2032 l  -6061 -2047 l  -6048 -2062 l  -6035 -2079 l 
-6022 -2095 l  -6009 -2112 l  -5995 -2129 l  -5982 -2147 l  -5969 -2164 l 
-5956 -2180 l  -5943 -2196 l  -5930 -2212 l  -5917 -2226 l  -5903 -2240 l 
-5890 -2252 l  -5877 -2263 l  -5864 -2273 l  -5851 -2281 l  -5838 -2287 l 
-5825 -2292 l  -5811 -2296 l  -5798 -2299 l  -5785 -2302 l  -5772 -2303 l 
-5759 -2305 l  -5746 -2306 l  -5733 -2307 l  -5719 -2309 l  -5706 -2311 l 
-5693 -2313 l  -5680 -2317 l  -5667 -2321 l  -5654 -2326 l  -5641 -2333 l 
-5627 -2341 l  -5614 -2351 l  -5601 -2363 l  -5588 -2377 l  -5575 -2393 l 
-5562 -2410 l  -5549 -2429 l  -5535 -2449 l  -5522 -2469 l  -5509 -2491 l 
-5496 -2512 l  -5483 -2534 l  -5470 -2555 l  -5457 -2576 l  -5443 -2597 l 
-5430 -2616 l  -5417 -2634 l  -5404 -2651 l  -5391 -2666 l  -5378 -2679 l 
-5365 -2690 l  -5352 -2699 l  -5338 -2704 l  -5325 -2707 l  -5312 -2707 l 
-5299 -2704 l  -5286 -2699 l  -5273 -2691 l  -5260 -2680 l  -5246 -2666 l 
-5233 -2651 l  -5220 -2632 l  -5207 -2612 l  -5194 -2589 l  -5181 -2564 l 
-5168 -2537 l  -5154 -2509 l  -5141 -2478 l  -5128 -2445 l  -5115 -2411 l 
-5102 -2374 l  -5089 -2337 l  -5076 -2297 l  -5062 -2257 l  -5049 -2215 l 
-5036 -2173 l  -5023 -2130 l  -5010 -2088 l  -4997 -2046 l  -4984 -2005 l 
-4970 -1966 l  -4957 -1929 l  -4944 -1894 l  -4931 -1862 l  -4918 -1834 l 
-4905 -1809 l  -4892 -1788 l  -4878 -1771 l  -4865 -1759 l  -4852 -1753 l 
-4839 -1753 l  -4826 -1759 l  -4813 -1771 l  -4800 -1790 l  -4786 -1816 l 
-4773 -1847 l  -4760 -1882 l  -4747 -1922 l  -4734 -1964 l  -4721 -2008 l 
-4708 -2054 l  -4694 -2100 l  -4681 -2145 l  -4668 -2190 l  -4655 -2232 l 
-4642 -2271 l  -4629 -2307 l  -4616 -2338 l  -4602 -2364 l  -4589 -2383 l 
-4576 -2396 l  -4563 -2400 l  -4550 -2396 l  -4537 -2383 l  -4524 -2361 l 
-4511 -2332 l  -4497 -2296 l  -4484 -2255 l  -4471 -2211 l  -4458 -2163 l 
-4445 -2113 l  -4432 -2062 l  -4419 -2012 l  -4405 -1963 l  -4392 -1916 l 
-4379 -1873 l  -4366 -1834 l  -4353 -1801 l  -4340 -1775 l  -4327 -1756 l 
-4313 -1747 l  -4300 -1747 l  -4287 -1759 l  -4274 -1782 l  -4261 -1816 l 
-4248 -1860 l  -4235 -1913 l  -4221 -1973 l  -4208 -2039 l  -4195 -2110 l 
-4182 -2185 l  -4169 -2263 l  -4156 -2341 l  -4143 -2421 l  -4129 -2499 l 
-4116 -2575 l  -4103 -2647 l  -4090 -2715 l  -4077 -2778 l  -4064 -2833 l 
-4051 -2880 l  -4037 -2918 l  -4024 -2946 l  -4011 -2961 l  -3998 -2967 l 
-3985 -2962 l  -3972 -2948 l  -3959 -2927 l  -3945 -2898 l  -3932 -2864 l 
-3919 -2824 l  -3906 -2780 l  -3893 -2733 l  -3880 -2684 l  -3867 -2633 l 
-3853 -2582 l  -3840 -2532 l  -3827 -2483 l  -3814 -2436 l  -3801 -2393 l 
-3788 -2355 l  -3775 -2321 l  -3761 -2294 l  -3748 -2274 l  -3735 -2261 l 
-3722 -2253 l  -3709 -2252 l  -3696 -2256 l  -3683 -2265 l  -3669 -2279 l 
-3656 -2296 l  -3643 -2318 l  -3630 -2342 l  -3617 -2369 l  -3604 -2398 l 
-3591 -2430 l  -3578 -2462 l  -3564 -2496 l  -3551 -2530 l  -3538 -2564 l 
-3525 -2597 l  -3512 -2630 l  -3499 -2661 l  -3486 -2691 l  -3472 -2718 l 
-3459 -2744 l  -3446 -2767 l  -3433 -2789 l  -3420 -2807 l  -3407 -2823 l 
-3394 -2837 l  -3380 -2847 l  -3367 -2855 l  -3354 -2859 l  -3341 -2860 l 
-3328 -2858 l  -3315 -2852 l  -3302 -2843 l  -3288 -2830 l  -3275 -2813 l 
-3262 -2791 l  -3249 -2766 l  -3236 -2736 l  -3223 -2702 l  -3210 -2664 l 
-3196 -2623 l  -3183 -2579 l  -3170 -2534 l  -3157 -2488 l  -3144 -2442 l 
-3131 -2396 l  -3118 -2351 l  -3104 -2308 l  -3091 -2268 l  -3078 -2231 l 
-3065 -2198 l  -3052 -2170 l  -3039 -2147 l  -3026 -2130 l  -3012 -2120 l 
-2999 -2117 l  -2986 -2122 l  -2973 -2137 l  -2960 -2161 l  -2947 -2193 l 
-2934 -2233 l  -2920 -2280 l  -2907 -2332 l  -2894 -2389 l  -2881 -2450 l 
-2868 -2513 l  -2855 -2578 l  -2842 -2644 l  -2828 -2710 l  -2815 -2774 l 
-2802 -2836 l  -2789 -2895 l  -2776 -2950 l  -2763 -2999 l  -2750 -3042 l 
-2737 -3079 l  -2723 -3106 l  -2710 -3125 l  -2697 -3134 l  -2684 -3134 l 
-2671 -3124 l  -2658 -3107 l  -2645 -3083 l  -2631 -3051 l  -2618 -3014 l 
-2605 -2972 l  -2592 -2925 l  -2579 -2875 l  -2566 -2821 l  -2553 -2765 l 
-2539 -2708 l  -2526 -2649 l  -2513 -2590 l  -2500 -2532 l  -2487 -2474 l 
-2474 -2419 l  -2461 -2366 l  -2447 -2317 l  -2434 -2271 l  -2421 -2229 l 
-2408 -2191 l  -2395 -2156 l  -2382 -2125 l  -2369 -2098 l  -2355 -2073 l 
-2342 -2052 l  -2329 -2034 l  -2316 -2019 l  -2303 -2006 l  -2290 -1997 l 
-2277 -1990 l  -2263 -1985 l  -2250 -1983 l  -2237 -1983 l  -2224 -1985 l 
-2211 -1989 l  -2198 -1994 l  -2185 -2002 l  -2171 -2011 l  -2158 -2022 l 
-2145 -2034 l  -2132 -2048 l  -2119 -2062 l  -2106 -2077 l  -2093 -2092 l 
-2079 -2109 l  -2066 -2125 l  -2053 -2142 l  -2040 -2158 l  -2027 -2175 l 
-2014 -2191 l  -2001 -2206 l  -1987 -2221 l  -1974 -2235 l  -1961 -2248 l 
-1948 -2260 l  -1935 -2270 l  -1922 -2279 l  -1909 -2286 l  -1896 -2292 l 
-1882 -2297 l  -1869 -2300 l  -1856 -2303 l  -1843 -2305 l  -1830 -2307 l 
-1817 -2308 l  -1804 -2309 l  -1790 -2311 l  -1777 -2313 l  -1764 -2315 l 
-1751 -2319 l  -1738 -2323 l  -1725 -2329 l  -1712 -2336 l  -1698 -2345 l 
-1685 -2356 l  -1672 -2369 l  -1659 -2384 l  -1646 -2402 l  -1633 -2421 l 
-1620 -2443 l  -1606 -2466 l  -1593 -2491 l  -1580 -2516 l  -1567 -2543 l 
-1554 -2569 l  -1541 -2596 l  -1528 -2622 l  -1514 -2648 l  -1501 -2673 l 
-1488 -2696 l  -1475 -2719 l  -1462 -2739 l  -1449 -2757 l  -1436 -2773 l 
-1422 -2786 l  -1409 -2796 l  -1396 -2803 l  -1383 -2806 l  -1370 -2806 l 
-1357 -2802 l  -1344 -2795 l  -1330 -2785 l  -1317 -2772 l  -1304 -2755 l 
-1291 -2736 l  -1278 -2714 l  -1265 -2689 l  -1252 -2662 l  -1238 -2633 l 
-1225 -2601 l  -1212 -2567 l  -1199 -2531 l  -1186 -2493 l  -1173 -2453 l 
-1160 -2412 l  -1146 -2369 l  -1133 -2324 l  -1120 -2278 l  -1107 -2231 l 
-1094 -2184 l  -1081 -2136 l  -1068 -2089 l  -1055 -2043 l  -1041 -1998 l 
-1028 -1955 l  -1015 -1914 l  -1002 -1876 l  -989 -1840 l  -976 -1808 l 
-963 -1781 l  -949 -1757 l  -936 -1738 l  -923 -1725 l  -910 -1717 l  -897 -1716 l 
-884 -1721 l  -871 -1733 l  -857 -1752 l  -844 -1778 l  -831 -1810 l  -818 -1846 l 
-805 -1887 l  -792 -1931 l  -779 -1977 l  -765 -2025 l  -752 -2074 l  -739 -2122 l 
-726 -2169 l  -713 -2215 l  -700 -2257 l  -687 -2296 l  -673 -2331 l  -660 -2360 l 
-647 -2383 l  -634 -2399 l  -621 -2407 l  -608 -2406 l  -595 -2397 l  -581 -2378 l 
-568 -2352 l  -555 -2320 l  -542 -2282 l  -529 -2240 l  -516 -2195 l  -503 -2147 l 
-489 -2099 l  -476 -2050 l  -463 -2002 l  -450 -1956 l  -437 -1913 l  -424 -1874 l 
-411 -1840 l  -397 -1813 l  -384 -1792 l  -371 -1780 l  -358 -1777 l  -345 -1785 l 
-332 -1804 l  -319 -1833 l  -305 -1871 l  -292 -1917 l  -279 -1971 l  -266 -2030 l 
-253 -2094 l  -240 -2161 l  -227 -2231 l  -213 -2303 l  -200 -2375 l  -187 -2446 l 
-174 -2515 l  -161 -2582 l  -148 -2644 l  -135 -2701 l  -122 -2751 l  -108 -2794 l 
-95 -2829 l  -82 -2854 l  -69 -2868 l  -56 -2873 l  -43 -2868 l  -30 -2856 l 
-16 -2836 l  -3 -2809 l  9 -2777 l  22 -2740 l  35 -2698 l  48 -2654 l 
61 -2608 l  75 -2560 l  88 -2511 l  101 -2463 l  114 -2415 l  127 -2370 l 
140 -2328 l  153 -2289 l  167 -2254 l  180 -2225 l  193 -2202 l  206 -2185 l 
219 -2173 l  232 -2167 l  245 -2165 l  259 -2167 l  272 -2174 l  285 -2184 l 
298 -2198 l  311 -2215 l  324 -2234 l  337 -2255 l  351 -2279 l  364 -2304 l 
377 -2330 l  390 -2357 l  403 -2385 l  416 -2413 l  429 -2440 l  443 -2467 l 
456 -2493 l  469 -2518 l  482 -2542 l  495 -2564 l  508 -2585 l  521 -2604 l 
535 -2621 l  548 -2636 l  561 -2648 l  574 -2658 l  587 -2666 l  600 -2671 l 
613 -2672 l  627 -2671 l  640 -2666 l  653 -2658 l  666 -2647 l  679 -2631 l 
692 -2612 l  705 -2588 l  718 -2560 l  732 -2529 l  745 -2494 l  758 -2458 l 
771 -2419 l  784 -2380 l  797 -2340 l  810 -2301 l  824 -2263 l  837 -2226 l 
850 -2192 l  863 -2161 l  876 -2134 l  889 -2111 l  902 -2094 l  916 -2082 l 
929 -2076 l  942 -2078 l  955 -2087 l  968 -2104 l  981 -2131 l  994 -2166 l 
1008 -2207 l  1021 -2256 l  1034 -2309 l  1047 -2367 l  1060 -2428 l  1073 -2492 l 
1086 -2557 l  1100 -2623 l  1113 -2689 l  1126 -2753 l  1139 -2815 l  1152 -2874 l 
1165 -2929 l  1178 -2978 l  1192 -3022 l  1205 -3059 l  1218 -3088 l  1231 -3108 l 
1244 -3118 l  1257 -3120 l  1270 -3113 l  1284 -3098 l  1297 -3076 l  1310 -3047 l 
1323 -3013 l  1336 -2973 l  1349 -2929 l  1362 -2881 l  1376 -2830 l  1389 -2776 l 
1402 -2721 l  1415 -2664 l  1428 -2607 l  1441 -2549 l  1454 -2493 l  1468 -2438 l 
1481 -2385 l  1494 -2334 l  1507 -2287 l  1520 -2243 l  1533 -2202 l  1546 -2165 l 
1559 -2130 l  1573 -2099 l  1586 -2070 l  1599 -2044 l  1612 -2021 l  1625 -2001 l 
1638 -1983 l  1651 -1967 l  1665 -1954 l  1678 -1944 l  1691 -1935 l  1704 -1929 l 
1717 -1924 l  1730 -1922 l  1743 -1922 l  1757 -1923 l  1770 -1926 l  1783 -1931 l 
1796 -1937 l  1809 -1945 l  1822 -1954 l  1835 -1965 l  1849 -1976 l  1862 -1989 l 
1875 -2002 l  1888 -2016 l  1901 -2031 l  1914 -2046 l  1927 -2062 l  1941 -2078 l 
1954 -2095 l  1967 -2111 l  1980 -2128 l  1993 -2144 l  2006 -2161 l  2019 -2177 l 
2033 -2193 l  2046 -2208 l  2059 -2223 l  2072 -2238 l  2085 -2253 l  2098 -2267 l 
2111 -2281 l  2125 -2295 l  2138 -2309 l  2151 -2323 l  2164 -2337 l  2177 -2351 l 
2190 -2365 l  2203 -2379 l  2217 -2393 l  2230 -2408 l  2243 -2422 l  2256 -2437 l 
2269 -2452 l  2282 -2467 l  2295 -2483 l  2309 -2498 l  2322 -2514 l  2335 -2530 l 
2348 -2546 l  2361 -2562 l  2374 -2578 l  2387 -2593 l  2400 -2607 l  2414 -2621 l 
2427 -2635 l  2440 -2648 l  2453 -2659 l  2466 -2670 l  2479 -2680 l  2492 -2688 l 
2506 -2696 l  2519 -2702 l  2532 -2706 l  2545 -2709 l  2558 -2710 l  2571 -2709 l 
2584 -2707 l  2598 -2703 l  2611 -2697 l  2624 -2689 l  2637 -2680 l  2650 -2668 l 
2663 -2654 l  2676 -2638 l  2690 -2620 l  2703 -2600 l  2716 -2578 l  2729 -2554 l 
2742 -2527 l  2755 -2498 l  2768 -2467 l  2782 -2433 l  2795 -2397 l  2808 -2358 l 
2821 -2317 l  2834 -2274 l  2847 -2230 l  2860 -2184 l  2874 -2138 l  2887 -2092 l 
2900 -2046 l  2913 -2002 l  2926 -1959 l  2939 -1918 l  2952 -1879 l  2966 -1844 l 
2979 -1812 l  2992 -1784 l  3005 -1761 l  3018 -1742 l  3031 -1730 l  3044 -1723 l 
3058 -1723 l  3071 -1730 l  3084 -1744 l  3097 -1765 l  3110 -1792 l  3123 -1824 l 
3136 -1860 l  3150 -1900 l  3163 -1942 l  3176 -1986 l  3189 -2032 l  3202 -2077 l 
3215 -2122 l  3228 -2165 l  3241 -2206 l  3255 -2243 l  3268 -2277 l  3281 -2306 l 
3294 -2330 l  3307 -2347 l  3320 -2357 l  3333 -2358 l  3347 -2351 l  3360 -2337 l 
3373 -2315 l  3386 -2287 l  3399 -2255 l  3412 -2219 l  3425 -2179 l  3439 -2138 l 
3452 -2096 l  3465 -2053 l  3478 -2012 l  3491 -1973 l  3504 -1937 l  3517 -1905 l 
3531 -1877 l  3544 -1856 l  3557 -1842 l  3570 -1835 l  3583 -1838 l  3596 -1851 l 
3609 -1874 l  3623 -1907 l  3636 -1948 l  3649 -1998 l  3662 -2053 l  3675 -2115 l 
3688 -2180 l  3701 -2249 l  3715 -2320 l  3728 -2392 l  3741 -2464 l  3754 -2534 l 
3767 -2603 l  3780 -2668 l  3793 -2728 l  3807 -2783 l  3820 -2831 l  3833 -2871 l 
3846 -2903 l  3859 -2924 l  3872 -2935 l  3885 -2936 l  3899 -2927 l  3912 -2910 l 
3925 -2885 l  3938 -2854 l  3951 -2817 l  3964 -2775 l  3977 -2729 l  3991 -2681 l 
4004 -2630 l  4017 -2579 l  4030 -2527 l  4043 -2475 l  4056 -2426 l  4069 -2378 l 
4083 -2334 l  4096 -2295 l  4109 -2260 l  4122 -2232 l  4135 -2211 l  4148 -2196 l 
4161 -2187 l  4174 -2184 l  4188 -2186 l  4201 -2193 l  4214 -2205 l  4227 -2221 l 
4240 -2241 l  4253 -2264 l  4266 -2290 l  4280 -2319 l  4293 -2349 l  4306 -2381 l 
4319 -2415 l  4332 -2449 l  4345 -2484 l  4358 -2519 l  4372 -2554 l  4385 -2588 l 
4398 -2620 l  4411 -2652 l  4424 -2681 l  4437 -2710 l  4450 -2736 l  4464 -2760 l 
4477 -2782 l  4490 -2801 l  4503 -2818 l  4516 -2832 l  4529 -2843 l  4542 -2850 l 
4556 -2855 l  4569 -2855 l  4582 -2852 l  4595 -2845 l  4608 -2834 l  4621 -2819 l 
4634 -2799 l  4648 -2775 l  4661 -2745 l  4674 -2712 l  4687 -2675 l  4700 -2636 l 
4713 -2594 l  4726 -2551 l  4740 -2507 l  4753 -2464 l  4766 -2421 l  4779 -2379 l 
4792 -2340 l  4805 -2303 l  4818 -2270 l  4832 -2241 l  4845 -2217 l  4858 -2199 l 
4871 -2186 l  4884 -2181 l  4897 -2184 l  4910 -2195 l  4924 -2214 l  4937 -2242 l 
4950 -2277 l  4963 -2319 l  4976 -2366 l  4989 -2417 l  5002 -2472 l  5015 -2529 l 
5029 -2589 l  5042 -2649 l  5055 -2709 l  5068 -2768 l  5081 -2825 l  5094 -2879 l 
5107 -2929 l  5121 -2975 l  5134 -3015 l  5147 -3049 l  5160 -3075 l  5173 -3093 l 
5186 -3102 l  5199 -3102 l  5213 -3094 l  5226 -3078 l  5239 -3056 l  5252 -3028 l 
5265 -2994 l  5278 -2954 l  5291 -2911 l  5305 -2863 l  5318 -2812 l  5331 -2759 l 
5344 -2703 l  5357 -2646 l  5370 -2588 l  5383 -2530 l  5397 -2472 l  5410 -2415 l 
5423 -2360 l  5436 -2307 l  5449 -2256 l  5462 -2209 l  5475 -2164 l  5489 -2122 l 
5502 -2082 l  5515 -2046 l  5528 -2012 l  5541 -1982 l  5554 -1954 l  5567 -1930 l 
5581 -1908 l  5594 -1890 l  5607 -1875 l  5620 -1863 l  5633 -1854 l  5646 -1848 l 
5659 -1846 l  5673 -1846 l  5686 -1851 l  5699 -1858 l  5712 -1869 l  5725 -1882 l 
5738 -1899 l  5751 -1918 l  5765 -1939 l  5778 -1963 l  5791 -1987 l  5804 -2014 l 
5817 -2041 l  5830 -2069 l  5843 -2097 l  5856 -2126 l  5870 -2154 l  5883 -2182 l 
5896 -2210 l  5909 -2236 l  5922 -2261 l  5935 -2284 l  5948 -2306 l  5962 -2326 l 
5975 -2343 l  5988 -2358 l  6001 -2371 l  6014 -2382 l  6027 -2391 l  6040 -2399 l 
6054 -2406 l  6067 -2412 l  6080 -2417 l  6093 -2421 l  6106 -2425 l  6119 -2429 l 
6132 -2432 l  6146 -2436 l  6159 -2441 l  6172 -2446 l  6185 -2451 l  6198 -2458 l 
6211 -2466 l  6224 -2475 l  6238 -2486 l  6251 -2499 l  6264 -2512 l  6277 -2527 l 
6290 -2542 l  6303 -2558 l  6316 -2574 l  6330 -2591 l  6343 -2608 l  6356 -2624 l 
6369 -2641 l  6382 -2656 l  6395 -2671 l  6408 -2685 l  6422 -2698 l  6435 -2709 l 
6448 -2719 l  6461 -2727 l  6474 -2733 l  6487 -2737 l  6500 -2739 l  6514 -2738 l 
6527 -2735 l  6540 -2730 l  6553 -2723 l  6566 -2713 l  6579 -2700 l  6592 -2686 l 
6606 -2669 l  6619 -2649 l  6632 -2628 l  6645 -2603 l  6658 -2577 l  6671 -2548 l 
6684 -2517 l  6697 -2484 l  6711 -2448 l  6724 -2409 l  6737 -2369 l  6750 -2326 l 
6763 -2280 l  6776 -2233 l  6789 -2185 l  6803 -2135 l  6816 -2086 l  6829 -2037 l 
6842 -1988 l  6855 -1941 l  6868 -1896 l  6881 -1853 l  6895 -1813 l  6908 -1776 l 
6921 -1744 l  6934 -1716 l  6947 -1692 l  6960 -1675 l  6973 -1663 l  6987 -1659 l 
7000 -1661 l  7013 -1671 l  7026 -1689 l  7039 -1714 l  7052 -1746 l  7065 -1784 l 
7079 -1826 l  7092 -1873 l  7105 -1923 l  7118 -1976 l  7131 -2030 l  7144 -2086 l 
7157 -2141 l  7171 -2196 l  7184 -2249 l  7197 -2300 l  7210 -2348 l  7223 -2392 l 
7236 -2431 l  7249 -2465 l  7263 -2492 l  7276 -2513 l  7289 -2525 l  7302 -2530 l 
7315 -2528 l  7328 -2519 l  7341 -2504 l  7355 -2483 l  7368 -2456 l  7381 -2424 l 
7394 -2388 l  7407 -2346 l  7420 -2301 l  7433 -2253 l  7447 -2201 l  7460 -2147 l 
7473 -2090 l  7486 -2031 l  7499 -1970 l  7512 -1908 l  7525 -1846 l  7539 -1783 l 
ps
-8091 -2828 m  -7966 -2703 l  -7841 -2828 l  -7966 -2953 l  -8091 -2828 l 
p ef
0 lw -8091 -2828 m  -7966 -2703 l  -7841 -2828 l  -7966 -2953 l  -8091 -2828 l 
pc
-7829 -2199 m  -7704 -2074 l  -7579 -2199 l  -7704 -2324 l  -7829 -2199 l 
p ef
-7829 -2199 m  -7704 -2074 l  -7579 -2199 l  -7704 -2324 l  -7829 -2199 l 
pc
-7566 -2577 m  -7441 -2452 l  -7316 -2577 l  -7441 -2702 l  -7566 -2577 l 
p ef
-7566 -2577 m  -7441 -2452 l  -7316 -2577 l  -7441 -2702 l  -7566 -2577 l 
pc
-7303 -2639 m  -7178 -2514 l  -7053 -2639 l  -7178 -2764 l  -7303 -2639 l 
p ef
-7303 -2639 m  -7178 -2514 l  -7053 -2639 l  -7178 -2764 l  -7303 -2639 l 
pc
-7040 -2104 m  -6915 -1979 l  -6790 -2104 l  -6915 -2229 l  -7040 -2104 l 
p ef
-7040 -2104 m  -6915 -1979 l  -6790 -2104 l  -6915 -2229 l  -7040 -2104 l 
pc
-6777 -3058 m  -6652 -2933 l  -6527 -3058 l  -6652 -3183 l  -6777 -3058 l 
p ef
-6777 -3058 m  -6652 -2933 l  -6527 -3058 l  -6652 -3183 l  -6777 -3058 l 
pc
-6515 -2281 m  -6390 -2156 l  -6265 -2281 l  -6390 -2406 l  -6515 -2281 l 
p ef
-6515 -2281 m  -6390 -2156 l  -6265 -2281 l  -6390 -2406 l  -6515 -2281 l 
pc
-6252 -1985 m  -6127 -1860 l  -6002 -1985 l  -6127 -2110 l  -6252 -1985 l 
p ef
-6252 -1985 m  -6127 -1860 l  -6002 -1985 l  -6127 -2110 l  -6252 -1985 l 
pc
-5989 -2273 m  -5864 -2148 l  -5739 -2273 l  -5864 -2398 l  -5989 -2273 l 
p ef
-5989 -2273 m  -5864 -2148 l  -5739 -2273 l  -5864 -2398 l  -5989 -2273 l 
pc
-5726 -2363 m  -5601 -2238 l  -5476 -2363 l  -5601 -2488 l  -5726 -2363 l 
p ef
-5726 -2363 m  -5601 -2238 l  -5476 -2363 l  -5601 -2488 l  -5726 -2363 l 
pc
-5463 -2704 m  -5338 -2579 l  -5213 -2704 l  -5338 -2829 l  -5463 -2704 l 
p ef
-5463 -2704 m  -5338 -2579 l  -5213 -2704 l  -5338 -2829 l  -5463 -2704 l 
pc
-5201 -2297 m  -5076 -2172 l  -4951 -2297 l  -5076 -2422 l  -5201 -2297 l 
p ef
-5201 -2297 m  -5076 -2172 l  -4951 -2297 l  -5076 -2422 l  -5201 -2297 l 
pc
-4938 -1771 m  -4813 -1646 l  -4688 -1771 l  -4813 -1896 l  -4938 -1771 l 
p ef
-4938 -1771 m  -4813 -1646 l  -4688 -1771 l  -4813 -1896 l  -4938 -1771 l 
pc
-4675 -2396 m  -4550 -2271 l  -4425 -2396 l  -4550 -2521 l  -4675 -2396 l 
p ef
-4675 -2396 m  -4550 -2271 l  -4425 -2396 l  -4550 -2521 l  -4675 -2396 l 
pc
-4412 -1759 m  -4287 -1634 l  -4162 -1759 l  -4287 -1884 l  -4412 -1759 l 
p ef
-4412 -1759 m  -4287 -1634 l  -4162 -1759 l  -4287 -1884 l  -4412 -1759 l 
pc
-4149 -2946 m  -4024 -2821 l  -3899 -2946 l  -4024 -3071 l  -4149 -2946 l 
p ef
-4149 -2946 m  -4024 -2821 l  -3899 -2946 l  -4024 -3071 l  -4149 -2946 l 
pc
-3886 -2294 m  -3761 -2169 l  -3636 -2294 l  -3761 -2419 l  -3886 -2294 l 
p ef
-3886 -2294 m  -3761 -2169 l  -3636 -2294 l  -3761 -2419 l  -3886 -2294 l 
pc
-3624 -2661 m  -3499 -2536 l  -3374 -2661 l  -3499 -2786 l  -3624 -2661 l 
p ef
-3624 -2661 m  -3499 -2536 l  -3374 -2661 l  -3499 -2786 l  -3624 -2661 l 
pc
-3361 -2736 m  -3236 -2611 l  -3111 -2736 l  -3236 -2861 l  -3361 -2736 l 
p ef
-3361 -2736 m  -3236 -2611 l  -3111 -2736 l  -3236 -2861 l  -3361 -2736 l 
pc
-3098 -2137 m  -2973 -2012 l  -2848 -2137 l  -2973 -2262 l  -3098 -2137 l 
p ef
-3098 -2137 m  -2973 -2012 l  -2848 -2137 l  -2973 -2262 l  -3098 -2137 l 
pc
-2835 -3125 m  -2710 -3000 l  -2585 -3125 l  -2710 -3250 l  -2835 -3125 l 
p ef
-2835 -3125 m  -2710 -3000 l  -2585 -3125 l  -2710 -3250 l  -2835 -3125 l 
pc
-2572 -2317 m  -2447 -2192 l  -2322 -2317 l  -2447 -2442 l  -2572 -2317 l 
p ef
-2572 -2317 m  -2447 -2192 l  -2322 -2317 l  -2447 -2442 l  -2572 -2317 l 
pc
-2310 -2002 m  -2185 -1877 l  -2060 -2002 l  -2185 -2127 l  -2310 -2002 l 
p ef
-2310 -2002 m  -2185 -1877 l  -2060 -2002 l  -2185 -2127 l  -2310 -2002 l 
pc
-2047 -2279 m  -1922 -2154 l  -1797 -2279 l  -1922 -2404 l  -2047 -2279 l 
p ef
-2047 -2279 m  -1922 -2154 l  -1797 -2279 l  -1922 -2404 l  -2047 -2279 l 
pc
-1784 -2384 m  -1659 -2259 l  -1534 -2384 l  -1659 -2509 l  -1784 -2384 l 
p ef
-1784 -2384 m  -1659 -2259 l  -1534 -2384 l  -1659 -2509 l  -1784 -2384 l 
pc
-1521 -2803 m  -1396 -2678 l  -1271 -2803 l  -1396 -2928 l  -1521 -2803 l 
p ef
-1521 -2803 m  -1396 -2678 l  -1271 -2803 l  -1396 -2928 l  -1521 -2803 l 
pc
-1258 -2324 m  -1133 -2199 l  -1008 -2324 l  -1133 -2449 l  -1258 -2324 l 
p ef
-1258 -2324 m  -1133 -2199 l  -1008 -2324 l  -1133 -2449 l  -1258 -2324 l 
pc
-996 -1733 m  -871 -1608 l  -746 -1733 l  -871 -1858 l  -996 -1733 l  p ef
-996 -1733 m  -871 -1608 l  -746 -1733 l  -871 -1858 l  -996 -1733 l  pc
-733 -2406 m  -608 -2281 l  -483 -2406 l  -608 -2531 l  -733 -2406 l  p ef
-733 -2406 m  -608 -2281 l  -483 -2406 l  -608 -2531 l  -733 -2406 l  pc
-470 -1785 m  -345 -1660 l  -220 -1785 l  -345 -1910 l  -470 -1785 l  p ef
-470 -1785 m  -345 -1660 l  -220 -1785 l  -345 -1910 l  -470 -1785 l  pc
-207 -2854 m  -82 -2729 l  42 -2854 l  -82 -2979 l  -207 -2854 l  p ef
-207 -2854 m  -82 -2729 l  42 -2854 l  -82 -2979 l  -207 -2854 l  pc
55 -2225 m  180 -2100 l  305 -2225 l  180 -2350 l  55 -2225 l  p ef
55 -2225 m  180 -2100 l  305 -2225 l  180 -2350 l  55 -2225 l  pc
318 -2467 m  443 -2342 l  568 -2467 l  443 -2592 l  318 -2467 l  p ef
318 -2467 m  443 -2342 l  568 -2467 l  443 -2592 l  318 -2467 l  pc
580 -2588 m  705 -2463 l  830 -2588 l  705 -2713 l  580 -2588 l  p ef
580 -2588 m  705 -2463 l  830 -2588 l  705 -2713 l  580 -2588 l  pc
843 -2104 m  968 -1979 l  1093 -2104 l  968 -2229 l  843 -2104 l  p ef
843 -2104 m  968 -1979 l  1093 -2104 l  968 -2229 l  843 -2104 l  pc
1106 -3108 m  1231 -2983 l  1356 -3108 l  1231 -3233 l  1106 -3108 l  p ef
1106 -3108 m  1231 -2983 l  1356 -3108 l  1231 -3233 l  1106 -3108 l  pc
1369 -2334 m  1494 -2209 l  1619 -2334 l  1494 -2459 l  1369 -2334 l  p ef
1369 -2334 m  1494 -2209 l  1619 -2334 l  1494 -2459 l  1369 -2334 l  pc
1632 -1923 m  1757 -1798 l  1882 -1923 l  1757 -2048 l  1632 -1923 l  p ef
1632 -1923 m  1757 -1798 l  1882 -1923 l  1757 -2048 l  1632 -1923 l  pc
1894 -2177 m  2019 -2052 l  2144 -2177 l  2019 -2302 l  1894 -2177 l  p ef
1894 -2177 m  2019 -2052 l  2144 -2177 l  2019 -2302 l  1894 -2177 l  pc
2157 -2467 m  2282 -2342 l  2407 -2467 l  2282 -2592 l  2157 -2467 l  p ef
2157 -2467 m  2282 -2342 l  2407 -2467 l  2282 -2592 l  2157 -2467 l  pc
2420 -2709 m  2545 -2584 l  2670 -2709 l  2545 -2834 l  2420 -2709 l  p ef
2420 -2709 m  2545 -2584 l  2670 -2709 l  2545 -2834 l  2420 -2709 l  pc
2683 -2358 m  2808 -2233 l  2933 -2358 l  2808 -2483 l  2683 -2358 l  p ef
2683 -2358 m  2808 -2233 l  2933 -2358 l  2808 -2483 l  2683 -2358 l  pc
2946 -1730 m  3071 -1605 l  3196 -1730 l  3071 -1855 l  2946 -1730 l  p ef
2946 -1730 m  3071 -1605 l  3196 -1730 l  3071 -1855 l  2946 -1730 l  pc
3208 -2358 m  3333 -2233 l  3458 -2358 l  3333 -2483 l  3208 -2358 l  p ef
3208 -2358 m  3333 -2233 l  3458 -2358 l  3333 -2483 l  3208 -2358 l  pc
3471 -1851 m  3596 -1726 l  3721 -1851 l  3596 -1976 l  3471 -1851 l  p ef
3471 -1851 m  3596 -1726 l  3721 -1851 l  3596 -1976 l  3471 -1851 l  pc
3734 -2924 m  3859 -2799 l  3984 -2924 l  3859 -3049 l  3734 -2924 l  p ef
3734 -2924 m  3859 -2799 l  3984 -2924 l  3859 -3049 l  3734 -2924 l  pc
3997 -2232 m  4122 -2107 l  4247 -2232 l  4122 -2357 l  3997 -2232 l  p ef
3997 -2232 m  4122 -2107 l  4247 -2232 l  4122 -2357 l  3997 -2232 l  pc
4260 -2588 m  4385 -2463 l  4510 -2588 l  4385 -2713 l  4260 -2588 l  p ef
4260 -2588 m  4385 -2463 l  4510 -2588 l  4385 -2713 l  4260 -2588 l  pc
4523 -2775 m  4648 -2650 l  4773 -2775 l  4648 -2900 l  4523 -2775 l  p ef
4523 -2775 m  4648 -2650 l  4773 -2775 l  4648 -2900 l  4523 -2775 l  pc
4785 -2195 m  4910 -2070 l  5035 -2195 l  4910 -2320 l  4785 -2195 l  p ef
4785 -2195 m  4910 -2070 l  5035 -2195 l  4910 -2320 l  4785 -2195 l  pc
5048 -3093 m  5173 -2968 l  5298 -3093 l  5173 -3218 l  5048 -3093 l  p ef
5048 -3093 m  5173 -2968 l  5298 -3093 l  5173 -3218 l  5048 -3093 l  pc
5311 -2307 m  5436 -2182 l  5561 -2307 l  5436 -2432 l  5311 -2307 l  p ef
5311 -2307 m  5436 -2182 l  5561 -2307 l  5436 -2432 l  5311 -2307 l  pc
5574 -1858 m  5699 -1733 l  5824 -1858 l  5699 -1983 l  5574 -1858 l  p ef
5574 -1858 m  5699 -1733 l  5824 -1858 l  5699 -1983 l  5574 -1858 l  pc
5837 -2326 m  5962 -2201 l  6087 -2326 l  5962 -2451 l  5837 -2326 l  p ef
5837 -2326 m  5962 -2201 l  6087 -2326 l  5962 -2451 l  5837 -2326 l  pc
6099 -2475 m  6224 -2350 l  6349 -2475 l  6224 -2600 l  6099 -2475 l  p ef
6099 -2475 m  6224 -2350 l  6349 -2475 l  6224 -2600 l  6099 -2475 l  pc
6362 -2737 m  6487 -2612 l  6612 -2737 l  6487 -2862 l  6362 -2737 l  p ef
6362 -2737 m  6487 -2612 l  6612 -2737 l  6487 -2862 l  6362 -2737 l  pc
6625 -2326 m  6750 -2201 l  6875 -2326 l  6750 -2451 l  6625 -2326 l  p ef
6625 -2326 m  6750 -2201 l  6875 -2326 l  6750 -2451 l  6625 -2326 l  pc
6888 -1671 m  7013 -1546 l  7138 -1671 l  7013 -1796 l  6888 -1671 l  p ef
6888 -1671 m  7013 -1546 l  7138 -1671 l  7013 -1796 l  6888 -1671 l  pc
7151 -2513 m  7276 -2388 l  7401 -2513 l  7276 -2638 l  7151 -2513 l  p ef
7151 -2513 m  7276 -2388 l  7401 -2513 l  7276 -2638 l  7151 -2513 l  pc
7414 -1783 m  7539 -1658 l  7664 -1783 l  7539 -1908 l  7414 -1783 l  p ef
7414 -1783 m  7539 -1658 l  7664 -1783 l  7539 -1908 l  7414 -1783 l  pc
0.003 0.003 0.003 c
/Helvetica f
353 sf -8059 3261 m  185 0 (1) bs
/Helvetica f
353 sf -7797 2863 m  185 0 (2) bs
/Helvetica f
353 sf -7534 3261 m  185 0 (3) bs
/Helvetica f
353 sf -7271 2863 m  185 0 (4) bs
/Helvetica f
353 sf -7008 3261 m  185 0 (5) bs
/Helvetica f
353 sf -6745 2863 m  185 0 (6) bs
/Helvetica f
353 sf -6483 3261 m  185 0 (7) bs
/Helvetica f
353 sf -6220 2863 m  185 0 (8) bs
/Helvetica f
353 sf -5957 3261 m  185 0 (9) bs
/Helvetica f
353 sf -5786 2863 m  185 0 (1) bs
185 185 (0) bs
/Helvetica f
353 sf -5510 3261 m  185 0 (1) bs
185 159 (1) bs
/Helvetica f
353 sf -5261 2863 m  185 0 (1) bs
185 185 (2) bs
/Helvetica f
353 sf -4998 3261 m  185 0 (1) bs
185 185 (3) bs
/Helvetica f
353 sf -4735 2863 m  185 0 (1) bs
185 185 (4) bs
/Helvetica f
353 sf -4472 3261 m  185 0 (1) bs
185 185 (5) bs
/Helvetica f
353 sf -4209 2863 m  185 0 (1) bs
185 185 (6) bs
/Helvetica f
353 sf -3946 3261 m  185 0 (1) bs
185 185 (7) bs
/Helvetica f
353 sf -3684 2863 m  185 0 (1) bs
185 185 (8) bs
/Helvetica f
353 sf -3421 3261 m  185 0 (1) bs
185 185 (9) bs
/Helvetica f
353 sf -3158 2863 m  185 0 (2) bs
185 185 (0) bs
/Helvetica f
353 sf -2895 3261 m  185 0 (2) bs
185 185 (1) bs
/Helvetica f
353 sf -2632 2863 m  185 0 (2) bs
185 185 (2) bs
/Helvetica f
353 sf -2370 3261 m  185 0 (2) bs
185 185 (3) bs
/Helvetica f
353 sf -2107 2863 m  185 0 (2) bs
185 185 (4) bs
/Helvetica f
353 sf -1844 3261 m  185 0 (2) bs
185 185 (5) bs
/Helvetica f
353 sf -1581 2863 m  185 0 (2) bs
185 185 (6) bs
/Helvetica f
353 sf -1318 3261 m  185 0 (2) bs
185 185 (7) bs
/Helvetica f
353 sf -1056 2863 m  185 0 (2) bs
185 185 (8) bs
/Helvetica f
353 sf -793 3261 m  185 0 (2) bs
185 185 (9) bs
/Helvetica f
353 sf -530 2863 m  185 0 (3) bs
185 185 (0) bs
/Helvetica f
353 sf -267 3261 m  185 0 (3) bs
185 185 (1) bs
/Helvetica f
353 sf -4 2863 m  185 0 (3) bs
185 185 (2) bs
/Helvetica f
353 sf 259 3261 m  185 0 (3) bs
185 185 (3) bs
/Helvetica f
353 sf 521 2863 m  185 0 (3) bs
185 185 (4) bs
/Helvetica f
353 sf 784 3261 m  185 0 (3) bs
185 185 (5) bs
/Helvetica f
353 sf 1047 2863 m  185 0 (3) bs
185 185 (6) bs
/Helvetica f
353 sf 1310 3261 m  185 0 (3) bs
185 185 (7) bs
/Helvetica f
353 sf 1573 2863 m  185 0 (3) bs
185 185 (8) bs
/Helvetica f
353 sf 1835 3261 m  185 0 (3) bs
185 185 (9) bs
/Helvetica f
353 sf 2098 2863 m  185 0 (4) bs
185 185 (0) bs
/Helvetica f
353 sf 2361 3261 m  185 0 (4) bs
185 185 (1) bs
/Helvetica f
353 sf 2624 2863 m  185 0 (4) bs
185 185 (2) bs
/Helvetica f
353 sf 2887 3261 m  185 0 (4) bs
185 185 (3) bs
/Helvetica f
353 sf 3149 2863 m  185 0 (4) bs
185 185 (4) bs
/Helvetica f
353 sf 3412 3261 m  185 0 (4) bs
185 185 (5) bs
/Helvetica f
353 sf 3675 2863 m  185 0 (4) bs
185 185 (6) bs
/Helvetica f
353 sf 3938 3261 m  185 0 (4) bs
185 185 (7) bs
/Helvetica f
353 sf 4201 2863 m  185 0 (4) bs
185 185 (8) bs
/Helvetica f
353 sf 4464 3261 m  185 0 (4) bs
185 185 (9) bs
/Helvetica f
353 sf 4726 2863 m  185 0 (5) bs
185 185 (0) bs
/Helvetica f
353 sf 4989 3261 m  185 0 (5) bs
185 185 (1) bs
/Helvetica f
353 sf 5252 2863 m  185 0 (5) bs
185 185 (2) bs
/Helvetica f
353 sf 5515 3261 m  185 0 (5) bs
185 185 (3) bs
/Helvetica f
353 sf 5778 2863 m  185 0 (5) bs
185 185 (4) bs
/Helvetica f
353 sf 6040 3261 m  185 0 (5) bs
185 185 (5) bs
/Helvetica f
353 sf 6303 2863 m  185 0 (5) bs
185 185 (6) bs
/Helvetica f
353 sf 6566 3261 m  185 0 (5) bs
185 185 (7) bs
/Helvetica f
353 sf 6829 2863 m  185 0 (5) bs
185 185 (8) bs
/Helvetica f
353 sf 7092 3261 m  185 0 (5) bs
185 185 (9) bs
/Helvetica f
353 sf 7355 2863 m  185 0 (6) bs
185 185 (0) bs
/Helvetica f
353 sf -8877 2416 m  185 0 (0) bs
106 185 (,) bs
185 291 (0) bs
185 476 (0) bs
/Helvetica f
353 sf -8877 1613 m  185 0 (0) bs
106 185 (,) bs
185 291 (1) bs
185 476 (0) bs
/Helvetica f
353 sf -8877 810 m  185 0 (0) bs
106 185 (,) bs
185 291 (2) bs
185 476 (0) bs
/Helvetica f
353 sf -8877 8 m  185 0 (0) bs
106 185 (,) bs
185 291 (3) bs
185 476 (0) bs
/Helvetica f
353 sf -8877 -795 m  185 0 (0) bs
106 185 (,) bs
185 291 (4) bs
185 476 (0) bs
/Helvetica f
353 sf -8877 -1598 m  185 0 (0) bs
106 185 (,) bs
185 291 (5) bs
185 476 (0) bs
/Helvetica f
353 sf -8877 -2400 m  185 0 (0) bs
106 185 (,) bs
185 291 (6) bs
185 476 (0) bs
/Helvetica f
353 sf -8877 -3203 m  185 0 (0) bs
106 185 (,) bs
185 291 (7) bs
185 476 (0) bs
/Helvetica f
353 sf -8877 -4005 m  185 0 (0) bs
106 185 (,) bs
185 291 (8) bs
185 476 (0) bs
79.99611 lw 0.003 0.273 0.527 c 8253 -250 m  9053 -250 l  ps
8547 -355 m  8547 -144 l  8758 -144 l  8758 -355 l  8547 -355 l  p ef
0 lw 8547 -355 m  8547 -144 l  8758 -144 l  8758 -355 l  8547 -355 l  pc
79.99611 lw 1.000 0.261 0.058 c 8253 247 m  9053 247 l  ps
8547 247 m  8653 353 l  8758 247 l  8653 142 l  8547 247 l  p ef
0 lw 8547 247 m  8653 353 l  8758 247 l  8653 142 l  8547 247 l  pc
0.003 0.003 0.003 c
/Helvetica f
353 sf 9153 -130 m  238 0 (H) bs
291 238 (M) bs
291 529 (M) bs
/Helvetica f
353 sf 9153 367 m  238 0 (K) bs
238 238 (N) bs
238 476 (N) bs
/Helvetica f
318 sf -616 3908 m  79 0 (i) bs
/Helvetica f
318 sf -9464 -399 m  gs 90.0 r 185 0 (e) bs
gr
0 9006 t 
pom
count op_count sub {pop} repeat countdictstack dict_count sub {end} repeat b4_inc_state restore
%%PageTrailer
%%Trailer
%%EOF
