%!PS-Adobe-3.0 EPSF-3.0 
%%BoundingBox: 0 0 584 255
%%Pages: 0
%%Creator: LibreOffice 4.4
%%Title: none
%%CreationDate: none
%%LanguageLevel: 2
%%EndComments
%%BeginProlog
%%BeginResource: procset SDRes-Prolog 1.0 0
/b4_inc_state save def
/dict_count countdictstack def
/op_count count 1 sub def
userdict begin
0 setgray 0 setlinecap 1 setlinewidth 0 setlinejoin 10 setmiterlimit[] 0 setdash newpath
/languagelevel where {pop languagelevel 1 ne {false setstrokeadjust false setoverprint} if} if
/bdef {bind def} bind def
/c {setrgbcolor} bdef
/l {neg lineto} bdef
/rl {neg rlineto} bdef
/lc {setlinecap} bdef
/lj {setlinejoin} bdef
/lw {setlinewidth} bdef
/ml {setmiterlimit} bdef
/ld {setdash} bdef
/m {neg moveto} bdef
/ct {6 2 roll neg 6 2 roll neg 6 2 roll neg curveto} bdef
/r {rotate} bdef
/t {neg translate} bdef
/s {scale} bdef
/sw {show} bdef
/gs {gsave} bdef
/gr {grestore} bdef
/f {findfont dup length dict begin
{1 index /FID ne {def} {pop pop} ifelse} forall /Encoding ISOLatin1Encoding def
currentdict end /NFont exch definefont pop /NFont findfont} bdef
/p {closepath} bdef
/sf {scalefont setfont} bdef
/ef {eofill}bdef
/pc {closepath stroke}bdef
/ps {stroke}bdef
/pum {matrix currentmatrix}bdef
/pom {setmatrix}bdef
/bs {/aString exch def /nXOfs exch def /nWidth exch def currentpoint nXOfs 0 rmoveto pum nWidth aString stringwidth pop div 1 scale aString show pom moveto} bdef
%%EndResource
%%EndProlog
%%BeginSetup
%%EndSetup
%%Page: 1 1
%%BeginPageSetup
%%EndPageSetup
pum
0.02834 0.02831 s 
0 -9006 t
/tm matrix currentmatrix def
tm setmatrix
10301 4503 t 
1 1 s 
1.000 1.000 1.000 c 0 4502 m  -10301 4502 l  -10301 -4503 l  10301 -4503 l 
10301 4502 l  0 4502 l  p ef
0 lw 1 lj 0.703 0.703 0.703 c -214 2694 m  -7966 2694 l  -7966 -4124 l 
7538 -4124 l  7538 2694 l  -214 2694 l  pc
7538 2693 m  -7966 2693 l  ps
7538 1840 m  -7966 1840 l  ps
7538 988 m  -7966 988 l  ps
7538 135 m  -7966 135 l  ps
7538 -716 m  -7966 -716 l  ps
7538 -1568 m  -7966 -1568 l  ps
7538 -2421 m  -7966 -2421 l  ps
7538 -3273 m  -7966 -3273 l  ps
7538 -4125 m  -7966 -4125 l  ps
-7966 2843 m  -7966 2693 l  ps
-7966 2843 m  -7966 2693 l  ps
-7432 2843 m  -7432 2693 l  ps
-7432 2843 m  -7432 2693 l  ps
-6897 2843 m  -6897 2693 l  ps
-6897 2843 m  -6897 2693 l  ps
-6363 2843 m  -6363 2693 l  ps
-6363 2843 m  -6363 2693 l  ps
-5828 2843 m  -5828 2693 l  ps
-5828 2843 m  -5828 2693 l  ps
-5293 2843 m  -5293 2693 l  ps
-5293 2843 m  -5293 2693 l  ps
-4759 2843 m  -4759 2693 l  ps
-4759 2843 m  -4759 2693 l  ps
-4224 2843 m  -4224 2693 l  ps
-4224 2843 m  -4224 2693 l  ps
-3689 2843 m  -3689 2693 l  ps
-3689 2843 m  -3689 2693 l  ps
-3155 2843 m  -3155 2693 l  ps
-3155 2843 m  -3155 2693 l  ps
-2620 2843 m  -2620 2693 l  ps
-2620 2843 m  -2620 2693 l  ps
-2085 2843 m  -2085 2693 l  ps
-2085 2843 m  -2085 2693 l  ps
-1551 2843 m  -1551 2693 l  ps
-1551 2843 m  -1551 2693 l  ps
-1016 2843 m  -1016 2693 l  ps
-1016 2843 m  -1016 2693 l  ps
-481 2843 m  -481 2693 l  ps
-481 2843 m  -481 2693 l  ps
52 2843 m  52 2693 l  ps
52 2843 m  52 2693 l  ps
587 2843 m  587 2693 l  ps
587 2843 m  587 2693 l  ps
1122 2843 m  1122 2693 l  ps
1122 2843 m  1122 2693 l  ps
1656 2843 m  1656 2693 l  ps
1656 2843 m  1656 2693 l  ps
2191 2843 m  2191 2693 l  ps
2191 2843 m  2191 2693 l  ps
2726 2843 m  2726 2693 l  ps
2726 2843 m  2726 2693 l  ps
3260 2843 m  3260 2693 l  ps
3260 2843 m  3260 2693 l  ps
3795 2843 m  3795 2693 l  ps
3795 2843 m  3795 2693 l  ps
4330 2843 m  4330 2693 l  ps
4330 2843 m  4330 2693 l  ps
4864 2843 m  4864 2693 l  ps
4864 2843 m  4864 2693 l  ps
5399 2843 m  5399 2693 l  ps
5399 2843 m  5399 2693 l  ps
5934 2843 m  5934 2693 l  ps
5934 2843 m  5934 2693 l  ps
6468 2843 m  6468 2693 l  ps
6468 2843 m  6468 2693 l  ps
7003 2843 m  7003 2693 l  ps
7003 2843 m  7003 2693 l  ps
7538 2843 m  7538 2693 l  ps
7538 2843 m  7538 2693 l  ps
-7966 2693 m  7538 2693 l  ps
-8116 2693 m  -7966 2693 l  ps
-8116 2693 m  -7966 2693 l  ps
-8116 1840 m  -7966 1840 l  ps
-8116 1840 m  -7966 1840 l  ps
-8116 988 m  -7966 988 l  ps
-8116 988 m  -7966 988 l  ps
-8116 135 m  -7966 135 l  ps
-8116 135 m  -7966 135 l  ps
-8116 -716 m  -7966 -716 l  ps
-8116 -716 m  -7966 -716 l  ps
-8116 -1568 m  -7966 -1568 l  ps
-8116 -1568 m  -7966 -1568 l  ps
-8116 -2421 m  -7966 -2421 l  ps
-8116 -2421 m  -7966 -2421 l  ps
-8116 -3273 m  -7966 -3273 l  ps
-8116 -3273 m  -7966 -3273 l  ps
-8116 -4125 m  -7966 -4125 l  ps
-8116 -4125 m  -7966 -4125 l  ps
-7966 2693 m  -7966 -4125 l  ps
79.99611 lw 0.003 0.273 0.527 c -7966 -686 m  -7940 -748 l  -7913 -809 l 
-7886 -871 l  -7860 -931 l  -7833 -990 l  -7806 -1048 l  -7779 -1104 l 
-7753 -1159 l  -7726 -1211 l  -7699 -1261 l  -7672 -1308 l  -7646 -1352 l 
-7619 -1394 l  -7592 -1431 l  -7566 -1465 l  -7539 -1495 l  -7512 -1520 l 
-7485 -1541 l  -7459 -1557 l  -7432 -1568 l  -7405 -1574 l  -7378 -1575 l 
-7352 -1572 l  -7325 -1564 l  -7298 -1553 l  -7271 -1539 l  -7245 -1522 l 
-7218 -1504 l  -7191 -1483 l  -7165 -1462 l  -7138 -1439 l  -7111 -1417 l 
-7084 -1394 l  -7058 -1373 l  -7031 -1352 l  -7004 -1333 l  -6977 -1316 l 
-6951 -1302 l  -6924 -1290 l  -6897 -1282 l  -6870 -1278 l  -6844 -1277 l 
-6817 -1280 l  -6790 -1286 l  -6764 -1295 l  -6737 -1306 l  -6710 -1320 l 
-6683 -1335 l  -6657 -1353 l  -6630 -1372 l  -6603 -1392 l  -6576 -1414 l 
-6550 -1436 l  -6523 -1459 l  -6496 -1482 l  -6469 -1505 l  -6443 -1528 l 
-6416 -1550 l  -6389 -1572 l  -6363 -1592 l  -6336 -1611 l  -6309 -1629 l 
-6282 -1646 l  -6256 -1661 l  -6229 -1675 l  -6202 -1687 l  -6175 -1698 l 
-6149 -1707 l  -6122 -1714 l  -6095 -1720 l  -6068 -1724 l  -6042 -1727 l 
-6015 -1727 l  -5988 -1726 l  -5962 -1723 l  -5935 -1719 l  -5908 -1712 l 
-5881 -1703 l  -5855 -1692 l  -5828 -1680 l  -5801 -1665 l  -5774 -1648 l 
-5748 -1630 l  -5721 -1611 l  -5694 -1590 l  -5667 -1569 l  -5641 -1546 l 
-5614 -1524 l  -5587 -1501 l  -5561 -1479 l  -5534 -1456 l  -5507 -1435 l 
-5480 -1414 l  -5454 -1394 l  -5427 -1376 l  -5400 -1359 l  -5373 -1343 l 
-5347 -1330 l  -5320 -1319 l  -5293 -1311 l  -5266 -1305 l  -5240 -1302 l 
-5213 -1301 l  -5186 -1302 l  -5160 -1305 l  -5133 -1309 l  -5106 -1315 l 
-5079 -1322 l  -5053 -1330 l  -5026 -1339 l  -4999 -1348 l  -4972 -1358 l 
-4946 -1367 l  -4919 -1377 l  -4892 -1386 l  -4865 -1395 l  -4839 -1402 l 
-4812 -1409 l  -4785 -1414 l  -4759 -1418 l  -4732 -1420 l  -4705 -1421 l 
-4678 -1420 l  -4652 -1418 l  -4625 -1414 l  -4598 -1409 l  -4571 -1403 l 
-4545 -1396 l  -4518 -1388 l  -4491 -1379 l  -4465 -1370 l  -4438 -1360 l 
-4411 -1349 l  -4384 -1338 l  -4358 -1327 l  -4331 -1315 l  -4304 -1303 l 
-4277 -1291 l  -4251 -1279 l  -4224 -1268 l  -4197 -1256 l  -4170 -1245 l 
-4144 -1235 l  -4117 -1224 l  -4090 -1215 l  -4064 -1206 l  -4037 -1198 l 
-4010 -1190 l  -3983 -1184 l  -3957 -1178 l  -3930 -1173 l  -3903 -1170 l 
-3876 -1168 l  -3850 -1167 l  -3823 -1167 l  -3796 -1169 l  -3769 -1173 l 
-3743 -1178 l  -3716 -1184 l  -3689 -1193 l  -3663 -1203 l  -3636 -1215 l 
-3609 -1227 l  -3582 -1241 l  -3556 -1255 l  -3529 -1269 l  -3502 -1283 l 
-3475 -1296 l  -3449 -1309 l  -3422 -1319 l  -3395 -1329 l  -3368 -1336 l 
-3342 -1341 l  -3315 -1343 l  -3288 -1342 l  -3262 -1338 l  -3235 -1329 l 
-3208 -1317 l  -3181 -1300 l  -3155 -1279 l  -3128 -1252 l  -3101 -1221 l 
-3074 -1186 l  -3048 -1148 l  -3021 -1107 l  -2994 -1065 l  -2967 -1022 l 
-2941 -978 l  -2914 -935 l  -2887 -893 l  -2861 -853 l  -2834 -815 l  -2807 -780 l 
-2780 -750 l  -2754 -724 l  -2727 -703 l  -2700 -688 l  -2673 -680 l  -2647 -679 l 
-2620 -686 l  -2593 -701 l  -2566 -725 l  -2540 -756 l  -2513 -793 l  -2486 -835 l 
-2460 -882 l  -2433 -933 l  -2406 -987 l  -2379 -1043 l  -2353 -1101 l 
-2326 -1159 l  -2299 -1216 l  -2272 -1273 l  -2246 -1328 l  -2219 -1379 l 
-2192 -1428 l  -2165 -1472 l  -2139 -1510 l  -2112 -1543 l  -2085 -1568 l 
-2059 -1587 l  -2032 -1598 l  -2005 -1602 l  -1978 -1601 l  -1952 -1595 l 
-1925 -1583 l  -1898 -1568 l  -1871 -1550 l  -1845 -1528 l  -1818 -1505 l 
-1791 -1479 l  -1764 -1453 l  -1738 -1427 l  -1711 -1400 l  -1684 -1375 l 
-1658 -1351 l  -1631 -1329 l  -1604 -1310 l  -1577 -1294 l  -1551 -1282 l 
-1524 -1275 l  -1497 -1271 l  -1470 -1272 l  -1444 -1276 l  -1417 -1283 l 
-1390 -1294 l  -1364 -1307 l  -1337 -1323 l  -1310 -1341 l  -1283 -1360 l 
-1257 -1382 l  -1230 -1404 l  -1203 -1428 l  -1176 -1452 l  -1150 -1476 l 
-1123 -1500 l  -1096 -1524 l  -1069 -1548 l  -1043 -1571 l  -1016 -1592 l 
-989 -1612 l  -963 -1631 l  -936 -1648 l  -909 -1664 l  -882 -1678 l  -856 -1690 l 
-829 -1701 l  -802 -1710 l  -775 -1717 l  -749 -1723 l  -722 -1727 l  -695 -1729 l 
-668 -1730 l  -642 -1728 l  -615 -1725 l  -588 -1720 l  -562 -1713 l  -535 -1704 l 
-508 -1693 l  -481 -1680 l  -455 -1665 l  -428 -1648 l  -401 -1630 l  -374 -1610 l 
-348 -1589 l  -321 -1568 l  -294 -1546 l  -267 -1523 l  -241 -1500 l  -214 -1478 l 
-187 -1456 l  -161 -1434 l  -134 -1413 l  -107 -1394 l  -80 -1375 l  -54 -1358 l 
-27 -1343 l  0 -1330 l  26 -1319 l  52 -1311 l  79 -1305 l  106 -1302 l 
133 -1301 l  159 -1302 l  186 -1305 l  213 -1309 l  239 -1315 l  266 -1322 l 
293 -1330 l  320 -1339 l  346 -1348 l  373 -1358 l  400 -1368 l  427 -1377 l 
453 -1386 l  480 -1395 l  507 -1402 l  534 -1409 l  560 -1414 l  587 -1418 l 
614 -1420 l  640 -1421 l  667 -1420 l  694 -1418 l  721 -1414 l  747 -1409 l 
774 -1403 l  801 -1396 l  828 -1388 l  854 -1379 l  881 -1370 l  908 -1360 l 
935 -1349 l  961 -1338 l  988 -1327 l  1015 -1315 l  1041 -1303 l  1068 -1291 l 
1095 -1279 l  1122 -1268 l  1148 -1256 l  1175 -1245 l  1202 -1235 l  1229 -1224 l 
1255 -1215 l  1282 -1206 l  1309 -1198 l  1336 -1190 l  1362 -1184 l  1389 -1178 l 
1416 -1173 l  1442 -1170 l  1469 -1168 l  1496 -1167 l  1523 -1167 l  1549 -1169 l 
1576 -1173 l  1603 -1178 l  1630 -1184 l  1656 -1193 l  1683 -1203 l  1710 -1215 l 
1736 -1227 l  1763 -1241 l  1790 -1255 l  1817 -1269 l  1843 -1283 l  1870 -1296 l 
1897 -1308 l  1924 -1319 l  1950 -1329 l  1977 -1336 l  2004 -1341 l  2031 -1343 l 
2057 -1342 l  2084 -1338 l  2111 -1329 l  2137 -1317 l  2164 -1300 l  2191 -1279 l 
2218 -1252 l  2244 -1221 l  2271 -1186 l  2298 -1148 l  2325 -1107 l  2351 -1065 l 
2378 -1022 l  2405 -978 l  2432 -935 l  2458 -893 l  2485 -853 l  2512 -815 l 
2538 -780 l  2565 -750 l  2592 -724 l  2619 -703 l  2645 -688 l  2672 -680 l 
2699 -679 l  2726 -686 l  2752 -701 l  2779 -725 l  2806 -756 l  2833 -793 l 
2859 -835 l  2886 -882 l  2913 -933 l  2939 -987 l  2966 -1043 l  2993 -1101 l 
3020 -1159 l  3046 -1216 l  3073 -1273 l  3100 -1328 l  3127 -1379 l  3153 -1428 l 
3180 -1472 l  3207 -1510 l  3234 -1543 l  3260 -1568 l  3287 -1587 l  3314 -1598 l 
3340 -1602 l  3367 -1601 l  3394 -1595 l  3421 -1583 l  3447 -1568 l  3474 -1550 l 
3501 -1528 l  3528 -1505 l  3554 -1479 l  3581 -1453 l  3608 -1427 l  3635 -1400 l 
3661 -1375 l  3688 -1351 l  3715 -1329 l  3741 -1310 l  3768 -1294 l  3795 -1282 l 
3822 -1275 l  3848 -1271 l  3875 -1272 l  3902 -1276 l  3929 -1283 l  3955 -1294 l 
3982 -1307 l  4009 -1323 l  4036 -1341 l  4062 -1360 l  4089 -1382 l  4116 -1404 l 
4142 -1427 l  4169 -1452 l  4196 -1476 l  4223 -1500 l  4249 -1524 l  4276 -1548 l 
4303 -1571 l  4330 -1592 l  4356 -1612 l  4383 -1631 l  4410 -1648 l  4437 -1664 l 
4463 -1678 l  4490 -1690 l  4517 -1701 l  4543 -1710 l  4570 -1718 l  4597 -1723 l 
4624 -1727 l  4650 -1729 l  4677 -1730 l  4704 -1728 l  4731 -1725 l  4757 -1720 l 
4784 -1713 l  4811 -1704 l  4837 -1693 l  4864 -1680 l  4891 -1665 l  4918 -1648 l 
4944 -1629 l  4971 -1610 l  4998 -1589 l  5025 -1567 l  5051 -1545 l  5078 -1523 l 
5105 -1500 l  5132 -1477 l  5158 -1455 l  5185 -1434 l  5212 -1413 l  5238 -1393 l 
5265 -1375 l  5292 -1358 l  5319 -1343 l  5345 -1330 l  5372 -1319 l  5399 -1311 l 
5426 -1305 l  5452 -1302 l  5479 -1301 l  5506 -1303 l  5533 -1306 l  5559 -1310 l 
5586 -1317 l  5613 -1324 l  5639 -1332 l  5666 -1341 l  5693 -1350 l  5720 -1360 l 
5746 -1370 l  5773 -1379 l  5800 -1388 l  5827 -1396 l  5853 -1404 l  5880 -1410 l 
5907 -1415 l  5934 -1418 l  5960 -1420 l  5987 -1420 l  6014 -1418 l  6040 -1415 l 
6067 -1410 l  6094 -1405 l  6121 -1398 l  6147 -1390 l  6174 -1382 l  6201 -1373 l 
6228 -1363 l  6254 -1352 l  6281 -1342 l  6308 -1331 l  6335 -1320 l  6361 -1309 l 
6388 -1298 l  6415 -1288 l  6441 -1277 l  6468 -1268 l  6495 -1259 l  6522 -1250 l 
6548 -1242 l  6575 -1235 l  6602 -1228 l  6629 -1222 l  6655 -1217 l  6682 -1212 l 
6709 -1207 l  6736 -1203 l  6762 -1200 l  6789 -1197 l  6816 -1195 l  6842 -1193 l 
6869 -1192 l  6896 -1191 l  6923 -1191 l  6949 -1191 l  6976 -1192 l  7003 -1193 l 
7030 -1194 l  7056 -1196 l  7083 -1198 l  7110 -1201 l  7137 -1204 l  7163 -1208 l 
7190 -1211 l  7217 -1216 l  7243 -1220 l  7270 -1224 l  7297 -1229 l  7324 -1234 l 
7350 -1239 l  7377 -1245 l  7404 -1250 l  7431 -1256 l  7457 -1261 l  7484 -1267 l 
7511 -1273 l  7538 -1279 l  ps
-8091 -811 m  -8091 -561 l  -7841 -561 l  -7841 -811 l  -8091 -811 l  p ef
0 lw -8091 -811 m  -8091 -561 l  -7841 -561 l  -7841 -811 l  -8091 -811 l 
pc
-7557 -1693 m  -7557 -1443 l  -7307 -1443 l  -7307 -1693 l  -7557 -1693 l 
p ef
-7557 -1693 m  -7557 -1443 l  -7307 -1443 l  -7307 -1693 l  -7557 -1693 l 
pc
-7022 -1407 m  -7022 -1157 l  -6772 -1157 l  -6772 -1407 l  -7022 -1407 l 
p ef
-7022 -1407 m  -7022 -1157 l  -6772 -1157 l  -6772 -1407 l  -7022 -1407 l 
pc
-6488 -1717 m  -6488 -1467 l  -6238 -1467 l  -6238 -1717 l  -6488 -1717 l 
p ef
-6488 -1717 m  -6488 -1467 l  -6238 -1467 l  -6238 -1717 l  -6488 -1717 l 
pc
-5953 -1805 m  -5953 -1555 l  -5703 -1555 l  -5703 -1805 l  -5953 -1805 l 
p ef
-5953 -1805 m  -5953 -1555 l  -5703 -1555 l  -5703 -1805 l  -5953 -1805 l 
pc
-5418 -1436 m  -5418 -1186 l  -5168 -1186 l  -5168 -1436 l  -5418 -1436 l 
p ef
-5418 -1436 m  -5418 -1186 l  -5168 -1186 l  -5168 -1436 l  -5418 -1436 l 
pc
-4884 -1543 m  -4884 -1293 l  -4634 -1293 l  -4634 -1543 l  -4884 -1543 l 
p ef
-4884 -1543 m  -4884 -1293 l  -4634 -1293 l  -4634 -1543 l  -4884 -1543 l 
pc
-4349 -1393 m  -4349 -1143 l  -4099 -1143 l  -4099 -1393 l  -4349 -1393 l 
p ef
-4349 -1393 m  -4349 -1143 l  -4099 -1143 l  -4099 -1393 l  -4349 -1393 l 
pc
-3814 -1318 m  -3814 -1068 l  -3564 -1068 l  -3564 -1318 l  -3814 -1318 l 
p ef
-3814 -1318 m  -3814 -1068 l  -3564 -1068 l  -3564 -1318 l  -3814 -1318 l 
pc
-3280 -1404 m  -3280 -1154 l  -3030 -1154 l  -3030 -1404 l  -3280 -1404 l 
p ef
-3280 -1404 m  -3280 -1154 l  -3030 -1154 l  -3030 -1404 l  -3280 -1404 l 
pc
-2745 -811 m  -2745 -561 l  -2495 -561 l  -2495 -811 l  -2745 -811 l  p ef
-2745 -811 m  -2745 -561 l  -2495 -561 l  -2495 -811 l  -2745 -811 l  pc
-2210 -1693 m  -2210 -1443 l  -1960 -1443 l  -1960 -1693 l  -2210 -1693 l 
p ef
-2210 -1693 m  -2210 -1443 l  -1960 -1443 l  -1960 -1693 l  -2210 -1693 l 
pc
-1676 -1407 m  -1676 -1157 l  -1426 -1157 l  -1426 -1407 l  -1676 -1407 l 
p ef
-1676 -1407 m  -1676 -1157 l  -1426 -1157 l  -1426 -1407 l  -1676 -1407 l 
pc
-1141 -1717 m  -1141 -1467 l  -891 -1467 l  -891 -1717 l  -1141 -1717 l 
p ef
-1141 -1717 m  -1141 -1467 l  -891 -1467 l  -891 -1717 l  -1141 -1717 l 
pc
-606 -1805 m  -606 -1555 l  -356 -1555 l  -356 -1805 l  -606 -1805 l  p ef
-606 -1805 m  -606 -1555 l  -356 -1555 l  -356 -1805 l  -606 -1805 l  pc
-72 -1436 m  -72 -1186 l  177 -1186 l  177 -1436 l  -72 -1436 l  p ef
-72 -1436 m  -72 -1186 l  177 -1186 l  177 -1436 l  -72 -1436 l  pc
462 -1543 m  462 -1293 l  712 -1293 l  712 -1543 l  462 -1543 l  p ef
462 -1543 m  462 -1293 l  712 -1293 l  712 -1543 l  462 -1543 l  pc
997 -1393 m  997 -1143 l  1247 -1143 l  1247 -1393 l  997 -1393 l  p ef
997 -1393 m  997 -1143 l  1247 -1143 l  1247 -1393 l  997 -1393 l  pc
1531 -1318 m  1531 -1068 l  1781 -1068 l  1781 -1318 l  1531 -1318 l  p ef
1531 -1318 m  1531 -1068 l  1781 -1068 l  1781 -1318 l  1531 -1318 l  pc
2066 -1404 m  2066 -1154 l  2316 -1154 l  2316 -1404 l  2066 -1404 l  p ef
2066 -1404 m  2066 -1154 l  2316 -1154 l  2316 -1404 l  2066 -1404 l  pc
2601 -811 m  2601 -561 l  2851 -561 l  2851 -811 l  2601 -811 l  p ef
2601 -811 m  2601 -561 l  2851 -561 l  2851 -811 l  2601 -811 l  pc
3135 -1693 m  3135 -1443 l  3385 -1443 l  3385 -1693 l  3135 -1693 l  p ef
3135 -1693 m  3135 -1443 l  3385 -1443 l  3385 -1693 l  3135 -1693 l  pc
3670 -1407 m  3670 -1157 l  3920 -1157 l  3920 -1407 l  3670 -1407 l  p ef
3670 -1407 m  3670 -1157 l  3920 -1157 l  3920 -1407 l  3670 -1407 l  pc
4205 -1717 m  4205 -1467 l  4455 -1467 l  4455 -1717 l  4205 -1717 l  p ef
4205 -1717 m  4205 -1467 l  4455 -1467 l  4455 -1717 l  4205 -1717 l  pc
4739 -1805 m  4739 -1555 l  4989 -1555 l  4989 -1805 l  4739 -1805 l  p ef
4739 -1805 m  4739 -1555 l  4989 -1555 l  4989 -1805 l  4739 -1805 l  pc
5274 -1436 m  5274 -1186 l  5524 -1186 l  5524 -1436 l  5274 -1436 l  p ef
5274 -1436 m  5274 -1186 l  5524 -1186 l  5524 -1436 l  5274 -1436 l  pc
5809 -1543 m  5809 -1293 l  6059 -1293 l  6059 -1543 l  5809 -1543 l  p ef
5809 -1543 m  5809 -1293 l  6059 -1293 l  6059 -1543 l  5809 -1543 l  pc
6343 -1393 m  6343 -1143 l  6593 -1143 l  6593 -1393 l  6343 -1393 l  p ef
6343 -1393 m  6343 -1143 l  6593 -1143 l  6593 -1393 l  6343 -1393 l  pc
6878 -1318 m  6878 -1068 l  7128 -1068 l  7128 -1318 l  6878 -1318 l  p ef
6878 -1318 m  6878 -1068 l  7128 -1068 l  7128 -1318 l  6878 -1318 l  pc
7413 -1404 m  7413 -1154 l  7663 -1154 l  7663 -1404 l  7413 -1404 l  p ef
7413 -1404 m  7413 -1154 l  7663 -1154 l  7663 -1404 l  7413 -1404 l  pc
79.99611 lw 1.000 0.261 0.058 c -7966 -2721 m  -7940 -2704 l  -7913 -2686 l 
-7886 -2669 l  -7860 -2651 l  -7833 -2632 l  -7806 -2613 l  -7779 -2593 l 
-7753 -2572 l  -7726 -2550 l  -7699 -2528 l  -7672 -2504 l  -7646 -2478 l 
-7619 -2451 l  -7592 -2423 l  -7566 -2393 l  -7539 -2361 l  -7512 -2327 l 
-7485 -2291 l  -7459 -2253 l  -7432 -2212 l  -7405 -2170 l  -7378 -2125 l 
-7352 -2079 l  -7325 -2032 l  -7298 -1985 l  -7271 -1937 l  -7245 -1891 l 
-7218 -1846 l  -7191 -1802 l  -7165 -1761 l  -7138 -1722 l  -7111 -1687 l 
-7084 -1655 l  -7058 -1628 l  -7031 -1606 l  -7004 -1589 l  -6977 -1578 l 
-6951 -1573 l  -6924 -1575 l  -6897 -1584 l  -6870 -1601 l  -6844 -1626 l 
-6817 -1656 l  -6790 -1692 l  -6764 -1732 l  -6737 -1777 l  -6710 -1823 l 
-6683 -1872 l  -6657 -1922 l  -6630 -1972 l  -6603 -2022 l  -6576 -2070 l 
-6550 -2116 l  -6523 -2158 l  -6496 -2197 l  -6469 -2231 l  -6443 -2259 l 
-6416 -2280 l  -6389 -2294 l  -6363 -2300 l  -6336 -2297 l  -6309 -2285 l 
-6282 -2267 l  -6256 -2241 l  -6229 -2210 l  -6202 -2174 l  -6175 -2134 l 
-6149 -2091 l  -6122 -2046 l  -6095 -1999 l  -6068 -1951 l  -6042 -1904 l 
-6015 -1858 l  -5988 -1814 l  -5962 -1773 l  -5935 -1736 l  -5908 -1703 l 
-5881 -1675 l  -5855 -1654 l  -5828 -1640 l  -5801 -1634 l  -5774 -1635 l 
-5748 -1642 l  -5721 -1656 l  -5694 -1676 l  -5667 -1700 l  -5641 -1729 l 
-5614 -1761 l  -5587 -1796 l  -5561 -1833 l  -5534 -1873 l  -5507 -1913 l 
-5480 -1954 l  -5454 -1995 l  -5427 -2035 l  -5400 -2073 l  -5373 -2110 l 
-5347 -2144 l  -5320 -2175 l  -5293 -2202 l  -5266 -2224 l  -5240 -2243 l 
-5213 -2257 l  -5186 -2268 l  -5160 -2276 l  -5133 -2281 l  -5106 -2283 l 
-5079 -2282 l  -5053 -2280 l  -5026 -2276 l  -4999 -2270 l  -4972 -2263 l 
-4946 -2255 l  -4919 -2247 l  -4892 -2238 l  -4865 -2230 l  -4839 -2222 l 
-4812 -2214 l  -4785 -2207 l  -4759 -2202 l  -4732 -2198 l  -4705 -2195 l 
-4678 -2194 l  -4652 -2194 l  -4625 -2196 l  -4598 -2199 l  -4571 -2203 l 
-4545 -2209 l  -4518 -2215 l  -4491 -2223 l  -4465 -2232 l  -4438 -2242 l 
-4411 -2253 l  -4384 -2264 l  -4358 -2277 l  -4331 -2290 l  -4304 -2305 l 
-4277 -2320 l  -4251 -2336 l  -4224 -2352 l  -4197 -2369 l  -4170 -2387 l 
-4144 -2404 l  -4117 -2422 l  -4090 -2440 l  -4064 -2458 l  -4037 -2475 l 
-4010 -2492 l  -3983 -2508 l  -3957 -2523 l  -3930 -2537 l  -3903 -2550 l 
-3876 -2561 l  -3850 -2571 l  -3823 -2579 l  -3796 -2585 l  -3769 -2590 l 
-3743 -2592 l  -3716 -2591 l  -3689 -2588 l  -3663 -2583 l  -3636 -2575 l 
-3609 -2565 l  -3582 -2553 l  -3556 -2541 l  -3529 -2527 l  -3502 -2513 l 
-3475 -2500 l  -3449 -2486 l  -3422 -2474 l  -3395 -2463 l  -3368 -2453 l 
-3342 -2445 l  -3315 -2440 l  -3288 -2438 l  -3262 -2438 l  -3235 -2443 l 
-3208 -2451 l  -3181 -2463 l  -3155 -2481 l  -3128 -2503 l  -3101 -2530 l 
-3074 -2561 l  -3048 -2595 l  -3021 -2632 l  -2994 -2670 l  -2967 -2710 l 
-2941 -2751 l  -2914 -2792 l  -2887 -2832 l  -2861 -2871 l  -2834 -2908 l 
-2807 -2943 l  -2780 -2974 l  -2754 -3002 l  -2727 -3026 l  -2700 -3044 l 
-2673 -3057 l  -2647 -3064 l  -2620 -3063 l  -2593 -3056 l  -2566 -3041 l 
-2540 -3020 l  -2513 -2993 l  -2486 -2960 l  -2460 -2923 l  -2433 -2881 l 
-2406 -2836 l  -2379 -2788 l  -2353 -2737 l  -2326 -2684 l  -2299 -2629 l 
-2272 -2574 l  -2246 -2518 l  -2219 -2462 l  -2192 -2407 l  -2165 -2353 l 
-2139 -2301 l  -2112 -2251 l  -2085 -2204 l  -2059 -2161 l  -2032 -2121 l 
-2005 -2084 l  -1978 -2050 l  -1952 -2019 l  -1925 -1991 l  -1898 -1967 l 
-1871 -1945 l  -1845 -1925 l  -1818 -1909 l  -1791 -1895 l  -1764 -1883 l 
-1738 -1874 l  -1711 -1867 l  -1684 -1863 l  -1658 -1860 l  -1631 -1860 l 
-1604 -1862 l  -1577 -1865 l  -1551 -1871 l  -1524 -1878 l  -1497 -1886 l 
-1470 -1896 l  -1444 -1908 l  -1417 -1920 l  -1390 -1934 l  -1364 -1949 l 
-1337 -1964 l  -1310 -1980 l  -1283 -1997 l  -1257 -2014 l  -1230 -2031 l 
-1203 -2049 l  -1176 -2066 l  -1150 -2084 l  -1123 -2101 l  -1096 -2118 l 
-1069 -2134 l  -1043 -2150 l  -1016 -2165 l  -989 -2179 l  -963 -2192 l 
-936 -2204 l  -909 -2215 l  -882 -2226 l  -856 -2235 l  -829 -2244 l  -802 -2252 l 
-775 -2259 l  -749 -2265 l  -722 -2270 l  -695 -2274 l  -668 -2277 l  -642 -2280 l 
-615 -2281 l  -588 -2282 l  -562 -2282 l  -535 -2281 l  -508 -2279 l  -481 -2276 l 
-455 -2272 l  -428 -2268 l  -401 -2263 l  -374 -2257 l  -348 -2251 l  -321 -2244 l 
-294 -2237 l  -267 -2230 l  -241 -2223 l  -214 -2216 l  -187 -2208 l  -161 -2201 l 
-134 -2194 l  -107 -2187 l  -80 -2181 l  -54 -2175 l  -27 -2170 l  0 -2166 l 
26 -2162 l  52 -2159 l  79 -2157 l  106 -2156 l  133 -2155 l  159 -2156 l 
186 -2157 l  213 -2159 l  239 -2162 l  266 -2166 l  293 -2170 l  320 -2174 l 
346 -2180 l  373 -2185 l  400 -2191 l  427 -2198 l  453 -2205 l  480 -2212 l 
507 -2220 l  534 -2228 l  560 -2236 l  587 -2245 l  614 -2253 l  640 -2262 l 
667 -2271 l  694 -2280 l  721 -2289 l  747 -2298 l  774 -2308 l  801 -2317 l 
828 -2327 l  854 -2336 l  881 -2346 l  908 -2356 l  935 -2366 l  961 -2376 l 
988 -2386 l  1015 -2397 l  1041 -2407 l  1068 -2417 l  1095 -2428 l  1122 -2438 l 
1148 -2448 l  1175 -2459 l  1202 -2469 l  1229 -2479 l  1255 -2488 l  1282 -2497 l 
1309 -2505 l  1336 -2513 l  1362 -2520 l  1389 -2525 l  1416 -2530 l  1442 -2533 l 
1469 -2535 l  1496 -2536 l  1523 -2535 l  1549 -2532 l  1576 -2528 l  1603 -2521 l 
1630 -2513 l  1656 -2502 l  1683 -2490 l  1710 -2475 l  1736 -2459 l  1763 -2442 l 
1790 -2424 l  1817 -2406 l  1843 -2388 l  1870 -2370 l  1897 -2353 l  1924 -2337 l 
1950 -2322 l  1977 -2310 l  2004 -2299 l  2031 -2291 l  2057 -2286 l  2084 -2285 l 
2111 -2287 l  2137 -2293 l  2164 -2304 l  2191 -2320 l  2218 -2340 l  2244 -2366 l 
2271 -2395 l  2298 -2427 l  2325 -2462 l  2351 -2500 l  2378 -2538 l  2405 -2577 l 
2432 -2617 l  2458 -2655 l  2485 -2693 l  2512 -2729 l  2538 -2762 l  2565 -2792 l 
2592 -2819 l  2619 -2841 l  2645 -2858 l  2672 -2869 l  2699 -2874 l  2726 -2872 l 
2752 -2863 l  2779 -2847 l  2806 -2825 l  2833 -2797 l  2859 -2765 l  2886 -2728 l 
2913 -2688 l  2939 -2645 l  2966 -2601 l  2993 -2555 l  3020 -2509 l  3046 -2462 l 
3073 -2417 l  3100 -2373 l  3127 -2331 l  3153 -2292 l  3180 -2257 l  3207 -2226 l 
3234 -2201 l  3260 -2181 l  3287 -2167 l  3314 -2159 l  3340 -2157 l  3367 -2160 l 
3394 -2168 l  3421 -2180 l  3447 -2196 l  3474 -2216 l  3501 -2238 l  3528 -2264 l 
3554 -2291 l  3581 -2320 l  3608 -2351 l  3635 -2383 l  3661 -2415 l  3688 -2448 l 
3715 -2480 l  3741 -2511 l  3768 -2541 l  3795 -2570 l  3822 -2597 l  3848 -2622 l 
3875 -2645 l  3902 -2665 l  3929 -2684 l  3955 -2700 l  3982 -2713 l  4009 -2725 l 
4036 -2734 l  4062 -2740 l  4089 -2744 l  4116 -2745 l  4142 -2743 l  4169 -2739 l 
4196 -2731 l  4223 -2721 l  4249 -2708 l  4276 -2692 l  4303 -2672 l  4330 -2650 l 
4356 -2624 l  4383 -2596 l  4410 -2565 l  4437 -2531 l  4463 -2497 l  4490 -2460 l 
4517 -2423 l  4543 -2385 l  4570 -2347 l  4597 -2309 l  4624 -2271 l  4650 -2234 l 
4677 -2199 l  4704 -2164 l  4731 -2132 l  4757 -2103 l  4784 -2075 l  4811 -2051 l 
4837 -2031 l  4864 -2014 l  4891 -2001 l  4918 -1992 l  4944 -1986 l  4971 -1984 l 
4998 -1984 l  5025 -1988 l  5051 -1993 l  5078 -2000 l  5105 -2009 l  5132 -2020 l 
5158 -2031 l  5185 -2043 l  5212 -2055 l  5238 -2068 l  5265 -2080 l  5292 -2092 l 
5319 -2103 l  5345 -2112 l  5372 -2120 l  5399 -2127 l  5426 -2131 l  5452 -2133 l 
5479 -2134 l  5506 -2133 l  5533 -2131 l  5559 -2129 l  5586 -2125 l  5613 -2122 l 
5639 -2118 l  5666 -2114 l  5693 -2111 l  5720 -2108 l  5746 -2106 l  5773 -2105 l 
5800 -2106 l  5827 -2108 l  5853 -2112 l  5880 -2118 l  5907 -2126 l  5934 -2137 l 
5960 -2151 l  5987 -2167 l  6014 -2186 l  6040 -2206 l  6067 -2229 l  6094 -2252 l 
6121 -2276 l  6147 -2301 l  6174 -2327 l  6201 -2352 l  6228 -2378 l  6254 -2403 l 
6281 -2427 l  6308 -2449 l  6335 -2471 l  6361 -2490 l  6388 -2508 l  6415 -2523 l 
6441 -2536 l  6468 -2545 l  6495 -2552 l  6522 -2555 l  6548 -2555 l  6575 -2553 l 
6602 -2549 l  6629 -2542 l  6655 -2534 l  6682 -2524 l  6709 -2512 l  6736 -2500 l 
6762 -2486 l  6789 -2472 l  6816 -2457 l  6842 -2443 l  6869 -2428 l  6896 -2413 l 
6923 -2399 l  6949 -2386 l  6976 -2374 l  7003 -2363 l  7030 -2353 l  7056 -2345 l 
7083 -2338 l  7110 -2332 l  7137 -2328 l  7163 -2325 l  7190 -2322 l  7217 -2321 l 
7243 -2320 l  7270 -2321 l  7297 -2322 l  7324 -2323 l  7350 -2326 l  7377 -2329 l 
7404 -2332 l  7431 -2335 l  7457 -2339 l  7484 -2343 l  7511 -2348 l  7538 -2352 l 
ps
-8091 -2721 m  -7966 -2596 l  -7841 -2721 l  -7966 -2846 l  -8091 -2721 l 
p ef
0 lw -8091 -2721 m  -7966 -2596 l  -7841 -2721 l  -7966 -2846 l  -8091 -2721 l 
pc
-7557 -2212 m  -7432 -2087 l  -7307 -2212 l  -7432 -2337 l  -7557 -2212 l 
p ef
-7557 -2212 m  -7432 -2087 l  -7307 -2212 l  -7432 -2337 l  -7557 -2212 l 
pc
-7022 -1584 m  -6897 -1459 l  -6772 -1584 l  -6897 -1709 l  -7022 -1584 l 
p ef
-7022 -1584 m  -6897 -1459 l  -6772 -1584 l  -6897 -1709 l  -7022 -1584 l 
pc
-6488 -2300 m  -6363 -2175 l  -6238 -2300 l  -6363 -2425 l  -6488 -2300 l 
p ef
-6488 -2300 m  -6363 -2175 l  -6238 -2300 l  -6363 -2425 l  -6488 -2300 l 
pc
-5953 -1640 m  -5828 -1515 l  -5703 -1640 l  -5828 -1765 l  -5953 -1640 l 
p ef
-5953 -1640 m  -5828 -1515 l  -5703 -1640 l  -5828 -1765 l  -5953 -1640 l 
pc
-5418 -2202 m  -5293 -2077 l  -5168 -2202 l  -5293 -2327 l  -5418 -2202 l 
p ef
-5418 -2202 m  -5293 -2077 l  -5168 -2202 l  -5293 -2327 l  -5418 -2202 l 
pc
-4884 -2202 m  -4759 -2077 l  -4634 -2202 l  -4759 -2327 l  -4884 -2202 l 
p ef
-4884 -2202 m  -4759 -2077 l  -4634 -2202 l  -4759 -2327 l  -4884 -2202 l 
pc
-4349 -2352 m  -4224 -2227 l  -4099 -2352 l  -4224 -2477 l  -4349 -2352 l 
p ef
-4349 -2352 m  -4224 -2227 l  -4099 -2352 l  -4224 -2477 l  -4349 -2352 l 
pc
-3814 -2588 m  -3689 -2463 l  -3564 -2588 l  -3689 -2713 l  -3814 -2588 l 
p ef
-3814 -2588 m  -3689 -2463 l  -3564 -2588 l  -3689 -2713 l  -3814 -2588 l 
pc
-3280 -2481 m  -3155 -2356 l  -3030 -2481 l  -3155 -2606 l  -3280 -2481 l 
p ef
-3280 -2481 m  -3155 -2356 l  -3030 -2481 l  -3155 -2606 l  -3280 -2481 l 
pc
-2745 -3063 m  -2620 -2938 l  -2495 -3063 l  -2620 -3188 l  -2745 -3063 l 
p ef
-2745 -3063 m  -2620 -2938 l  -2495 -3063 l  -2620 -3188 l  -2745 -3063 l 
pc
-2210 -2204 m  -2085 -2079 l  -1960 -2204 l  -2085 -2329 l  -2210 -2204 l 
p ef
-2210 -2204 m  -2085 -2079 l  -1960 -2204 l  -2085 -2329 l  -2210 -2204 l 
pc
-1676 -1871 m  -1551 -1746 l  -1426 -1871 l  -1551 -1996 l  -1676 -1871 l 
p ef
-1676 -1871 m  -1551 -1746 l  -1426 -1871 l  -1551 -1996 l  -1676 -1871 l 
pc
-1141 -2165 m  -1016 -2040 l  -891 -2165 l  -1016 -2290 l  -1141 -2165 l 
p ef
-1141 -2165 m  -1016 -2040 l  -891 -2165 l  -1016 -2290 l  -1141 -2165 l 
pc
-606 -2276 m  -481 -2151 l  -356 -2276 l  -481 -2401 l  -606 -2276 l  p ef
-606 -2276 m  -481 -2151 l  -356 -2276 l  -481 -2401 l  -606 -2276 l  pc
-72 -2159 m  52 -2034 l  177 -2159 l  52 -2284 l  -72 -2159 l  p ef
-72 -2159 m  52 -2034 l  177 -2159 l  52 -2284 l  -72 -2159 l  pc
462 -2245 m  587 -2120 l  712 -2245 l  587 -2370 l  462 -2245 l  p ef
462 -2245 m  587 -2120 l  712 -2245 l  587 -2370 l  462 -2245 l  pc
997 -2438 m  1122 -2313 l  1247 -2438 l  1122 -2563 l  997 -2438 l  p ef
997 -2438 m  1122 -2313 l  1247 -2438 l  1122 -2563 l  997 -2438 l  pc
1531 -2502 m  1656 -2377 l  1781 -2502 l  1656 -2627 l  1531 -2502 l  p ef
1531 -2502 m  1656 -2377 l  1781 -2502 l  1656 -2627 l  1531 -2502 l  pc
2066 -2320 m  2191 -2195 l  2316 -2320 l  2191 -2445 l  2066 -2320 l  p ef
2066 -2320 m  2191 -2195 l  2316 -2320 l  2191 -2445 l  2066 -2320 l  pc
2601 -2872 m  2726 -2747 l  2851 -2872 l  2726 -2997 l  2601 -2872 l  p ef
2601 -2872 m  2726 -2747 l  2851 -2872 l  2726 -2997 l  2601 -2872 l  pc
3135 -2181 m  3260 -2056 l  3385 -2181 l  3260 -2306 l  3135 -2181 l  p ef
3135 -2181 m  3260 -2056 l  3385 -2181 l  3260 -2306 l  3135 -2181 l  pc
3670 -2570 m  3795 -2445 l  3920 -2570 l  3795 -2695 l  3670 -2570 l  p ef
3670 -2570 m  3795 -2445 l  3920 -2570 l  3795 -2695 l  3670 -2570 l  pc
4205 -2650 m  4330 -2525 l  4455 -2650 l  4330 -2775 l  4205 -2650 l  p ef
4205 -2650 m  4330 -2525 l  4455 -2650 l  4330 -2775 l  4205 -2650 l  pc
4739 -2014 m  4864 -1889 l  4989 -2014 l  4864 -2139 l  4739 -2014 l  p ef
4739 -2014 m  4864 -1889 l  4989 -2014 l  4864 -2139 l  4739 -2014 l  pc
5274 -2127 m  5399 -2002 l  5524 -2127 l  5399 -2252 l  5274 -2127 l  p ef
5274 -2127 m  5399 -2002 l  5524 -2127 l  5399 -2252 l  5274 -2127 l  pc
5809 -2137 m  5934 -2012 l  6059 -2137 l  5934 -2262 l  5809 -2137 l  p ef
5809 -2137 m  5934 -2012 l  6059 -2137 l  5934 -2262 l  5809 -2137 l  pc
6343 -2545 m  6468 -2420 l  6593 -2545 l  6468 -2670 l  6343 -2545 l  p ef
6343 -2545 m  6468 -2420 l  6593 -2545 l  6468 -2670 l  6343 -2545 l  pc
6878 -2363 m  7003 -2238 l  7128 -2363 l  7003 -2488 l  6878 -2363 l  p ef
6878 -2363 m  7003 -2238 l  7128 -2363 l  7003 -2488 l  6878 -2363 l  pc
7413 -2352 m  7538 -2227 l  7663 -2352 l  7538 -2477 l  7413 -2352 l  p ef
7413 -2352 m  7538 -2227 l  7663 -2352 l  7538 -2477 l  7413 -2352 l  pc
0.003 0.003 0.003 c
/Helvetica f
353 sf -8059 3261 m  185 0 (1) bs
/Helvetica f
353 sf -7525 3261 m  185 0 (2) bs
/Helvetica f
353 sf -6990 3261 m  185 0 (3) bs
/Helvetica f
353 sf -6456 3261 m  185 0 (4) bs
/Helvetica f
353 sf -5921 3261 m  185 0 (5) bs
/Helvetica f
353 sf -5386 3261 m  185 0 (6) bs
/Helvetica f
353 sf -4852 3261 m  185 0 (7) bs
/Helvetica f
353 sf -4317 3261 m  185 0 (8) bs
/Helvetica f
353 sf -3782 3261 m  185 0 (9) bs
/Helvetica f
353 sf -3340 3261 m  185 0 (1) bs
185 185 (0) bs
/Helvetica f
353 sf -2792 3261 m  185 0 (1) bs
185 159 (1) bs
/Helvetica f
353 sf -2270 3261 m  185 0 (1) bs
185 185 (2) bs
/Helvetica f
353 sf -1736 3261 m  185 0 (1) bs
185 185 (3) bs
/Helvetica f
353 sf -1201 3261 m  185 0 (1) bs
185 185 (4) bs
/Helvetica f
353 sf -666 3261 m  185 0 (1) bs
185 185 (5) bs
/Helvetica f
353 sf -132 3261 m  185 0 (1) bs
185 185 (6) bs
/Helvetica f
353 sf 403 3261 m  185 0 (1) bs
185 185 (7) bs
/Helvetica f
353 sf 938 3261 m  185 0 (1) bs
185 185 (8) bs
/Helvetica f
353 sf 1472 3261 m  185 0 (1) bs
185 185 (9) bs
/Helvetica f
353 sf 2007 3261 m  185 0 (2) bs
185 185 (0) bs
/Helvetica f
353 sf 2542 3261 m  185 0 (2) bs
185 185 (1) bs
/Helvetica f
353 sf 3076 3261 m  185 0 (2) bs
185 185 (2) bs
/Helvetica f
353 sf 3611 3261 m  185 0 (2) bs
185 185 (3) bs
/Helvetica f
353 sf 4146 3261 m  185 0 (2) bs
185 185 (4) bs
/Helvetica f
353 sf 4680 3261 m  185 0 (2) bs
185 185 (5) bs
/Helvetica f
353 sf 5215 3261 m  185 0 (2) bs
185 185 (6) bs
/Helvetica f
353 sf 5750 3261 m  185 0 (2) bs
185 185 (7) bs
/Helvetica f
353 sf 6284 3261 m  185 0 (2) bs
185 185 (8) bs
/Helvetica f
353 sf 6819 3261 m  185 0 (2) bs
185 185 (9) bs
/Helvetica f
353 sf 7354 3261 m  185 0 (3) bs
185 185 (0) bs
/Helvetica f
353 sf -8877 2814 m  185 0 (0) bs
106 185 (,) bs
185 291 (0) bs
185 476 (0) bs
/Helvetica f
353 sf -8877 1961 m  185 0 (0) bs
106 185 (,) bs
185 291 (1) bs
185 476 (0) bs
/Helvetica f
353 sf -8877 1109 m  185 0 (0) bs
106 185 (,) bs
185 291 (2) bs
185 476 (0) bs
/Helvetica f
353 sf -8877 256 m  185 0 (0) bs
106 185 (,) bs
185 291 (3) bs
185 476 (0) bs
/Helvetica f
353 sf -8877 -596 m  185 0 (0) bs
106 185 (,) bs
185 291 (4) bs
185 476 (0) bs
/Helvetica f
353 sf -8877 -1448 m  185 0 (0) bs
106 185 (,) bs
185 291 (5) bs
185 476 (0) bs
/Helvetica f
353 sf -8877 -2301 m  185 0 (0) bs
106 185 (,) bs
185 291 (6) bs
185 476 (0) bs
/Helvetica f
353 sf -8877 -3153 m  185 0 (0) bs
106 185 (,) bs
185 291 (7) bs
185 476 (0) bs
/Helvetica f
353 sf -8877 -4005 m  185 0 (0) bs
106 185 (,) bs
185 291 (8) bs
185 476 (0) bs
79.99611 lw 0.003 0.273 0.527 c 8253 -250 m  9053 -250 l  ps
8547 -355 m  8547 -144 l  8758 -144 l  8758 -355 l  8547 -355 l  p ef
0 lw 8547 -355 m  8547 -144 l  8758 -144 l  8758 -355 l  8547 -355 l  pc
79.99611 lw 1.000 0.261 0.058 c 8253 247 m  9053 247 l  ps
8547 247 m  8653 353 l  8758 247 l  8653 142 l  8547 247 l  p ef
0 lw 8547 247 m  8653 353 l  8758 247 l  8653 142 l  8547 247 l  pc
0.003 0.003 0.003 c
/Helvetica f
353 sf 9153 -130 m  238 0 (H) bs
291 238 (M) bs
291 529 (M) bs
/Helvetica f
353 sf 9153 367 m  238 0 (K) bs
238 238 (N) bs
238 476 (N) bs
/Helvetica f
318 sf -616 3908 m  79 0 (i) bs
/Helvetica f
318 sf -9464 -399 m  gs 90.0 r 185 0 (e) bs
gr
0 9006 t 
pom
count op_count sub {pop} repeat countdictstack dict_count sub {end} repeat b4_inc_state restore
%%PageTrailer
%%Trailer
%%EOF
