%!PS-Adobe-3.0 EPSF-3.0 
%%BoundingBox: 0 0 584 255
%%Pages: 0
%%Creator: LibreOffice 4.4
%%Title: none
%%CreationDate: none
%%LanguageLevel: 2
%%EndComments
%%BeginProlog
%%BeginResource: procset SDRes-Prolog 1.0 0
/b4_inc_state save def
/dict_count countdictstack def
/op_count count 1 sub def
userdict begin
0 setgray 0 setlinecap 1 setlinewidth 0 setlinejoin 10 setmiterlimit[] 0 setdash newpath
/languagelevel where {pop languagelevel 1 ne {false setstrokeadjust false setoverprint} if} if
/bdef {bind def} bind def
/c {setrgbcolor} bdef
/l {neg lineto} bdef
/rl {neg rlineto} bdef
/lc {setlinecap} bdef
/lj {setlinejoin} bdef
/lw {setlinewidth} bdef
/ml {setmiterlimit} bdef
/ld {setdash} bdef
/m {neg moveto} bdef
/ct {6 2 roll neg 6 2 roll neg 6 2 roll neg curveto} bdef
/r {rotate} bdef
/t {neg translate} bdef
/s {scale} bdef
/sw {show} bdef
/gs {gsave} bdef
/gr {grestore} bdef
/f {findfont dup length dict begin
{1 index /FID ne {def} {pop pop} ifelse} forall /Encoding ISOLatin1Encoding def
currentdict end /NFont exch definefont pop /NFont findfont} bdef
/p {closepath} bdef
/sf {scalefont setfont} bdef
/ef {eofill}bdef
/pc {closepath stroke}bdef
/ps {stroke}bdef
/pum {matrix currentmatrix}bdef
/pom {setmatrix}bdef
/bs {/aString exch def /nXOfs exch def /nWidth exch def currentpoint nXOfs 0 rmoveto pum nWidth aString stringwidth pop div 1 scale aString show pom moveto} bdef
%%EndResource
%%EndProlog
%%BeginSetup
%%EndSetup
%%Page: 1 1
%%BeginPageSetup
%%EndPageSetup
pum
0.02834 0.02831 s 
0 -9006 t
/tm matrix currentmatrix def
tm setmatrix
10301 4503 t 
1 1 s 
1.000 1.000 1.000 c 0 4502 m  -10301 4502 l  -10301 -4503 l  10301 -4503 l 
10301 4502 l  0 4502 l  p ef
0 lw 1 lj 0.703 0.703 0.703 c -719 3675 m  -8977 3675 l  -8977 -4124 l 
7538 -4124 l  7538 3675 l  -719 3675 l  pc
7538 3674 m  -8977 3674 l  ps
7538 2699 m  -8977 2699 l  ps
7538 1724 m  -8977 1724 l  ps
7538 749 m  -8977 749 l  ps
7538 -225 m  -8977 -225 l  ps
7538 -1200 m  -8977 -1200 l  ps
7538 -2176 m  -8977 -2176 l  ps
7538 -3151 m  -8977 -3151 l  ps
7538 -4125 m  -8977 -4125 l  ps
-8977 3824 m  -8977 3674 l  ps
-8977 3824 m  -8977 3674 l  ps
-8408 3824 m  -8408 3674 l  ps
-8408 3824 m  -8408 3674 l  ps
-7838 3824 m  -7838 3674 l  ps
-7838 3824 m  -7838 3674 l  ps
-7269 3824 m  -7269 3674 l  ps
-7269 3824 m  -7269 3674 l  ps
-6699 3824 m  -6699 3674 l  ps
-6699 3824 m  -6699 3674 l  ps
-6130 3824 m  -6130 3674 l  ps
-6130 3824 m  -6130 3674 l  ps
-5560 3824 m  -5560 3674 l  ps
-5560 3824 m  -5560 3674 l  ps
-4991 3824 m  -4991 3674 l  ps
-4991 3824 m  -4991 3674 l  ps
-4421 3824 m  -4421 3674 l  ps
-4421 3824 m  -4421 3674 l  ps
-3852 3824 m  -3852 3674 l  ps
-3852 3824 m  -3852 3674 l  ps
-3282 3824 m  -3282 3674 l  ps
-3282 3824 m  -3282 3674 l  ps
-2713 3824 m  -2713 3674 l  ps
-2713 3824 m  -2713 3674 l  ps
-2143 3824 m  -2143 3674 l  ps
-2143 3824 m  -2143 3674 l  ps
-1574 3824 m  -1574 3674 l  ps
-1574 3824 m  -1574 3674 l  ps
-1004 3824 m  -1004 3674 l  ps
-1004 3824 m  -1004 3674 l  ps
-435 3824 m  -435 3674 l  ps
-435 3824 m  -435 3674 l  ps
134 3824 m  134 3674 l  ps
134 3824 m  134 3674 l  ps
703 3824 m  703 3674 l  ps
703 3824 m  703 3674 l  ps
1273 3824 m  1273 3674 l  ps
1273 3824 m  1273 3674 l  ps
1842 3824 m  1842 3674 l  ps
1842 3824 m  1842 3674 l  ps
2412 3824 m  2412 3674 l  ps
2412 3824 m  2412 3674 l  ps
2981 3824 m  2981 3674 l  ps
2981 3824 m  2981 3674 l  ps
3551 3824 m  3551 3674 l  ps
3551 3824 m  3551 3674 l  ps
4120 3824 m  4120 3674 l  ps
4120 3824 m  4120 3674 l  ps
4690 3824 m  4690 3674 l  ps
4690 3824 m  4690 3674 l  ps
5259 3824 m  5259 3674 l  ps
5259 3824 m  5259 3674 l  ps
5829 3824 m  5829 3674 l  ps
5829 3824 m  5829 3674 l  ps
6398 3824 m  6398 3674 l  ps
6398 3824 m  6398 3674 l  ps
6968 3824 m  6968 3674 l  ps
6968 3824 m  6968 3674 l  ps
7538 3824 m  7538 3674 l  ps
7538 3824 m  7538 3674 l  ps
-8977 3674 m  7538 3674 l  ps
-9127 3674 m  -8977 3674 l  ps
-9127 3674 m  -8977 3674 l  ps
-9127 2699 m  -8977 2699 l  ps
-9127 2699 m  -8977 2699 l  ps
-9127 1724 m  -8977 1724 l  ps
-9127 1724 m  -8977 1724 l  ps
-9127 749 m  -8977 749 l  ps
-9127 749 m  -8977 749 l  ps
-9127 -225 m  -8977 -225 l  ps
-9127 -225 m  -8977 -225 l  ps
-9127 -1200 m  -8977 -1200 l  ps
-9127 -1200 m  -8977 -1200 l  ps
-9127 -2176 m  -8977 -2176 l  ps
-9127 -2176 m  -8977 -2176 l  ps
-9127 -3151 m  -8977 -3151 l  ps
-9127 -3151 m  -8977 -3151 l  ps
-9127 -4125 m  -8977 -4125 l  ps
-9127 -4125 m  -8977 -4125 l  ps
-8977 3674 m  -8977 -4125 l  ps
79.99611 lw 0.003 0.273 0.527 c -8977 -1320 m  -8949 -1335 l  -8921 -1349 l 
-8892 -1363 l  -8864 -1376 l  -8835 -1390 l  -8807 -1403 l  -8778 -1416 l 
-8750 -1428 l  -8721 -1440 l  -8693 -1451 l  -8664 -1461 l  -8636 -1471 l 
-8607 -1480 l  -8579 -1488 l  -8550 -1496 l  -8522 -1502 l  -8493 -1507 l 
-8465 -1511 l  -8436 -1514 l  -8408 -1515 l  -8380 -1515 l  -8351 -1514 l 
-8323 -1513 l  -8294 -1510 l  -8266 -1506 l  -8237 -1502 l  -8209 -1497 l 
-8180 -1492 l  -8152 -1487 l  -8123 -1482 l  -8095 -1477 l  -8066 -1472 l 
-8038 -1467 l  -8009 -1464 l  -7981 -1460 l  -7952 -1458 l  -7924 -1457 l 
-7895 -1457 l  -7867 -1458 l  -7838 -1460 l  -7810 -1464 l  -7782 -1470 l 
-7753 -1477 l  -7725 -1484 l  -7696 -1494 l  -7668 -1503 l  -7639 -1514 l 
-7611 -1526 l  -7582 -1538 l  -7554 -1550 l  -7525 -1563 l  -7497 -1576 l 
-7468 -1589 l  -7440 -1602 l  -7411 -1614 l  -7383 -1627 l  -7354 -1638 l 
-7326 -1650 l  -7297 -1660 l  -7269 -1670 l  -7240 -1679 l  -7212 -1687 l 
-7184 -1693 l  -7155 -1699 l  -7127 -1704 l  -7098 -1708 l  -7070 -1710 l 
-7041 -1712 l  -7013 -1713 l  -6984 -1712 l  -6956 -1711 l  -6927 -1708 l 
-6899 -1704 l  -6870 -1699 l  -6842 -1693 l  -6813 -1686 l  -6785 -1677 l 
-6756 -1668 l  -6728 -1657 l  -6699 -1645 l  -6671 -1632 l  -6642 -1618 l 
-6614 -1603 l  -6586 -1587 l  -6557 -1571 l  -6529 -1554 l  -6500 -1537 l 
-6472 -1520 l  -6443 -1504 l  -6415 -1488 l  -6386 -1472 l  -6358 -1457 l 
-6329 -1443 l  -6301 -1430 l  -6272 -1418 l  -6244 -1408 l  -6215 -1399 l 
-6187 -1392 l  -6158 -1387 l  -6130 -1385 l  -6101 -1384 l  -6073 -1385 l 
-6044 -1389 l  -6016 -1393 l  -5988 -1400 l  -5959 -1407 l  -5931 -1415 l 
-5902 -1424 l  -5874 -1433 l  -5845 -1443 l  -5817 -1453 l  -5788 -1462 l 
-5760 -1471 l  -5731 -1479 l  -5703 -1486 l  -5674 -1491 l  -5646 -1496 l 
-5617 -1499 l  -5589 -1500 l  -5560 -1498 l  -5532 -1495 l  -5503 -1489 l 
-5475 -1481 l  -5446 -1472 l  -5418 -1461 l  -5390 -1449 l  -5361 -1436 l 
-5333 -1422 l  -5304 -1407 l  -5276 -1392 l  -5247 -1377 l  -5219 -1361 l 
-5190 -1346 l  -5162 -1331 l  -5133 -1317 l  -5105 -1304 l  -5076 -1292 l 
-5048 -1281 l  -5019 -1272 l  -4991 -1264 l  -4962 -1258 l  -4934 -1254 l 
-4905 -1252 l  -4877 -1251 l  -4848 -1252 l  -4820 -1255 l  -4792 -1258 l 
-4763 -1263 l  -4735 -1269 l  -4706 -1275 l  -4678 -1283 l  -4649 -1291 l 
-4621 -1300 l  -4592 -1309 l  -4564 -1319 l  -4535 -1330 l  -4507 -1340 l 
-4478 -1350 l  -4450 -1361 l  -4421 -1371 l  -4393 -1381 l  -4364 -1391 l 
-4336 -1401 l  -4307 -1410 l  -4279 -1418 l  -4251 -1426 l  -4222 -1434 l 
-4194 -1441 l  -4165 -1447 l  -4137 -1453 l  -4108 -1458 l  -4080 -1462 l 
-4051 -1465 l  -4023 -1467 l  -3994 -1468 l  -3966 -1469 l  -3937 -1468 l 
-3909 -1466 l  -3880 -1463 l  -3852 -1458 l  -3823 -1452 l  -3795 -1446 l 
-3766 -1438 l  -3738 -1429 l  -3709 -1420 l  -3681 -1410 l  -3653 -1401 l 
-3624 -1390 l  -3596 -1380 l  -3567 -1371 l  -3539 -1361 l  -3510 -1352 l 
-3482 -1344 l  -3453 -1337 l  -3425 -1330 l  -3396 -1325 l  -3368 -1322 l 
-3339 -1319 l  -3311 -1319 l  -3282 -1320 l  -3254 -1324 l  -3225 -1329 l 
-3197 -1336 l  -3168 -1344 l  -3140 -1354 l  -3111 -1364 l  -3083 -1376 l 
-3055 -1388 l  -3026 -1401 l  -2998 -1414 l  -2969 -1427 l  -2941 -1440 l 
-2912 -1452 l  -2884 -1464 l  -2855 -1476 l  -2827 -1486 l  -2798 -1496 l 
-2770 -1504 l  -2741 -1510 l  -2713 -1515 l  -2684 -1518 l  -2656 -1520 l 
-2627 -1520 l  -2599 -1518 l  -2570 -1516 l  -2542 -1512 l  -2513 -1508 l 
-2485 -1503 l  -2457 -1497 l  -2428 -1492 l  -2400 -1486 l  -2371 -1480 l 
-2343 -1475 l  -2314 -1470 l  -2286 -1466 l  -2257 -1462 l  -2229 -1460 l 
-2200 -1459 l  -2172 -1459 l  -2143 -1460 l  -2115 -1463 l  -2086 -1468 l 
-2058 -1475 l  -2029 -1482 l  -2001 -1491 l  -1972 -1501 l  -1944 -1511 l 
-1915 -1523 l  -1887 -1535 l  -1859 -1547 l  -1830 -1560 l  -1802 -1574 l 
-1773 -1587 l  -1745 -1600 l  -1716 -1613 l  -1688 -1625 l  -1659 -1638 l 
-1631 -1649 l  -1602 -1660 l  -1574 -1670 l  -1545 -1679 l  -1517 -1687 l 
-1488 -1694 l  -1460 -1700 l  -1431 -1705 l  -1403 -1708 l  -1374 -1711 l 
-1346 -1713 l  -1317 -1713 l  -1289 -1713 l  -1261 -1711 l  -1232 -1708 l 
-1204 -1705 l  -1175 -1700 l  -1147 -1693 l  -1118 -1686 l  -1090 -1678 l 
-1061 -1668 l  -1033 -1657 l  -1004 -1645 l  -976 -1632 l  -947 -1618 l 
-919 -1602 l  -890 -1587 l  -862 -1570 l  -833 -1554 l  -805 -1537 l  -776 -1520 l 
-748 -1504 l  -719 -1488 l  -691 -1472 l  -663 -1457 l  -634 -1443 l  -606 -1430 l 
-577 -1418 l  -549 -1408 l  -520 -1399 l  -492 -1392 l  -463 -1387 l  -435 -1385 l 
-406 -1384 l  -378 -1385 l  -349 -1389 l  -321 -1393 l  -292 -1400 l  -264 -1407 l 
-235 -1415 l  -207 -1424 l  -178 -1434 l  -150 -1443 l  -122 -1453 l  -93 -1462 l 
-65 -1471 l  -36 -1479 l  -8 -1486 l  20 -1491 l  48 -1496 l  77 -1499 l 
105 -1500 l  134 -1498 l  162 -1495 l  191 -1489 l  219 -1481 l  248 -1472 l 
276 -1461 l  305 -1449 l  333 -1436 l  362 -1422 l  390 -1407 l  419 -1392 l 
447 -1377 l  475 -1361 l  504 -1346 l  532 -1331 l  561 -1317 l  589 -1304 l 
618 -1292 l  646 -1281 l  675 -1272 l  703 -1264 l  732 -1258 l  760 -1254 l 
789 -1252 l  817 -1251 l  846 -1252 l  874 -1255 l  903 -1258 l  931 -1263 l 
960 -1269 l  988 -1275 l  1017 -1283 l  1045 -1291 l  1073 -1300 l  1102 -1309 l 
1130 -1319 l  1159 -1330 l  1187 -1340 l  1216 -1350 l  1244 -1361 l  1273 -1371 l 
1301 -1381 l  1330 -1391 l  1358 -1401 l  1387 -1410 l  1415 -1418 l  1444 -1426 l 
1472 -1434 l  1501 -1441 l  1529 -1447 l  1558 -1453 l  1586 -1458 l  1615 -1462 l 
1643 -1465 l  1671 -1467 l  1700 -1468 l  1728 -1469 l  1757 -1468 l  1785 -1466 l 
1814 -1463 l  1842 -1458 l  1871 -1452 l  1899 -1446 l  1928 -1438 l  1956 -1429 l 
1985 -1420 l  2013 -1410 l  2042 -1401 l  2070 -1390 l  2099 -1380 l  2127 -1371 l 
2156 -1361 l  2184 -1352 l  2213 -1344 l  2241 -1337 l  2269 -1330 l  2298 -1325 l 
2326 -1322 l  2355 -1319 l  2383 -1319 l  2412 -1320 l  2440 -1324 l  2469 -1329 l 
2497 -1336 l  2526 -1344 l  2554 -1354 l  2583 -1364 l  2611 -1376 l  2640 -1388 l 
2668 -1401 l  2697 -1414 l  2725 -1427 l  2754 -1440 l  2782 -1452 l  2811 -1464 l 
2839 -1476 l  2867 -1486 l  2896 -1496 l  2924 -1504 l  2953 -1510 l  2981 -1515 l 
3010 -1518 l  3038 -1520 l  3067 -1520 l  3095 -1518 l  3124 -1516 l  3152 -1512 l 
3181 -1508 l  3209 -1503 l  3238 -1497 l  3266 -1492 l  3295 -1486 l  3323 -1480 l 
3352 -1475 l  3380 -1470 l  3409 -1466 l  3437 -1462 l  3465 -1460 l  3494 -1459 l 
3522 -1459 l  3551 -1460 l  3579 -1463 l  3608 -1468 l  3636 -1475 l  3665 -1482 l 
3693 -1491 l  3722 -1501 l  3750 -1511 l  3779 -1523 l  3807 -1535 l  3836 -1547 l 
3864 -1560 l  3893 -1574 l  3921 -1587 l  3950 -1600 l  3978 -1613 l  4006 -1625 l 
4035 -1638 l  4063 -1649 l  4092 -1660 l  4120 -1670 l  4149 -1679 l  4177 -1687 l 
4206 -1694 l  4234 -1700 l  4263 -1705 l  4291 -1708 l  4320 -1711 l  4348 -1713 l 
4377 -1713 l  4405 -1713 l  4434 -1711 l  4462 -1708 l  4491 -1705 l  4519 -1700 l 
4548 -1693 l  4576 -1686 l  4604 -1678 l  4633 -1668 l  4661 -1657 l  4690 -1645 l 
4718 -1632 l  4747 -1618 l  4775 -1602 l  4804 -1587 l  4832 -1570 l  4861 -1554 l 
4889 -1537 l  4918 -1520 l  4946 -1504 l  4975 -1487 l  5003 -1472 l  5032 -1457 l 
5060 -1443 l  5089 -1430 l  5117 -1418 l  5146 -1408 l  5174 -1399 l  5202 -1392 l 
5231 -1387 l  5259 -1385 l  5288 -1384 l  5316 -1385 l  5345 -1389 l  5373 -1394 l 
5402 -1400 l  5430 -1407 l  5459 -1416 l  5487 -1425 l  5516 -1434 l  5544 -1444 l 
5573 -1453 l  5601 -1462 l  5630 -1471 l  5658 -1479 l  5687 -1486 l  5715 -1492 l 
5744 -1496 l  5772 -1499 l  5800 -1500 l  5829 -1498 l  5857 -1495 l  5886 -1489 l 
5914 -1481 l  5943 -1471 l  5971 -1460 l  6000 -1448 l  6028 -1435 l  6057 -1420 l 
6085 -1406 l  6114 -1390 l  6142 -1375 l  6171 -1359 l  6199 -1344 l  6228 -1330 l 
6256 -1316 l  6285 -1303 l  6313 -1291 l  6342 -1280 l  6370 -1271 l  6398 -1264 l 
6427 -1259 l  6455 -1256 l  6484 -1254 l  6512 -1254 l  6541 -1256 l  6569 -1259 l 
6598 -1263 l  6626 -1268 l  6655 -1274 l  6683 -1282 l  6712 -1289 l  6740 -1298 l 
6769 -1307 l  6797 -1316 l  6826 -1325 l  6854 -1335 l  6883 -1344 l  6911 -1354 l 
6940 -1363 l  6968 -1371 l  6996 -1379 l  7025 -1386 l  7053 -1393 l  7082 -1400 l 
7110 -1406 l  7139 -1411 l  7167 -1416 l  7196 -1421 l  7224 -1425 l  7253 -1429 l 
7281 -1433 l  7310 -1436 l  7338 -1440 l  7367 -1443 l  7395 -1445 l  7424 -1448 l 
7452 -1451 l  7481 -1453 l  7509 -1456 l  7538 -1458 l  ps
-9102 -1445 m  -9102 -1195 l  -8852 -1195 l  -8852 -1445 l  -9102 -1445 l 
p ef
0 lw -9102 -1445 m  -9102 -1195 l  -8852 -1195 l  -8852 -1445 l  -9102 -1445 l 
pc
-8533 -1640 m  -8533 -1390 l  -8283 -1390 l  -8283 -1640 l  -8533 -1640 l 
p ef
-8533 -1640 m  -8533 -1390 l  -8283 -1390 l  -8283 -1640 l  -8533 -1640 l 
pc
-7963 -1585 m  -7963 -1335 l  -7713 -1335 l  -7713 -1585 l  -7963 -1585 l 
p ef
-7963 -1585 m  -7963 -1335 l  -7713 -1335 l  -7713 -1585 l  -7963 -1585 l 
pc
-7394 -1795 m  -7394 -1545 l  -7144 -1545 l  -7144 -1795 l  -7394 -1795 l 
p ef
-7394 -1795 m  -7394 -1545 l  -7144 -1545 l  -7144 -1795 l  -7394 -1795 l 
pc
-6824 -1770 m  -6824 -1520 l  -6574 -1520 l  -6574 -1770 l  -6824 -1770 l 
p ef
-6824 -1770 m  -6824 -1520 l  -6574 -1520 l  -6574 -1770 l  -6824 -1770 l 
pc
-6255 -1510 m  -6255 -1260 l  -6005 -1260 l  -6005 -1510 l  -6255 -1510 l 
p ef
-6255 -1510 m  -6255 -1260 l  -6005 -1260 l  -6005 -1510 l  -6255 -1510 l 
pc
-5685 -1623 m  -5685 -1373 l  -5435 -1373 l  -5435 -1623 l  -5685 -1623 l 
p ef
-5685 -1623 m  -5685 -1373 l  -5435 -1373 l  -5435 -1623 l  -5685 -1623 l 
pc
-5116 -1389 m  -5116 -1139 l  -4866 -1139 l  -4866 -1389 l  -5116 -1389 l 
p ef
-5116 -1389 m  -5116 -1139 l  -4866 -1139 l  -4866 -1389 l  -5116 -1389 l 
pc
-4546 -1496 m  -4546 -1246 l  -4296 -1246 l  -4296 -1496 l  -4546 -1496 l 
p ef
-4546 -1496 m  -4546 -1246 l  -4296 -1246 l  -4296 -1496 l  -4546 -1496 l 
pc
-3977 -1583 m  -3977 -1333 l  -3727 -1333 l  -3727 -1583 l  -3977 -1583 l 
p ef
-3977 -1583 m  -3977 -1333 l  -3727 -1333 l  -3727 -1583 l  -3977 -1583 l 
pc
-3407 -1445 m  -3407 -1195 l  -3157 -1195 l  -3157 -1445 l  -3407 -1445 l 
p ef
-3407 -1445 m  -3407 -1195 l  -3157 -1195 l  -3157 -1445 l  -3407 -1445 l 
pc
-2838 -1640 m  -2838 -1390 l  -2588 -1390 l  -2588 -1640 l  -2838 -1640 l 
p ef
-2838 -1640 m  -2838 -1390 l  -2588 -1390 l  -2588 -1640 l  -2838 -1640 l 
pc
-2268 -1585 m  -2268 -1335 l  -2018 -1335 l  -2018 -1585 l  -2268 -1585 l 
p ef
-2268 -1585 m  -2268 -1335 l  -2018 -1335 l  -2018 -1585 l  -2268 -1585 l 
pc
-1699 -1795 m  -1699 -1545 l  -1449 -1545 l  -1449 -1795 l  -1699 -1795 l 
p ef
-1699 -1795 m  -1699 -1545 l  -1449 -1545 l  -1449 -1795 l  -1699 -1795 l 
pc
-1129 -1770 m  -1129 -1520 l  -879 -1520 l  -879 -1770 l  -1129 -1770 l 
p ef
-1129 -1770 m  -1129 -1520 l  -879 -1520 l  -879 -1770 l  -1129 -1770 l 
pc
-560 -1510 m  -560 -1260 l  -310 -1260 l  -310 -1510 l  -560 -1510 l  p ef
-560 -1510 m  -560 -1260 l  -310 -1260 l  -310 -1510 l  -560 -1510 l  pc
9 -1623 m  9 -1373 l  259 -1373 l  259 -1623 l  9 -1623 l  p ef
9 -1623 m  9 -1373 l  259 -1373 l  259 -1623 l  9 -1623 l  pc
578 -1389 m  578 -1139 l  828 -1139 l  828 -1389 l  578 -1389 l  p ef
578 -1389 m  578 -1139 l  828 -1139 l  828 -1389 l  578 -1389 l  pc
1148 -1496 m  1148 -1246 l  1398 -1246 l  1398 -1496 l  1148 -1496 l  p ef
1148 -1496 m  1148 -1246 l  1398 -1246 l  1398 -1496 l  1148 -1496 l  pc
1717 -1583 m  1717 -1333 l  1967 -1333 l  1967 -1583 l  1717 -1583 l  p ef
1717 -1583 m  1717 -1333 l  1967 -1333 l  1967 -1583 l  1717 -1583 l  pc
2287 -1445 m  2287 -1195 l  2537 -1195 l  2537 -1445 l  2287 -1445 l  p ef
2287 -1445 m  2287 -1195 l  2537 -1195 l  2537 -1445 l  2287 -1445 l  pc
2856 -1640 m  2856 -1390 l  3106 -1390 l  3106 -1640 l  2856 -1640 l  p ef
2856 -1640 m  2856 -1390 l  3106 -1390 l  3106 -1640 l  2856 -1640 l  pc
3426 -1585 m  3426 -1335 l  3676 -1335 l  3676 -1585 l  3426 -1585 l  p ef
3426 -1585 m  3426 -1335 l  3676 -1335 l  3676 -1585 l  3426 -1585 l  pc
3995 -1795 m  3995 -1545 l  4245 -1545 l  4245 -1795 l  3995 -1795 l  p ef
3995 -1795 m  3995 -1545 l  4245 -1545 l  4245 -1795 l  3995 -1795 l  pc
4565 -1770 m  4565 -1520 l  4815 -1520 l  4815 -1770 l  4565 -1770 l  p ef
4565 -1770 m  4565 -1520 l  4815 -1520 l  4815 -1770 l  4565 -1770 l  pc
5134 -1510 m  5134 -1260 l  5384 -1260 l  5384 -1510 l  5134 -1510 l  p ef
5134 -1510 m  5134 -1260 l  5384 -1260 l  5384 -1510 l  5134 -1510 l  pc
5704 -1623 m  5704 -1373 l  5954 -1373 l  5954 -1623 l  5704 -1623 l  p ef
5704 -1623 m  5704 -1373 l  5954 -1373 l  5954 -1623 l  5704 -1623 l  pc
6273 -1389 m  6273 -1139 l  6523 -1139 l  6523 -1389 l  6273 -1389 l  p ef
6273 -1389 m  6273 -1139 l  6523 -1139 l  6523 -1389 l  6273 -1389 l  pc
6843 -1496 m  6843 -1246 l  7093 -1246 l  7093 -1496 l  6843 -1496 l  p ef
6843 -1496 m  6843 -1246 l  7093 -1246 l  7093 -1496 l  6843 -1496 l  pc
7413 -1583 m  7413 -1333 l  7663 -1333 l  7663 -1583 l  7413 -1583 l  p ef
7413 -1583 m  7413 -1333 l  7663 -1333 l  7663 -1583 l  7413 -1583 l  pc
79.99611 lw 1.000 0.261 0.058 c -8977 -2399 m  -8949 -2383 l  -8921 -2367 l 
-8892 -2351 l  -8864 -2334 l  -8835 -2317 l  -8807 -2299 l  -8778 -2280 l 
-8750 -2261 l  -8721 -2240 l  -8693 -2218 l  -8664 -2195 l  -8636 -2170 l 
-8607 -2144 l  -8579 -2116 l  -8550 -2086 l  -8522 -2055 l  -8493 -2021 l 
-8465 -1984 l  -8436 -1946 l  -8408 -1905 l  -8380 -1861 l  -8351 -1815 l 
-8323 -1768 l  -8294 -1720 l  -8266 -1671 l  -8237 -1623 l  -8209 -1575 l 
-8180 -1528 l  -8152 -1483 l  -8123 -1441 l  -8095 -1401 l  -8066 -1365 l 
-8038 -1333 l  -8009 -1305 l  -7981 -1282 l  -7952 -1265 l  -7924 -1255 l 
-7895 -1251 l  -7867 -1254 l  -7838 -1265 l  -7810 -1285 l  -7782 -1312 l 
-7753 -1345 l  -7725 -1384 l  -7696 -1428 l  -7668 -1476 l  -7639 -1527 l 
-7611 -1579 l  -7582 -1633 l  -7554 -1686 l  -7525 -1739 l  -7497 -1790 l 
-7468 -1838 l  -7440 -1883 l  -7411 -1924 l  -7383 -1958 l  -7354 -1987 l 
-7326 -2008 l  -7297 -2021 l  -7269 -2025 l  -7240 -2019 l  -7212 -2004 l 
-7184 -1980 l  -7155 -1950 l  -7127 -1913 l  -7098 -1871 l  -7070 -1824 l 
-7041 -1774 l  -7013 -1722 l  -6984 -1668 l  -6956 -1613 l  -6927 -1559 l 
-6899 -1506 l  -6870 -1455 l  -6842 -1408 l  -6813 -1364 l  -6785 -1326 l 
-6756 -1293 l  -6728 -1268 l  -6699 -1250 l  -6671 -1242 l  -6642 -1241 l 
-6614 -1247 l  -6586 -1261 l  -6557 -1281 l  -6529 -1306 l  -6500 -1335 l 
-6472 -1369 l  -6443 -1406 l  -6415 -1446 l  -6386 -1488 l  -6358 -1531 l 
-6329 -1575 l  -6301 -1618 l  -6272 -1661 l  -6244 -1702 l  -6215 -1742 l 
-6187 -1778 l  -6158 -1811 l  -6130 -1840 l  -6101 -1863 l  -6073 -1883 l 
-6044 -1898 l  -6016 -1909 l  -5988 -1917 l  -5959 -1922 l  -5931 -1924 l 
-5902 -1923 l  -5874 -1921 l  -5845 -1916 l  -5817 -1910 l  -5788 -1903 l 
-5760 -1896 l  -5731 -1888 l  -5703 -1880 l  -5674 -1873 l  -5646 -1866 l 
-5617 -1860 l  -5589 -1856 l  -5560 -1853 l  -5532 -1852 l  -5503 -1854 l 
-5475 -1857 l  -5446 -1862 l  -5418 -1869 l  -5390 -1877 l  -5361 -1887 l 
-5333 -1898 l  -5304 -1910 l  -5276 -1924 l  -5247 -1938 l  -5219 -1953 l 
-5190 -1969 l  -5162 -1986 l  -5133 -2003 l  -5105 -2021 l  -5076 -2039 l 
-5048 -2057 l  -5019 -2075 l  -4991 -2094 l  -4962 -2112 l  -4934 -2130 l 
-4905 -2148 l  -4877 -2165 l  -4848 -2182 l  -4820 -2198 l  -4792 -2213 l 
-4763 -2227 l  -4735 -2240 l  -4706 -2252 l  -4678 -2263 l  -4649 -2272 l 
-4621 -2280 l  -4592 -2286 l  -4564 -2290 l  -4535 -2293 l  -4507 -2293 l 
-4478 -2291 l  -4450 -2287 l  -4421 -2281 l  -4393 -2273 l  -4364 -2262 l 
-4336 -2250 l  -4307 -2236 l  -4279 -2222 l  -4251 -2207 l  -4222 -2192 l 
-4194 -2177 l  -4165 -2163 l  -4137 -2150 l  -4108 -2139 l  -4080 -2130 l 
-4051 -2123 l  -4023 -2119 l  -3994 -2118 l  -3966 -2120 l  -3937 -2127 l 
-3909 -2138 l  -3880 -2153 l  -3852 -2174 l  -3823 -2200 l  -3795 -2231 l 
-3766 -2266 l  -3738 -2305 l  -3709 -2346 l  -3681 -2390 l  -3653 -2435 l 
-3624 -2480 l  -3596 -2526 l  -3567 -2571 l  -3539 -2614 l  -3510 -2656 l 
-3482 -2694 l  -3453 -2730 l  -3425 -2761 l  -3396 -2787 l  -3368 -2807 l 
-3339 -2822 l  -3311 -2829 l  -3282 -2829 l  -3254 -2821 l  -3225 -2804 l 
-3197 -2781 l  -3168 -2752 l  -3140 -2716 l  -3111 -2675 l  -3083 -2630 l 
-3055 -2580 l  -3026 -2527 l  -2998 -2471 l  -2969 -2412 l  -2941 -2352 l 
-2912 -2291 l  -2884 -2230 l  -2855 -2168 l  -2827 -2108 l  -2798 -2048 l 
-2770 -1991 l  -2741 -1936 l  -2713 -1885 l  -2684 -1837 l  -2656 -1793 l 
-2627 -1752 l  -2599 -1715 l  -2570 -1681 l  -2542 -1651 l  -2513 -1623 l 
-2485 -1599 l  -2457 -1578 l  -2428 -1561 l  -2400 -1545 l  -2371 -1533 l 
-2343 -1524 l  -2314 -1517 l  -2286 -1512 l  -2257 -1510 l  -2229 -1511 l 
-2200 -1513 l  -2172 -1518 l  -2143 -1525 l  -2115 -1534 l  -2086 -1545 l 
-2058 -1557 l  -2029 -1571 l  -2001 -1587 l  -1972 -1603 l  -1944 -1621 l 
-1915 -1640 l  -1887 -1659 l  -1859 -1679 l  -1830 -1699 l  -1802 -1720 l 
-1773 -1740 l  -1745 -1761 l  -1716 -1781 l  -1688 -1802 l  -1659 -1821 l 
-1631 -1840 l  -1602 -1858 l  -1574 -1875 l  -1545 -1891 l  -1517 -1905 l 
-1488 -1919 l  -1460 -1931 l  -1431 -1943 l  -1403 -1953 l  -1374 -1962 l 
-1346 -1970 l  -1317 -1977 l  -1289 -1983 l  -1261 -1987 l  -1232 -1991 l 
-1204 -1994 l  -1175 -1996 l  -1147 -1996 l  -1118 -1996 l  -1090 -1995 l 
-1061 -1992 l  -1033 -1989 l  -1004 -1985 l  -976 -1980 l  -947 -1973 l 
-919 -1967 l  -890 -1959 l  -862 -1951 l  -833 -1943 l  -805 -1934 l  -776 -1925 l 
-748 -1916 l  -719 -1907 l  -691 -1897 l  -663 -1888 l  -634 -1879 l  -606 -1871 l 
-577 -1863 l  -549 -1855 l  -520 -1849 l  -492 -1842 l  -463 -1837 l  -435 -1833 l 
-406 -1830 l  -378 -1827 l  -349 -1826 l  -321 -1826 l  -292 -1826 l  -264 -1827 l 
-235 -1829 l  -207 -1832 l  -178 -1836 l  -150 -1840 l  -122 -1845 l  -93 -1851 l 
-65 -1857 l  -36 -1864 l  -8 -1871 l  20 -1879 l  48 -1887 l  77 -1895 l 
105 -1904 l  134 -1913 l  162 -1923 l  191 -1932 l  219 -1942 l  248 -1952 l 
276 -1963 l  305 -1973 l  333 -1984 l  362 -1995 l  390 -2007 l  419 -2018 l 
447 -2030 l  475 -2041 l  504 -2053 l  532 -2065 l  561 -2078 l  589 -2090 l 
618 -2103 l  646 -2115 l  675 -2128 l  703 -2141 l  732 -2154 l  760 -2166 l 
789 -2179 l  817 -2191 l  846 -2203 l  874 -2214 l  903 -2225 l  931 -2234 l 
960 -2243 l  988 -2250 l  1017 -2256 l  1045 -2261 l  1073 -2264 l  1102 -2265 l 
1130 -2264 l  1159 -2262 l  1187 -2257 l  1216 -2250 l  1244 -2240 l  1273 -2228 l 
1301 -2213 l  1330 -2196 l  1358 -2177 l  1387 -2156 l  1415 -2135 l  1444 -2113 l 
1472 -2090 l  1501 -2068 l  1529 -2047 l  1558 -2027 l  1586 -2008 l  1615 -1991 l 
1643 -1977 l  1671 -1966 l  1700 -1958 l  1728 -1953 l  1757 -1953 l  1785 -1957 l 
1814 -1966 l  1842 -1980 l  1871 -2000 l  1899 -2025 l  1928 -2055 l  1956 -2088 l 
1985 -2124 l  2013 -2163 l  2042 -2203 l  2070 -2244 l  2099 -2285 l  2127 -2326 l 
2156 -2366 l  2184 -2403 l  2213 -2438 l  2241 -2469 l  2269 -2497 l  2298 -2520 l 
2326 -2537 l  2355 -2548 l  2383 -2552 l  2412 -2549 l  2440 -2538 l  2469 -2519 l 
2497 -2493 l  2526 -2462 l  2554 -2425 l  2583 -2384 l  2611 -2340 l  2640 -2292 l 
2668 -2243 l  2697 -2192 l  2725 -2141 l  2754 -2090 l  2782 -2040 l  2811 -1992 l 
2839 -1946 l  2867 -1904 l  2896 -1866 l  2924 -1833 l  2953 -1806 l  2981 -1785 l 
3010 -1771 l  3038 -1764 l  3067 -1764 l  3095 -1769 l  3124 -1779 l  3152 -1794 l 
3181 -1814 l  3209 -1838 l  3238 -1865 l  3266 -1894 l  3295 -1927 l  3323 -1961 l 
3352 -1996 l  3380 -2033 l  3409 -2070 l  3437 -2107 l  3465 -2143 l  3494 -2179 l 
3522 -2212 l  3551 -2244 l  3579 -2274 l  3608 -2301 l  3636 -2326 l  3665 -2348 l 
3693 -2367 l  3722 -2384 l  3750 -2398 l  3779 -2409 l  3807 -2418 l  3836 -2423 l 
3864 -2426 l  3893 -2426 l  3921 -2424 l  3950 -2418 l  3978 -2409 l  4006 -2397 l 
4035 -2382 l  4063 -2365 l  4092 -2344 l  4120 -2319 l  4149 -2292 l  4177 -2262 l 
4206 -2229 l  4234 -2195 l  4263 -2158 l  4291 -2121 l  4320 -2082 l  4348 -2043 l 
4377 -2004 l  4405 -1965 l  4434 -1926 l  4462 -1889 l  4491 -1853 l  4519 -1818 l 
4548 -1786 l  4576 -1756 l  4604 -1730 l  4633 -1706 l  4661 -1686 l  4690 -1670 l 
4718 -1658 l  4747 -1651 l  4775 -1647 l  4804 -1646 l  4832 -1649 l  4861 -1654 l 
4889 -1661 l  4918 -1671 l  4946 -1682 l  4975 -1694 l  5003 -1707 l  5032 -1721 l 
5060 -1735 l  5089 -1749 l  5117 -1763 l  5146 -1776 l  5174 -1788 l  5202 -1798 l 
5231 -1806 l  5259 -1813 l  5288 -1817 l  5316 -1818 l  5345 -1818 l  5373 -1817 l 
5402 -1813 l  5430 -1809 l  5459 -1804 l  5487 -1799 l  5516 -1793 l  5544 -1788 l 
5573 -1783 l  5601 -1779 l  5630 -1776 l  5658 -1774 l  5687 -1773 l  5715 -1775 l 
5744 -1779 l  5772 -1785 l  5800 -1794 l  5829 -1806 l  5857 -1821 l  5886 -1840 l 
5914 -1861 l  5943 -1884 l  5971 -1909 l  6000 -1935 l  6028 -1963 l  6057 -1992 l 
6085 -2021 l  6114 -2049 l  6142 -2078 l  6171 -2106 l  6199 -2133 l  6228 -2158 l 
6256 -2182 l  6285 -2204 l  6313 -2223 l  6342 -2239 l  6370 -2252 l  6398 -2261 l 
6427 -2267 l  6455 -2268 l  6484 -2267 l  6512 -2262 l  6541 -2254 l  6569 -2244 l 
6598 -2232 l  6626 -2218 l  6655 -2202 l  6683 -2185 l  6712 -2167 l  6740 -2148 l 
6769 -2129 l  6797 -2109 l  6826 -2090 l  6854 -2071 l  6883 -2053 l  6911 -2036 l 
6940 -2021 l  6968 -2007 l  6996 -1995 l  7025 -1985 l  7053 -1976 l  7082 -1969 l 
7110 -1964 l  7139 -1960 l  7167 -1958 l  7196 -1957 l  7224 -1957 l  7253 -1958 l 
7281 -1960 l  7310 -1963 l  7338 -1967 l  7367 -1971 l  7395 -1976 l  7424 -1982 l 
7452 -1988 l  7481 -1994 l  7509 -2000 l  7538 -2007 l  ps
-9102 -2399 m  -8977 -2274 l  -8852 -2399 l  -8977 -2524 l  -9102 -2399 l 
p ef
0 lw -9102 -2399 m  -8977 -2274 l  -8852 -2399 l  -8977 -2524 l  -9102 -2399 l 
pc
-8533 -1905 m  -8408 -1780 l  -8283 -1905 l  -8408 -2030 l  -8533 -1905 l 
p ef
-8533 -1905 m  -8408 -1780 l  -8283 -1905 l  -8408 -2030 l  -8533 -1905 l 
pc
-7963 -1265 m  -7838 -1140 l  -7713 -1265 l  -7838 -1390 l  -7963 -1265 l 
p ef
-7963 -1265 m  -7838 -1140 l  -7713 -1265 l  -7838 -1390 l  -7963 -1265 l 
pc
-7394 -2025 m  -7269 -1900 l  -7144 -2025 l  -7269 -2150 l  -7394 -2025 l 
p ef
-7394 -2025 m  -7269 -1900 l  -7144 -2025 l  -7269 -2150 l  -7394 -2025 l 
pc
-6824 -1250 m  -6699 -1125 l  -6574 -1250 l  -6699 -1375 l  -6824 -1250 l 
p ef
-6824 -1250 m  -6699 -1125 l  -6574 -1250 l  -6699 -1375 l  -6824 -1250 l 
pc
-6255 -1840 m  -6130 -1715 l  -6005 -1840 l  -6130 -1965 l  -6255 -1840 l 
p ef
-6255 -1840 m  -6130 -1715 l  -6005 -1840 l  -6130 -1965 l  -6255 -1840 l 
pc
-5685 -1853 m  -5560 -1728 l  -5435 -1853 l  -5560 -1978 l  -5685 -1853 l 
p ef
-5685 -1853 m  -5560 -1728 l  -5435 -1853 l  -5560 -1978 l  -5685 -1853 l 
pc
-5116 -2094 m  -4991 -1969 l  -4866 -2094 l  -4991 -2219 l  -5116 -2094 l 
p ef
-5116 -2094 m  -4991 -1969 l  -4866 -2094 l  -4991 -2219 l  -5116 -2094 l 
pc
-4546 -2281 m  -4421 -2156 l  -4296 -2281 l  -4421 -2406 l  -4546 -2281 l 
p ef
-4546 -2281 m  -4421 -2156 l  -4296 -2281 l  -4421 -2406 l  -4546 -2281 l 
pc
-3977 -2174 m  -3852 -2049 l  -3727 -2174 l  -3852 -2299 l  -3977 -2174 l 
p ef
-3977 -2174 m  -3852 -2049 l  -3727 -2174 l  -3852 -2299 l  -3977 -2174 l 
pc
-3407 -2829 m  -3282 -2704 l  -3157 -2829 l  -3282 -2954 l  -3407 -2829 l 
p ef
-3407 -2829 m  -3282 -2704 l  -3157 -2829 l  -3282 -2954 l  -3407 -2829 l 
pc
-2838 -1885 m  -2713 -1760 l  -2588 -1885 l  -2713 -2010 l  -2838 -1885 l 
p ef
-2838 -1885 m  -2713 -1760 l  -2588 -1885 l  -2713 -2010 l  -2838 -1885 l 
pc
-2268 -1525 m  -2143 -1400 l  -2018 -1525 l  -2143 -1650 l  -2268 -1525 l 
p ef
-2268 -1525 m  -2143 -1400 l  -2018 -1525 l  -2143 -1650 l  -2268 -1525 l 
pc
-1699 -1875 m  -1574 -1750 l  -1449 -1875 l  -1574 -2000 l  -1699 -1875 l 
p ef
-1699 -1875 m  -1574 -1750 l  -1449 -1875 l  -1574 -2000 l  -1699 -1875 l 
pc
-1129 -1985 m  -1004 -1860 l  -879 -1985 l  -1004 -2110 l  -1129 -1985 l 
p ef
-1129 -1985 m  -1004 -1860 l  -879 -1985 l  -1004 -2110 l  -1129 -1985 l 
pc
-560 -1833 m  -435 -1708 l  -310 -1833 l  -435 -1958 l  -560 -1833 l  p ef
-560 -1833 m  -435 -1708 l  -310 -1833 l  -435 -1958 l  -560 -1833 l  pc
9 -1913 m  134 -1788 l  259 -1913 l  134 -2038 l  9 -1913 l  p ef
9 -1913 m  134 -1788 l  259 -1913 l  134 -2038 l  9 -1913 l  pc
578 -2141 m  703 -2016 l  828 -2141 l  703 -2266 l  578 -2141 l  p ef
578 -2141 m  703 -2016 l  828 -2141 l  703 -2266 l  578 -2141 l  pc
1148 -2228 m  1273 -2103 l  1398 -2228 l  1273 -2353 l  1148 -2228 l  p ef
1148 -2228 m  1273 -2103 l  1398 -2228 l  1273 -2353 l  1148 -2228 l  pc
1717 -1980 m  1842 -1855 l  1967 -1980 l  1842 -2105 l  1717 -1980 l  p ef
1717 -1980 m  1842 -1855 l  1967 -1980 l  1842 -2105 l  1717 -1980 l  pc
2287 -2549 m  2412 -2424 l  2537 -2549 l  2412 -2674 l  2287 -2549 l  p ef
2287 -2549 m  2412 -2424 l  2537 -2549 l  2412 -2674 l  2287 -2549 l  pc
2856 -1785 m  2981 -1660 l  3106 -1785 l  2981 -1910 l  2856 -1785 l  p ef
2856 -1785 m  2981 -1660 l  3106 -1785 l  2981 -1910 l  2856 -1785 l  pc
3426 -2244 m  3551 -2119 l  3676 -2244 l  3551 -2369 l  3426 -2244 l  p ef
3426 -2244 m  3551 -2119 l  3676 -2244 l  3551 -2369 l  3426 -2244 l  pc
3995 -2319 m  4120 -2194 l  4245 -2319 l  4120 -2444 l  3995 -2319 l  p ef
3995 -2319 m  4120 -2194 l  4245 -2319 l  4120 -2444 l  3995 -2319 l  pc
4565 -1670 m  4690 -1545 l  4815 -1670 l  4690 -1795 l  4565 -1670 l  p ef
4565 -1670 m  4690 -1545 l  4815 -1670 l  4690 -1795 l  4565 -1670 l  pc
5134 -1813 m  5259 -1688 l  5384 -1813 l  5259 -1938 l  5134 -1813 l  p ef
5134 -1813 m  5259 -1688 l  5384 -1813 l  5259 -1938 l  5134 -1813 l  pc
5704 -1806 m  5829 -1681 l  5954 -1806 l  5829 -1931 l  5704 -1806 l  p ef
5704 -1806 m  5829 -1681 l  5954 -1806 l  5829 -1931 l  5704 -1806 l  pc
6273 -2261 m  6398 -2136 l  6523 -2261 l  6398 -2386 l  6273 -2261 l  p ef
6273 -2261 m  6398 -2136 l  6523 -2261 l  6398 -2386 l  6273 -2261 l  pc
6843 -2007 m  6968 -1882 l  7093 -2007 l  6968 -2132 l  6843 -2007 l  p ef
6843 -2007 m  6968 -1882 l  7093 -2007 l  6968 -2132 l  6843 -2007 l  pc
7413 -2007 m  7538 -1882 l  7663 -2007 l  7538 -2132 l  7413 -2007 l  p ef
7413 -2007 m  7538 -1882 l  7663 -2007 l  7538 -2132 l  7413 -2007 l  pc
0.003 0.003 0.003 c
/Helvetica f
353 sf -9070 4242 m  185 0 (1) bs
/Helvetica f
353 sf -8501 4242 m  185 0 (2) bs
/Helvetica f
353 sf -7931 4242 m  185 0 (3) bs
/Helvetica f
353 sf -7362 4242 m  185 0 (4) bs
/Helvetica f
353 sf -6792 4242 m  185 0 (5) bs
/Helvetica f
353 sf -6223 4242 m  185 0 (6) bs
/Helvetica f
353 sf -5653 4242 m  185 0 (7) bs
/Helvetica f
353 sf -5084 4242 m  185 0 (8) bs
/Helvetica f
353 sf -4514 4242 m  185 0 (9) bs
/Helvetica f
353 sf -4037 4242 m  185 0 (1) bs
185 185 (0) bs
/Helvetica f
353 sf -3454 4242 m  185 0 (1) bs
185 159 (1) bs
/Helvetica f
353 sf -2898 4242 m  185 0 (1) bs
185 185 (2) bs
/Helvetica f
353 sf -2328 4242 m  185 0 (1) bs
185 185 (3) bs
/Helvetica f
353 sf -1759 4242 m  185 0 (1) bs
185 185 (4) bs
/Helvetica f
353 sf -1189 4242 m  185 0 (1) bs
185 185 (5) bs
/Helvetica f
353 sf -620 4242 m  185 0 (1) bs
185 185 (6) bs
/Helvetica f
353 sf -50 4242 m  185 0 (1) bs
185 185 (7) bs
/Helvetica f
353 sf 519 4242 m  185 0 (1) bs
185 185 (8) bs
/Helvetica f
353 sf 1089 4242 m  185 0 (1) bs
185 185 (9) bs
/Helvetica f
353 sf 1658 4242 m  185 0 (2) bs
185 185 (0) bs
/Helvetica f
353 sf 2228 4242 m  185 0 (2) bs
185 185 (1) bs
/Helvetica f
353 sf 2797 4242 m  185 0 (2) bs
185 185 (2) bs
/Helvetica f
353 sf 3367 4242 m  185 0 (2) bs
185 185 (3) bs
/Helvetica f
353 sf 3936 4242 m  185 0 (2) bs
185 185 (4) bs
/Helvetica f
353 sf 4506 4242 m  185 0 (2) bs
185 185 (5) bs
/Helvetica f
353 sf 5075 4242 m  185 0 (2) bs
185 185 (6) bs
/Helvetica f
353 sf 5645 4242 m  185 0 (2) bs
185 185 (7) bs
/Helvetica f
353 sf 6214 4242 m  185 0 (2) bs
185 185 (8) bs
/Helvetica f
353 sf 6784 4242 m  185 0 (2) bs
185 185 (9) bs
/Helvetica f
353 sf 7354 4242 m  185 0 (3) bs
185 185 (0) bs
/Helvetica f
353 sf -9888 3795 m  185 0 (0) bs
106 185 (,) bs
185 291 (0) bs
185 476 (0) bs
/Helvetica f
353 sf -9888 2820 m  185 0 (0) bs
106 185 (,) bs
185 291 (1) bs
185 476 (0) bs
/Helvetica f
353 sf -9888 1845 m  185 0 (0) bs
106 185 (,) bs
185 291 (2) bs
185 476 (0) bs
/Helvetica f
353 sf -9888 870 m  185 0 (0) bs
106 185 (,) bs
185 291 (3) bs
185 476 (0) bs
/Helvetica f
353 sf -9888 -105 m  185 0 (0) bs
106 185 (,) bs
185 291 (4) bs
185 476 (0) bs
/Helvetica f
353 sf -9888 -1080 m  185 0 (0) bs
106 185 (,) bs
185 291 (5) bs
185 476 (0) bs
/Helvetica f
353 sf -9888 -2056 m  185 0 (0) bs
106 185 (,) bs
185 291 (6) bs
185 476 (0) bs
/Helvetica f
353 sf -9888 -3031 m  185 0 (0) bs
106 185 (,) bs
185 291 (7) bs
185 476 (0) bs
/Helvetica f
353 sf -9888 -4005 m  185 0 (0) bs
106 185 (,) bs
185 291 (8) bs
185 476 (0) bs
79.99611 lw 0.003 0.273 0.527 c 8253 -250 m  9053 -250 l  ps
8547 -355 m  8547 -144 l  8758 -144 l  8758 -355 l  8547 -355 l  p ef
0 lw 8547 -355 m  8547 -144 l  8758 -144 l  8758 -355 l  8547 -355 l  pc
79.99611 lw 1.000 0.261 0.058 c 8253 247 m  9053 247 l  ps
8547 247 m  8653 353 l  8758 247 l  8653 142 l  8547 247 l  p ef
0 lw 8547 247 m  8653 353 l  8758 247 l  8653 142 l  8547 247 l  pc
0.003 0.003 0.003 c
/Helvetica f
353 sf 9153 -130 m  238 0 (H) bs
291 238 (M) bs
291 529 (M) bs
/Helvetica f
353 sf 9153 367 m  238 0 (K) bs
238 238 (N) bs
238 476 (N) bs
0 9006 t 
pom
count op_count sub {pop} repeat countdictstack dict_count sub {end} repeat b4_inc_state restore
%%PageTrailer
%%Trailer
%%EOF
