%!PS-Adobe-3.0 EPSF-3.0 
%%BoundingBox: 0 0 584 255
%%Pages: 0
%%Creator: LibreOffice 4.4
%%Title: none
%%CreationDate: none
%%LanguageLevel: 2
%%EndComments
%%BeginProlog
%%BeginResource: procset SDRes-Prolog 1.0 0
/b4_inc_state save def
/dict_count countdictstack def
/op_count count 1 sub def
userdict begin
0 setgray 0 setlinecap 1 setlinewidth 0 setlinejoin 10 setmiterlimit[] 0 setdash newpath
/languagelevel where {pop languagelevel 1 ne {false setstrokeadjust false setoverprint} if} if
/bdef {bind def} bind def
/c {setrgbcolor} bdef
/l {neg lineto} bdef
/rl {neg rlineto} bdef
/lc {setlinecap} bdef
/lj {setlinejoin} bdef
/lw {setlinewidth} bdef
/ml {setmiterlimit} bdef
/ld {setdash} bdef
/m {neg moveto} bdef
/ct {6 2 roll neg 6 2 roll neg 6 2 roll neg curveto} bdef
/r {rotate} bdef
/t {neg translate} bdef
/s {scale} bdef
/sw {show} bdef
/gs {gsave} bdef
/gr {grestore} bdef
/f {findfont dup length dict begin
{1 index /FID ne {def} {pop pop} ifelse} forall /Encoding ISOLatin1Encoding def
currentdict end /NFont exch definefont pop /NFont findfont} bdef
/p {closepath} bdef
/sf {scalefont setfont} bdef
/ef {eofill}bdef
/pc {closepath stroke}bdef
/ps {stroke}bdef
/pum {matrix currentmatrix}bdef
/pom {setmatrix}bdef
/bs {/aString exch def /nXOfs exch def /nWidth exch def currentpoint nXOfs 0 rmoveto pum nWidth aString stringwidth pop div 1 scale aString show pom moveto} bdef
%%EndResource
%%EndProlog
%%BeginSetup
%%EndSetup
%%Page: 1 1
%%BeginPageSetup
%%EndPageSetup
pum
0.02834 0.02831 s 
0 -9006 t
/tm matrix currentmatrix def
tm setmatrix
10301 4503 t 
1 1 s 
1.000 1.000 1.000 c 0 4502 m  -10301 4502 l  -10301 -4503 l  10301 -4503 l 
10301 4502 l  0 4502 l  p ef
0 lw 1 lj 0.703 0.703 0.703 c -214 2694 m  -7966 2694 l  -7966 -4124 l 
7538 -4124 l  7538 2694 l  -214 2694 l  pc
7538 2693 m  -7966 2693 l  ps
7538 1840 m  -7966 1840 l  ps
7538 988 m  -7966 988 l  ps
7538 135 m  -7966 135 l  ps
7538 -716 m  -7966 -716 l  ps
7538 -1568 m  -7966 -1568 l  ps
7538 -2421 m  -7966 -2421 l  ps
7538 -3273 m  -7966 -3273 l  ps
7538 -4125 m  -7966 -4125 l  ps
-7966 2843 m  -7966 2693 l  ps
-7966 2843 m  -7966 2693 l  ps
-7432 2843 m  -7432 2693 l  ps
-7432 2843 m  -7432 2693 l  ps
-6897 2843 m  -6897 2693 l  ps
-6897 2843 m  -6897 2693 l  ps
-6363 2843 m  -6363 2693 l  ps
-6363 2843 m  -6363 2693 l  ps
-5828 2843 m  -5828 2693 l  ps
-5828 2843 m  -5828 2693 l  ps
-5293 2843 m  -5293 2693 l  ps
-5293 2843 m  -5293 2693 l  ps
-4759 2843 m  -4759 2693 l  ps
-4759 2843 m  -4759 2693 l  ps
-4224 2843 m  -4224 2693 l  ps
-4224 2843 m  -4224 2693 l  ps
-3689 2843 m  -3689 2693 l  ps
-3689 2843 m  -3689 2693 l  ps
-3155 2843 m  -3155 2693 l  ps
-3155 2843 m  -3155 2693 l  ps
-2620 2843 m  -2620 2693 l  ps
-2620 2843 m  -2620 2693 l  ps
-2085 2843 m  -2085 2693 l  ps
-2085 2843 m  -2085 2693 l  ps
-1551 2843 m  -1551 2693 l  ps
-1551 2843 m  -1551 2693 l  ps
-1016 2843 m  -1016 2693 l  ps
-1016 2843 m  -1016 2693 l  ps
-481 2843 m  -481 2693 l  ps
-481 2843 m  -481 2693 l  ps
52 2843 m  52 2693 l  ps
52 2843 m  52 2693 l  ps
587 2843 m  587 2693 l  ps
587 2843 m  587 2693 l  ps
1122 2843 m  1122 2693 l  ps
1122 2843 m  1122 2693 l  ps
1656 2843 m  1656 2693 l  ps
1656 2843 m  1656 2693 l  ps
2191 2843 m  2191 2693 l  ps
2191 2843 m  2191 2693 l  ps
2726 2843 m  2726 2693 l  ps
2726 2843 m  2726 2693 l  ps
3260 2843 m  3260 2693 l  ps
3260 2843 m  3260 2693 l  ps
3795 2843 m  3795 2693 l  ps
3795 2843 m  3795 2693 l  ps
4330 2843 m  4330 2693 l  ps
4330 2843 m  4330 2693 l  ps
4864 2843 m  4864 2693 l  ps
4864 2843 m  4864 2693 l  ps
5399 2843 m  5399 2693 l  ps
5399 2843 m  5399 2693 l  ps
5934 2843 m  5934 2693 l  ps
5934 2843 m  5934 2693 l  ps
6468 2843 m  6468 2693 l  ps
6468 2843 m  6468 2693 l  ps
7003 2843 m  7003 2693 l  ps
7003 2843 m  7003 2693 l  ps
7538 2843 m  7538 2693 l  ps
7538 2843 m  7538 2693 l  ps
-7966 2693 m  7538 2693 l  ps
-8116 2693 m  -7966 2693 l  ps
-8116 2693 m  -7966 2693 l  ps
-8116 1840 m  -7966 1840 l  ps
-8116 1840 m  -7966 1840 l  ps
-8116 988 m  -7966 988 l  ps
-8116 988 m  -7966 988 l  ps
-8116 135 m  -7966 135 l  ps
-8116 135 m  -7966 135 l  ps
-8116 -716 m  -7966 -716 l  ps
-8116 -716 m  -7966 -716 l  ps
-8116 -1568 m  -7966 -1568 l  ps
-8116 -1568 m  -7966 -1568 l  ps
-8116 -2421 m  -7966 -2421 l  ps
-8116 -2421 m  -7966 -2421 l  ps
-8116 -3273 m  -7966 -3273 l  ps
-8116 -3273 m  -7966 -3273 l  ps
-8116 -4125 m  -7966 -4125 l  ps
-8116 -4125 m  -7966 -4125 l  ps
-7966 2693 m  -7966 -4125 l  ps
79.99611 lw 0.003 0.273 0.527 c -7966 -307 m  -7940 -298 l  -7913 -288 l 
-7886 -279 l  -7860 -269 l  -7833 -258 l  -7806 -247 l  -7779 -235 l  -7753 -223 l 
-7726 -209 l  -7699 -194 l  -7672 -177 l  -7646 -160 l  -7619 -140 l  -7592 -119 l 
-7566 -96 l  -7539 -71 l  -7512 -44 l  -7485 -15 l  -7459 16 l  -7432 50 l 
-7405 87 l  -7378 125 l  -7352 165 l  -7325 206 l  -7298 248 l  -7271 288 l 
-7245 328 l  -7218 367 l  -7191 403 l  -7165 436 l  -7138 466 l  -7111 492 l 
-7084 514 l  -7058 530 l  -7031 541 l  -7004 545 l  -6977 543 l  -6951 532 l 
-6924 514 l  -6897 487 l  -6870 451 l  -6844 406 l  -6817 354 l  -6790 296 l 
-6764 232 l  -6737 163 l  -6710 90 l  -6683 15 l  -6657 -61 l  -6630 -139 l 
-6603 -217 l  -6576 -295 l  -6550 -370 l  -6523 -442 l  -6496 -511 l  -6469 -574 l 
-6443 -633 l  -6416 -684 l  -6389 -728 l  -6363 -764 l  -6336 -790 l  -6309 -808 l 
-6282 -817 l  -6256 -819 l  -6229 -814 l  -6202 -803 l  -6175 -787 l  -6149 -765 l 
-6122 -739 l  -6095 -709 l  -6068 -676 l  -6042 -641 l  -6015 -604 l  -5988 -565 l 
-5962 -527 l  -5935 -488 l  -5908 -450 l  -5881 -413 l  -5855 -379 l  -5828 -346 l 
-5801 -317 l  -5774 -292 l  -5748 -269 l  -5721 -249 l  -5694 -232 l  -5667 -217 l 
-5641 -205 l  -5614 -195 l  -5587 -187 l  -5561 -182 l  -5534 -178 l  -5507 -176 l 
-5480 -176 l  -5454 -178 l  -5427 -181 l  -5400 -185 l  -5373 -190 l  -5347 -197 l 
-5320 -204 l  -5293 -212 l  -5266 -221 l  -5240 -230 l  -5213 -240 l  -5186 -250 l 
-5160 -261 l  -5133 -271 l  -5106 -282 l  -5079 -292 l  -5053 -303 l  -5026 -313 l 
-4999 -323 l  -4972 -332 l  -4946 -341 l  -4919 -349 l  -4892 -356 l  -4865 -363 l 
-4839 -368 l  -4812 -373 l  -4785 -376 l  -4759 -378 l  -4732 -379 l  -4705 -379 l 
-4678 -377 l  -4652 -375 l  -4625 -372 l  -4598 -368 l  -4571 -363 l  -4545 -358 l 
-4518 -353 l  -4491 -348 l  -4465 -343 l  -4438 -338 l  -4411 -334 l  -4384 -330 l 
-4358 -326 l  -4331 -324 l  -4304 -322 l  -4277 -321 l  -4251 -321 l  -4224 -323 l 
-4197 -326 l  -4170 -331 l  -4144 -336 l  -4117 -343 l  -4090 -351 l  -4064 -360 l 
-4037 -370 l  -4010 -381 l  -3983 -393 l  -3957 -405 l  -3930 -418 l  -3903 -431 l 
-3876 -445 l  -3850 -459 l  -3823 -473 l  -3796 -487 l  -3769 -502 l  -3743 -516 l 
-3716 -530 l  -3689 -544 l  -3663 -558 l  -3636 -572 l  -3609 -585 l  -3582 -597 l 
-3556 -609 l  -3529 -620 l  -3502 -630 l  -3475 -640 l  -3449 -648 l  -3422 -656 l 
-3395 -662 l  -3368 -667 l  -3342 -671 l  -3315 -674 l  -3288 -675 l  -3262 -674 l 
-3235 -672 l  -3208 -668 l  -3181 -663 l  -3155 -655 l  -3128 -646 l  -3101 -635 l 
-3074 -622 l  -3048 -608 l  -3021 -592 l  -2994 -575 l  -2967 -558 l  -2941 -539 l 
-2914 -520 l  -2887 -500 l  -2861 -480 l  -2834 -459 l  -2807 -439 l  -2780 -418 l 
-2754 -398 l  -2727 -378 l  -2700 -359 l  -2673 -341 l  -2647 -323 l  -2620 -307 l 
-2593 -291 l  -2566 -277 l  -2540 -263 l  -2513 -250 l  -2486 -237 l  -2460 -225 l 
-2433 -212 l  -2406 -199 l  -2379 -186 l  -2353 -172 l  -2326 -157 l  -2299 -141 l 
-2272 -124 l  -2246 -105 l  -2219 -84 l  -2192 -62 l  -2165 -38 l  -2139 -11 l 
-2112 18 l  -2085 50 l  -2059 85 l  -2032 122 l  -2005 161 l  -1978 201 l 
-1952 242 l  -1925 282 l  -1898 322 l  -1871 360 l  -1845 397 l  -1818 430 l 
-1791 461 l  -1764 487 l  -1738 510 l  -1711 527 l  -1684 538 l  -1658 543 l 
-1631 541 l  -1604 531 l  -1577 514 l  -1551 487 l  -1524 451 l  -1497 407 l 
-1470 355 l  -1444 297 l  -1417 233 l  -1390 164 l  -1364 92 l  -1337 17 l 
-1310 -60 l  -1283 -138 l  -1257 -216 l  -1230 -293 l  -1203 -369 l  -1176 -441 l 
-1150 -510 l  -1123 -574 l  -1096 -632 l  -1069 -684 l  -1043 -728 l  -1016 -764 l 
-989 -790 l  -963 -808 l  -936 -818 l  -909 -820 l  -882 -815 l  -856 -804 l 
-829 -787 l  -802 -765 l  -775 -739 l  -749 -709 l  -722 -677 l  -695 -641 l 
-668 -604 l  -642 -566 l  -615 -527 l  -588 -488 l  -562 -450 l  -535 -413 l 
-508 -379 l  -481 -346 l  -455 -317 l  -428 -292 l  -401 -269 l  -374 -249 l 
-348 -232 l  -321 -217 l  -294 -205 l  -267 -195 l  -241 -187 l  -214 -182 l 
-187 -178 l  -161 -176 l  -134 -176 l  -107 -178 l  -80 -181 l  -54 -185 l 
-27 -190 l  0 -197 l  26 -204 l  52 -212 l  79 -221 l  106 -230 l  133 -240 l 
159 -250 l  186 -261 l  213 -271 l  239 -282 l  266 -292 l  293 -303 l 
320 -313 l  346 -323 l  373 -332 l  400 -341 l  427 -349 l  453 -356 l 
480 -363 l  507 -368 l  534 -373 l  560 -376 l  587 -378 l  614 -379 l 
640 -379 l  667 -377 l  694 -375 l  721 -372 l  747 -368 l  774 -363 l 
801 -358 l  828 -353 l  854 -348 l  881 -343 l  908 -338 l  935 -334 l 
961 -330 l  988 -326 l  1015 -324 l  1041 -322 l  1068 -321 l  1095 -321 l 
1122 -323 l  1148 -326 l  1175 -331 l  1202 -336 l  1229 -343 l  1255 -351 l 
1282 -360 l  1309 -370 l  1336 -381 l  1362 -393 l  1389 -405 l  1416 -418 l 
1442 -431 l  1469 -445 l  1496 -459 l  1523 -473 l  1549 -487 l  1576 -502 l 
1603 -516 l  1630 -530 l  1656 -544 l  1683 -558 l  1710 -572 l  1736 -585 l 
1763 -597 l  1790 -609 l  1817 -620 l  1843 -630 l  1870 -640 l  1897 -648 l 
1924 -656 l  1950 -662 l  1977 -667 l  2004 -671 l  2031 -674 l  2057 -675 l 
2084 -674 l  2111 -672 l  2137 -668 l  2164 -663 l  2191 -655 l  2218 -646 l 
2244 -635 l  2271 -622 l  2298 -608 l  2325 -592 l  2351 -575 l  2378 -558 l 
2405 -539 l  2432 -520 l  2458 -500 l  2485 -480 l  2512 -459 l  2538 -439 l 
2565 -418 l  2592 -398 l  2619 -378 l  2645 -359 l  2672 -341 l  2699 -323 l 
2726 -307 l  2752 -291 l  2779 -277 l  2806 -263 l  2833 -250 l  2859 -237 l 
2886 -225 l  2913 -212 l  2939 -199 l  2966 -186 l  2993 -172 l  3020 -157 l 
3046 -141 l  3073 -124 l  3100 -105 l  3127 -84 l  3153 -62 l  3180 -38 l 
3207 -11 l  3234 18 l  3260 50 l  3287 85 l  3314 122 l  3340 161 l  3367 201 l 
3394 242 l  3421 282 l  3447 322 l  3474 360 l  3501 397 l  3528 430 l 
3554 461 l  3581 487 l  3608 510 l  3635 527 l  3661 538 l  3688 543 l 
3715 541 l  3741 531 l  3768 514 l  3795 487 l  3822 451 l  3848 407 l 
3875 355 l  3902 297 l  3929 233 l  3955 164 l  3982 92 l  4009 17 l  4036 -60 l 
4062 -138 l  4089 -216 l  4116 -293 l  4142 -368 l  4169 -441 l  4196 -510 l 
4223 -574 l  4249 -632 l  4276 -684 l  4303 -728 l  4330 -764 l  4356 -790 l 
4383 -808 l  4410 -818 l  4437 -820 l  4463 -815 l  4490 -804 l  4517 -787 l 
4543 -765 l  4570 -739 l  4597 -709 l  4624 -677 l  4650 -641 l  4677 -604 l 
4704 -566 l  4731 -527 l  4757 -488 l  4784 -450 l  4811 -413 l  4837 -379 l 
4864 -346 l  4891 -317 l  4918 -292 l  4944 -269 l  4971 -249 l  4998 -231 l 
5025 -217 l  5051 -205 l  5078 -195 l  5105 -187 l  5132 -182 l  5158 -178 l 
5185 -176 l  5212 -176 l  5238 -178 l  5265 -181 l  5292 -185 l  5319 -190 l 
5345 -197 l  5372 -204 l  5399 -212 l  5426 -221 l  5452 -231 l  5479 -240 l 
5506 -251 l  5533 -261 l  5559 -272 l  5586 -282 l  5613 -293 l  5639 -303 l 
5666 -314 l  5693 -323 l  5720 -333 l  5746 -342 l  5773 -350 l  5800 -357 l 
5827 -363 l  5853 -369 l  5880 -373 l  5907 -376 l  5934 -378 l  5960 -379 l 
5987 -378 l  6014 -376 l  6040 -374 l  6067 -370 l  6094 -366 l  6121 -361 l 
6147 -356 l  6174 -351 l  6201 -346 l  6228 -341 l  6254 -336 l  6281 -331 l 
6308 -327 l  6335 -324 l  6361 -321 l  6388 -320 l  6415 -320 l  6441 -321 l 
6468 -323 l  6495 -327 l  6522 -332 l  6548 -339 l  6575 -347 l  6602 -356 l 
6629 -366 l  6655 -377 l  6682 -389 l  6709 -401 l  6736 -414 l  6762 -428 l 
6789 -441 l  6816 -455 l  6842 -468 l  6869 -482 l  6896 -495 l  6923 -508 l 
6949 -521 l  6976 -533 l  7003 -544 l  7030 -555 l  7056 -565 l  7083 -574 l 
7110 -582 l  7137 -590 l  7163 -597 l  7190 -603 l  7217 -609 l  7243 -615 l 
7270 -620 l  7297 -625 l  7324 -629 l  7350 -633 l  7377 -637 l  7404 -640 l 
7431 -643 l  7457 -646 l  7484 -649 l  7511 -652 l  7538 -655 l  ps
-8091 -432 m  -8091 -182 l  -7841 -182 l  -7841 -432 l  -8091 -432 l  p ef
0 lw -8091 -432 m  -8091 -182 l  -7841 -182 l  -7841 -432 l  -8091 -432 l 
pc
-7557 -74 m  -7557 175 l  -7307 175 l  -7307 -74 l  -7557 -74 l  p ef
-7557 -74 m  -7557 175 l  -7307 175 l  -7307 -74 l  -7557 -74 l  pc
-7022 362 m  -7022 612 l  -6772 612 l  -6772 362 l  -7022 362 l  p ef
-7022 362 m  -7022 612 l  -6772 612 l  -6772 362 l  -7022 362 l  pc
-6488 -889 m  -6488 -639 l  -6238 -639 l  -6238 -889 l  -6488 -889 l  p ef
-6488 -889 m  -6488 -639 l  -6238 -639 l  -6238 -889 l  -6488 -889 l  pc
-5953 -471 m  -5953 -221 l  -5703 -221 l  -5703 -471 l  -5953 -471 l  p ef
-5953 -471 m  -5953 -221 l  -5703 -221 l  -5703 -471 l  -5953 -471 l  pc
-5418 -337 m  -5418 -87 l  -5168 -87 l  -5168 -337 l  -5418 -337 l  p ef
-5418 -337 m  -5418 -87 l  -5168 -87 l  -5168 -337 l  -5418 -337 l  pc
-4884 -503 m  -4884 -253 l  -4634 -253 l  -4634 -503 l  -4884 -503 l  p ef
-4884 -503 m  -4884 -253 l  -4634 -253 l  -4634 -503 l  -4884 -503 l  pc
-4349 -448 m  -4349 -198 l  -4099 -198 l  -4099 -448 l  -4349 -448 l  p ef
-4349 -448 m  -4349 -198 l  -4099 -198 l  -4099 -448 l  -4349 -448 l  pc
-3814 -669 m  -3814 -419 l  -3564 -419 l  -3564 -669 l  -3814 -669 l  p ef
-3814 -669 m  -3814 -419 l  -3564 -419 l  -3564 -669 l  -3814 -669 l  pc
-3280 -780 m  -3280 -530 l  -3030 -530 l  -3030 -780 l  -3280 -780 l  p ef
-3280 -780 m  -3280 -530 l  -3030 -530 l  -3030 -780 l  -3280 -780 l  pc
-2745 -432 m  -2745 -182 l  -2495 -182 l  -2495 -432 l  -2745 -432 l  p ef
-2745 -432 m  -2745 -182 l  -2495 -182 l  -2495 -432 l  -2745 -432 l  pc
-2210 -74 m  -2210 175 l  -1960 175 l  -1960 -74 l  -2210 -74 l  p ef
-2210 -74 m  -2210 175 l  -1960 175 l  -1960 -74 l  -2210 -74 l  pc
-1676 362 m  -1676 612 l  -1426 612 l  -1426 362 l  -1676 362 l  p ef
-1676 362 m  -1676 612 l  -1426 612 l  -1426 362 l  -1676 362 l  pc
-1141 -889 m  -1141 -639 l  -891 -639 l  -891 -889 l  -1141 -889 l  p ef
-1141 -889 m  -1141 -639 l  -891 -639 l  -891 -889 l  -1141 -889 l  pc
-606 -471 m  -606 -221 l  -356 -221 l  -356 -471 l  -606 -471 l  p ef
-606 -471 m  -606 -221 l  -356 -221 l  -356 -471 l  -606 -471 l  pc
-72 -337 m  -72 -87 l  177 -87 l  177 -337 l  -72 -337 l  p ef
-72 -337 m  -72 -87 l  177 -87 l  177 -337 l  -72 -337 l  pc
462 -503 m  462 -253 l  712 -253 l  712 -503 l  462 -503 l  p ef
462 -503 m  462 -253 l  712 -253 l  712 -503 l  462 -503 l  pc
997 -448 m  997 -198 l  1247 -198 l  1247 -448 l  997 -448 l  p ef
997 -448 m  997 -198 l  1247 -198 l  1247 -448 l  997 -448 l  pc
1531 -669 m  1531 -419 l  1781 -419 l  1781 -669 l  1531 -669 l  p ef
1531 -669 m  1531 -419 l  1781 -419 l  1781 -669 l  1531 -669 l  pc
2066 -780 m  2066 -530 l  2316 -530 l  2316 -780 l  2066 -780 l  p ef
2066 -780 m  2066 -530 l  2316 -530 l  2316 -780 l  2066 -780 l  pc
2601 -432 m  2601 -182 l  2851 -182 l  2851 -432 l  2601 -432 l  p ef
2601 -432 m  2601 -182 l  2851 -182 l  2851 -432 l  2601 -432 l  pc
3135 -74 m  3135 175 l  3385 175 l  3385 -74 l  3135 -74 l  p ef
3135 -74 m  3135 175 l  3385 175 l  3385 -74 l  3135 -74 l  pc
3670 362 m  3670 612 l  3920 612 l  3920 362 l  3670 362 l  p ef
3670 362 m  3670 612 l  3920 612 l  3920 362 l  3670 362 l  pc
4205 -889 m  4205 -639 l  4455 -639 l  4455 -889 l  4205 -889 l  p ef
4205 -889 m  4205 -639 l  4455 -639 l  4455 -889 l  4205 -889 l  pc
4739 -471 m  4739 -221 l  4989 -221 l  4989 -471 l  4739 -471 l  p ef
4739 -471 m  4739 -221 l  4989 -221 l  4989 -471 l  4739 -471 l  pc
5274 -337 m  5274 -87 l  5524 -87 l  5524 -337 l  5274 -337 l  p ef
5274 -337 m  5274 -87 l  5524 -87 l  5524 -337 l  5274 -337 l  pc
5809 -503 m  5809 -253 l  6059 -253 l  6059 -503 l  5809 -503 l  p ef
5809 -503 m  5809 -253 l  6059 -253 l  6059 -503 l  5809 -503 l  pc
6343 -448 m  6343 -198 l  6593 -198 l  6593 -448 l  6343 -448 l  p ef
6343 -448 m  6343 -198 l  6593 -198 l  6593 -448 l  6343 -448 l  pc
6878 -669 m  6878 -419 l  7128 -419 l  7128 -669 l  6878 -669 l  p ef
6878 -669 m  6878 -419 l  7128 -419 l  7128 -669 l  6878 -669 l  pc
7413 -780 m  7413 -530 l  7663 -530 l  7663 -780 l  7413 -780 l  p ef
7413 -780 m  7413 -530 l  7663 -530 l  7663 -780 l  7413 -780 l  pc
79.99611 lw 1.000 0.261 0.058 c -7966 -2651 m  -7940 -2640 l  -7913 -2630 l 
-7886 -2618 l  -7860 -2607 l  -7833 -2594 l  -7806 -2581 l  -7779 -2567 l 
-7753 -2551 l  -7726 -2535 l  -7699 -2516 l  -7672 -2496 l  -7646 -2475 l 
-7619 -2451 l  -7592 -2425 l  -7566 -2397 l  -7539 -2366 l  -7512 -2332 l 
-7485 -2296 l  -7459 -2257 l  -7432 -2214 l  -7405 -2168 l  -7378 -2120 l 
-7352 -2069 l  -7325 -2018 l  -7298 -1965 l  -7271 -1912 l  -7245 -1860 l 
-7218 -1809 l  -7191 -1759 l  -7165 -1712 l  -7138 -1669 l  -7111 -1628 l 
-7084 -1593 l  -7058 -1562 l  -7031 -1537 l  -7004 -1518 l  -6977 -1506 l 
-6951 -1502 l  -6924 -1506 l  -6897 -1519 l  -6870 -1541 l  -6844 -1571 l 
-6817 -1609 l  -6790 -1654 l  -6764 -1704 l  -6737 -1758 l  -6710 -1816 l 
-6683 -1876 l  -6657 -1937 l  -6630 -1999 l  -6603 -2060 l  -6576 -2119 l 
-6550 -2176 l  -6523 -2229 l  -6496 -2278 l  -6469 -2320 l  -6443 -2356 l 
-6416 -2384 l  -6389 -2403 l  -6363 -2413 l  -6336 -2412 l  -6309 -2401 l 
-6282 -2381 l  -6256 -2353 l  -6229 -2319 l  -6202 -2278 l  -6175 -2233 l 
-6149 -2184 l  -6122 -2131 l  -6095 -2077 l  -6068 -2021 l  -6042 -1966 l 
-6015 -1911 l  -5988 -1859 l  -5962 -1809 l  -5935 -1763 l  -5908 -1722 l 
-5881 -1687 l  -5855 -1658 l  -5828 -1638 l  -5801 -1626 l  -5774 -1622 l 
-5748 -1625 l  -5721 -1636 l  -5694 -1652 l  -5667 -1675 l  -5641 -1702 l 
-5614 -1733 l  -5587 -1768 l  -5561 -1806 l  -5534 -1846 l  -5507 -1888 l 
-5480 -1930 l  -5454 -1974 l  -5427 -2017 l  -5400 -2059 l  -5373 -2099 l 
-5347 -2137 l  -5320 -2173 l  -5293 -2205 l  -5266 -2233 l  -5240 -2257 l 
-5213 -2277 l  -5186 -2294 l  -5160 -2308 l  -5133 -2320 l  -5106 -2328 l 
-5079 -2334 l  -5053 -2338 l  -5026 -2340 l  -4999 -2341 l  -4972 -2340 l 
-4946 -2338 l  -4919 -2335 l  -4892 -2332 l  -4865 -2328 l  -4839 -2325 l 
-4812 -2321 l  -4785 -2318 l  -4759 -2316 l  -4732 -2314 l  -4705 -2313 l 
-4678 -2314 l  -4652 -2315 l  -4625 -2317 l  -4598 -2319 l  -4571 -2323 l 
-4545 -2327 l  -4518 -2332 l  -4491 -2338 l  -4465 -2344 l  -4438 -2351 l 
-4411 -2359 l  -4384 -2367 l  -4358 -2375 l  -4331 -2385 l  -4304 -2394 l 
-4277 -2405 l  -4251 -2415 l  -4224 -2426 l  -4197 -2438 l  -4170 -2449 l 
-4144 -2461 l  -4117 -2473 l  -4090 -2485 l  -4064 -2496 l  -4037 -2508 l 
-4010 -2518 l  -3983 -2528 l  -3957 -2538 l  -3930 -2546 l  -3903 -2554 l 
-3876 -2560 l  -3850 -2566 l  -3823 -2569 l  -3796 -2572 l  -3769 -2573 l 
-3743 -2572 l  -3716 -2569 l  -3689 -2565 l  -3663 -2558 l  -3636 -2550 l 
-3609 -2540 l  -3582 -2529 l  -3556 -2517 l  -3529 -2505 l  -3502 -2493 l 
-3475 -2482 l  -3449 -2470 l  -3422 -2460 l  -3395 -2451 l  -3368 -2444 l 
-3342 -2438 l  -3315 -2435 l  -3288 -2434 l  -3262 -2437 l  -3235 -2442 l 
-3208 -2451 l  -3181 -2464 l  -3155 -2482 l  -3128 -2503 l  -3101 -2529 l 
-3074 -2559 l  -3048 -2591 l  -3021 -2625 l  -2994 -2661 l  -2967 -2699 l 
-2941 -2737 l  -2914 -2775 l  -2887 -2812 l  -2861 -2848 l  -2834 -2883 l 
-2807 -2915 l  -2780 -2944 l  -2754 -2970 l  -2727 -2992 l  -2700 -3010 l 
-2673 -3022 l  -2647 -3029 l  -2620 -3029 l  -2593 -3022 l  -2566 -3009 l 
-2540 -2991 l  -2513 -2966 l  -2486 -2937 l  -2460 -2903 l  -2433 -2864 l 
-2406 -2822 l  -2379 -2777 l  -2353 -2729 l  -2326 -2679 l  -2299 -2627 l 
-2272 -2573 l  -2246 -2518 l  -2219 -2463 l  -2192 -2408 l  -2165 -2353 l 
-2139 -2298 l  -2112 -2245 l  -2085 -2194 l  -2059 -2145 l  -2032 -2098 l 
-2005 -2054 l  -1978 -2011 l  -1952 -1972 l  -1925 -1934 l  -1898 -1900 l 
-1871 -1868 l  -1845 -1838 l  -1818 -1812 l  -1791 -1788 l  -1764 -1768 l 
-1738 -1750 l  -1711 -1735 l  -1684 -1724 l  -1658 -1716 l  -1631 -1711 l 
-1604 -1710 l  -1577 -1712 l  -1551 -1717 l  -1524 -1727 l  -1497 -1739 l 
-1470 -1755 l  -1444 -1773 l  -1417 -1794 l  -1390 -1817 l  -1364 -1841 l 
-1337 -1868 l  -1310 -1896 l  -1283 -1925 l  -1257 -1955 l  -1230 -1985 l 
-1203 -2016 l  -1176 -2046 l  -1150 -2077 l  -1123 -2107 l  -1096 -2135 l 
-1069 -2163 l  -1043 -2189 l  -1016 -2214 l  -989 -2237 l  -963 -2258 l 
-936 -2277 l  -909 -2294 l  -882 -2309 l  -856 -2323 l  -829 -2335 l  -802 -2346 l 
-775 -2355 l  -749 -2362 l  -722 -2369 l  -695 -2373 l  -668 -2377 l  -642 -2380 l 
-615 -2381 l  -588 -2381 l  -562 -2381 l  -535 -2379 l  -508 -2376 l  -481 -2373 l 
-455 -2369 l  -428 -2364 l  -401 -2359 l  -374 -2352 l  -348 -2346 l  -321 -2339 l 
-294 -2331 l  -267 -2324 l  -241 -2316 l  -214 -2308 l  -187 -2300 l  -161 -2291 l 
-134 -2283 l  -107 -2275 l  -80 -2267 l  -54 -2260 l  -27 -2252 l  0 -2245 l 
26 -2239 l  52 -2233 l  79 -2227 l  106 -2222 l  133 -2218 l  159 -2214 l 
186 -2211 l  213 -2209 l  239 -2207 l  266 -2206 l  293 -2206 l  320 -2207 l 
346 -2208 l  373 -2211 l  400 -2214 l  427 -2218 l  453 -2222 l  480 -2228 l 
507 -2235 l  534 -2242 l  560 -2251 l  587 -2260 l  614 -2271 l  640 -2282 l 
667 -2294 l  694 -2307 l  721 -2321 l  747 -2335 l  774 -2349 l  801 -2364 l 
828 -2379 l  854 -2395 l  881 -2410 l  908 -2426 l  935 -2441 l  961 -2456 l 
988 -2471 l  1015 -2485 l  1041 -2499 l  1068 -2512 l  1095 -2525 l  1122 -2537 l 
1148 -2548 l  1175 -2558 l  1202 -2567 l  1229 -2576 l  1255 -2583 l  1282 -2589 l 
1309 -2594 l  1336 -2598 l  1362 -2601 l  1389 -2602 l  1416 -2602 l  1442 -2601 l 
1469 -2598 l  1496 -2594 l  1523 -2589 l  1549 -2581 l  1576 -2573 l  1603 -2563 l 
1630 -2551 l  1656 -2537 l  1683 -2522 l  1710 -2505 l  1736 -2487 l  1763 -2469 l 
1790 -2450 l  1817 -2431 l  1843 -2412 l  1870 -2394 l  1897 -2376 l  1924 -2360 l 
1950 -2346 l  1977 -2334 l  2004 -2323 l  2031 -2316 l  2057 -2311 l  2084 -2310 l 
2111 -2312 l  2137 -2318 l  2164 -2328 l  2191 -2343 l  2218 -2363 l  2244 -2387 l 
2271 -2415 l  2298 -2446 l  2325 -2479 l  2351 -2514 l  2378 -2550 l  2405 -2587 l 
2432 -2624 l  2458 -2660 l  2485 -2695 l  2512 -2728 l  2538 -2759 l  2565 -2786 l 
2592 -2810 l  2619 -2829 l  2645 -2843 l  2672 -2852 l  2699 -2854 l  2726 -2850 l 
2752 -2838 l  2779 -2820 l  2806 -2795 l  2833 -2765 l  2859 -2730 l  2886 -2692 l 
2913 -2649 l  2939 -2605 l  2966 -2558 l  2993 -2510 l  3020 -2462 l  3046 -2413 l 
3073 -2366 l  3100 -2320 l  3127 -2276 l  3153 -2235 l  3180 -2198 l  3207 -2165 l 
3234 -2137 l  3260 -2115 l  3287 -2099 l  3314 -2089 l  3340 -2084 l  3367 -2085 l 
3394 -2090 l  3421 -2100 l  3447 -2114 l  3474 -2132 l  3501 -2153 l  3528 -2177 l 
3554 -2203 l  3581 -2232 l  3608 -2262 l  3635 -2294 l  3661 -2327 l  3688 -2360 l 
3715 -2394 l  3741 -2427 l  3768 -2460 l  3795 -2492 l  3822 -2523 l  3848 -2552 l 
3875 -2580 l  3902 -2606 l  3929 -2630 l  3955 -2652 l  3982 -2673 l  4009 -2691 l 
4036 -2706 l  4062 -2720 l  4089 -2730 l  4116 -2738 l  4142 -2744 l  4169 -2746 l 
4196 -2745 l  4223 -2741 l  4249 -2734 l  4276 -2723 l  4303 -2709 l  4330 -2691 l 
4356 -2669 l  4383 -2644 l  4410 -2616 l  4437 -2585 l  4463 -2553 l  4490 -2518 l 
4517 -2482 l  4543 -2445 l  4570 -2407 l  4597 -2370 l  4624 -2332 l  4650 -2296 l 
4677 -2260 l  4704 -2226 l  4731 -2194 l  4757 -2164 l  4784 -2136 l  4811 -2112 l 
4837 -2092 l  4864 -2075 l  4891 -2063 l  4918 -2054 l  4944 -2049 l  4971 -2048 l 
4998 -2050 l  5025 -2054 l  5051 -2061 l  5078 -2070 l  5105 -2081 l  5132 -2094 l 
5158 -2108 l  5185 -2122 l  5212 -2137 l  5238 -2153 l  5265 -2168 l  5292 -2183 l 
5319 -2197 l  5345 -2210 l  5372 -2222 l  5399 -2233 l  5426 -2241 l  5452 -2248 l 
5479 -2253 l  5506 -2257 l  5533 -2259 l  5559 -2261 l  5586 -2262 l  5613 -2262 l 
5639 -2262 l  5666 -2261 l  5693 -2261 l  5720 -2261 l  5746 -2261 l  5773 -2262 l 
5800 -2263 l  5827 -2265 l  5853 -2269 l  5880 -2274 l  5907 -2280 l  5934 -2288 l 
5960 -2298 l  5987 -2309 l  6014 -2322 l  6040 -2336 l  6067 -2352 l  6094 -2368 l 
6121 -2385 l  6147 -2402 l  6174 -2419 l  6201 -2437 l  6228 -2454 l  6254 -2471 l 
6281 -2487 l  6308 -2502 l  6335 -2516 l  6361 -2529 l  6388 -2541 l  6415 -2551 l 
6441 -2559 l  6468 -2565 l  6495 -2568 l  6522 -2570 l  6548 -2569 l  6575 -2567 l 
6602 -2563 l  6629 -2558 l  6655 -2551 l  6682 -2544 l  6709 -2535 l  6736 -2526 l 
6762 -2516 l  6789 -2505 l  6816 -2494 l  6842 -2484 l  6869 -2473 l  6896 -2462 l 
6923 -2452 l  6949 -2443 l  6976 -2434 l  7003 -2426 l  7030 -2420 l  7056 -2414 l 
7083 -2409 l  7110 -2405 l  7137 -2402 l  7163 -2400 l  7190 -2399 l  7217 -2398 l 
7243 -2398 l  7270 -2399 l  7297 -2400 l  7324 -2402 l  7350 -2404 l  7377 -2406 l 
7404 -2409 l  7431 -2412 l  7457 -2416 l  7484 -2419 l  7511 -2423 l  7538 -2426 l 
ps
-8091 -2651 m  -7966 -2526 l  -7841 -2651 l  -7966 -2776 l  -8091 -2651 l 
p ef
0 lw -8091 -2651 m  -7966 -2526 l  -7841 -2651 l  -7966 -2776 l  -8091 -2651 l 
pc
-7557 -2214 m  -7432 -2089 l  -7307 -2214 l  -7432 -2339 l  -7557 -2214 l 
p ef
-7557 -2214 m  -7432 -2089 l  -7307 -2214 l  -7432 -2339 l  -7557 -2214 l 
pc
-7022 -1519 m  -6897 -1394 l  -6772 -1519 l  -6897 -1644 l  -7022 -1519 l 
p ef
-7022 -1519 m  -6897 -1394 l  -6772 -1519 l  -6897 -1644 l  -7022 -1519 l 
pc
-6488 -2413 m  -6363 -2288 l  -6238 -2413 l  -6363 -2538 l  -6488 -2413 l 
p ef
-6488 -2413 m  -6363 -2288 l  -6238 -2413 l  -6363 -2538 l  -6488 -2413 l 
pc
-5953 -1638 m  -5828 -1513 l  -5703 -1638 l  -5828 -1763 l  -5953 -1638 l 
p ef
-5953 -1638 m  -5828 -1513 l  -5703 -1638 l  -5828 -1763 l  -5953 -1638 l 
pc
-5418 -2205 m  -5293 -2080 l  -5168 -2205 l  -5293 -2330 l  -5418 -2205 l 
p ef
-5418 -2205 m  -5293 -2080 l  -5168 -2205 l  -5293 -2330 l  -5418 -2205 l 
pc
-4884 -2316 m  -4759 -2191 l  -4634 -2316 l  -4759 -2441 l  -4884 -2316 l 
p ef
-4884 -2316 m  -4759 -2191 l  -4634 -2316 l  -4759 -2441 l  -4884 -2316 l 
pc
-4349 -2426 m  -4224 -2301 l  -4099 -2426 l  -4224 -2551 l  -4349 -2426 l 
p ef
-4349 -2426 m  -4224 -2301 l  -4099 -2426 l  -4224 -2551 l  -4349 -2426 l 
pc
-3814 -2565 m  -3689 -2440 l  -3564 -2565 l  -3689 -2690 l  -3814 -2565 l 
p ef
-3814 -2565 m  -3689 -2440 l  -3564 -2565 l  -3689 -2690 l  -3814 -2565 l 
pc
-3280 -2482 m  -3155 -2357 l  -3030 -2482 l  -3155 -2607 l  -3280 -2482 l 
p ef
-3280 -2482 m  -3155 -2357 l  -3030 -2482 l  -3155 -2607 l  -3280 -2482 l 
pc
-2745 -3029 m  -2620 -2904 l  -2495 -3029 l  -2620 -3154 l  -2745 -3029 l 
p ef
-2745 -3029 m  -2620 -2904 l  -2495 -3029 l  -2620 -3154 l  -2745 -3029 l 
pc
-2210 -2194 m  -2085 -2069 l  -1960 -2194 l  -2085 -2319 l  -2210 -2194 l 
p ef
-2210 -2194 m  -2085 -2069 l  -1960 -2194 l  -2085 -2319 l  -2210 -2194 l 
pc
-1676 -1717 m  -1551 -1592 l  -1426 -1717 l  -1551 -1842 l  -1676 -1717 l 
p ef
-1676 -1717 m  -1551 -1592 l  -1426 -1717 l  -1551 -1842 l  -1676 -1717 l 
pc
-1141 -2214 m  -1016 -2089 l  -891 -2214 l  -1016 -2339 l  -1141 -2214 l 
p ef
-1141 -2214 m  -1016 -2089 l  -891 -2214 l  -1016 -2339 l  -1141 -2214 l 
pc
-606 -2373 m  -481 -2248 l  -356 -2373 l  -481 -2498 l  -606 -2373 l  p ef
-606 -2373 m  -481 -2248 l  -356 -2373 l  -481 -2498 l  -606 -2373 l  pc
-72 -2233 m  52 -2108 l  177 -2233 l  52 -2358 l  -72 -2233 l  p ef
-72 -2233 m  52 -2108 l  177 -2233 l  52 -2358 l  -72 -2233 l  pc
462 -2260 m  587 -2135 l  712 -2260 l  587 -2385 l  462 -2260 l  p ef
462 -2260 m  587 -2135 l  712 -2260 l  587 -2385 l  462 -2260 l  pc
997 -2537 m  1122 -2412 l  1247 -2537 l  1122 -2662 l  997 -2537 l  p ef
997 -2537 m  1122 -2412 l  1247 -2537 l  1122 -2662 l  997 -2537 l  pc
1531 -2537 m  1656 -2412 l  1781 -2537 l  1656 -2662 l  1531 -2537 l  p ef
1531 -2537 m  1656 -2412 l  1781 -2537 l  1656 -2662 l  1531 -2537 l  pc
2066 -2343 m  2191 -2218 l  2316 -2343 l  2191 -2468 l  2066 -2343 l  p ef
2066 -2343 m  2191 -2218 l  2316 -2343 l  2191 -2468 l  2066 -2343 l  pc
2601 -2850 m  2726 -2725 l  2851 -2850 l  2726 -2975 l  2601 -2850 l  p ef
2601 -2850 m  2726 -2725 l  2851 -2850 l  2726 -2975 l  2601 -2850 l  pc
3135 -2115 m  3260 -1990 l  3385 -2115 l  3260 -2240 l  3135 -2115 l  p ef
3135 -2115 m  3260 -1990 l  3385 -2115 l  3260 -2240 l  3135 -2115 l  pc
3670 -2492 m  3795 -2367 l  3920 -2492 l  3795 -2617 l  3670 -2492 l  p ef
3670 -2492 m  3795 -2367 l  3920 -2492 l  3795 -2617 l  3670 -2492 l  pc
4205 -2691 m  4330 -2566 l  4455 -2691 l  4330 -2816 l  4205 -2691 l  p ef
4205 -2691 m  4330 -2566 l  4455 -2691 l  4330 -2816 l  4205 -2691 l  pc
4739 -2075 m  4864 -1950 l  4989 -2075 l  4864 -2200 l  4739 -2075 l  p ef
4739 -2075 m  4864 -1950 l  4989 -2075 l  4864 -2200 l  4739 -2075 l  pc
5274 -2233 m  5399 -2108 l  5524 -2233 l  5399 -2358 l  5274 -2233 l  p ef
5274 -2233 m  5399 -2108 l  5524 -2233 l  5399 -2358 l  5274 -2233 l  pc
5809 -2288 m  5934 -2163 l  6059 -2288 l  5934 -2413 l  5809 -2288 l  p ef
5809 -2288 m  5934 -2163 l  6059 -2288 l  5934 -2413 l  5809 -2288 l  pc
6343 -2565 m  6468 -2440 l  6593 -2565 l  6468 -2690 l  6343 -2565 l  p ef
6343 -2565 m  6468 -2440 l  6593 -2565 l  6468 -2690 l  6343 -2565 l  pc
6878 -2426 m  7003 -2301 l  7128 -2426 l  7003 -2551 l  6878 -2426 l  p ef
6878 -2426 m  7003 -2301 l  7128 -2426 l  7003 -2551 l  6878 -2426 l  pc
7413 -2426 m  7538 -2301 l  7663 -2426 l  7538 -2551 l  7413 -2426 l  p ef
7413 -2426 m  7538 -2301 l  7663 -2426 l  7538 -2551 l  7413 -2426 l  pc
0.003 0.003 0.003 c
/Helvetica f
353 sf -8059 3261 m  185 0 (1) bs
/Helvetica f
353 sf -7525 3261 m  185 0 (2) bs
/Helvetica f
353 sf -6990 3261 m  185 0 (3) bs
/Helvetica f
353 sf -6456 3261 m  185 0 (4) bs
/Helvetica f
353 sf -5921 3261 m  185 0 (5) bs
/Helvetica f
353 sf -5386 3261 m  185 0 (6) bs
/Helvetica f
353 sf -4852 3261 m  185 0 (7) bs
/Helvetica f
353 sf -4317 3261 m  185 0 (8) bs
/Helvetica f
353 sf -3782 3261 m  185 0 (9) bs
/Helvetica f
353 sf -3340 3261 m  185 0 (1) bs
185 185 (0) bs
/Helvetica f
353 sf -2792 3261 m  185 0 (1) bs
185 159 (1) bs
/Helvetica f
353 sf -2270 3261 m  185 0 (1) bs
185 185 (2) bs
/Helvetica f
353 sf -1736 3261 m  185 0 (1) bs
185 185 (3) bs
/Helvetica f
353 sf -1201 3261 m  185 0 (1) bs
185 185 (4) bs
/Helvetica f
353 sf -666 3261 m  185 0 (1) bs
185 185 (5) bs
/Helvetica f
353 sf -132 3261 m  185 0 (1) bs
185 185 (6) bs
/Helvetica f
353 sf 403 3261 m  185 0 (1) bs
185 185 (7) bs
/Helvetica f
353 sf 938 3261 m  185 0 (1) bs
185 185 (8) bs
/Helvetica f
353 sf 1472 3261 m  185 0 (1) bs
185 185 (9) bs
/Helvetica f
353 sf 2007 3261 m  185 0 (2) bs
185 185 (0) bs
/Helvetica f
353 sf 2542 3261 m  185 0 (2) bs
185 185 (1) bs
/Helvetica f
353 sf 3076 3261 m  185 0 (2) bs
185 185 (2) bs
/Helvetica f
353 sf 3611 3261 m  185 0 (2) bs
185 185 (3) bs
/Helvetica f
353 sf 4146 3261 m  185 0 (2) bs
185 185 (4) bs
/Helvetica f
353 sf 4680 3261 m  185 0 (2) bs
185 185 (5) bs
/Helvetica f
353 sf 5215 3261 m  185 0 (2) bs
185 185 (6) bs
/Helvetica f
353 sf 5750 3261 m  185 0 (2) bs
185 185 (7) bs
/Helvetica f
353 sf 6284 3261 m  185 0 (2) bs
185 185 (8) bs
/Helvetica f
353 sf 6819 3261 m  185 0 (2) bs
185 185 (9) bs
/Helvetica f
353 sf 7354 3261 m  185 0 (3) bs
185 185 (0) bs
/Helvetica f
353 sf -8877 2814 m  185 0 (0) bs
106 185 (,) bs
185 291 (0) bs
185 476 (0) bs
/Helvetica f
353 sf -8877 1961 m  185 0 (0) bs
106 185 (,) bs
185 291 (1) bs
185 476 (0) bs
/Helvetica f
353 sf -8877 1109 m  185 0 (0) bs
106 185 (,) bs
185 291 (2) bs
185 476 (0) bs
/Helvetica f
353 sf -8877 256 m  185 0 (0) bs
106 185 (,) bs
185 291 (3) bs
185 476 (0) bs
/Helvetica f
353 sf -8877 -596 m  185 0 (0) bs
106 185 (,) bs
185 291 (4) bs
185 476 (0) bs
/Helvetica f
353 sf -8877 -1448 m  185 0 (0) bs
106 185 (,) bs
185 291 (5) bs
185 476 (0) bs
/Helvetica f
353 sf -8877 -2301 m  185 0 (0) bs
106 185 (,) bs
185 291 (6) bs
185 476 (0) bs
/Helvetica f
353 sf -8877 -3153 m  185 0 (0) bs
106 185 (,) bs
185 291 (7) bs
185 476 (0) bs
/Helvetica f
353 sf -8877 -4005 m  185 0 (0) bs
106 185 (,) bs
185 291 (8) bs
185 476 (0) bs
79.99611 lw 0.003 0.273 0.527 c 8253 -250 m  9053 -250 l  ps
8547 -355 m  8547 -144 l  8758 -144 l  8758 -355 l  8547 -355 l  p ef
0 lw 8547 -355 m  8547 -144 l  8758 -144 l  8758 -355 l  8547 -355 l  pc
79.99611 lw 1.000 0.261 0.058 c 8253 247 m  9053 247 l  ps
8547 247 m  8653 353 l  8758 247 l  8653 142 l  8547 247 l  p ef
0 lw 8547 247 m  8653 353 l  8758 247 l  8653 142 l  8547 247 l  pc
0.003 0.003 0.003 c
/Helvetica f
353 sf 9153 -130 m  238 0 (H) bs
291 238 (M) bs
291 529 (M) bs
/Helvetica f
353 sf 9153 367 m  238 0 (K) bs
238 238 (N) bs
238 476 (N) bs
/Helvetica f
318 sf -616 3908 m  79 0 (i) bs
/Helvetica f
318 sf -9464 -399 m  gs 90.0 r 185 0 (e) bs
gr
0 9006 t 
pom
count op_count sub {pop} repeat countdictstack dict_count sub {end} repeat b4_inc_state restore
%%PageTrailer
%%Trailer
%%EOF
