%!PS-Adobe-3.0 EPSF-3.0 
%%BoundingBox: 0 0 584 255
%%Pages: 0
%%Creator: LibreOffice 4.4
%%Title: none
%%CreationDate: none
%%LanguageLevel: 2
%%EndComments
%%BeginProlog
%%BeginResource: procset SDRes-Prolog 1.0 0
/b4_inc_state save def
/dict_count countdictstack def
/op_count count 1 sub def
userdict begin
0 setgray 0 setlinecap 1 setlinewidth 0 setlinejoin 10 setmiterlimit[] 0 setdash newpath
/languagelevel where {pop languagelevel 1 ne {false setstrokeadjust false setoverprint} if} if
/bdef {bind def} bind def
/c {setrgbcolor} bdef
/l {neg lineto} bdef
/rl {neg rlineto} bdef
/lc {setlinecap} bdef
/lj {setlinejoin} bdef
/lw {setlinewidth} bdef
/ml {setmiterlimit} bdef
/ld {setdash} bdef
/m {neg moveto} bdef
/ct {6 2 roll neg 6 2 roll neg 6 2 roll neg curveto} bdef
/r {rotate} bdef
/t {neg translate} bdef
/s {scale} bdef
/sw {show} bdef
/gs {gsave} bdef
/gr {grestore} bdef
/f {findfont dup length dict begin
{1 index /FID ne {def} {pop pop} ifelse} forall /Encoding ISOLatin1Encoding def
currentdict end /NFont exch definefont pop /NFont findfont} bdef
/p {closepath} bdef
/sf {scalefont setfont} bdef
/ef {eofill}bdef
/pc {closepath stroke}bdef
/ps {stroke}bdef
/pum {matrix currentmatrix}bdef
/pom {setmatrix}bdef
/bs {/aString exch def /nXOfs exch def /nWidth exch def currentpoint nXOfs 0 rmoveto pum nWidth aString stringwidth pop div 1 scale aString show pom moveto} bdef
%%EndResource
%%EndProlog
%%BeginSetup
%%EndSetup
%%Page: 1 1
%%BeginPageSetup
%%EndPageSetup
pum
0.02834 0.02831 s 
0 -9006 t
/tm matrix currentmatrix def
tm setmatrix
10301 4503 t 
1 1 s 
1.000 1.000 1.000 c 0 4502 m  -10301 4502 l  -10301 -4503 l  10301 -4503 l 
10301 4502 l  0 4502 l  p ef
0 lw 1 lj 0.703 0.703 0.703 c -214 2694 m  -7966 2694 l  -7966 -4124 l 
7538 -4124 l  7538 2694 l  -214 2694 l  pc
7538 2693 m  -7966 2693 l  ps
7538 1840 m  -7966 1840 l  ps
7538 988 m  -7966 988 l  ps
7538 135 m  -7966 135 l  ps
7538 -716 m  -7966 -716 l  ps
7538 -1568 m  -7966 -1568 l  ps
7538 -2421 m  -7966 -2421 l  ps
7538 -3273 m  -7966 -3273 l  ps
7538 -4125 m  -7966 -4125 l  ps
-7966 2843 m  -7966 2693 l  ps
-7966 2843 m  -7966 2693 l  ps
-7432 2843 m  -7432 2693 l  ps
-7432 2843 m  -7432 2693 l  ps
-6897 2843 m  -6897 2693 l  ps
-6897 2843 m  -6897 2693 l  ps
-6363 2843 m  -6363 2693 l  ps
-6363 2843 m  -6363 2693 l  ps
-5828 2843 m  -5828 2693 l  ps
-5828 2843 m  -5828 2693 l  ps
-5293 2843 m  -5293 2693 l  ps
-5293 2843 m  -5293 2693 l  ps
-4759 2843 m  -4759 2693 l  ps
-4759 2843 m  -4759 2693 l  ps
-4224 2843 m  -4224 2693 l  ps
-4224 2843 m  -4224 2693 l  ps
-3689 2843 m  -3689 2693 l  ps
-3689 2843 m  -3689 2693 l  ps
-3155 2843 m  -3155 2693 l  ps
-3155 2843 m  -3155 2693 l  ps
-2620 2843 m  -2620 2693 l  ps
-2620 2843 m  -2620 2693 l  ps
-2085 2843 m  -2085 2693 l  ps
-2085 2843 m  -2085 2693 l  ps
-1551 2843 m  -1551 2693 l  ps
-1551 2843 m  -1551 2693 l  ps
-1016 2843 m  -1016 2693 l  ps
-1016 2843 m  -1016 2693 l  ps
-481 2843 m  -481 2693 l  ps
-481 2843 m  -481 2693 l  ps
52 2843 m  52 2693 l  ps
52 2843 m  52 2693 l  ps
587 2843 m  587 2693 l  ps
587 2843 m  587 2693 l  ps
1122 2843 m  1122 2693 l  ps
1122 2843 m  1122 2693 l  ps
1656 2843 m  1656 2693 l  ps
1656 2843 m  1656 2693 l  ps
2191 2843 m  2191 2693 l  ps
2191 2843 m  2191 2693 l  ps
2726 2843 m  2726 2693 l  ps
2726 2843 m  2726 2693 l  ps
3260 2843 m  3260 2693 l  ps
3260 2843 m  3260 2693 l  ps
3795 2843 m  3795 2693 l  ps
3795 2843 m  3795 2693 l  ps
4330 2843 m  4330 2693 l  ps
4330 2843 m  4330 2693 l  ps
4864 2843 m  4864 2693 l  ps
4864 2843 m  4864 2693 l  ps
5399 2843 m  5399 2693 l  ps
5399 2843 m  5399 2693 l  ps
5934 2843 m  5934 2693 l  ps
5934 2843 m  5934 2693 l  ps
6468 2843 m  6468 2693 l  ps
6468 2843 m  6468 2693 l  ps
7003 2843 m  7003 2693 l  ps
7003 2843 m  7003 2693 l  ps
7538 2843 m  7538 2693 l  ps
7538 2843 m  7538 2693 l  ps
-7966 2693 m  7538 2693 l  ps
-8116 2693 m  -7966 2693 l  ps
-8116 2693 m  -7966 2693 l  ps
-8116 1840 m  -7966 1840 l  ps
-8116 1840 m  -7966 1840 l  ps
-8116 988 m  -7966 988 l  ps
-8116 988 m  -7966 988 l  ps
-8116 135 m  -7966 135 l  ps
-8116 135 m  -7966 135 l  ps
-8116 -716 m  -7966 -716 l  ps
-8116 -716 m  -7966 -716 l  ps
-8116 -1568 m  -7966 -1568 l  ps
-8116 -1568 m  -7966 -1568 l  ps
-8116 -2421 m  -7966 -2421 l  ps
-8116 -2421 m  -7966 -2421 l  ps
-8116 -3273 m  -7966 -3273 l  ps
-8116 -3273 m  -7966 -3273 l  ps
-8116 -4125 m  -7966 -4125 l  ps
-8116 -4125 m  -7966 -4125 l  ps
-7966 2693 m  -7966 -4125 l  ps
79.99611 lw 0.003 0.273 0.527 c -7966 -670 m  -7940 -687 l  -7913 -703 l 
-7886 -720 l  -7860 -736 l  -7833 -752 l  -7806 -767 l  -7779 -781 l  -7753 -795 l 
-7726 -808 l  -7699 -819 l  -7672 -830 l  -7646 -839 l  -7619 -846 l  -7592 -852 l 
-7566 -857 l  -7539 -859 l  -7512 -860 l  -7485 -859 l  -7459 -855 l  -7432 -850 l 
-7405 -841 l  -7378 -831 l  -7352 -820 l  -7325 -807 l  -7298 -793 l  -7271 -778 l 
-7245 -763 l  -7218 -748 l  -7191 -734 l  -7165 -721 l  -7138 -708 l  -7111 -697 l 
-7084 -689 l  -7058 -682 l  -7031 -678 l  -7004 -677 l  -6977 -679 l  -6951 -684 l 
-6924 -694 l  -6897 -708 l  -6870 -727 l  -6844 -750 l  -6817 -776 l  -6790 -806 l 
-6764 -838 l  -6737 -872 l  -6710 -907 l  -6683 -943 l  -6657 -979 l  -6630 -1015 l 
-6603 -1050 l  -6576 -1084 l  -6550 -1115 l  -6523 -1145 l  -6496 -1171 l 
-6469 -1193 l  -6443 -1211 l  -6416 -1224 l  -6389 -1232 l  -6363 -1235 l 
-6336 -1230 l  -6309 -1220 l  -6282 -1205 l  -6256 -1185 l  -6229 -1161 l 
-6202 -1133 l  -6175 -1101 l  -6149 -1068 l  -6122 -1032 l  -6095 -995 l 
-6068 -957 l  -6042 -919 l  -6015 -881 l  -5988 -844 l  -5962 -808 l  -5935 -774 l 
-5908 -743 l  -5881 -715 l  -5855 -690 l  -5828 -670 l  -5801 -654 l  -5774 -643 l 
-5748 -635 l  -5721 -632 l  -5694 -632 l  -5667 -636 l  -5641 -642 l  -5614 -651 l 
-5587 -663 l  -5561 -677 l  -5534 -692 l  -5507 -709 l  -5480 -728 l  -5454 -747 l 
-5427 -767 l  -5400 -787 l  -5373 -808 l  -5347 -828 l  -5320 -848 l  -5293 -867 l 
-5266 -884 l  -5240 -901 l  -5213 -917 l  -5186 -932 l  -5160 -945 l  -5133 -958 l 
-5106 -970 l  -5079 -981 l  -5053 -990 l  -5026 -999 l  -4999 -1007 l 
-4972 -1014 l  -4946 -1020 l  -4919 -1025 l  -4892 -1029 l  -4865 -1033 l 
-4839 -1035 l  -4812 -1037 l  -4785 -1038 l  -4759 -1038 l  -4732 -1037 l 
-4705 -1036 l  -4678 -1034 l  -4652 -1031 l  -4625 -1028 l  -4598 -1024 l 
-4571 -1020 l  -4545 -1015 l  -4518 -1010 l  -4491 -1005 l  -4465 -1000 l 
-4438 -994 l  -4411 -989 l  -4384 -983 l  -4358 -977 l  -4331 -972 l  -4304 -967 l 
-4277 -962 l  -4251 -957 l  -4224 -952 l  -4197 -948 l  -4170 -944 l  -4144 -941 l 
-4117 -938 l  -4090 -936 l  -4064 -934 l  -4037 -933 l  -4010 -932 l  -3983 -931 l 
-3957 -932 l  -3930 -932 l  -3903 -934 l  -3876 -936 l  -3850 -939 l  -3823 -942 l 
-3796 -946 l  -3769 -951 l  -3743 -956 l  -3716 -962 l  -3689 -969 l  -3663 -977 l 
-3636 -985 l  -3609 -994 l  -3582 -1003 l  -3556 -1012 l  -3529 -1021 l 
-3502 -1030 l  -3475 -1038 l  -3449 -1045 l  -3422 -1052 l  -3395 -1058 l 
-3368 -1063 l  -3342 -1066 l  -3315 -1068 l  -3288 -1068 l  -3262 -1066 l 
-3235 -1063 l  -3208 -1057 l  -3181 -1049 l  -3155 -1038 l  -3128 -1024 l 
-3101 -1008 l  -3074 -991 l  -3048 -971 l  -3021 -950 l  -2994 -927 l 
-2967 -904 l  -2941 -880 l  -2914 -856 l  -2887 -833 l  -2861 -809 l  -2834 -787 l 
-2807 -765 l  -2780 -745 l  -2754 -726 l  -2727 -710 l  -2700 -695 l  -2673 -684 l 
-2647 -675 l  -2620 -670 l  -2593 -668 l  -2566 -669 l  -2540 -673 l  -2513 -680 l 
-2486 -689 l  -2460 -700 l  -2433 -712 l  -2406 -725 l  -2379 -739 l  -2353 -754 l 
-2326 -769 l  -2299 -783 l  -2272 -797 l  -2246 -810 l  -2219 -822 l  -2192 -832 l 
-2165 -840 l  -2139 -846 l  -2112 -849 l  -2085 -850 l  -2059 -847 l  -2032 -841 l 
-2005 -832 l  -1978 -822 l  -1952 -810 l  -1925 -796 l  -1898 -782 l  -1871 -767 l 
-1845 -752 l  -1818 -738 l  -1791 -725 l  -1764 -712 l  -1738 -702 l  -1711 -693 l 
-1684 -687 l  -1658 -684 l  -1631 -684 l  -1604 -688 l  -1577 -696 l  -1551 -708 l 
-1524 -726 l  -1497 -747 l  -1470 -773 l  -1444 -802 l  -1417 -833 l  -1390 -867 l 
-1364 -902 l  -1337 -938 l  -1310 -974 l  -1283 -1010 l  -1257 -1046 l 
-1230 -1080 l  -1203 -1112 l  -1176 -1142 l  -1150 -1168 l  -1123 -1191 l 
-1096 -1210 l  -1069 -1224 l  -1043 -1232 l  -1016 -1235 l  -989 -1231 l 
-963 -1221 l  -936 -1206 l  -909 -1186 l  -882 -1162 l  -856 -1134 l  -829 -1103 l 
-802 -1069 l  -775 -1033 l  -749 -996 l  -722 -958 l  -695 -920 l  -668 -882 l 
-642 -845 l  -615 -809 l  -588 -775 l  -562 -743 l  -535 -715 l  -508 -690 l 
-481 -670 l  -455 -654 l  -428 -642 l  -401 -635 l  -374 -632 l  -348 -632 l 
-321 -635 l  -294 -642 l  -267 -651 l  -241 -663 l  -214 -676 l  -187 -692 l 
-161 -709 l  -134 -728 l  -107 -747 l  -80 -767 l  -54 -787 l  -27 -808 l 
0 -828 l  26 -848 l  52 -867 l  79 -885 l  106 -901 l  133 -917 l  159 -932 l 
186 -946 l  213 -958 l  239 -970 l  266 -981 l  293 -990 l  320 -999 l 
346 -1007 l  373 -1014 l  400 -1020 l  427 -1025 l  453 -1029 l  480 -1033 l 
507 -1035 l  534 -1037 l  560 -1038 l  587 -1038 l  614 -1037 l  640 -1036 l 
667 -1034 l  694 -1031 l  721 -1028 l  747 -1024 l  774 -1020 l  801 -1015 l 
828 -1010 l  854 -1005 l  881 -1000 l  908 -994 l  935 -989 l  961 -983 l 
988 -977 l  1015 -972 l  1041 -967 l  1068 -962 l  1095 -957 l  1122 -952 l 
1148 -948 l  1175 -944 l  1202 -941 l  1229 -938 l  1255 -936 l  1282 -934 l 
1309 -933 l  1336 -932 l  1362 -931 l  1389 -932 l  1416 -932 l  1442 -934 l 
1469 -936 l  1496 -939 l  1523 -942 l  1549 -946 l  1576 -951 l  1603 -956 l 
1630 -962 l  1656 -969 l  1683 -977 l  1710 -985 l  1736 -994 l  1763 -1003 l 
1790 -1012 l  1817 -1021 l  1843 -1030 l  1870 -1038 l  1897 -1045 l  1924 -1052 l 
1950 -1058 l  1977 -1063 l  2004 -1066 l  2031 -1068 l  2057 -1068 l  2084 -1066 l 
2111 -1063 l  2137 -1057 l  2164 -1049 l  2191 -1038 l  2218 -1024 l  2244 -1008 l 
2271 -991 l  2298 -971 l  2325 -950 l  2351 -927 l  2378 -904 l  2405 -880 l 
2432 -856 l  2458 -833 l  2485 -809 l  2512 -787 l  2538 -765 l  2565 -745 l 
2592 -726 l  2619 -710 l  2645 -695 l  2672 -684 l  2699 -675 l  2726 -670 l 
2752 -668 l  2779 -669 l  2806 -673 l  2833 -680 l  2859 -689 l  2886 -700 l 
2913 -712 l  2939 -725 l  2966 -739 l  2993 -754 l  3020 -769 l  3046 -783 l 
3073 -797 l  3100 -810 l  3127 -822 l  3153 -832 l  3180 -840 l  3207 -846 l 
3234 -849 l  3260 -850 l  3287 -847 l  3314 -841 l  3340 -832 l  3367 -822 l 
3394 -810 l  3421 -796 l  3447 -782 l  3474 -767 l  3501 -752 l  3528 -738 l 
3554 -725 l  3581 -712 l  3608 -702 l  3635 -693 l  3661 -687 l  3688 -684 l 
3715 -684 l  3741 -688 l  3768 -696 l  3795 -708 l  3822 -726 l  3848 -747 l 
3875 -773 l  3902 -802 l  3929 -833 l  3955 -867 l  3982 -902 l  4009 -938 l 
4036 -974 l  4062 -1010 l  4089 -1046 l  4116 -1080 l  4142 -1112 l  4169 -1142 l 
4196 -1168 l  4223 -1191 l  4249 -1210 l  4276 -1224 l  4303 -1232 l  4330 -1235 l 
4356 -1231 l  4383 -1221 l  4410 -1206 l  4437 -1186 l  4463 -1162 l  4490 -1134 l 
4517 -1103 l  4543 -1069 l  4570 -1033 l  4597 -996 l  4624 -958 l  4650 -920 l 
4677 -882 l  4704 -845 l  4731 -809 l  4757 -775 l  4784 -743 l  4811 -715 l 
4837 -690 l  4864 -670 l  4891 -654 l  4918 -642 l  4944 -635 l  4971 -632 l 
4998 -632 l  5025 -635 l  5051 -642 l  5078 -651 l  5105 -662 l  5132 -676 l 
5158 -692 l  5185 -709 l  5212 -727 l  5238 -747 l  5265 -767 l  5292 -787 l 
5319 -808 l  5345 -828 l  5372 -848 l  5399 -867 l  5426 -885 l  5452 -902 l 
5479 -917 l  5506 -932 l  5533 -946 l  5559 -959 l  5586 -971 l  5613 -981 l 
5639 -991 l  5666 -1000 l  5693 -1008 l  5720 -1015 l  5746 -1021 l  5773 -1026 l 
5800 -1030 l  5827 -1033 l  5853 -1036 l  5880 -1037 l  5907 -1038 l  5934 -1038 l 
5960 -1037 l  5987 -1035 l  6014 -1032 l  6040 -1029 l  6067 -1026 l  6094 -1021 l 
6121 -1017 l  6147 -1012 l  6174 -1007 l  6201 -1001 l  6228 -996 l  6254 -990 l 
6281 -985 l  6308 -979 l  6335 -974 l  6361 -969 l  6388 -964 l  6415 -960 l 
6441 -956 l  6468 -952 l  6495 -949 l  6522 -947 l  6548 -945 l  6575 -944 l 
6602 -943 l  6629 -943 l  6655 -943 l  6682 -943 l  6709 -944 l  6736 -945 l 
6762 -946 l  6789 -948 l  6816 -950 l  6842 -952 l  6869 -955 l  6896 -958 l 
6923 -960 l  6949 -963 l  6976 -966 l  7003 -969 l  7030 -972 l  7056 -976 l 
7083 -979 l  7110 -982 l  7137 -985 l  7163 -989 l  7190 -992 l  7217 -996 l 
7243 -999 l  7270 -1002 l  7297 -1006 l  7324 -1009 l  7350 -1013 l  7377 -1016 l 
7404 -1020 l  7431 -1023 l  7457 -1027 l  7484 -1031 l  7511 -1034 l  7538 -1038 l 
ps
-8091 -795 m  -8091 -545 l  -7841 -545 l  -7841 -795 l  -8091 -795 l  p ef
0 lw -8091 -795 m  -8091 -545 l  -7841 -545 l  -7841 -795 l  -8091 -795 l 
pc
-7557 -975 m  -7557 -725 l  -7307 -725 l  -7307 -975 l  -7557 -975 l  p ef
-7557 -975 m  -7557 -725 l  -7307 -725 l  -7307 -975 l  -7557 -975 l  pc
-7022 -833 m  -7022 -583 l  -6772 -583 l  -6772 -833 l  -7022 -833 l  p ef
-7022 -833 m  -7022 -583 l  -6772 -583 l  -6772 -833 l  -7022 -833 l  pc
-6488 -1360 m  -6488 -1110 l  -6238 -1110 l  -6238 -1360 l  -6488 -1360 l 
p ef
-6488 -1360 m  -6488 -1110 l  -6238 -1110 l  -6238 -1360 l  -6488 -1360 l 
pc
-5953 -795 m  -5953 -545 l  -5703 -545 l  -5703 -795 l  -5953 -795 l  p ef
-5953 -795 m  -5953 -545 l  -5703 -545 l  -5703 -795 l  -5953 -795 l  pc
-5418 -992 m  -5418 -742 l  -5168 -742 l  -5168 -992 l  -5418 -992 l  p ef
-5418 -992 m  -5418 -742 l  -5168 -742 l  -5168 -992 l  -5418 -992 l  pc
-4884 -1163 m  -4884 -913 l  -4634 -913 l  -4634 -1163 l  -4884 -1163 l 
p ef
-4884 -1163 m  -4884 -913 l  -4634 -913 l  -4634 -1163 l  -4884 -1163 l 
pc
-4349 -1077 m  -4349 -827 l  -4099 -827 l  -4099 -1077 l  -4349 -1077 l 
p ef
-4349 -1077 m  -4349 -827 l  -4099 -827 l  -4099 -1077 l  -4349 -1077 l 
pc
-3814 -1094 m  -3814 -844 l  -3564 -844 l  -3564 -1094 l  -3814 -1094 l 
p ef
-3814 -1094 m  -3814 -844 l  -3564 -844 l  -3564 -1094 l  -3814 -1094 l 
pc
-3280 -1163 m  -3280 -913 l  -3030 -913 l  -3030 -1163 l  -3280 -1163 l 
p ef
-3280 -1163 m  -3280 -913 l  -3030 -913 l  -3030 -1163 l  -3280 -1163 l 
pc
-2745 -795 m  -2745 -545 l  -2495 -545 l  -2495 -795 l  -2745 -795 l  p ef
-2745 -795 m  -2745 -545 l  -2495 -545 l  -2495 -795 l  -2745 -795 l  pc
-2210 -975 m  -2210 -725 l  -1960 -725 l  -1960 -975 l  -2210 -975 l  p ef
-2210 -975 m  -2210 -725 l  -1960 -725 l  -1960 -975 l  -2210 -975 l  pc
-1676 -833 m  -1676 -583 l  -1426 -583 l  -1426 -833 l  -1676 -833 l  p ef
-1676 -833 m  -1676 -583 l  -1426 -583 l  -1426 -833 l  -1676 -833 l  pc
-1141 -1360 m  -1141 -1110 l  -891 -1110 l  -891 -1360 l  -1141 -1360 l 
p ef
-1141 -1360 m  -1141 -1110 l  -891 -1110 l  -891 -1360 l  -1141 -1360 l 
pc
-606 -795 m  -606 -545 l  -356 -545 l  -356 -795 l  -606 -795 l  p ef
-606 -795 m  -606 -545 l  -356 -545 l  -356 -795 l  -606 -795 l  pc
-72 -992 m  -72 -742 l  177 -742 l  177 -992 l  -72 -992 l  p ef
-72 -992 m  -72 -742 l  177 -742 l  177 -992 l  -72 -992 l  pc
462 -1163 m  462 -913 l  712 -913 l  712 -1163 l  462 -1163 l  p ef
462 -1163 m  462 -913 l  712 -913 l  712 -1163 l  462 -1163 l  pc
997 -1077 m  997 -827 l  1247 -827 l  1247 -1077 l  997 -1077 l  p ef
997 -1077 m  997 -827 l  1247 -827 l  1247 -1077 l  997 -1077 l  pc
1531 -1094 m  1531 -844 l  1781 -844 l  1781 -1094 l  1531 -1094 l  p ef
1531 -1094 m  1531 -844 l  1781 -844 l  1781 -1094 l  1531 -1094 l  pc
2066 -1163 m  2066 -913 l  2316 -913 l  2316 -1163 l  2066 -1163 l  p ef
2066 -1163 m  2066 -913 l  2316 -913 l  2316 -1163 l  2066 -1163 l  pc
2601 -795 m  2601 -545 l  2851 -545 l  2851 -795 l  2601 -795 l  p ef
2601 -795 m  2601 -545 l  2851 -545 l  2851 -795 l  2601 -795 l  pc
3135 -975 m  3135 -725 l  3385 -725 l  3385 -975 l  3135 -975 l  p ef
3135 -975 m  3135 -725 l  3385 -725 l  3385 -975 l  3135 -975 l  pc
3670 -833 m  3670 -583 l  3920 -583 l  3920 -833 l  3670 -833 l  p ef
3670 -833 m  3670 -583 l  3920 -583 l  3920 -833 l  3670 -833 l  pc
4205 -1360 m  4205 -1110 l  4455 -1110 l  4455 -1360 l  4205 -1360 l  p ef
4205 -1360 m  4205 -1110 l  4455 -1110 l  4455 -1360 l  4205 -1360 l  pc
4739 -795 m  4739 -545 l  4989 -545 l  4989 -795 l  4739 -795 l  p ef
4739 -795 m  4739 -545 l  4989 -545 l  4989 -795 l  4739 -795 l  pc
5274 -992 m  5274 -742 l  5524 -742 l  5524 -992 l  5274 -992 l  p ef
5274 -992 m  5274 -742 l  5524 -742 l  5524 -992 l  5274 -992 l  pc
5809 -1163 m  5809 -913 l  6059 -913 l  6059 -1163 l  5809 -1163 l  p ef
5809 -1163 m  5809 -913 l  6059 -913 l  6059 -1163 l  5809 -1163 l  pc
6343 -1077 m  6343 -827 l  6593 -827 l  6593 -1077 l  6343 -1077 l  p ef
6343 -1077 m  6343 -827 l  6593 -827 l  6593 -1077 l  6343 -1077 l  pc
6878 -1094 m  6878 -844 l  7128 -844 l  7128 -1094 l  6878 -1094 l  p ef
6878 -1094 m  6878 -844 l  7128 -844 l  7128 -1094 l  6878 -1094 l  pc
7413 -1163 m  7413 -913 l  7663 -913 l  7663 -1163 l  7413 -1163 l  p ef
7413 -1163 m  7413 -913 l  7663 -913 l  7663 -1163 l  7413 -1163 l  pc
79.99611 lw 1.000 0.261 0.058 c -7966 -2621 m  -7940 -2612 l  -7913 -2604 l 
-7886 -2595 l  -7860 -2585 l  -7833 -2575 l  -7806 -2565 l  -7779 -2553 l 
-7753 -2540 l  -7726 -2526 l  -7699 -2511 l  -7672 -2494 l  -7646 -2475 l 
-7619 -2455 l  -7592 -2433 l  -7566 -2408 l  -7539 -2381 l  -7512 -2352 l 
-7485 -2321 l  -7459 -2286 l  -7432 -2249 l  -7405 -2208 l  -7378 -2166 l 
-7352 -2121 l  -7325 -2075 l  -7298 -2028 l  -7271 -1980 l  -7245 -1933 l 
-7218 -1887 l  -7191 -1841 l  -7165 -1798 l  -7138 -1757 l  -7111 -1719 l 
-7084 -1684 l  -7058 -1653 l  -7031 -1627 l  -7004 -1605 l  -6977 -1590 l 
-6951 -1580 l  -6924 -1577 l  -6897 -1581 l  -6870 -1593 l  -6844 -1612 l 
-6817 -1636 l  -6790 -1667 l  -6764 -1701 l  -6737 -1740 l  -6710 -1782 l 
-6683 -1826 l  -6657 -1871 l  -6630 -1917 l  -6603 -1963 l  -6576 -2009 l 
-6550 -2053 l  -6523 -2094 l  -6496 -2132 l  -6469 -2166 l  -6443 -2196 l 
-6416 -2220 l  -6389 -2238 l  -6363 -2249 l  -6336 -2252 l  -6309 -2248 l 
-6282 -2238 l  -6256 -2221 l  -6229 -2200 l  -6202 -2174 l  -6175 -2144 l 
-6149 -2111 l  -6122 -2076 l  -6095 -2039 l  -6068 -2000 l  -6042 -1961 l 
-6015 -1922 l  -5988 -1884 l  -5962 -1848 l  -5935 -1813 l  -5908 -1781 l 
-5881 -1753 l  -5855 -1729 l  -5828 -1710 l  -5801 -1695 l  -5774 -1686 l 
-5748 -1682 l  -5721 -1682 l  -5694 -1686 l  -5667 -1693 l  -5641 -1703 l 
-5614 -1716 l  -5587 -1732 l  -5561 -1749 l  -5534 -1768 l  -5507 -1788 l 
-5480 -1809 l  -5454 -1830 l  -5427 -1852 l  -5400 -1872 l  -5373 -1893 l 
-5347 -1912 l  -5320 -1929 l  -5293 -1945 l  -5266 -1958 l  -5240 -1970 l 
-5213 -1979 l  -5186 -1986 l  -5160 -1992 l  -5133 -1997 l  -5106 -2000 l 
-5079 -2002 l  -5053 -2003 l  -5026 -2003 l  -4999 -2002 l  -4972 -2002 l 
-4946 -2000 l  -4919 -1999 l  -4892 -1997 l  -4865 -1996 l  -4839 -1995 l 
-4812 -1995 l  -4785 -1995 l  -4759 -1996 l  -4732 -1998 l  -4705 -2001 l 
-4678 -2005 l  -4652 -2010 l  -4625 -2016 l  -4598 -2023 l  -4571 -2031 l 
-4545 -2039 l  -4518 -2049 l  -4491 -2059 l  -4465 -2070 l  -4438 -2082 l 
-4411 -2094 l  -4384 -2108 l  -4358 -2122 l  -4331 -2136 l  -4304 -2152 l 
-4277 -2168 l  -4251 -2184 l  -4224 -2202 l  -4197 -2220 l  -4170 -2238 l 
-4144 -2256 l  -4117 -2275 l  -4090 -2293 l  -4064 -2312 l  -4037 -2329 l 
-4010 -2346 l  -3983 -2363 l  -3957 -2378 l  -3930 -2392 l  -3903 -2405 l 
-3876 -2417 l  -3850 -2427 l  -3823 -2435 l  -3796 -2441 l  -3769 -2445 l 
-3743 -2446 l  -3716 -2445 l  -3689 -2441 l  -3663 -2435 l  -3636 -2426 l 
-3609 -2415 l  -3582 -2402 l  -3556 -2389 l  -3529 -2374 l  -3502 -2360 l 
-3475 -2345 l  -3449 -2331 l  -3422 -2318 l  -3395 -2307 l  -3368 -2297 l 
-3342 -2290 l  -3315 -2285 l  -3288 -2284 l  -3262 -2286 l  -3235 -2292 l 
-3208 -2302 l  -3181 -2318 l  -3155 -2339 l  -3128 -2365 l  -3101 -2396 l 
-3074 -2432 l  -3048 -2471 l  -3021 -2513 l  -2994 -2558 l  -2967 -2604 l 
-2941 -2652 l  -2914 -2699 l  -2887 -2746 l  -2861 -2792 l  -2834 -2836 l 
-2807 -2878 l  -2780 -2917 l  -2754 -2952 l  -2727 -2982 l  -2700 -3007 l 
-2673 -3026 l  -2647 -3039 l  -2620 -3045 l  -2593 -3042 l  -2566 -3033 l 
-2540 -3017 l  -2513 -2994 l  -2486 -2966 l  -2460 -2932 l  -2433 -2894 l 
-2406 -2852 l  -2379 -2806 l  -2353 -2757 l  -2326 -2706 l  -2299 -2652 l 
-2272 -2598 l  -2246 -2542 l  -2219 -2487 l  -2192 -2431 l  -2165 -2377 l 
-2139 -2323 l  -2112 -2272 l  -2085 -2223 l  -2059 -2177 l  -2032 -2134 l 
-2005 -2094 l  -1978 -2056 l  -1952 -2021 l  -1925 -1989 l  -1898 -1960 l 
-1871 -1933 l  -1845 -1908 l  -1818 -1886 l  -1791 -1867 l  -1764 -1849 l 
-1738 -1834 l  -1711 -1821 l  -1684 -1811 l  -1658 -1802 l  -1631 -1795 l 
-1604 -1791 l  -1577 -1788 l  -1551 -1787 l  -1524 -1787 l  -1497 -1790 l 
-1470 -1794 l  -1444 -1799 l  -1417 -1807 l  -1390 -1815 l  -1364 -1825 l 
-1337 -1837 l  -1310 -1849 l  -1283 -1863 l  -1257 -1878 l  -1230 -1894 l 
-1203 -1911 l  -1176 -1930 l  -1150 -1949 l  -1123 -1969 l  -1096 -1990 l 
-1069 -2011 l  -1043 -2033 l  -1016 -2056 l  -989 -2080 l  -963 -2103 l 
-936 -2127 l  -909 -2151 l  -882 -2175 l  -856 -2198 l  -829 -2221 l  -802 -2243 l 
-775 -2263 l  -749 -2283 l  -722 -2301 l  -695 -2317 l  -668 -2332 l  -642 -2344 l 
-615 -2354 l  -588 -2362 l  -562 -2367 l  -535 -2369 l  -508 -2368 l  -481 -2364 l 
-455 -2357 l  -428 -2346 l  -401 -2332 l  -374 -2316 l  -348 -2298 l  -321 -2278 l 
-294 -2256 l  -267 -2233 l  -241 -2208 l  -214 -2183 l  -187 -2158 l  -161 -2132 l 
-134 -2107 l  -107 -2082 l  -80 -2059 l  -54 -2036 l  -27 -2014 l  0 -1995 l 
26 -1977 l  52 -1962 l  79 -1949 l  106 -1939 l  133 -1932 l  159 -1926 l 
186 -1923 l  213 -1922 l  239 -1923 l  266 -1925 l  293 -1929 l  320 -1935 l 
346 -1942 l  373 -1951 l  400 -1960 l  427 -1971 l  453 -1982 l  480 -1994 l 
507 -2007 l  534 -2020 l  560 -2034 l  587 -2048 l  614 -2062 l  640 -2076 l 
667 -2090 l  694 -2104 l  721 -2118 l  747 -2132 l  774 -2146 l  801 -2160 l 
828 -2174 l  854 -2187 l  881 -2201 l  908 -2214 l  935 -2226 l  961 -2239 l 
988 -2251 l  1015 -2263 l  1041 -2274 l  1068 -2284 l  1095 -2295 l  1122 -2304 l 
1148 -2313 l  1175 -2322 l  1202 -2330 l  1229 -2337 l  1255 -2343 l  1282 -2348 l 
1309 -2352 l  1336 -2355 l  1362 -2357 l  1389 -2358 l  1416 -2358 l  1442 -2356 l 
1469 -2353 l  1496 -2349 l  1523 -2343 l  1549 -2335 l  1576 -2326 l  1603 -2315 l 
1630 -2302 l  1656 -2287 l  1683 -2271 l  1710 -2253 l  1736 -2234 l  1763 -2214 l 
1790 -2193 l  1817 -2173 l  1843 -2153 l  1870 -2134 l  1897 -2115 l  1924 -2099 l 
1950 -2084 l  1977 -2071 l  2004 -2062 l  2031 -2055 l  2057 -2051 l  2084 -2052 l 
2111 -2056 l  2137 -2066 l  2164 -2080 l  2191 -2099 l  2218 -2124 l  2244 -2154 l 
2271 -2188 l  2298 -2226 l  2325 -2267 l  2351 -2310 l  2378 -2355 l  2405 -2401 l 
2432 -2447 l  2458 -2492 l  2485 -2537 l  2512 -2579 l  2538 -2619 l  2565 -2657 l 
2592 -2690 l  2619 -2719 l  2645 -2742 l  2672 -2760 l  2699 -2771 l  2726 -2775 l 
2752 -2771 l  2779 -2760 l  2806 -2743 l  2833 -2720 l  2859 -2691 l  2886 -2658 l 
2913 -2621 l  2939 -2581 l  2966 -2539 l  2993 -2495 l  3020 -2450 l  3046 -2404 l 
3073 -2359 l  3100 -2315 l  3127 -2272 l  3153 -2232 l  3180 -2194 l  3207 -2161 l 
3234 -2132 l  3260 -2108 l  3287 -2089 l  3314 -2076 l  3340 -2068 l  3367 -2064 l 
3394 -2065 l  3421 -2070 l  3447 -2079 l  3474 -2091 l  3501 -2106 l  3528 -2123 l 
3554 -2143 l  3581 -2165 l  3608 -2188 l  3635 -2212 l  3661 -2237 l  3688 -2263 l 
3715 -2289 l  3741 -2315 l  3768 -2340 l  3795 -2364 l  3822 -2387 l  3848 -2409 l 
3875 -2429 l  3902 -2448 l  3929 -2466 l  3955 -2482 l  3982 -2496 l  4009 -2508 l 
4036 -2518 l  4062 -2527 l  4089 -2534 l  4116 -2538 l  4142 -2541 l  4169 -2541 l 
4196 -2539 l  4223 -2535 l  4249 -2528 l  4276 -2519 l  4303 -2507 l  4330 -2493 l 
4356 -2476 l  4383 -2456 l  4410 -2434 l  4437 -2411 l  4463 -2386 l  4490 -2359 l 
4517 -2331 l  4543 -2302 l  4570 -2273 l  4597 -2243 l  4624 -2213 l  4650 -2183 l 
4677 -2154 l  4704 -2125 l  4731 -2097 l  4757 -2070 l  4784 -2045 l  4811 -2021 l 
4837 -1999 l  4864 -1979 l  4891 -1962 l  4918 -1947 l  4944 -1934 l  4971 -1923 l 
4998 -1914 l  5025 -1906 l  5051 -1900 l  5078 -1895 l  5105 -1892 l  5132 -1890 l 
5158 -1888 l  5185 -1888 l  5212 -1888 l  5238 -1888 l  5265 -1889 l  5292 -1890 l 
5319 -1891 l  5345 -1892 l  5372 -1893 l  5399 -1894 l  5426 -1893 l  5452 -1893 l 
5479 -1892 l  5506 -1891 l  5533 -1890 l  5559 -1889 l  5586 -1888 l  5613 -1888 l 
5639 -1888 l  5666 -1889 l  5693 -1891 l  5720 -1893 l  5746 -1897 l  5773 -1901 l 
5800 -1908 l  5827 -1915 l  5853 -1924 l  5880 -1935 l  5907 -1947 l  5934 -1962 l 
5960 -1979 l  5987 -1997 l  6014 -2017 l  6040 -2039 l  6067 -2061 l  6094 -2084 l 
6121 -2108 l  6147 -2133 l  6174 -2157 l  6201 -2181 l  6228 -2205 l  6254 -2228 l 
6281 -2250 l  6308 -2270 l  6335 -2290 l  6361 -2307 l  6388 -2323 l  6415 -2337 l 
6441 -2347 l  6468 -2356 l  6495 -2361 l  6522 -2364 l  6548 -2363 l  6575 -2361 l 
6602 -2357 l  6629 -2350 l  6655 -2342 l  6682 -2333 l  6709 -2322 l  6736 -2310 l 
6762 -2298 l  6789 -2284 l  6816 -2271 l  6842 -2257 l  6869 -2244 l  6896 -2230 l 
6923 -2218 l  6949 -2206 l  6976 -2194 l  7003 -2185 l  7030 -2176 l  7056 -2169 l 
7083 -2163 l  7110 -2158 l  7137 -2154 l  7163 -2151 l  7190 -2150 l  7217 -2149 l 
7243 -2149 l  7270 -2150 l  7297 -2151 l  7324 -2153 l  7350 -2156 l  7377 -2159 l 
7404 -2163 l  7431 -2167 l  7457 -2171 l  7484 -2175 l  7511 -2180 l  7538 -2185 l 
ps
-8091 -2621 m  -7966 -2496 l  -7841 -2621 l  -7966 -2746 l  -8091 -2621 l 
p ef
0 lw -8091 -2621 m  -7966 -2496 l  -7841 -2621 l  -7966 -2746 l  -8091 -2621 l 
pc
-7557 -2249 m  -7432 -2124 l  -7307 -2249 l  -7432 -2374 l  -7557 -2249 l 
p ef
-7557 -2249 m  -7432 -2124 l  -7307 -2249 l  -7432 -2374 l  -7557 -2249 l 
pc
-7022 -1581 m  -6897 -1456 l  -6772 -1581 l  -6897 -1706 l  -7022 -1581 l 
p ef
-7022 -1581 m  -6897 -1456 l  -6772 -1581 l  -6897 -1706 l  -7022 -1581 l 
pc
-6488 -2249 m  -6363 -2124 l  -6238 -2249 l  -6363 -2374 l  -6488 -2249 l 
p ef
-6488 -2249 m  -6363 -2124 l  -6238 -2249 l  -6363 -2374 l  -6488 -2249 l 
pc
-5953 -1710 m  -5828 -1585 l  -5703 -1710 l  -5828 -1835 l  -5953 -1710 l 
p ef
-5953 -1710 m  -5828 -1585 l  -5703 -1710 l  -5828 -1835 l  -5953 -1710 l 
pc
-5418 -1945 m  -5293 -1820 l  -5168 -1945 l  -5293 -2070 l  -5418 -1945 l 
p ef
-5418 -1945 m  -5293 -1820 l  -5168 -1945 l  -5293 -2070 l  -5418 -1945 l 
pc
-4884 -1996 m  -4759 -1871 l  -4634 -1996 l  -4759 -2121 l  -4884 -1996 l 
p ef
-4884 -1996 m  -4759 -1871 l  -4634 -1996 l  -4759 -2121 l  -4884 -1996 l 
pc
-4349 -2202 m  -4224 -2077 l  -4099 -2202 l  -4224 -2327 l  -4349 -2202 l 
p ef
-4349 -2202 m  -4224 -2077 l  -4099 -2202 l  -4224 -2327 l  -4349 -2202 l 
pc
-3814 -2441 m  -3689 -2316 l  -3564 -2441 l  -3689 -2566 l  -3814 -2441 l 
p ef
-3814 -2441 m  -3689 -2316 l  -3564 -2441 l  -3689 -2566 l  -3814 -2441 l 
pc
-3280 -2339 m  -3155 -2214 l  -3030 -2339 l  -3155 -2464 l  -3280 -2339 l 
p ef
-3280 -2339 m  -3155 -2214 l  -3030 -2339 l  -3155 -2464 l  -3280 -2339 l 
pc
-2745 -3045 m  -2620 -2920 l  -2495 -3045 l  -2620 -3170 l  -2745 -3045 l 
p ef
-2745 -3045 m  -2620 -2920 l  -2495 -3045 l  -2620 -3170 l  -2745 -3045 l 
pc
-2210 -2223 m  -2085 -2098 l  -1960 -2223 l  -2085 -2348 l  -2210 -2223 l 
p ef
-2210 -2223 m  -2085 -2098 l  -1960 -2223 l  -2085 -2348 l  -2210 -2223 l 
pc
-1676 -1787 m  -1551 -1662 l  -1426 -1787 l  -1551 -1912 l  -1676 -1787 l 
p ef
-1676 -1787 m  -1551 -1662 l  -1426 -1787 l  -1551 -1912 l  -1676 -1787 l 
pc
-1141 -2056 m  -1016 -1931 l  -891 -2056 l  -1016 -2181 l  -1141 -2056 l 
p ef
-1141 -2056 m  -1016 -1931 l  -891 -2056 l  -1016 -2181 l  -1141 -2056 l 
pc
-606 -2364 m  -481 -2239 l  -356 -2364 l  -481 -2489 l  -606 -2364 l  p ef
-606 -2364 m  -481 -2239 l  -356 -2364 l  -481 -2489 l  -606 -2364 l  pc
-72 -1962 m  52 -1837 l  177 -1962 l  52 -2087 l  -72 -1962 l  p ef
-72 -1962 m  52 -1837 l  177 -1962 l  52 -2087 l  -72 -1962 l  pc
462 -2048 m  587 -1923 l  712 -2048 l  587 -2173 l  462 -2048 l  p ef
462 -2048 m  587 -1923 l  712 -2048 l  587 -2173 l  462 -2048 l  pc
997 -2304 m  1122 -2179 l  1247 -2304 l  1122 -2429 l  997 -2304 l  p ef
997 -2304 m  1122 -2179 l  1247 -2304 l  1122 -2429 l  997 -2304 l  pc
1531 -2287 m  1656 -2162 l  1781 -2287 l  1656 -2412 l  1531 -2287 l  p ef
1531 -2287 m  1656 -2162 l  1781 -2287 l  1656 -2412 l  1531 -2287 l  pc
2066 -2099 m  2191 -1974 l  2316 -2099 l  2191 -2224 l  2066 -2099 l  p ef
2066 -2099 m  2191 -1974 l  2316 -2099 l  2191 -2224 l  2066 -2099 l  pc
2601 -2775 m  2726 -2650 l  2851 -2775 l  2726 -2900 l  2601 -2775 l  p ef
2601 -2775 m  2726 -2650 l  2851 -2775 l  2726 -2900 l  2601 -2775 l  pc
3135 -2108 m  3260 -1983 l  3385 -2108 l  3260 -2233 l  3135 -2108 l  p ef
3135 -2108 m  3260 -1983 l  3385 -2108 l  3260 -2233 l  3135 -2108 l  pc
3670 -2364 m  3795 -2239 l  3920 -2364 l  3795 -2489 l  3670 -2364 l  p ef
3670 -2364 m  3795 -2239 l  3920 -2364 l  3795 -2489 l  3670 -2364 l  pc
4205 -2493 m  4330 -2368 l  4455 -2493 l  4330 -2618 l  4205 -2493 l  p ef
4205 -2493 m  4330 -2368 l  4455 -2493 l  4330 -2618 l  4205 -2493 l  pc
4739 -1979 m  4864 -1854 l  4989 -1979 l  4864 -2104 l  4739 -1979 l  p ef
4739 -1979 m  4864 -1854 l  4989 -1979 l  4864 -2104 l  4739 -1979 l  pc
5274 -1894 m  5399 -1769 l  5524 -1894 l  5399 -2019 l  5274 -1894 l  p ef
5274 -1894 m  5399 -1769 l  5524 -1894 l  5399 -2019 l  5274 -1894 l  pc
5809 -1962 m  5934 -1837 l  6059 -1962 l  5934 -2087 l  5809 -1962 l  p ef
5809 -1962 m  5934 -1837 l  6059 -1962 l  5934 -2087 l  5809 -1962 l  pc
6343 -2356 m  6468 -2231 l  6593 -2356 l  6468 -2481 l  6343 -2356 l  p ef
6343 -2356 m  6468 -2231 l  6593 -2356 l  6468 -2481 l  6343 -2356 l  pc
6878 -2185 m  7003 -2060 l  7128 -2185 l  7003 -2310 l  6878 -2185 l  p ef
6878 -2185 m  7003 -2060 l  7128 -2185 l  7003 -2310 l  6878 -2185 l  pc
7413 -2185 m  7538 -2060 l  7663 -2185 l  7538 -2310 l  7413 -2185 l  p ef
7413 -2185 m  7538 -2060 l  7663 -2185 l  7538 -2310 l  7413 -2185 l  pc
0.003 0.003 0.003 c
/Helvetica f
353 sf -8059 3261 m  185 0 (1) bs
/Helvetica f
353 sf -7525 3261 m  185 0 (2) bs
/Helvetica f
353 sf -6990 3261 m  185 0 (3) bs
/Helvetica f
353 sf -6456 3261 m  185 0 (4) bs
/Helvetica f
353 sf -5921 3261 m  185 0 (5) bs
/Helvetica f
353 sf -5386 3261 m  185 0 (6) bs
/Helvetica f
353 sf -4852 3261 m  185 0 (7) bs
/Helvetica f
353 sf -4317 3261 m  185 0 (8) bs
/Helvetica f
353 sf -3782 3261 m  185 0 (9) bs
/Helvetica f
353 sf -3340 3261 m  185 0 (1) bs
185 185 (0) bs
/Helvetica f
353 sf -2792 3261 m  185 0 (1) bs
185 159 (1) bs
/Helvetica f
353 sf -2270 3261 m  185 0 (1) bs
185 185 (2) bs
/Helvetica f
353 sf -1736 3261 m  185 0 (1) bs
185 185 (3) bs
/Helvetica f
353 sf -1201 3261 m  185 0 (1) bs
185 185 (4) bs
/Helvetica f
353 sf -666 3261 m  185 0 (1) bs
185 185 (5) bs
/Helvetica f
353 sf -132 3261 m  185 0 (1) bs
185 185 (6) bs
/Helvetica f
353 sf 403 3261 m  185 0 (1) bs
185 185 (7) bs
/Helvetica f
353 sf 938 3261 m  185 0 (1) bs
185 185 (8) bs
/Helvetica f
353 sf 1472 3261 m  185 0 (1) bs
185 185 (9) bs
/Helvetica f
353 sf 2007 3261 m  185 0 (2) bs
185 185 (0) bs
/Helvetica f
353 sf 2542 3261 m  185 0 (2) bs
185 185 (1) bs
/Helvetica f
353 sf 3076 3261 m  185 0 (2) bs
185 185 (2) bs
/Helvetica f
353 sf 3611 3261 m  185 0 (2) bs
185 185 (3) bs
/Helvetica f
353 sf 4146 3261 m  185 0 (2) bs
185 185 (4) bs
/Helvetica f
353 sf 4680 3261 m  185 0 (2) bs
185 185 (5) bs
/Helvetica f
353 sf 5215 3261 m  185 0 (2) bs
185 185 (6) bs
/Helvetica f
353 sf 5750 3261 m  185 0 (2) bs
185 185 (7) bs
/Helvetica f
353 sf 6284 3261 m  185 0 (2) bs
185 185 (8) bs
/Helvetica f
353 sf 6819 3261 m  185 0 (2) bs
185 185 (9) bs
/Helvetica f
353 sf 7354 3261 m  185 0 (3) bs
185 185 (0) bs
/Helvetica f
353 sf -8877 2814 m  185 0 (0) bs
106 185 (,) bs
185 291 (0) bs
185 476 (0) bs
/Helvetica f
353 sf -8877 1961 m  185 0 (0) bs
106 185 (,) bs
185 291 (1) bs
185 476 (0) bs
/Helvetica f
353 sf -8877 1109 m  185 0 (0) bs
106 185 (,) bs
185 291 (2) bs
185 476 (0) bs
/Helvetica f
353 sf -8877 256 m  185 0 (0) bs
106 185 (,) bs
185 291 (3) bs
185 476 (0) bs
/Helvetica f
353 sf -8877 -596 m  185 0 (0) bs
106 185 (,) bs
185 291 (4) bs
185 476 (0) bs
/Helvetica f
353 sf -8877 -1448 m  185 0 (0) bs
106 185 (,) bs
185 291 (5) bs
185 476 (0) bs
/Helvetica f
353 sf -8877 -2301 m  185 0 (0) bs
106 185 (,) bs
185 291 (6) bs
185 476 (0) bs
/Helvetica f
353 sf -8877 -3153 m  185 0 (0) bs
106 185 (,) bs
185 291 (7) bs
185 476 (0) bs
/Helvetica f
353 sf -8877 -4005 m  185 0 (0) bs
106 185 (,) bs
185 291 (8) bs
185 476 (0) bs
79.99611 lw 0.003 0.273 0.527 c 8253 -250 m  9053 -250 l  ps
8547 -355 m  8547 -144 l  8758 -144 l  8758 -355 l  8547 -355 l  p ef
0 lw 8547 -355 m  8547 -144 l  8758 -144 l  8758 -355 l  8547 -355 l  pc
79.99611 lw 1.000 0.261 0.058 c 8253 247 m  9053 247 l  ps
8547 247 m  8653 353 l  8758 247 l  8653 142 l  8547 247 l  p ef
0 lw 8547 247 m  8653 353 l  8758 247 l  8653 142 l  8547 247 l  pc
0.003 0.003 0.003 c
/Helvetica f
353 sf 9153 -130 m  238 0 (H) bs
291 238 (M) bs
291 529 (M) bs
/Helvetica f
353 sf 9153 367 m  238 0 (K) bs
238 238 (N) bs
238 476 (N) bs
/Helvetica f
318 sf -616 3908 m  79 0 (i) bs
/Helvetica f
318 sf -9464 -399 m  gs 90.0 r 185 0 (e) bs
gr
0 9006 t 
pom
count op_count sub {pop} repeat countdictstack dict_count sub {end} repeat b4_inc_state restore
%%PageTrailer
%%Trailer
%%EOF
