%!PS-Adobe-3.0 EPSF-3.0 
%%BoundingBox: 0 0 584 255
%%Pages: 0
%%Creator: LibreOffice 4.4
%%Title: none
%%CreationDate: none
%%LanguageLevel: 2
%%EndComments
%%BeginProlog
%%BeginResource: procset SDRes-Prolog 1.0 0
/b4_inc_state save def
/dict_count countdictstack def
/op_count count 1 sub def
userdict begin
0 setgray 0 setlinecap 1 setlinewidth 0 setlinejoin 10 setmiterlimit[] 0 setdash newpath
/languagelevel where {pop languagelevel 1 ne {false setstrokeadjust false setoverprint} if} if
/bdef {bind def} bind def
/c {setrgbcolor} bdef
/l {neg lineto} bdef
/rl {neg rlineto} bdef
/lc {setlinecap} bdef
/lj {setlinejoin} bdef
/lw {setlinewidth} bdef
/ml {setmiterlimit} bdef
/ld {setdash} bdef
/m {neg moveto} bdef
/ct {6 2 roll neg 6 2 roll neg 6 2 roll neg curveto} bdef
/r {rotate} bdef
/t {neg translate} bdef
/s {scale} bdef
/sw {show} bdef
/gs {gsave} bdef
/gr {grestore} bdef
/f {findfont dup length dict begin
{1 index /FID ne {def} {pop pop} ifelse} forall /Encoding ISOLatin1Encoding def
currentdict end /NFont exch definefont pop /NFont findfont} bdef
/p {closepath} bdef
/sf {scalefont setfont} bdef
/ef {eofill}bdef
/pc {closepath stroke}bdef
/ps {stroke}bdef
/pum {matrix currentmatrix}bdef
/pom {setmatrix}bdef
/bs {/aString exch def /nXOfs exch def /nWidth exch def currentpoint nXOfs 0 rmoveto pum nWidth aString stringwidth pop div 1 scale aString show pom moveto} bdef
%%EndResource
%%EndProlog
%%BeginSetup
%%EndSetup
%%Page: 1 1
%%BeginPageSetup
%%EndPageSetup
pum
0.02834 0.02831 s 
0 -9006 t
/tm matrix currentmatrix def
tm setmatrix
10301 4503 t 
1 1 s 
1.000 1.000 1.000 c 0 4502 m  -10301 4502 l  -10301 -4503 l  10301 -4503 l 
10301 4502 l  0 4502 l  p ef
0 lw 1 lj 0.703 0.703 0.703 c -214 2694 m  -7966 2694 l  -7966 -4124 l 
7538 -4124 l  7538 2694 l  -214 2694 l  pc
7538 2693 m  -7966 2693 l  ps
7538 1840 m  -7966 1840 l  ps
7538 988 m  -7966 988 l  ps
7538 135 m  -7966 135 l  ps
7538 -716 m  -7966 -716 l  ps
7538 -1568 m  -7966 -1568 l  ps
7538 -2421 m  -7966 -2421 l  ps
7538 -3273 m  -7966 -3273 l  ps
7538 -4125 m  -7966 -4125 l  ps
-7966 2843 m  -7966 2693 l  ps
-7966 2843 m  -7966 2693 l  ps
-7432 2843 m  -7432 2693 l  ps
-7432 2843 m  -7432 2693 l  ps
-6897 2843 m  -6897 2693 l  ps
-6897 2843 m  -6897 2693 l  ps
-6363 2843 m  -6363 2693 l  ps
-6363 2843 m  -6363 2693 l  ps
-5828 2843 m  -5828 2693 l  ps
-5828 2843 m  -5828 2693 l  ps
-5293 2843 m  -5293 2693 l  ps
-5293 2843 m  -5293 2693 l  ps
-4759 2843 m  -4759 2693 l  ps
-4759 2843 m  -4759 2693 l  ps
-4224 2843 m  -4224 2693 l  ps
-4224 2843 m  -4224 2693 l  ps
-3689 2843 m  -3689 2693 l  ps
-3689 2843 m  -3689 2693 l  ps
-3155 2843 m  -3155 2693 l  ps
-3155 2843 m  -3155 2693 l  ps
-2620 2843 m  -2620 2693 l  ps
-2620 2843 m  -2620 2693 l  ps
-2085 2843 m  -2085 2693 l  ps
-2085 2843 m  -2085 2693 l  ps
-1551 2843 m  -1551 2693 l  ps
-1551 2843 m  -1551 2693 l  ps
-1016 2843 m  -1016 2693 l  ps
-1016 2843 m  -1016 2693 l  ps
-481 2843 m  -481 2693 l  ps
-481 2843 m  -481 2693 l  ps
52 2843 m  52 2693 l  ps
52 2843 m  52 2693 l  ps
587 2843 m  587 2693 l  ps
587 2843 m  587 2693 l  ps
1122 2843 m  1122 2693 l  ps
1122 2843 m  1122 2693 l  ps
1656 2843 m  1656 2693 l  ps
1656 2843 m  1656 2693 l  ps
2191 2843 m  2191 2693 l  ps
2191 2843 m  2191 2693 l  ps
2726 2843 m  2726 2693 l  ps
2726 2843 m  2726 2693 l  ps
3260 2843 m  3260 2693 l  ps
3260 2843 m  3260 2693 l  ps
3795 2843 m  3795 2693 l  ps
3795 2843 m  3795 2693 l  ps
4330 2843 m  4330 2693 l  ps
4330 2843 m  4330 2693 l  ps
4864 2843 m  4864 2693 l  ps
4864 2843 m  4864 2693 l  ps
5399 2843 m  5399 2693 l  ps
5399 2843 m  5399 2693 l  ps
5934 2843 m  5934 2693 l  ps
5934 2843 m  5934 2693 l  ps
6468 2843 m  6468 2693 l  ps
6468 2843 m  6468 2693 l  ps
7003 2843 m  7003 2693 l  ps
7003 2843 m  7003 2693 l  ps
7538 2843 m  7538 2693 l  ps
7538 2843 m  7538 2693 l  ps
-7966 2693 m  7538 2693 l  ps
-8116 2693 m  -7966 2693 l  ps
-8116 2693 m  -7966 2693 l  ps
-8116 1840 m  -7966 1840 l  ps
-8116 1840 m  -7966 1840 l  ps
-8116 988 m  -7966 988 l  ps
-8116 988 m  -7966 988 l  ps
-8116 135 m  -7966 135 l  ps
-8116 135 m  -7966 135 l  ps
-8116 -716 m  -7966 -716 l  ps
-8116 -716 m  -7966 -716 l  ps
-8116 -1568 m  -7966 -1568 l  ps
-8116 -1568 m  -7966 -1568 l  ps
-8116 -2421 m  -7966 -2421 l  ps
-8116 -2421 m  -7966 -2421 l  ps
-8116 -3273 m  -7966 -3273 l  ps
-8116 -3273 m  -7966 -3273 l  ps
-8116 -4125 m  -7966 -4125 l  ps
-8116 -4125 m  -7966 -4125 l  ps
-7966 2693 m  -7966 -4125 l  ps
79.99611 lw 0.003 0.273 0.527 c -7966 -670 m  -7940 -687 l  -7913 -703 l 
-7886 -720 l  -7860 -736 l  -7833 -752 l  -7806 -767 l  -7779 -781 l  -7753 -795 l 
-7726 -807 l  -7699 -819 l  -7672 -829 l  -7646 -838 l  -7619 -846 l  -7592 -852 l 
-7566 -856 l  -7539 -859 l  -7512 -860 l  -7485 -858 l  -7459 -855 l  -7432 -850 l 
-7405 -842 l  -7378 -832 l  -7352 -820 l  -7325 -807 l  -7298 -794 l  -7271 -779 l 
-7245 -764 l  -7218 -750 l  -7191 -736 l  -7165 -722 l  -7138 -710 l  -7111 -699 l 
-7084 -690 l  -7058 -683 l  -7031 -679 l  -7004 -678 l  -6977 -680 l  -6951 -685 l 
-6924 -695 l  -6897 -708 l  -6870 -726 l  -6844 -749 l  -6817 -774 l  -6790 -803 l 
-6764 -835 l  -6737 -868 l  -6710 -902 l  -6683 -938 l  -6657 -974 l  -6630 -1009 l 
-6603 -1044 l  -6576 -1078 l  -6550 -1109 l  -6523 -1139 l  -6496 -1165 l 
-6469 -1188 l  -6443 -1207 l  -6416 -1221 l  -6389 -1231 l  -6363 -1235 l 
-6336 -1232 l  -6309 -1225 l  -6282 -1212 l  -6256 -1194 l  -6229 -1172 l 
-6202 -1147 l  -6175 -1118 l  -6149 -1086 l  -6122 -1052 l  -6095 -1017 l 
-6068 -980 l  -6042 -942 l  -6015 -904 l  -5988 -866 l  -5962 -829 l  -5935 -793 l 
-5908 -759 l  -5881 -726 l  -5855 -697 l  -5828 -670 l  -5801 -647 l  -5774 -627 l 
-5748 -610 l  -5721 -596 l  -5694 -586 l  -5667 -578 l  -5641 -573 l  -5614 -570 l 
-5587 -569 l  -5561 -571 l  -5534 -575 l  -5507 -580 l  -5480 -587 l  -5454 -596 l 
-5427 -605 l  -5400 -617 l  -5373 -629 l  -5347 -642 l  -5320 -655 l  -5293 -670 l 
-5266 -684 l  -5240 -699 l  -5213 -715 l  -5186 -730 l  -5160 -744 l  -5133 -759 l 
-5106 -773 l  -5079 -787 l  -5053 -799 l  -5026 -811 l  -4999 -822 l  -4972 -832 l 
-4946 -840 l  -4919 -847 l  -4892 -852 l  -4865 -856 l  -4839 -857 l  -4812 -857 l 
-4785 -854 l  -4759 -850 l  -4732 -842 l  -4705 -833 l  -4678 -822 l  -4652 -809 l 
-4625 -795 l  -4598 -781 l  -4571 -767 l  -4545 -752 l  -4518 -738 l  -4491 -724 l 
-4465 -712 l  -4438 -701 l  -4411 -692 l  -4384 -685 l  -4358 -680 l  -4331 -679 l 
-4304 -680 l  -4277 -686 l  -4251 -695 l  -4224 -708 l  -4197 -726 l  -4170 -748 l 
-4144 -774 l  -4117 -803 l  -4090 -834 l  -4064 -867 l  -4037 -902 l  -4010 -937 l 
-3983 -973 l  -3957 -1009 l  -3930 -1044 l  -3903 -1077 l  -3876 -1109 l 
-3850 -1138 l  -3823 -1165 l  -3796 -1188 l  -3769 -1207 l  -3743 -1221 l 
-3716 -1231 l  -3689 -1235 l  -3663 -1232 l  -3636 -1225 l  -3609 -1212 l 
-3582 -1194 l  -3556 -1172 l  -3529 -1147 l  -3502 -1118 l  -3475 -1086 l 
-3449 -1053 l  -3422 -1017 l  -3395 -980 l  -3368 -942 l  -3342 -904 l 
-3315 -866 l  -3288 -829 l  -3262 -793 l  -3235 -759 l  -3208 -726 l  -3181 -697 l 
-3155 -670 l  -3128 -647 l  -3101 -627 l  -3074 -610 l  -3048 -596 l  -3021 -586 l 
-2994 -578 l  -2967 -573 l  -2941 -570 l  -2914 -569 l  -2887 -571 l  -2861 -575 l 
-2834 -580 l  -2807 -587 l  -2780 -596 l  -2754 -606 l  -2727 -617 l  -2700 -629 l 
-2673 -642 l  -2647 -656 l  -2620 -670 l  -2593 -684 l  -2566 -699 l  -2540 -714 l 
-2513 -729 l  -2486 -744 l  -2460 -759 l  -2433 -773 l  -2406 -786 l  -2379 -799 l 
-2353 -811 l  -2326 -822 l  -2299 -831 l  -2272 -840 l  -2246 -846 l  -2219 -852 l 
-2192 -855 l  -2165 -857 l  -2139 -857 l  -2112 -854 l  -2085 -850 l  -2059 -842 l 
-2032 -833 l  -2005 -822 l  -1978 -810 l  -1952 -796 l  -1925 -782 l  -1898 -768 l 
-1871 -753 l  -1845 -739 l  -1818 -726 l  -1791 -714 l  -1764 -703 l  -1738 -694 l 
-1711 -687 l  -1684 -682 l  -1658 -680 l  -1631 -682 l  -1604 -687 l  -1577 -695 l 
-1551 -708 l  -1524 -726 l  -1497 -747 l  -1470 -772 l  -1444 -800 l  -1417 -830 l 
-1390 -863 l  -1364 -897 l  -1337 -931 l  -1310 -967 l  -1283 -1002 l 
-1257 -1036 l  -1230 -1070 l  -1203 -1102 l  -1176 -1131 l  -1150 -1158 l 
-1123 -1182 l  -1096 -1202 l  -1069 -1218 l  -1043 -1229 l  -1016 -1235 l 
-989 -1235 l  -963 -1230 l  -936 -1220 l  -909 -1205 l  -882 -1186 l  -856 -1163 l 
-829 -1137 l  -802 -1108 l  -775 -1076 l  -749 -1042 l  -722 -1007 l  -695 -970 l 
-668 -932 l  -642 -893 l  -615 -854 l  -588 -815 l  -562 -777 l  -535 -740 l 
-508 -704 l  -481 -670 l  -455 -638 l  -428 -608 l  -401 -580 l  -374 -554 l 
-348 -529 l  -321 -507 l  -294 -485 l  -267 -466 l  -241 -447 l  -214 -430 l 
-187 -414 l  -161 -400 l  -134 -386 l  -107 -373 l  -80 -360 l  -54 -349 l 
-27 -338 l  0 -327 l  26 -317 l  52 -307 l  79 -297 l  106 -287 l  133 -277 l 
159 -267 l  186 -256 l  213 -245 l  239 -233 l  266 -220 l  293 -206 l 
320 -191 l  346 -175 l  373 -158 l  400 -138 l  427 -118 l  453 -95 l 
480 -70 l  507 -44 l  534 -15 l  560 16 l  587 50 l  614 87 l  640 125 l 
667 165 l  694 206 l  721 248 l  747 289 l  774 329 l  801 367 l  828 403 l 
854 437 l  881 467 l  908 493 l  935 515 l  961 531 l  988 542 l  1015 546 l 
1041 543 l  1068 533 l  1095 514 l  1122 487 l  1148 450 l  1175 405 l 
1202 353 l  1229 294 l  1255 229 l  1282 160 l  1309 87 l  1336 11 l  1362 -66 l 
1389 -144 l  1416 -222 l  1442 -300 l  1469 -375 l  1496 -447 l  1523 -515 l 
1549 -579 l  1576 -636 l  1603 -687 l  1630 -730 l  1656 -764 l  1683 -788 l 
1710 -804 l  1736 -812 l  1763 -812 l  1790 -805 l  1817 -791 l  1843 -773 l 
1870 -749 l  1897 -722 l  1924 -691 l  1950 -657 l  1977 -621 l  2004 -584 l 
2031 -546 l  2057 -509 l  2084 -472 l  2111 -437 l  2137 -403 l  2164 -373 l 
2191 -346 l  2218 -324 l  2244 -305 l  2271 -290 l  2298 -279 l  2325 -270 l 
2351 -264 l  2378 -261 l  2405 -260 l  2432 -260 l  2458 -263 l  2485 -266 l 
2512 -271 l  2538 -276 l  2565 -282 l  2592 -287 l  2619 -293 l  2645 -298 l 
2672 -302 l  2699 -305 l  2726 -307 l  2752 -307 l  2779 -305 l  2806 -301 l 
2833 -296 l  2859 -289 l  2886 -280 l  2913 -269 l  2939 -257 l  2966 -242 l 
2993 -225 l  3020 -207 l  3046 -187 l  3073 -164 l  3100 -140 l  3127 -113 l 
3153 -85 l  3180 -54 l  3207 -21 l  3234 13 l  3260 50 l  3287 89 l  3314 130 l 
3340 172 l  3367 214 l  3394 256 l  3421 298 l  3447 338 l  3474 377 l 
3501 413 l  3528 446 l  3554 476 l  3581 501 l  3608 522 l  3635 537 l 
3661 547 l  3688 550 l  3715 546 l  3741 535 l  3768 515 l  3795 487 l 
3822 450 l  3848 404 l  3875 351 l  3902 292 l  3929 227 l  3955 157 l 
3982 84 l  4009 8 l  4036 -68 l  4062 -147 l  4089 -225 l  4116 -302 l 
4142 -377 l  4169 -449 l  4196 -517 l  4223 -580 l  4249 -637 l  4276 -687 l 
4303 -730 l  4330 -764 l  4356 -788 l  4383 -804 l  4410 -811 l  4437 -811 l 
4463 -804 l  4490 -791 l  4517 -772 l  4543 -748 l  4570 -721 l  4597 -690 l 
4624 -656 l  4650 -620 l  4677 -583 l  4704 -546 l  4731 -508 l  4757 -472 l 
4784 -436 l  4811 -403 l  4837 -373 l  4864 -346 l  4891 -324 l  4918 -305 l 
4944 -290 l  4971 -279 l  4998 -270 l  5025 -265 l  5051 -261 l  5078 -260 l 
5105 -261 l  5132 -263 l  5158 -267 l  5185 -271 l  5212 -277 l  5238 -282 l 
5265 -288 l  5292 -293 l  5319 -298 l  5345 -302 l  5372 -305 l  5399 -307 l 
5426 -307 l  5452 -305 l  5479 -301 l  5506 -295 l  5533 -288 l  5559 -279 l 
5586 -268 l  5613 -255 l  5639 -241 l  5666 -224 l  5693 -205 l  5720 -185 l 
5746 -163 l  5773 -138 l  5800 -112 l  5827 -83 l  5853 -53 l  5880 -20 l 
5907 13 l  5934 50 l  5960 89 l  5987 129 l  6014 170 l  6040 212 l  6067 253 l 
6094 294 l  6121 334 l  6147 372 l  6174 408 l  6201 440 l  6228 470 l 
6254 495 l  6281 516 l  6308 531 l  6335 541 l  6361 545 l  6388 542 l 
6415 532 l  6441 514 l  6468 487 l  6495 452 l  6522 408 l  6548 357 l 
6575 300 l  6602 238 l  6629 171 l  6655 100 l  6682 26 l  6709 -49 l 
6736 -126 l  6762 -203 l  6789 -279 l  6816 -354 l  6842 -427 l  6869 -496 l 
6896 -562 l  6923 -622 l  6949 -676 l  6976 -724 l  7003 -764 l  7030 -795 l 
7056 -819 l  7083 -835 l  7110 -844 l  7137 -845 l  7163 -841 l  7190 -831 l 
7217 -815 l  7243 -793 l  7270 -768 l  7297 -738 l  7324 -704 l  7350 -667 l 
7377 -626 l  7404 -584 l  7431 -539 l  7457 -492 l  7484 -444 l  7511 -396 l 
7538 -346 l  ps
-8091 -795 m  -8091 -545 l  -7841 -545 l  -7841 -795 l  -8091 -795 l  p ef
0 lw -8091 -795 m  -8091 -545 l  -7841 -545 l  -7841 -795 l  -8091 -795 l 
pc
-7557 -975 m  -7557 -725 l  -7307 -725 l  -7307 -975 l  -7557 -975 l  p ef
-7557 -975 m  -7557 -725 l  -7307 -725 l  -7307 -975 l  -7557 -975 l  pc
-7022 -833 m  -7022 -583 l  -6772 -583 l  -6772 -833 l  -7022 -833 l  p ef
-7022 -833 m  -7022 -583 l  -6772 -583 l  -6772 -833 l  -7022 -833 l  pc
-6488 -1360 m  -6488 -1110 l  -6238 -1110 l  -6238 -1360 l  -6488 -1360 l 
p ef
-6488 -1360 m  -6488 -1110 l  -6238 -1110 l  -6238 -1360 l  -6488 -1360 l 
pc
-5953 -795 m  -5953 -545 l  -5703 -545 l  -5703 -795 l  -5953 -795 l  p ef
-5953 -795 m  -5953 -545 l  -5703 -545 l  -5703 -795 l  -5953 -795 l  pc
-5418 -795 m  -5418 -545 l  -5168 -545 l  -5168 -795 l  -5418 -795 l  p ef
-5418 -795 m  -5418 -545 l  -5168 -545 l  -5168 -795 l  -5418 -795 l  pc
-4884 -975 m  -4884 -725 l  -4634 -725 l  -4634 -975 l  -4884 -975 l  p ef
-4884 -975 m  -4884 -725 l  -4634 -725 l  -4634 -975 l  -4884 -975 l  pc
-4349 -833 m  -4349 -583 l  -4099 -583 l  -4099 -833 l  -4349 -833 l  p ef
-4349 -833 m  -4349 -583 l  -4099 -583 l  -4099 -833 l  -4349 -833 l  pc
-3814 -1360 m  -3814 -1110 l  -3564 -1110 l  -3564 -1360 l  -3814 -1360 l 
p ef
-3814 -1360 m  -3814 -1110 l  -3564 -1110 l  -3564 -1360 l  -3814 -1360 l 
pc
-3280 -795 m  -3280 -545 l  -3030 -545 l  -3030 -795 l  -3280 -795 l  p ef
-3280 -795 m  -3280 -545 l  -3030 -545 l  -3030 -795 l  -3280 -795 l  pc
-2745 -795 m  -2745 -545 l  -2495 -545 l  -2495 -795 l  -2745 -795 l  p ef
-2745 -795 m  -2745 -545 l  -2495 -545 l  -2495 -795 l  -2745 -795 l  pc
-2210 -975 m  -2210 -725 l  -1960 -725 l  -1960 -975 l  -2210 -975 l  p ef
-2210 -975 m  -2210 -725 l  -1960 -725 l  -1960 -975 l  -2210 -975 l  pc
-1676 -833 m  -1676 -583 l  -1426 -583 l  -1426 -833 l  -1676 -833 l  p ef
-1676 -833 m  -1676 -583 l  -1426 -583 l  -1426 -833 l  -1676 -833 l  pc
-1141 -1360 m  -1141 -1110 l  -891 -1110 l  -891 -1360 l  -1141 -1360 l 
p ef
-1141 -1360 m  -1141 -1110 l  -891 -1110 l  -891 -1360 l  -1141 -1360 l 
pc
-606 -795 m  -606 -545 l  -356 -545 l  -356 -795 l  -606 -795 l  p ef
-606 -795 m  -606 -545 l  -356 -545 l  -356 -795 l  -606 -795 l  pc
-72 -432 m  -72 -182 l  177 -182 l  177 -432 l  -72 -432 l  p ef
-72 -432 m  -72 -182 l  177 -182 l  177 -432 l  -72 -432 l  pc
462 -74 m  462 175 l  712 175 l  712 -74 l  462 -74 l  p ef
462 -74 m  462 175 l  712 175 l  712 -74 l  462 -74 l  pc
997 362 m  997 612 l  1247 612 l  1247 362 l  997 362 l  p ef
997 362 m  997 612 l  1247 612 l  1247 362 l  997 362 l  pc
1531 -889 m  1531 -639 l  1781 -639 l  1781 -889 l  1531 -889 l  p ef
1531 -889 m  1531 -639 l  1781 -639 l  1781 -889 l  1531 -889 l  pc
2066 -471 m  2066 -221 l  2316 -221 l  2316 -471 l  2066 -471 l  p ef
2066 -471 m  2066 -221 l  2316 -221 l  2316 -471 l  2066 -471 l  pc
2601 -432 m  2601 -182 l  2851 -182 l  2851 -432 l  2601 -432 l  p ef
2601 -432 m  2601 -182 l  2851 -182 l  2851 -432 l  2601 -432 l  pc
3135 -74 m  3135 175 l  3385 175 l  3385 -74 l  3135 -74 l  p ef
3135 -74 m  3135 175 l  3385 175 l  3385 -74 l  3135 -74 l  pc
3670 362 m  3670 612 l  3920 612 l  3920 362 l  3670 362 l  p ef
3670 362 m  3670 612 l  3920 612 l  3920 362 l  3670 362 l  pc
4205 -889 m  4205 -639 l  4455 -639 l  4455 -889 l  4205 -889 l  p ef
4205 -889 m  4205 -639 l  4455 -639 l  4455 -889 l  4205 -889 l  pc
4739 -471 m  4739 -221 l  4989 -221 l  4989 -471 l  4739 -471 l  p ef
4739 -471 m  4739 -221 l  4989 -221 l  4989 -471 l  4739 -471 l  pc
5274 -432 m  5274 -182 l  5524 -182 l  5524 -432 l  5274 -432 l  p ef
5274 -432 m  5274 -182 l  5524 -182 l  5524 -432 l  5274 -432 l  pc
5809 -74 m  5809 175 l  6059 175 l  6059 -74 l  5809 -74 l  p ef
5809 -74 m  5809 175 l  6059 175 l  6059 -74 l  5809 -74 l  pc
6343 362 m  6343 612 l  6593 612 l  6593 362 l  6343 362 l  p ef
6343 362 m  6343 612 l  6593 612 l  6593 362 l  6343 362 l  pc
6878 -889 m  6878 -639 l  7128 -639 l  7128 -889 l  6878 -889 l  p ef
6878 -889 m  6878 -639 l  7128 -639 l  7128 -889 l  6878 -889 l  pc
7413 -471 m  7413 -221 l  7663 -221 l  7663 -471 l  7413 -471 l  p ef
7413 -471 m  7413 -221 l  7663 -221 l  7663 -471 l  7413 -471 l  pc
79.99611 lw 1.000 0.261 0.058 c -7966 -2775 m  -7940 -2730 l  -7913 -2685 l 
-7886 -2641 l  -7860 -2597 l  -7833 -2553 l  -7806 -2511 l  -7779 -2470 l 
-7753 -2430 l  -7726 -2391 l  -7699 -2354 l  -7672 -2318 l  -7646 -2285 l 
-7619 -2253 l  -7592 -2224 l  -7566 -2198 l  -7539 -2174 l  -7512 -2153 l 
-7485 -2134 l  -7459 -2119 l  -7432 -2108 l  -7405 -2099 l  -7378 -2094 l 
-7352 -2092 l  -7325 -2094 l  -7298 -2098 l  -7271 -2104 l  -7245 -2113 l 
-7218 -2124 l  -7191 -2137 l  -7165 -2152 l  -7138 -2169 l  -7111 -2187 l 
-7084 -2207 l  -7058 -2227 l  -7031 -2249 l  -7004 -2271 l  -6977 -2294 l 
-6951 -2317 l  -6924 -2341 l  -6897 -2364 l  -6870 -2388 l  -6844 -2411 l 
-6817 -2433 l  -6790 -2454 l  -6764 -2475 l  -6737 -2494 l  -6710 -2511 l 
-6683 -2527 l  -6657 -2541 l  -6630 -2552 l  -6603 -2561 l  -6576 -2568 l 
-6550 -2571 l  -6523 -2571 l  -6496 -2568 l  -6469 -2561 l  -6443 -2550 l 
-6416 -2536 l  -6389 -2516 l  -6363 -2493 l  -6336 -2464 l  -6309 -2432 l 
-6282 -2396 l  -6256 -2358 l  -6229 -2317 l  -6202 -2276 l  -6175 -2234 l 
-6149 -2192 l  -6122 -2152 l  -6095 -2113 l  -6068 -2076 l  -6042 -2043 l 
-6015 -2014 l  -5988 -1989 l  -5962 -1970 l  -5935 -1957 l  -5908 -1950 l 
-5881 -1951 l  -5855 -1961 l  -5828 -1979 l  -5801 -2007 l  -5774 -2044 l 
-5748 -2088 l  -5721 -2139 l  -5694 -2195 l  -5667 -2257 l  -5641 -2322 l 
-5614 -2389 l  -5587 -2459 l  -5561 -2529 l  -5534 -2599 l  -5507 -2667 l 
-5480 -2733 l  -5454 -2796 l  -5427 -2854 l  -5400 -2907 l  -5373 -2953 l 
-5347 -2993 l  -5320 -3023 l  -5293 -3045 l  -5266 -3056 l  -5240 -3057 l 
-5213 -3050 l  -5186 -3034 l  -5160 -3011 l  -5133 -2981 l  -5106 -2944 l 
-5079 -2902 l  -5053 -2855 l  -5026 -2804 l  -4999 -2750 l  -4972 -2693 l 
-4946 -2634 l  -4919 -2574 l  -4892 -2513 l  -4865 -2452 l  -4839 -2392 l 
-4812 -2333 l  -4785 -2277 l  -4759 -2223 l  -4732 -2173 l  -4705 -2126 l 
-4678 -2083 l  -4652 -2043 l  -4625 -2007 l  -4598 -1973 l  -4571 -1943 l 
-4545 -1915 l  -4518 -1891 l  -4491 -1869 l  -4465 -1850 l  -4438 -1834 l 
-4411 -1820 l  -4384 -1808 l  -4358 -1799 l  -4331 -1792 l  -4304 -1788 l 
-4277 -1785 l  -4251 -1785 l  -4224 -1787 l  -4197 -1790 l  -4170 -1795 l 
-4144 -1802 l  -4117 -1810 l  -4090 -1820 l  -4064 -1831 l  -4037 -1843 l 
-4010 -1856 l  -3983 -1870 l  -3957 -1885 l  -3930 -1901 l  -3903 -1917 l 
-3876 -1934 l  -3850 -1951 l  -3823 -1969 l  -3796 -1986 l  -3769 -2004 l 
-3743 -2022 l  -3716 -2039 l  -3689 -2056 l  -3663 -2073 l  -3636 -2089 l 
-3609 -2105 l  -3582 -2121 l  -3556 -2137 l  -3529 -2152 l  -3502 -2167 l 
-3475 -2182 l  -3449 -2197 l  -3422 -2212 l  -3395 -2226 l  -3368 -2241 l 
-3342 -2256 l  -3315 -2271 l  -3288 -2286 l  -3262 -2301 l  -3235 -2316 l 
-3208 -2332 l  -3181 -2348 l  -3155 -2364 l  -3128 -2381 l  -3101 -2398 l 
-3074 -2415 l  -3048 -2432 l  -3021 -2449 l  -2994 -2465 l  -2967 -2482 l 
-2941 -2498 l  -2914 -2513 l  -2887 -2528 l  -2861 -2543 l  -2834 -2556 l 
-2807 -2568 l  -2780 -2580 l  -2754 -2590 l  -2727 -2599 l  -2700 -2607 l 
-2673 -2613 l  -2647 -2618 l  -2620 -2621 l  -2593 -2622 l  -2566 -2622 l 
-2540 -2619 l  -2513 -2615 l  -2486 -2609 l  -2460 -2600 l  -2433 -2590 l 
-2406 -2577 l  -2379 -2563 l  -2353 -2546 l  -2326 -2527 l  -2299 -2506 l 
-2272 -2482 l  -2246 -2456 l  -2219 -2428 l  -2192 -2397 l  -2165 -2364 l 
-2139 -2328 l  -2112 -2290 l  -2085 -2249 l  -2059 -2205 l  -2032 -2159 l 
-2005 -2112 l  -1978 -2064 l  -1952 -2015 l  -1925 -1966 l  -1898 -1917 l 
-1871 -1870 l  -1845 -1824 l  -1818 -1781 l  -1791 -1740 l  -1764 -1702 l 
-1738 -1669 l  -1711 -1639 l  -1684 -1614 l  -1658 -1595 l  -1631 -1581 l 
-1604 -1574 l  -1577 -1574 l  -1551 -1581 l  -1524 -1596 l  -1497 -1619 l 
-1470 -1647 l  -1444 -1681 l  -1417 -1720 l  -1390 -1762 l  -1364 -1807 l 
-1337 -1854 l  -1310 -1902 l  -1283 -1950 l  -1257 -1997 l  -1230 -2043 l 
-1203 -2087 l  -1176 -2127 l  -1150 -2163 l  -1123 -2194 l  -1096 -2218 l 
-1069 -2237 l  -1043 -2247 l  -1016 -2249 l  -989 -2241 l  -963 -2226 l 
-936 -2203 l  -909 -2174 l  -882 -2139 l  -856 -2100 l  -829 -2059 l  -802 -2015 l 
-775 -1970 l  -749 -1925 l  -722 -1881 l  -695 -1839 l  -668 -1801 l  -642 -1767 l 
-615 -1738 l  -588 -1715 l  -562 -1700 l  -535 -1693 l  -508 -1696 l  -481 -1710 l 
-455 -1734 l  -428 -1769 l  -401 -1813 l  -374 -1866 l  -348 -1925 l  -321 -1990 l 
-294 -2060 l  -267 -2133 l  -241 -2208 l  -214 -2284 l  -187 -2361 l  -161 -2436 l 
-134 -2508 l  -107 -2577 l  -80 -2641 l  -54 -2700 l  -27 -2751 l  0 -2794 l 
26 -2827 l  52 -2850 l  79 -2861 l  106 -2862 l  133 -2852 l  159 -2834 l 
186 -2808 l  213 -2775 l  239 -2736 l  266 -2691 l  293 -2643 l  320 -2591 l 
346 -2538 l  373 -2483 l  400 -2428 l  427 -2373 l  453 -2320 l  480 -2270 l 
507 -2223 l  534 -2181 l  560 -2145 l  587 -2115 l  614 -2092 l  640 -2076 l 
667 -2067 l  694 -2063 l  721 -2066 l  747 -2074 l  774 -2086 l  801 -2103 l 
828 -2124 l  854 -2149 l  881 -2176 l  908 -2207 l  935 -2239 l  961 -2273 l 
988 -2309 l  1015 -2345 l  1041 -2383 l  1068 -2420 l  1095 -2456 l  1122 -2492 l 
1148 -2527 l  1175 -2560 l  1202 -2592 l  1229 -2622 l  1255 -2650 l  1282 -2675 l 
1309 -2698 l  1336 -2719 l  1362 -2737 l  1389 -2751 l  1416 -2763 l  1442 -2771 l 
1469 -2776 l  1496 -2777 l  1523 -2773 l  1549 -2766 l  1576 -2754 l  1603 -2738 l 
1630 -2717 l  1656 -2691 l  1683 -2660 l  1710 -2625 l  1736 -2585 l  1763 -2543 l 
1790 -2499 l  1817 -2453 l  1843 -2407 l  1870 -2361 l  1897 -2315 l  1924 -2271 l 
1950 -2229 l  1977 -2190 l  2004 -2155 l  2031 -2124 l  2057 -2099 l  2084 -2079 l 
2111 -2066 l  2137 -2061 l  2164 -2063 l  2191 -2075 l  2218 -2096 l  2244 -2126 l 
2271 -2163 l  2298 -2207 l  2325 -2256 l  2351 -2311 l  2378 -2369 l  2405 -2430 l 
2432 -2493 l  2458 -2557 l  2485 -2621 l  2512 -2683 l  2538 -2744 l  2565 -2802 l 
2592 -2855 l  2619 -2904 l  2645 -2946 l  2672 -2982 l  2699 -3010 l  2726 -3029 l 
2752 -3038 l  2779 -3038 l  2806 -3030 l  2833 -3014 l  2859 -2990 l  2886 -2960 l 
2913 -2923 l  2939 -2882 l  2966 -2835 l  2993 -2785 l  3020 -2731 l  3046 -2674 l 
3073 -2615 l  3100 -2554 l  3127 -2493 l  3153 -2431 l  3180 -2370 l  3207 -2309 l 
3234 -2251 l  3260 -2194 l  3287 -2141 l  3314 -2090 l  3340 -2042 l  3367 -1997 l 
3394 -1956 l  3421 -1917 l  3447 -1881 l  3474 -1849 l  3501 -1820 l  3528 -1794 l 
3554 -1771 l  3581 -1752 l  3608 -1735 l  3635 -1723 l  3661 -1713 l  3688 -1707 l 
3715 -1704 l  3741 -1705 l  3768 -1710 l  3795 -1717 l  3822 -1729 l  3848 -1743 l 
3875 -1761 l  3902 -1781 l  3929 -1804 l  3955 -1829 l  3982 -1855 l  4009 -1883 l 
4036 -1912 l  4062 -1941 l  4089 -1971 l  4116 -2002 l  4142 -2032 l  4169 -2062 l 
4196 -2091 l  4223 -2119 l  4249 -2145 l  4276 -2170 l  4303 -2193 l  4330 -2214 l 
4356 -2232 l  4383 -2248 l  4410 -2262 l  4437 -2274 l  4463 -2284 l  4490 -2292 l 
4517 -2299 l  4543 -2306 l  4570 -2311 l  4597 -2315 l  4624 -2320 l  4650 -2324 l 
4677 -2328 l  4704 -2332 l  4731 -2336 l  4757 -2341 l  4784 -2348 l  4811 -2355 l 
4837 -2363 l  4864 -2373 l  4891 -2385 l  4918 -2398 l  4944 -2412 l  4971 -2428 l 
4998 -2444 l  5025 -2461 l  5051 -2478 l  5078 -2496 l  5105 -2514 l  5132 -2531 l 
5158 -2548 l  5185 -2565 l  5212 -2581 l  5238 -2596 l  5265 -2609 l  5292 -2621 l 
5319 -2632 l  5345 -2640 l  5372 -2647 l  5399 -2651 l  5426 -2653 l  5452 -2652 l 
5479 -2649 l  5506 -2644 l  5533 -2636 l  5559 -2625 l  5586 -2612 l  5613 -2596 l 
5639 -2578 l  5666 -2558 l  5693 -2535 l  5720 -2509 l  5746 -2481 l  5773 -2450 l 
5800 -2417 l  5827 -2382 l  5853 -2344 l  5880 -2303 l  5907 -2260 l  5934 -2214 l 
5960 -2166 l  5987 -2116 l  6014 -2064 l  6040 -2012 l  6067 -1960 l  6094 -1907 l 
6121 -1856 l  6147 -1806 l  6174 -1758 l  6201 -1712 l  6228 -1670 l  6254 -1631 l 
6281 -1596 l  6308 -1566 l  6335 -1542 l  6361 -1523 l  6388 -1511 l  6415 -1506 l 
6441 -1508 l  6468 -1519 l  6495 -1538 l  6522 -1565 l  6548 -1598 l  6575 -1638 l 
6602 -1684 l  6629 -1733 l  6655 -1787 l  6682 -1843 l  6709 -1900 l  6736 -1959 l 
6762 -2018 l  6789 -2076 l  6816 -2133 l  6842 -2187 l  6869 -2238 l  6896 -2285 l 
6923 -2326 l  6949 -2362 l  6976 -2391 l  7003 -2413 l  7030 -2426 l  7056 -2431 l 
7083 -2429 l  7110 -2420 l  7137 -2404 l  7163 -2381 l  7190 -2353 l  7217 -2319 l 
7243 -2280 l  7270 -2236 l  7297 -2188 l  7324 -2137 l  7350 -2082 l  7377 -2024 l 
7404 -1963 l  7431 -1901 l  7457 -1837 l  7484 -1771 l  7511 -1705 l  7538 -1638 l 
ps
-8091 -2775 m  -7966 -2650 l  -7841 -2775 l  -7966 -2900 l  -8091 -2775 l 
p ef
0 lw -8091 -2775 m  -7966 -2650 l  -7841 -2775 l  -7966 -2900 l  -8091 -2775 l 
pc
-7557 -2108 m  -7432 -1983 l  -7307 -2108 l  -7432 -2233 l  -7557 -2108 l 
p ef
-7557 -2108 m  -7432 -1983 l  -7307 -2108 l  -7432 -2233 l  -7557 -2108 l 
pc
-7022 -2364 m  -6897 -2239 l  -6772 -2364 l  -6897 -2489 l  -7022 -2364 l 
p ef
-7022 -2364 m  -6897 -2239 l  -6772 -2364 l  -6897 -2489 l  -7022 -2364 l 
pc
-6488 -2493 m  -6363 -2368 l  -6238 -2493 l  -6363 -2618 l  -6488 -2493 l 
p ef
-6488 -2493 m  -6363 -2368 l  -6238 -2493 l  -6363 -2618 l  -6488 -2493 l 
pc
-5953 -1979 m  -5828 -1854 l  -5703 -1979 l  -5828 -2104 l  -5953 -1979 l 
p ef
-5953 -1979 m  -5828 -1854 l  -5703 -1979 l  -5828 -2104 l  -5953 -1979 l 
pc
-5418 -3045 m  -5293 -2920 l  -5168 -3045 l  -5293 -3170 l  -5418 -3045 l 
p ef
-5418 -3045 m  -5293 -2920 l  -5168 -3045 l  -5293 -3170 l  -5418 -3045 l 
pc
-4884 -2223 m  -4759 -2098 l  -4634 -2223 l  -4759 -2348 l  -4884 -2223 l 
p ef
-4884 -2223 m  -4759 -2098 l  -4634 -2223 l  -4759 -2348 l  -4884 -2223 l 
pc
-4349 -1787 m  -4224 -1662 l  -4099 -1787 l  -4224 -1912 l  -4349 -1787 l 
p ef
-4349 -1787 m  -4224 -1662 l  -4099 -1787 l  -4224 -1912 l  -4349 -1787 l 
pc
-3814 -2056 m  -3689 -1931 l  -3564 -2056 l  -3689 -2181 l  -3814 -2056 l 
p ef
-3814 -2056 m  -3689 -1931 l  -3564 -2056 l  -3689 -2181 l  -3814 -2056 l 
pc
-3280 -2364 m  -3155 -2239 l  -3030 -2364 l  -3155 -2489 l  -3280 -2364 l 
p ef
-3280 -2364 m  -3155 -2239 l  -3030 -2364 l  -3155 -2489 l  -3280 -2364 l 
pc
-2745 -2621 m  -2620 -2496 l  -2495 -2621 l  -2620 -2746 l  -2745 -2621 l 
p ef
-2745 -2621 m  -2620 -2496 l  -2495 -2621 l  -2620 -2746 l  -2745 -2621 l 
pc
-2210 -2249 m  -2085 -2124 l  -1960 -2249 l  -2085 -2374 l  -2210 -2249 l 
p ef
-2210 -2249 m  -2085 -2124 l  -1960 -2249 l  -2085 -2374 l  -2210 -2249 l 
pc
-1676 -1581 m  -1551 -1456 l  -1426 -1581 l  -1551 -1706 l  -1676 -1581 l 
p ef
-1676 -1581 m  -1551 -1456 l  -1426 -1581 l  -1551 -1706 l  -1676 -1581 l 
pc
-1141 -2249 m  -1016 -2124 l  -891 -2249 l  -1016 -2374 l  -1141 -2249 l 
p ef
-1141 -2249 m  -1016 -2124 l  -891 -2249 l  -1016 -2374 l  -1141 -2249 l 
pc
-606 -1710 m  -481 -1585 l  -356 -1710 l  -481 -1835 l  -606 -1710 l  p ef
-606 -1710 m  -481 -1585 l  -356 -1710 l  -481 -1835 l  -606 -1710 l  pc
-72 -2850 m  52 -2725 l  177 -2850 l  52 -2975 l  -72 -2850 l  p ef
-72 -2850 m  52 -2725 l  177 -2850 l  52 -2975 l  -72 -2850 l  pc
462 -2115 m  587 -1990 l  712 -2115 l  587 -2240 l  462 -2115 l  p ef
462 -2115 m  587 -1990 l  712 -2115 l  587 -2240 l  462 -2115 l  pc
997 -2492 m  1122 -2367 l  1247 -2492 l  1122 -2617 l  997 -2492 l  p ef
997 -2492 m  1122 -2367 l  1247 -2492 l  1122 -2617 l  997 -2492 l  pc
1531 -2691 m  1656 -2566 l  1781 -2691 l  1656 -2816 l  1531 -2691 l  p ef
1531 -2691 m  1656 -2566 l  1781 -2691 l  1656 -2816 l  1531 -2691 l  pc
2066 -2075 m  2191 -1950 l  2316 -2075 l  2191 -2200 l  2066 -2075 l  p ef
2066 -2075 m  2191 -1950 l  2316 -2075 l  2191 -2200 l  2066 -2075 l  pc
2601 -3029 m  2726 -2904 l  2851 -3029 l  2726 -3154 l  2601 -3029 l  p ef
2601 -3029 m  2726 -2904 l  2851 -3029 l  2726 -3154 l  2601 -3029 l  pc
3135 -2194 m  3260 -2069 l  3385 -2194 l  3260 -2319 l  3135 -2194 l  p ef
3135 -2194 m  3260 -2069 l  3385 -2194 l  3260 -2319 l  3135 -2194 l  pc
3670 -1717 m  3795 -1592 l  3920 -1717 l  3795 -1842 l  3670 -1717 l  p ef
3670 -1717 m  3795 -1592 l  3920 -1717 l  3795 -1842 l  3670 -1717 l  pc
4205 -2214 m  4330 -2089 l  4455 -2214 l  4330 -2339 l  4205 -2214 l  p ef
4205 -2214 m  4330 -2089 l  4455 -2214 l  4330 -2339 l  4205 -2214 l  pc
4739 -2373 m  4864 -2248 l  4989 -2373 l  4864 -2498 l  4739 -2373 l  p ef
4739 -2373 m  4864 -2248 l  4989 -2373 l  4864 -2498 l  4739 -2373 l  pc
5274 -2651 m  5399 -2526 l  5524 -2651 l  5399 -2776 l  5274 -2651 l  p ef
5274 -2651 m  5399 -2526 l  5524 -2651 l  5399 -2776 l  5274 -2651 l  pc
5809 -2214 m  5934 -2089 l  6059 -2214 l  5934 -2339 l  5809 -2214 l  p ef
5809 -2214 m  5934 -2089 l  6059 -2214 l  5934 -2339 l  5809 -2214 l  pc
6343 -1519 m  6468 -1394 l  6593 -1519 l  6468 -1644 l  6343 -1519 l  p ef
6343 -1519 m  6468 -1394 l  6593 -1519 l  6468 -1644 l  6343 -1519 l  pc
6878 -2413 m  7003 -2288 l  7128 -2413 l  7003 -2538 l  6878 -2413 l  p ef
6878 -2413 m  7003 -2288 l  7128 -2413 l  7003 -2538 l  6878 -2413 l  pc
7413 -1638 m  7538 -1513 l  7663 -1638 l  7538 -1763 l  7413 -1638 l  p ef
7413 -1638 m  7538 -1513 l  7663 -1638 l  7538 -1763 l  7413 -1638 l  pc
0.003 0.003 0.003 c
/Helvetica f
353 sf -8059 3261 m  185 0 (1) bs
/Helvetica f
353 sf -7525 3261 m  185 0 (2) bs
/Helvetica f
353 sf -6990 3261 m  185 0 (3) bs
/Helvetica f
353 sf -6456 3261 m  185 0 (4) bs
/Helvetica f
353 sf -5921 3261 m  185 0 (5) bs
/Helvetica f
353 sf -5386 3261 m  185 0 (6) bs
/Helvetica f
353 sf -4852 3261 m  185 0 (7) bs
/Helvetica f
353 sf -4317 3261 m  185 0 (8) bs
/Helvetica f
353 sf -3782 3261 m  185 0 (9) bs
/Helvetica f
353 sf -3340 3261 m  185 0 (1) bs
185 185 (0) bs
/Helvetica f
353 sf -2792 3261 m  185 0 (1) bs
185 159 (1) bs
/Helvetica f
353 sf -2270 3261 m  185 0 (1) bs
185 185 (2) bs
/Helvetica f
353 sf -1736 3261 m  185 0 (1) bs
185 185 (3) bs
/Helvetica f
353 sf -1201 3261 m  185 0 (1) bs
185 185 (4) bs
/Helvetica f
353 sf -666 3261 m  185 0 (1) bs
185 185 (5) bs
/Helvetica f
353 sf -132 3261 m  185 0 (1) bs
185 185 (6) bs
/Helvetica f
353 sf 403 3261 m  185 0 (1) bs
185 185 (7) bs
/Helvetica f
353 sf 938 3261 m  185 0 (1) bs
185 185 (8) bs
/Helvetica f
353 sf 1472 3261 m  185 0 (1) bs
185 185 (9) bs
/Helvetica f
353 sf 2007 3261 m  185 0 (2) bs
185 185 (0) bs
/Helvetica f
353 sf 2542 3261 m  185 0 (2) bs
185 185 (1) bs
/Helvetica f
353 sf 3076 3261 m  185 0 (2) bs
185 185 (2) bs
/Helvetica f
353 sf 3611 3261 m  185 0 (2) bs
185 185 (3) bs
/Helvetica f
353 sf 4146 3261 m  185 0 (2) bs
185 185 (4) bs
/Helvetica f
353 sf 4680 3261 m  185 0 (2) bs
185 185 (5) bs
/Helvetica f
353 sf 5215 3261 m  185 0 (2) bs
185 185 (6) bs
/Helvetica f
353 sf 5750 3261 m  185 0 (2) bs
185 185 (7) bs
/Helvetica f
353 sf 6284 3261 m  185 0 (2) bs
185 185 (8) bs
/Helvetica f
353 sf 6819 3261 m  185 0 (2) bs
185 185 (9) bs
/Helvetica f
353 sf 7354 3261 m  185 0 (3) bs
185 185 (0) bs
/Helvetica f
353 sf -8877 2814 m  185 0 (0) bs
106 185 (,) bs
185 291 (0) bs
185 476 (0) bs
/Helvetica f
353 sf -8877 1961 m  185 0 (0) bs
106 185 (,) bs
185 291 (1) bs
185 476 (0) bs
/Helvetica f
353 sf -8877 1109 m  185 0 (0) bs
106 185 (,) bs
185 291 (2) bs
185 476 (0) bs
/Helvetica f
353 sf -8877 256 m  185 0 (0) bs
106 185 (,) bs
185 291 (3) bs
185 476 (0) bs
/Helvetica f
353 sf -8877 -596 m  185 0 (0) bs
106 185 (,) bs
185 291 (4) bs
185 476 (0) bs
/Helvetica f
353 sf -8877 -1448 m  185 0 (0) bs
106 185 (,) bs
185 291 (5) bs
185 476 (0) bs
/Helvetica f
353 sf -8877 -2301 m  185 0 (0) bs
106 185 (,) bs
185 291 (6) bs
185 476 (0) bs
/Helvetica f
353 sf -8877 -3153 m  185 0 (0) bs
106 185 (,) bs
185 291 (7) bs
185 476 (0) bs
/Helvetica f
353 sf -8877 -4005 m  185 0 (0) bs
106 185 (,) bs
185 291 (8) bs
185 476 (0) bs
79.99611 lw 0.003 0.273 0.527 c 8253 -250 m  9053 -250 l  ps
8547 -355 m  8547 -144 l  8758 -144 l  8758 -355 l  8547 -355 l  p ef
0 lw 8547 -355 m  8547 -144 l  8758 -144 l  8758 -355 l  8547 -355 l  pc
79.99611 lw 1.000 0.261 0.058 c 8253 247 m  9053 247 l  ps
8547 247 m  8653 353 l  8758 247 l  8653 142 l  8547 247 l  p ef
0 lw 8547 247 m  8653 353 l  8758 247 l  8653 142 l  8547 247 l  pc
0.003 0.003 0.003 c
/Helvetica f
353 sf 9153 -130 m  238 0 (H) bs
291 238 (M) bs
291 529 (M) bs
/Helvetica f
353 sf 9153 367 m  238 0 (K) bs
238 238 (N) bs
238 476 (N) bs
/Helvetica f
318 sf -616 3908 m  79 0 (i) bs
/Helvetica f
318 sf -9464 -399 m  gs 90.0 r 185 0 (e) bs
gr
0 9006 t 
pom
count op_count sub {pop} repeat countdictstack dict_count sub {end} repeat b4_inc_state restore
%%PageTrailer
%%Trailer
%%EOF
