%!PS-Adobe-3.0 EPSF-3.0 
%%BoundingBox: 0 0 584 255
%%Pages: 0
%%Creator: LibreOffice 4.4
%%Title: none
%%CreationDate: none
%%LanguageLevel: 2
%%EndComments
%%BeginProlog
%%BeginResource: procset SDRes-Prolog 1.0 0
/b4_inc_state save def
/dict_count countdictstack def
/op_count count 1 sub def
userdict begin
0 setgray 0 setlinecap 1 setlinewidth 0 setlinejoin 10 setmiterlimit[] 0 setdash newpath
/languagelevel where {pop languagelevel 1 ne {false setstrokeadjust false setoverprint} if} if
/bdef {bind def} bind def
/c {setrgbcolor} bdef
/l {neg lineto} bdef
/rl {neg rlineto} bdef
/lc {setlinecap} bdef
/lj {setlinejoin} bdef
/lw {setlinewidth} bdef
/ml {setmiterlimit} bdef
/ld {setdash} bdef
/m {neg moveto} bdef
/ct {6 2 roll neg 6 2 roll neg 6 2 roll neg curveto} bdef
/r {rotate} bdef
/t {neg translate} bdef
/s {scale} bdef
/sw {show} bdef
/gs {gsave} bdef
/gr {grestore} bdef
/f {findfont dup length dict begin
{1 index /FID ne {def} {pop pop} ifelse} forall /Encoding ISOLatin1Encoding def
currentdict end /NFont exch definefont pop /NFont findfont} bdef
/p {closepath} bdef
/sf {scalefont setfont} bdef
/ef {eofill}bdef
/pc {closepath stroke}bdef
/ps {stroke}bdef
/pum {matrix currentmatrix}bdef
/pom {setmatrix}bdef
/bs {/aString exch def /nXOfs exch def /nWidth exch def currentpoint nXOfs 0 rmoveto pum nWidth aString stringwidth pop div 1 scale aString show pom moveto} bdef
%%EndResource
%%EndProlog
%%BeginSetup
%%EndSetup
%%Page: 1 1
%%BeginPageSetup
%%EndPageSetup
pum
0.02834 0.02831 s 
0 -9006 t
/tm matrix currentmatrix def
tm setmatrix
10301 4503 t 
1 1 s 
1.000 1.000 1.000 c 0 4502 m  -10301 4502 l  -10301 -4503 l  10301 -4503 l 
10301 4502 l  0 4502 l  p ef
0 lw 1 lj 0.703 0.703 0.703 c -1008 2694 m  -7966 2694 l  -7966 -4124 l 
5950 -4124 l  5950 2694 l  -1008 2694 l  pc
5950 2693 m  -7966 2693 l  ps
5950 1840 m  -7966 1840 l  ps
5950 988 m  -7966 988 l  ps
5950 135 m  -7966 135 l  ps
5950 -716 m  -7966 -716 l  ps
5950 -1568 m  -7966 -1568 l  ps
5950 -2421 m  -7966 -2421 l  ps
5950 -3273 m  -7966 -3273 l  ps
5950 -4125 m  -7966 -4125 l  ps
-7966 2843 m  -7966 2693 l  ps
-7966 2843 m  -7966 2693 l  ps
-7487 2843 m  -7487 2693 l  ps
-7487 2843 m  -7487 2693 l  ps
-7007 2843 m  -7007 2693 l  ps
-7007 2843 m  -7007 2693 l  ps
-6527 2843 m  -6527 2693 l  ps
-6527 2843 m  -6527 2693 l  ps
-6047 2843 m  -6047 2693 l  ps
-6047 2843 m  -6047 2693 l  ps
-5567 2843 m  -5567 2693 l  ps
-5567 2843 m  -5567 2693 l  ps
-5087 2843 m  -5087 2693 l  ps
-5087 2843 m  -5087 2693 l  ps
-4607 2843 m  -4607 2693 l  ps
-4607 2843 m  -4607 2693 l  ps
-4127 2843 m  -4127 2693 l  ps
-4127 2843 m  -4127 2693 l  ps
-3647 2843 m  -3647 2693 l  ps
-3647 2843 m  -3647 2693 l  ps
-3168 2843 m  -3168 2693 l  ps
-3168 2843 m  -3168 2693 l  ps
-2688 2843 m  -2688 2693 l  ps
-2688 2843 m  -2688 2693 l  ps
-2208 2843 m  -2208 2693 l  ps
-2208 2843 m  -2208 2693 l  ps
-1728 2843 m  -1728 2693 l  ps
-1728 2843 m  -1728 2693 l  ps
-1248 2843 m  -1248 2693 l  ps
-1248 2843 m  -1248 2693 l  ps
-768 2843 m  -768 2693 l  ps
-768 2843 m  -768 2693 l  ps
-288 2843 m  -288 2693 l  ps
-288 2843 m  -288 2693 l  ps
191 2843 m  191 2693 l  ps
191 2843 m  191 2693 l  ps
671 2843 m  671 2693 l  ps
671 2843 m  671 2693 l  ps
1151 2843 m  1151 2693 l  ps
1151 2843 m  1151 2693 l  ps
1630 2843 m  1630 2693 l  ps
1630 2843 m  1630 2693 l  ps
2110 2843 m  2110 2693 l  ps
2110 2843 m  2110 2693 l  ps
2590 2843 m  2590 2693 l  ps
2590 2843 m  2590 2693 l  ps
3070 2843 m  3070 2693 l  ps
3070 2843 m  3070 2693 l  ps
3550 2843 m  3550 2693 l  ps
3550 2843 m  3550 2693 l  ps
4030 2843 m  4030 2693 l  ps
4030 2843 m  4030 2693 l  ps
4510 2843 m  4510 2693 l  ps
4510 2843 m  4510 2693 l  ps
4990 2843 m  4990 2693 l  ps
4990 2843 m  4990 2693 l  ps
5470 2843 m  5470 2693 l  ps
5470 2843 m  5470 2693 l  ps
5950 2843 m  5950 2693 l  ps
5950 2843 m  5950 2693 l  ps
-7966 2693 m  5950 2693 l  ps
-8116 2693 m  -7966 2693 l  ps
-8116 2693 m  -7966 2693 l  ps
-8116 1840 m  -7966 1840 l  ps
-8116 1840 m  -7966 1840 l  ps
-8116 988 m  -7966 988 l  ps
-8116 988 m  -7966 988 l  ps
-8116 135 m  -7966 135 l  ps
-8116 135 m  -7966 135 l  ps
-8116 -716 m  -7966 -716 l  ps
-8116 -716 m  -7966 -716 l  ps
-8116 -1568 m  -7966 -1568 l  ps
-8116 -1568 m  -7966 -1568 l  ps
-8116 -2421 m  -7966 -2421 l  ps
-8116 -2421 m  -7966 -2421 l  ps
-8116 -3273 m  -7966 -3273 l  ps
-8116 -3273 m  -7966 -3273 l  ps
-8116 -4125 m  -7966 -4125 l  ps
-8116 -4125 m  -7966 -4125 l  ps
-7966 2693 m  -7966 -4125 l  ps
79.99611 lw 0.003 0.273 0.527 c -7966 -1673 m  -7943 -1686 l  -7919 -1698 l 
-7895 -1710 l  -7871 -1722 l  -7847 -1734 l  -7823 -1745 l  -7799 -1757 l 
-7775 -1767 l  -7751 -1778 l  -7727 -1787 l  -7703 -1797 l  -7679 -1805 l 
-7655 -1813 l  -7631 -1820 l  -7607 -1826 l  -7583 -1832 l  -7559 -1836 l 
-7535 -1840 l  -7511 -1842 l  -7487 -1843 l  -7463 -1844 l  -7439 -1843 l 
-7415 -1841 l  -7391 -1839 l  -7367 -1835 l  -7343 -1832 l  -7319 -1828 l 
-7295 -1823 l  -7271 -1819 l  -7247 -1814 l  -7223 -1810 l  -7199 -1806 l 
-7175 -1802 l  -7151 -1798 l  -7127 -1796 l  -7103 -1794 l  -7079 -1792 l 
-7055 -1792 l  -7031 -1793 l  -7007 -1795 l  -6983 -1799 l  -6959 -1804 l 
-6935 -1810 l  -6911 -1817 l  -6887 -1825 l  -6863 -1833 l  -6839 -1843 l 
-6815 -1853 l  -6791 -1863 l  -6767 -1874 l  -6743 -1885 l  -6719 -1896 l 
-6695 -1908 l  -6671 -1919 l  -6647 -1930 l  -6623 -1941 l  -6599 -1951 l 
-6575 -1961 l  -6551 -1970 l  -6527 -1979 l  -6503 -1987 l  -6479 -1993 l 
-6455 -1999 l  -6431 -2004 l  -6407 -2009 l  -6383 -2012 l  -6359 -2014 l 
-6335 -2016 l  -6311 -2016 l  -6287 -2016 l  -6263 -2014 l  -6239 -2012 l 
-6215 -2009 l  -6191 -2004 l  -6167 -1999 l  -6143 -1993 l  -6119 -1985 l 
-6095 -1977 l  -6071 -1967 l  -6047 -1957 l  -6023 -1946 l  -5999 -1933 l 
-5975 -1920 l  -5951 -1906 l  -5927 -1892 l  -5903 -1877 l  -5879 -1863 l 
-5855 -1848 l  -5831 -1834 l  -5807 -1819 l  -5783 -1806 l  -5759 -1793 l 
-5735 -1780 l  -5711 -1769 l  -5687 -1759 l  -5663 -1750 l  -5639 -1742 l 
-5615 -1736 l  -5591 -1732 l  -5567 -1729 l  -5543 -1729 l  -5519 -1730 l 
-5495 -1733 l  -5471 -1737 l  -5447 -1742 l  -5423 -1749 l  -5399 -1756 l 
-5375 -1764 l  -5351 -1772 l  -5327 -1780 l  -5303 -1789 l  -5279 -1797 l 
-5255 -1804 l  -5231 -1811 l  -5207 -1818 l  -5183 -1823 l  -5159 -1827 l 
-5135 -1829 l  -5111 -1830 l  -5087 -1829 l  -5063 -1826 l  -5039 -1821 l 
-5015 -1814 l  -4991 -1806 l  -4967 -1796 l  -4943 -1786 l  -4919 -1774 l 
-4895 -1762 l  -4871 -1749 l  -4847 -1736 l  -4823 -1722 l  -4799 -1709 l 
-4775 -1696 l  -4751 -1683 l  -4727 -1671 l  -4703 -1659 l  -4679 -1648 l 
-4655 -1639 l  -4631 -1631 l  -4607 -1624 l  -4583 -1619 l  -4559 -1615 l 
-4535 -1613 l  -4511 -1613 l  -4487 -1614 l  -4463 -1616 l  -4439 -1619 l 
-4415 -1623 l  -4391 -1628 l  -4367 -1634 l  -4343 -1640 l  -4319 -1648 l 
-4295 -1655 l  -4271 -1664 l  -4247 -1672 l  -4223 -1681 l  -4199 -1690 l 
-4175 -1699 l  -4151 -1709 l  -4127 -1718 l  -4103 -1726 l  -4079 -1735 l 
-4055 -1743 l  -4031 -1751 l  -4007 -1759 l  -3983 -1766 l  -3959 -1772 l 
-3935 -1779 l  -3911 -1784 l  -3887 -1789 l  -3863 -1793 l  -3839 -1797 l 
-3815 -1799 l  -3791 -1801 l  -3767 -1803 l  -3743 -1803 l  -3719 -1802 l 
-3695 -1800 l  -3671 -1797 l  -3647 -1794 l  -3623 -1789 l  -3599 -1783 l 
-3575 -1776 l  -3551 -1768 l  -3527 -1760 l  -3503 -1752 l  -3479 -1743 l 
-3455 -1734 l  -3431 -1726 l  -3407 -1717 l  -3383 -1709 l  -3359 -1701 l 
-3335 -1694 l  -3312 -1687 l  -3288 -1682 l  -3264 -1678 l  -3240 -1674 l 
-3216 -1672 l  -3192 -1672 l  -3168 -1673 l  -3144 -1676 l  -3120 -1681 l 
-3096 -1687 l  -3072 -1694 l  -3048 -1702 l  -3024 -1712 l  -3000 -1722 l 
-2976 -1732 l  -2952 -1743 l  -2928 -1755 l  -2904 -1766 l  -2880 -1777 l 
-2856 -1788 l  -2832 -1799 l  -2808 -1809 l  -2784 -1818 l  -2760 -1826 l 
-2736 -1833 l  -2712 -1839 l  -2688 -1843 l  -2664 -1846 l  -2640 -1847 l 
-2616 -1847 l  -2592 -1846 l  -2568 -1844 l  -2544 -1841 l  -2520 -1837 l 
-2496 -1833 l  -2472 -1828 l  -2448 -1823 l  -2424 -1818 l  -2400 -1813 l 
-2376 -1808 l  -2352 -1804 l  -2328 -1800 l  -2304 -1797 l  -2280 -1795 l 
-2256 -1794 l  -2232 -1794 l  -2208 -1795 l  -2184 -1798 l  -2160 -1803 l 
-2136 -1808 l  -2112 -1815 l  -2088 -1822 l  -2064 -1831 l  -2040 -1840 l 
-2016 -1850 l  -1992 -1861 l  -1968 -1872 l  -1944 -1883 l  -1920 -1894 l 
-1896 -1906 l  -1872 -1918 l  -1848 -1929 l  -1824 -1940 l  -1800 -1951 l 
-1776 -1961 l  -1752 -1970 l  -1728 -1979 l  -1704 -1987 l  -1680 -1994 l 
-1656 -2000 l  -1632 -2005 l  -1608 -2009 l  -1584 -2012 l  -1560 -2015 l 
-1536 -2016 l  -1512 -2017 l  -1488 -2016 l  -1464 -2015 l  -1440 -2012 l 
-1416 -2009 l  -1392 -2005 l  -1368 -1999 l  -1344 -1993 l  -1320 -1985 l 
-1296 -1977 l  -1272 -1968 l  -1248 -1957 l  -1224 -1945 l  -1200 -1933 l 
-1176 -1920 l  -1152 -1906 l  -1128 -1892 l  -1104 -1877 l  -1080 -1863 l 
-1056 -1848 l  -1032 -1833 l  -1008 -1819 l  -984 -1806 l  -960 -1793 l 
-936 -1780 l  -912 -1769 l  -888 -1759 l  -864 -1750 l  -840 -1742 l  -816 -1736 l 
-792 -1732 l  -768 -1729 l  -744 -1729 l  -720 -1730 l  -696 -1733 l  -672 -1737 l 
-648 -1742 l  -624 -1749 l  -600 -1756 l  -576 -1764 l  -552 -1772 l  -528 -1780 l 
-504 -1789 l  -480 -1797 l  -456 -1804 l  -432 -1811 l  -408 -1818 l  -384 -1823 l 
-360 -1827 l  -336 -1829 l  -312 -1830 l  -288 -1829 l  -264 -1826 l  -240 -1821 l 
-216 -1814 l  -192 -1806 l  -168 -1796 l  -144 -1786 l  -120 -1774 l  -96 -1762 l 
-72 -1749 l  -48 -1736 l  -24 -1722 l  0 -1709 l  23 -1696 l  47 -1683 l 
71 -1671 l  95 -1659 l  119 -1648 l  143 -1639 l  167 -1631 l  191 -1624 l 
215 -1619 l  239 -1615 l  263 -1613 l  287 -1613 l  311 -1614 l  335 -1616 l 
359 -1619 l  383 -1623 l  407 -1628 l  431 -1634 l  455 -1640 l  479 -1648 l 
503 -1655 l  527 -1664 l  551 -1672 l  575 -1681 l  599 -1690 l  623 -1699 l 
647 -1709 l  671 -1718 l  695 -1726 l  719 -1735 l  743 -1743 l  767 -1751 l 
791 -1759 l  815 -1766 l  839 -1772 l  863 -1779 l  887 -1784 l  911 -1789 l 
935 -1793 l  959 -1797 l  983 -1799 l  1007 -1801 l  1031 -1803 l  1055 -1803 l 
1079 -1802 l  1103 -1800 l  1127 -1797 l  1151 -1794 l  1175 -1789 l  1199 -1783 l 
1223 -1776 l  1247 -1768 l  1271 -1760 l  1295 -1752 l  1318 -1743 l  1342 -1734 l 
1366 -1726 l  1390 -1717 l  1414 -1709 l  1438 -1701 l  1462 -1694 l  1486 -1687 l 
1510 -1682 l  1534 -1678 l  1558 -1674 l  1582 -1672 l  1606 -1672 l  1630 -1673 l 
1654 -1676 l  1678 -1681 l  1702 -1687 l  1726 -1694 l  1750 -1702 l  1774 -1712 l 
1798 -1722 l  1822 -1732 l  1846 -1743 l  1870 -1755 l  1894 -1766 l  1918 -1777 l 
1942 -1788 l  1966 -1799 l  1990 -1809 l  2014 -1818 l  2038 -1826 l  2062 -1833 l 
2086 -1839 l  2110 -1843 l  2134 -1846 l  2158 -1847 l  2182 -1847 l  2206 -1846 l 
2230 -1844 l  2254 -1841 l  2278 -1837 l  2302 -1833 l  2326 -1828 l  2350 -1823 l 
2374 -1818 l  2398 -1813 l  2422 -1808 l  2446 -1804 l  2470 -1800 l  2494 -1797 l 
2518 -1795 l  2542 -1794 l  2566 -1794 l  2590 -1795 l  2614 -1798 l  2638 -1803 l 
2662 -1808 l  2686 -1815 l  2710 -1822 l  2734 -1831 l  2758 -1840 l  2782 -1850 l 
2806 -1861 l  2830 -1872 l  2854 -1883 l  2878 -1894 l  2902 -1906 l  2926 -1918 l 
2950 -1929 l  2974 -1940 l  2998 -1951 l  3022 -1961 l  3046 -1970 l  3070 -1979 l 
3094 -1987 l  3118 -1994 l  3142 -2000 l  3166 -2005 l  3190 -2009 l  3214 -2012 l 
3238 -2015 l  3262 -2016 l  3286 -2017 l  3310 -2016 l  3334 -2015 l  3358 -2012 l 
3382 -2009 l  3406 -2005 l  3430 -1999 l  3454 -1993 l  3478 -1985 l  3502 -1977 l 
3526 -1968 l  3550 -1957 l  3574 -1945 l  3598 -1933 l  3622 -1920 l  3646 -1906 l 
3670 -1892 l  3694 -1877 l  3718 -1863 l  3742 -1848 l  3766 -1833 l  3790 -1819 l 
3814 -1806 l  3838 -1792 l  3862 -1780 l  3886 -1769 l  3910 -1759 l  3934 -1750 l 
3958 -1742 l  3982 -1736 l  4006 -1732 l  4030 -1729 l  4054 -1729 l  4078 -1730 l 
4102 -1733 l  4126 -1737 l  4150 -1743 l  4174 -1749 l  4198 -1756 l  4222 -1764 l 
4246 -1772 l  4270 -1781 l  4294 -1789 l  4318 -1797 l  4342 -1805 l  4366 -1812 l 
4390 -1818 l  4414 -1823 l  4438 -1827 l  4462 -1829 l  4486 -1830 l  4510 -1829 l 
4534 -1825 l  4558 -1820 l  4582 -1814 l  4606 -1805 l  4630 -1796 l  4654 -1785 l 
4678 -1773 l  4702 -1761 l  4726 -1748 l  4750 -1734 l  4774 -1721 l  4798 -1707 l 
4822 -1694 l  4846 -1681 l  4870 -1669 l  4894 -1658 l  4918 -1647 l  4942 -1638 l 
4966 -1630 l  4990 -1624 l  5014 -1619 l  5038 -1617 l  5062 -1615 l  5086 -1615 l 
5110 -1617 l  5134 -1619 l  5158 -1623 l  5182 -1628 l  5206 -1633 l  5230 -1639 l 
5254 -1646 l  5278 -1654 l  5302 -1661 l  5326 -1669 l  5350 -1678 l  5374 -1686 l 
5398 -1694 l  5422 -1702 l  5446 -1710 l  5470 -1718 l  5494 -1724 l  5518 -1731 l 
5542 -1737 l  5566 -1743 l  5590 -1748 l  5614 -1752 l  5638 -1757 l  5662 -1761 l 
5686 -1765 l  5710 -1768 l  5734 -1772 l  5758 -1775 l  5782 -1777 l  5806 -1780 l 
5830 -1783 l  5854 -1785 l  5878 -1787 l  5902 -1789 l  5926 -1791 l  5950 -1794 l 
ps
-8091 -1798 m  -8091 -1548 l  -7841 -1548 l  -7841 -1798 l  -8091 -1798 l 
p ef
0 lw -8091 -1798 m  -8091 -1548 l  -7841 -1548 l  -7841 -1798 l  -8091 -1798 l 
pc
-7612 -1968 m  -7612 -1718 l  -7362 -1718 l  -7362 -1968 l  -7612 -1968 l 
p ef
-7612 -1968 m  -7612 -1718 l  -7362 -1718 l  -7362 -1968 l  -7612 -1968 l 
pc
-7132 -1920 m  -7132 -1670 l  -6882 -1670 l  -6882 -1920 l  -7132 -1920 l 
p ef
-7132 -1920 m  -7132 -1670 l  -6882 -1670 l  -6882 -1920 l  -7132 -1920 l 
pc
-6652 -2104 m  -6652 -1854 l  -6402 -1854 l  -6402 -2104 l  -6652 -2104 l 
p ef
-6652 -2104 m  -6652 -1854 l  -6402 -1854 l  -6402 -2104 l  -6652 -2104 l 
pc
-6172 -2082 m  -6172 -1832 l  -5922 -1832 l  -5922 -2082 l  -6172 -2082 l 
p ef
-6172 -2082 m  -6172 -1832 l  -5922 -1832 l  -5922 -2082 l  -6172 -2082 l 
pc
-5692 -1854 m  -5692 -1604 l  -5442 -1604 l  -5442 -1854 l  -5692 -1854 l 
p ef
-5692 -1854 m  -5692 -1604 l  -5442 -1604 l  -5442 -1854 l  -5692 -1854 l 
pc
-5212 -1954 m  -5212 -1704 l  -4962 -1704 l  -4962 -1954 l  -5212 -1954 l 
p ef
-5212 -1954 m  -5212 -1704 l  -4962 -1704 l  -4962 -1954 l  -5212 -1954 l 
pc
-4732 -1749 m  -4732 -1499 l  -4482 -1499 l  -4482 -1749 l  -4732 -1749 l 
p ef
-4732 -1749 m  -4732 -1499 l  -4482 -1499 l  -4482 -1749 l  -4732 -1749 l 
pc
-4252 -1843 m  -4252 -1593 l  -4002 -1593 l  -4002 -1843 l  -4252 -1843 l 
p ef
-4252 -1843 m  -4252 -1593 l  -4002 -1593 l  -4002 -1843 l  -4252 -1843 l 
pc
-3772 -1919 m  -3772 -1669 l  -3522 -1669 l  -3522 -1919 l  -3772 -1919 l 
p ef
-3772 -1919 m  -3772 -1669 l  -3522 -1669 l  -3522 -1919 l  -3772 -1919 l 
pc
-3293 -1798 m  -3293 -1548 l  -3043 -1548 l  -3043 -1798 l  -3293 -1798 l 
p ef
-3293 -1798 m  -3293 -1548 l  -3043 -1548 l  -3043 -1798 l  -3293 -1798 l 
pc
-2813 -1968 m  -2813 -1718 l  -2563 -1718 l  -2563 -1968 l  -2813 -1968 l 
p ef
-2813 -1968 m  -2813 -1718 l  -2563 -1718 l  -2563 -1968 l  -2813 -1968 l 
pc
-2333 -1920 m  -2333 -1670 l  -2083 -1670 l  -2083 -1920 l  -2333 -1920 l 
p ef
-2333 -1920 m  -2333 -1670 l  -2083 -1670 l  -2083 -1920 l  -2333 -1920 l 
pc
-1853 -2104 m  -1853 -1854 l  -1603 -1854 l  -1603 -2104 l  -1853 -2104 l 
p ef
-1853 -2104 m  -1853 -1854 l  -1603 -1854 l  -1603 -2104 l  -1853 -2104 l 
pc
-1373 -2082 m  -1373 -1832 l  -1123 -1832 l  -1123 -2082 l  -1373 -2082 l 
p ef
-1373 -2082 m  -1373 -1832 l  -1123 -1832 l  -1123 -2082 l  -1373 -2082 l 
pc
-893 -1854 m  -893 -1604 l  -643 -1604 l  -643 -1854 l  -893 -1854 l  p ef
-893 -1854 m  -893 -1604 l  -643 -1604 l  -643 -1854 l  -893 -1854 l  pc
-413 -1954 m  -413 -1704 l  -163 -1704 l  -163 -1954 l  -413 -1954 l  p ef
-413 -1954 m  -413 -1704 l  -163 -1704 l  -163 -1954 l  -413 -1954 l  pc
66 -1749 m  66 -1499 l  316 -1499 l  316 -1749 l  66 -1749 l  p ef
66 -1749 m  66 -1499 l  316 -1499 l  316 -1749 l  66 -1749 l  pc
546 -1843 m  546 -1593 l  796 -1593 l  796 -1843 l  546 -1843 l  p ef
546 -1843 m  546 -1593 l  796 -1593 l  796 -1843 l  546 -1843 l  pc
1026 -1919 m  1026 -1669 l  1276 -1669 l  1276 -1919 l  1026 -1919 l  p ef
1026 -1919 m  1026 -1669 l  1276 -1669 l  1276 -1919 l  1026 -1919 l  pc
1505 -1798 m  1505 -1548 l  1755 -1548 l  1755 -1798 l  1505 -1798 l  p ef
1505 -1798 m  1505 -1548 l  1755 -1548 l  1755 -1798 l  1505 -1798 l  pc
1985 -1968 m  1985 -1718 l  2235 -1718 l  2235 -1968 l  1985 -1968 l  p ef
1985 -1968 m  1985 -1718 l  2235 -1718 l  2235 -1968 l  1985 -1968 l  pc
2465 -1920 m  2465 -1670 l  2715 -1670 l  2715 -1920 l  2465 -1920 l  p ef
2465 -1920 m  2465 -1670 l  2715 -1670 l  2715 -1920 l  2465 -1920 l  pc
2945 -2104 m  2945 -1854 l  3195 -1854 l  3195 -2104 l  2945 -2104 l  p ef
2945 -2104 m  2945 -1854 l  3195 -1854 l  3195 -2104 l  2945 -2104 l  pc
3425 -2082 m  3425 -1832 l  3675 -1832 l  3675 -2082 l  3425 -2082 l  p ef
3425 -2082 m  3425 -1832 l  3675 -1832 l  3675 -2082 l  3425 -2082 l  pc
3905 -1854 m  3905 -1604 l  4155 -1604 l  4155 -1854 l  3905 -1854 l  p ef
3905 -1854 m  3905 -1604 l  4155 -1604 l  4155 -1854 l  3905 -1854 l  pc
4385 -1954 m  4385 -1704 l  4635 -1704 l  4635 -1954 l  4385 -1954 l  p ef
4385 -1954 m  4385 -1704 l  4635 -1704 l  4635 -1954 l  4385 -1954 l  pc
4865 -1749 m  4865 -1499 l  5115 -1499 l  5115 -1749 l  4865 -1749 l  p ef
4865 -1749 m  4865 -1499 l  5115 -1499 l  5115 -1749 l  4865 -1749 l  pc
5345 -1843 m  5345 -1593 l  5595 -1593 l  5595 -1843 l  5345 -1843 l  p ef
5345 -1843 m  5345 -1593 l  5595 -1593 l  5595 -1843 l  5345 -1843 l  pc
5825 -1919 m  5825 -1669 l  6075 -1669 l  6075 -1919 l  5825 -1919 l  p ef
5825 -1919 m  5825 -1669 l  6075 -1669 l  6075 -1919 l  5825 -1919 l  pc
79.99611 lw 1.000 0.828 0.128 c -7966 -686 m  -7943 -748 l  -7919 -809 l 
-7895 -871 l  -7871 -931 l  -7847 -990 l  -7823 -1048 l  -7799 -1104 l 
-7775 -1159 l  -7751 -1211 l  -7727 -1261 l  -7703 -1308 l  -7679 -1352 l 
-7655 -1394 l  -7631 -1431 l  -7607 -1465 l  -7583 -1495 l  -7559 -1520 l 
-7535 -1541 l  -7511 -1557 l  -7487 -1568 l  -7463 -1574 l  -7439 -1575 l 
-7415 -1572 l  -7391 -1564 l  -7367 -1553 l  -7343 -1539 l  -7319 -1522 l 
-7295 -1504 l  -7271 -1483 l  -7247 -1462 l  -7223 -1439 l  -7199 -1417 l 
-7175 -1394 l  -7151 -1373 l  -7127 -1352 l  -7103 -1333 l  -7079 -1316 l 
-7055 -1302 l  -7031 -1290 l  -7007 -1282 l  -6983 -1278 l  -6959 -1277 l 
-6935 -1280 l  -6911 -1286 l  -6887 -1295 l  -6863 -1306 l  -6839 -1320 l 
-6815 -1335 l  -6791 -1353 l  -6767 -1372 l  -6743 -1392 l  -6719 -1414 l 
-6695 -1436 l  -6671 -1459 l  -6647 -1482 l  -6623 -1505 l  -6599 -1528 l 
-6575 -1550 l  -6551 -1572 l  -6527 -1592 l  -6503 -1611 l  -6479 -1629 l 
-6455 -1646 l  -6431 -1661 l  -6407 -1675 l  -6383 -1687 l  -6359 -1698 l 
-6335 -1707 l  -6311 -1714 l  -6287 -1720 l  -6263 -1724 l  -6239 -1727 l 
-6215 -1727 l  -6191 -1726 l  -6167 -1723 l  -6143 -1719 l  -6119 -1712 l 
-6095 -1703 l  -6071 -1692 l  -6047 -1680 l  -6023 -1665 l  -5999 -1648 l 
-5975 -1630 l  -5951 -1611 l  -5927 -1590 l  -5903 -1569 l  -5879 -1546 l 
-5855 -1524 l  -5831 -1501 l  -5807 -1479 l  -5783 -1456 l  -5759 -1435 l 
-5735 -1414 l  -5711 -1394 l  -5687 -1376 l  -5663 -1359 l  -5639 -1343 l 
-5615 -1330 l  -5591 -1319 l  -5567 -1311 l  -5543 -1305 l  -5519 -1302 l 
-5495 -1301 l  -5471 -1302 l  -5447 -1305 l  -5423 -1309 l  -5399 -1315 l 
-5375 -1322 l  -5351 -1330 l  -5327 -1339 l  -5303 -1348 l  -5279 -1358 l 
-5255 -1367 l  -5231 -1377 l  -5207 -1386 l  -5183 -1395 l  -5159 -1402 l 
-5135 -1409 l  -5111 -1414 l  -5087 -1418 l  -5063 -1420 l  -5039 -1421 l 
-5015 -1420 l  -4991 -1418 l  -4967 -1414 l  -4943 -1409 l  -4919 -1403 l 
-4895 -1396 l  -4871 -1388 l  -4847 -1379 l  -4823 -1370 l  -4799 -1360 l 
-4775 -1349 l  -4751 -1338 l  -4727 -1327 l  -4703 -1315 l  -4679 -1303 l 
-4655 -1291 l  -4631 -1279 l  -4607 -1268 l  -4583 -1256 l  -4559 -1245 l 
-4535 -1235 l  -4511 -1224 l  -4487 -1215 l  -4463 -1206 l  -4439 -1198 l 
-4415 -1190 l  -4391 -1184 l  -4367 -1178 l  -4343 -1173 l  -4319 -1170 l 
-4295 -1168 l  -4271 -1167 l  -4247 -1167 l  -4223 -1169 l  -4199 -1173 l 
-4175 -1178 l  -4151 -1184 l  -4127 -1193 l  -4103 -1203 l  -4079 -1215 l 
-4055 -1227 l  -4031 -1241 l  -4007 -1255 l  -3983 -1269 l  -3959 -1283 l 
-3935 -1296 l  -3911 -1309 l  -3887 -1319 l  -3863 -1329 l  -3839 -1336 l 
-3815 -1341 l  -3791 -1343 l  -3767 -1342 l  -3743 -1338 l  -3719 -1329 l 
-3695 -1317 l  -3671 -1300 l  -3647 -1279 l  -3623 -1252 l  -3599 -1221 l 
-3575 -1186 l  -3551 -1148 l  -3527 -1107 l  -3503 -1065 l  -3479 -1022 l 
-3455 -978 l  -3431 -935 l  -3407 -893 l  -3383 -853 l  -3359 -815 l  -3335 -780 l 
-3312 -750 l  -3288 -724 l  -3264 -703 l  -3240 -688 l  -3216 -680 l  -3192 -679 l 
-3168 -686 l  -3144 -701 l  -3120 -725 l  -3096 -756 l  -3072 -793 l  -3048 -835 l 
-3024 -882 l  -3000 -933 l  -2976 -987 l  -2952 -1043 l  -2928 -1101 l 
-2904 -1159 l  -2880 -1216 l  -2856 -1273 l  -2832 -1328 l  -2808 -1379 l 
-2784 -1428 l  -2760 -1472 l  -2736 -1510 l  -2712 -1543 l  -2688 -1568 l 
-2664 -1587 l  -2640 -1598 l  -2616 -1602 l  -2592 -1601 l  -2568 -1595 l 
-2544 -1583 l  -2520 -1568 l  -2496 -1550 l  -2472 -1528 l  -2448 -1505 l 
-2424 -1479 l  -2400 -1453 l  -2376 -1427 l  -2352 -1400 l  -2328 -1375 l 
-2304 -1351 l  -2280 -1329 l  -2256 -1310 l  -2232 -1294 l  -2208 -1282 l 
-2184 -1275 l  -2160 -1271 l  -2136 -1272 l  -2112 -1276 l  -2088 -1283 l 
-2064 -1294 l  -2040 -1307 l  -2016 -1323 l  -1992 -1341 l  -1968 -1360 l 
-1944 -1382 l  -1920 -1404 l  -1896 -1428 l  -1872 -1452 l  -1848 -1476 l 
-1824 -1500 l  -1800 -1524 l  -1776 -1548 l  -1752 -1571 l  -1728 -1592 l 
-1704 -1612 l  -1680 -1631 l  -1656 -1648 l  -1632 -1664 l  -1608 -1678 l 
-1584 -1690 l  -1560 -1701 l  -1536 -1710 l  -1512 -1717 l  -1488 -1723 l 
-1464 -1727 l  -1440 -1729 l  -1416 -1730 l  -1392 -1728 l  -1368 -1725 l 
-1344 -1720 l  -1320 -1713 l  -1296 -1704 l  -1272 -1693 l  -1248 -1680 l 
-1224 -1665 l  -1200 -1648 l  -1176 -1630 l  -1152 -1610 l  -1128 -1589 l 
-1104 -1568 l  -1080 -1546 l  -1056 -1523 l  -1032 -1500 l  -1008 -1478 l 
-984 -1456 l  -960 -1434 l  -936 -1413 l  -912 -1394 l  -888 -1375 l  -864 -1358 l 
-840 -1343 l  -816 -1330 l  -792 -1319 l  -768 -1311 l  -744 -1305 l  -720 -1302 l 
-696 -1301 l  -672 -1302 l  -648 -1305 l  -624 -1309 l  -600 -1315 l  -576 -1322 l 
-552 -1330 l  -528 -1339 l  -504 -1348 l  -480 -1358 l  -456 -1368 l  -432 -1377 l 
-408 -1386 l  -384 -1395 l  -360 -1402 l  -336 -1409 l  -312 -1414 l  -288 -1418 l 
-264 -1420 l  -240 -1421 l  -216 -1420 l  -192 -1418 l  -168 -1414 l  -144 -1409 l 
-120 -1403 l  -96 -1396 l  -72 -1388 l  -48 -1379 l  -24 -1370 l  0 -1360 l 
23 -1349 l  47 -1338 l  71 -1327 l  95 -1315 l  119 -1303 l  143 -1291 l 
167 -1279 l  191 -1268 l  215 -1256 l  239 -1245 l  263 -1235 l  287 -1224 l 
311 -1215 l  335 -1206 l  359 -1198 l  383 -1190 l  407 -1184 l  431 -1178 l 
455 -1173 l  479 -1170 l  503 -1168 l  527 -1167 l  551 -1167 l  575 -1169 l 
599 -1173 l  623 -1178 l  647 -1184 l  671 -1193 l  695 -1203 l  719 -1215 l 
743 -1227 l  767 -1241 l  791 -1255 l  815 -1269 l  839 -1283 l  863 -1296 l 
887 -1308 l  911 -1319 l  935 -1329 l  959 -1336 l  983 -1341 l  1007 -1343 l 
1031 -1342 l  1055 -1338 l  1079 -1329 l  1103 -1317 l  1127 -1300 l  1151 -1279 l 
1175 -1252 l  1199 -1221 l  1223 -1186 l  1247 -1148 l  1271 -1107 l  1295 -1065 l 
1318 -1022 l  1342 -978 l  1366 -935 l  1390 -893 l  1414 -853 l  1438 -815 l 
1462 -780 l  1486 -750 l  1510 -724 l  1534 -703 l  1558 -688 l  1582 -680 l 
1606 -679 l  1630 -686 l  1654 -701 l  1678 -725 l  1702 -756 l  1726 -793 l 
1750 -835 l  1774 -882 l  1798 -933 l  1822 -987 l  1846 -1043 l  1870 -1101 l 
1894 -1159 l  1918 -1216 l  1942 -1273 l  1966 -1328 l  1990 -1379 l  2014 -1428 l 
2038 -1472 l  2062 -1510 l  2086 -1543 l  2110 -1568 l  2134 -1587 l  2158 -1598 l 
2182 -1602 l  2206 -1601 l  2230 -1595 l  2254 -1583 l  2278 -1568 l  2302 -1550 l 
2326 -1528 l  2350 -1505 l  2374 -1479 l  2398 -1453 l  2422 -1427 l  2446 -1400 l 
2470 -1375 l  2494 -1351 l  2518 -1329 l  2542 -1310 l  2566 -1294 l  2590 -1282 l 
2614 -1275 l  2638 -1271 l  2662 -1272 l  2686 -1276 l  2710 -1283 l  2734 -1294 l 
2758 -1307 l  2782 -1323 l  2806 -1341 l  2830 -1360 l  2854 -1382 l  2878 -1404 l 
2902 -1427 l  2926 -1452 l  2950 -1476 l  2974 -1500 l  2998 -1524 l  3022 -1548 l 
3046 -1571 l  3070 -1592 l  3094 -1612 l  3118 -1631 l  3142 -1648 l  3166 -1664 l 
3190 -1678 l  3214 -1690 l  3238 -1701 l  3262 -1710 l  3286 -1718 l  3310 -1723 l 
3334 -1727 l  3358 -1729 l  3382 -1730 l  3406 -1728 l  3430 -1725 l  3454 -1720 l 
3478 -1713 l  3502 -1704 l  3526 -1693 l  3550 -1680 l  3574 -1665 l  3598 -1648 l 
3622 -1629 l  3646 -1610 l  3670 -1589 l  3694 -1567 l  3718 -1545 l  3742 -1523 l 
3766 -1500 l  3790 -1477 l  3814 -1455 l  3838 -1434 l  3862 -1413 l  3886 -1393 l 
3910 -1375 l  3934 -1358 l  3958 -1343 l  3982 -1330 l  4006 -1319 l  4030 -1311 l 
4054 -1305 l  4078 -1302 l  4102 -1301 l  4126 -1303 l  4150 -1306 l  4174 -1310 l 
4198 -1317 l  4222 -1324 l  4246 -1332 l  4270 -1341 l  4294 -1350 l  4318 -1360 l 
4342 -1370 l  4366 -1379 l  4390 -1388 l  4414 -1396 l  4438 -1404 l  4462 -1410 l 
4486 -1415 l  4510 -1418 l  4534 -1420 l  4558 -1420 l  4582 -1418 l  4606 -1415 l 
4630 -1410 l  4654 -1405 l  4678 -1398 l  4702 -1390 l  4726 -1382 l  4750 -1373 l 
4774 -1363 l  4798 -1352 l  4822 -1342 l  4846 -1331 l  4870 -1320 l  4894 -1309 l 
4918 -1298 l  4942 -1288 l  4966 -1277 l  4990 -1268 l  5014 -1259 l  5038 -1250 l 
5062 -1242 l  5086 -1235 l  5110 -1228 l  5134 -1222 l  5158 -1217 l  5182 -1212 l 
5206 -1207 l  5230 -1203 l  5254 -1200 l  5278 -1197 l  5302 -1195 l  5326 -1193 l 
5350 -1192 l  5374 -1191 l  5398 -1191 l  5422 -1191 l  5446 -1192 l  5470 -1193 l 
5494 -1194 l  5518 -1196 l  5542 -1198 l  5566 -1201 l  5590 -1204 l  5614 -1208 l 
5638 -1211 l  5662 -1216 l  5686 -1220 l  5710 -1224 l  5734 -1229 l  5758 -1234 l 
5782 -1239 l  5806 -1245 l  5830 -1250 l  5854 -1256 l  5878 -1261 l  5902 -1267 l 
5926 -1273 l  5950 -1279 l  ps
-8091 -811 m  -7966 -561 l  -7841 -811 l  -8091 -811 l  p ef
0 lw -8091 -811 m  -7966 -561 l  -7841 -811 l  -8091 -811 l  pc
-7612 -1693 m  -7487 -1443 l  -7362 -1693 l  -7612 -1693 l  p ef
-7612 -1693 m  -7487 -1443 l  -7362 -1693 l  -7612 -1693 l  pc
-7132 -1407 m  -7007 -1157 l  -6882 -1407 l  -7132 -1407 l  p ef
-7132 -1407 m  -7007 -1157 l  -6882 -1407 l  -7132 -1407 l  pc
-6652 -1717 m  -6527 -1467 l  -6402 -1717 l  -6652 -1717 l  p ef
-6652 -1717 m  -6527 -1467 l  -6402 -1717 l  -6652 -1717 l  pc
-6172 -1805 m  -6047 -1555 l  -5922 -1805 l  -6172 -1805 l  p ef
-6172 -1805 m  -6047 -1555 l  -5922 -1805 l  -6172 -1805 l  pc
-5692 -1436 m  -5567 -1186 l  -5442 -1436 l  -5692 -1436 l  p ef
-5692 -1436 m  -5567 -1186 l  -5442 -1436 l  -5692 -1436 l  pc
-5212 -1543 m  -5087 -1293 l  -4962 -1543 l  -5212 -1543 l  p ef
-5212 -1543 m  -5087 -1293 l  -4962 -1543 l  -5212 -1543 l  pc
-4732 -1393 m  -4607 -1143 l  -4482 -1393 l  -4732 -1393 l  p ef
-4732 -1393 m  -4607 -1143 l  -4482 -1393 l  -4732 -1393 l  pc
-4252 -1318 m  -4127 -1068 l  -4002 -1318 l  -4252 -1318 l  p ef
-4252 -1318 m  -4127 -1068 l  -4002 -1318 l  -4252 -1318 l  pc
-3772 -1404 m  -3647 -1154 l  -3522 -1404 l  -3772 -1404 l  p ef
-3772 -1404 m  -3647 -1154 l  -3522 -1404 l  -3772 -1404 l  pc
-3293 -811 m  -3168 -561 l  -3043 -811 l  -3293 -811 l  p ef
-3293 -811 m  -3168 -561 l  -3043 -811 l  -3293 -811 l  pc
-2813 -1693 m  -2688 -1443 l  -2563 -1693 l  -2813 -1693 l  p ef
-2813 -1693 m  -2688 -1443 l  -2563 -1693 l  -2813 -1693 l  pc
-2333 -1407 m  -2208 -1157 l  -2083 -1407 l  -2333 -1407 l  p ef
-2333 -1407 m  -2208 -1157 l  -2083 -1407 l  -2333 -1407 l  pc
-1853 -1717 m  -1728 -1467 l  -1603 -1717 l  -1853 -1717 l  p ef
-1853 -1717 m  -1728 -1467 l  -1603 -1717 l  -1853 -1717 l  pc
-1373 -1805 m  -1248 -1555 l  -1123 -1805 l  -1373 -1805 l  p ef
-1373 -1805 m  -1248 -1555 l  -1123 -1805 l  -1373 -1805 l  pc
-893 -1436 m  -768 -1186 l  -643 -1436 l  -893 -1436 l  p ef
-893 -1436 m  -768 -1186 l  -643 -1436 l  -893 -1436 l  pc
-413 -1543 m  -288 -1293 l  -163 -1543 l  -413 -1543 l  p ef
-413 -1543 m  -288 -1293 l  -163 -1543 l  -413 -1543 l  pc
66 -1393 m  191 -1143 l  316 -1393 l  66 -1393 l  p ef
66 -1393 m  191 -1143 l  316 -1393 l  66 -1393 l  pc
546 -1318 m  671 -1068 l  796 -1318 l  546 -1318 l  p ef
546 -1318 m  671 -1068 l  796 -1318 l  546 -1318 l  pc
1026 -1404 m  1151 -1154 l  1276 -1404 l  1026 -1404 l  p ef
1026 -1404 m  1151 -1154 l  1276 -1404 l  1026 -1404 l  pc
1505 -811 m  1630 -561 l  1755 -811 l  1505 -811 l  p ef
1505 -811 m  1630 -561 l  1755 -811 l  1505 -811 l  pc
1985 -1693 m  2110 -1443 l  2235 -1693 l  1985 -1693 l  p ef
1985 -1693 m  2110 -1443 l  2235 -1693 l  1985 -1693 l  pc
2465 -1407 m  2590 -1157 l  2715 -1407 l  2465 -1407 l  p ef
2465 -1407 m  2590 -1157 l  2715 -1407 l  2465 -1407 l  pc
2945 -1717 m  3070 -1467 l  3195 -1717 l  2945 -1717 l  p ef
2945 -1717 m  3070 -1467 l  3195 -1717 l  2945 -1717 l  pc
3425 -1805 m  3550 -1555 l  3675 -1805 l  3425 -1805 l  p ef
3425 -1805 m  3550 -1555 l  3675 -1805 l  3425 -1805 l  pc
3905 -1436 m  4030 -1186 l  4155 -1436 l  3905 -1436 l  p ef
3905 -1436 m  4030 -1186 l  4155 -1436 l  3905 -1436 l  pc
4385 -1543 m  4510 -1293 l  4635 -1543 l  4385 -1543 l  p ef
4385 -1543 m  4510 -1293 l  4635 -1543 l  4385 -1543 l  pc
4865 -1393 m  4990 -1143 l  5115 -1393 l  4865 -1393 l  p ef
4865 -1393 m  4990 -1143 l  5115 -1393 l  4865 -1393 l  pc
5345 -1318 m  5470 -1068 l  5595 -1318 l  5345 -1318 l  p ef
5345 -1318 m  5470 -1068 l  5595 -1318 l  5345 -1318 l  pc
5825 -1404 m  5950 -1154 l  6075 -1404 l  5825 -1404 l  p ef
5825 -1404 m  5950 -1154 l  6075 -1404 l  5825 -1404 l  pc
79.99611 lw 0.343 0.617 0.113 c -7966 -670 m  -7943 -687 l  -7919 -703 l 
-7895 -720 l  -7871 -736 l  -7847 -752 l  -7823 -767 l  -7799 -781 l  -7775 -795 l 
-7751 -808 l  -7727 -819 l  -7703 -830 l  -7679 -839 l  -7655 -846 l  -7631 -852 l 
-7607 -857 l  -7583 -859 l  -7559 -860 l  -7535 -859 l  -7511 -855 l  -7487 -850 l 
-7463 -841 l  -7439 -831 l  -7415 -820 l  -7391 -807 l  -7367 -793 l  -7343 -778 l 
-7319 -763 l  -7295 -748 l  -7271 -734 l  -7247 -721 l  -7223 -708 l  -7199 -697 l 
-7175 -689 l  -7151 -682 l  -7127 -678 l  -7103 -677 l  -7079 -679 l  -7055 -684 l 
-7031 -694 l  -7007 -708 l  -6983 -727 l  -6959 -750 l  -6935 -776 l  -6911 -806 l 
-6887 -838 l  -6863 -872 l  -6839 -907 l  -6815 -943 l  -6791 -979 l  -6767 -1015 l 
-6743 -1050 l  -6719 -1084 l  -6695 -1115 l  -6671 -1145 l  -6647 -1171 l 
-6623 -1193 l  -6599 -1211 l  -6575 -1224 l  -6551 -1232 l  -6527 -1235 l 
-6503 -1230 l  -6479 -1220 l  -6455 -1205 l  -6431 -1185 l  -6407 -1161 l 
-6383 -1133 l  -6359 -1101 l  -6335 -1068 l  -6311 -1032 l  -6287 -995 l 
-6263 -957 l  -6239 -919 l  -6215 -881 l  -6191 -844 l  -6167 -808 l  -6143 -774 l 
-6119 -743 l  -6095 -715 l  -6071 -690 l  -6047 -670 l  -6023 -654 l  -5999 -643 l 
-5975 -635 l  -5951 -632 l  -5927 -632 l  -5903 -636 l  -5879 -642 l  -5855 -651 l 
-5831 -663 l  -5807 -677 l  -5783 -692 l  -5759 -709 l  -5735 -728 l  -5711 -747 l 
-5687 -767 l  -5663 -787 l  -5639 -808 l  -5615 -828 l  -5591 -848 l  -5567 -867 l 
-5543 -884 l  -5519 -901 l  -5495 -917 l  -5471 -932 l  -5447 -945 l  -5423 -958 l 
-5399 -970 l  -5375 -981 l  -5351 -990 l  -5327 -999 l  -5303 -1007 l 
-5279 -1014 l  -5255 -1020 l  -5231 -1025 l  -5207 -1029 l  -5183 -1033 l 
-5159 -1035 l  -5135 -1037 l  -5111 -1038 l  -5087 -1038 l  -5063 -1037 l 
-5039 -1036 l  -5015 -1034 l  -4991 -1031 l  -4967 -1028 l  -4943 -1024 l 
-4919 -1020 l  -4895 -1015 l  -4871 -1010 l  -4847 -1005 l  -4823 -1000 l 
-4799 -994 l  -4775 -989 l  -4751 -983 l  -4727 -977 l  -4703 -972 l  -4679 -967 l 
-4655 -962 l  -4631 -957 l  -4607 -952 l  -4583 -948 l  -4559 -944 l  -4535 -941 l 
-4511 -938 l  -4487 -936 l  -4463 -934 l  -4439 -933 l  -4415 -932 l  -4391 -931 l 
-4367 -932 l  -4343 -932 l  -4319 -934 l  -4295 -936 l  -4271 -939 l  -4247 -942 l 
-4223 -946 l  -4199 -951 l  -4175 -956 l  -4151 -962 l  -4127 -969 l  -4103 -977 l 
-4079 -985 l  -4055 -994 l  -4031 -1003 l  -4007 -1012 l  -3983 -1021 l 
-3959 -1030 l  -3935 -1038 l  -3911 -1045 l  -3887 -1052 l  -3863 -1058 l 
-3839 -1063 l  -3815 -1066 l  -3791 -1068 l  -3767 -1068 l  -3743 -1066 l 
-3719 -1063 l  -3695 -1057 l  -3671 -1049 l  -3647 -1038 l  -3623 -1024 l 
-3599 -1008 l  -3575 -991 l  -3551 -971 l  -3527 -950 l  -3503 -927 l 
-3479 -904 l  -3455 -880 l  -3431 -856 l  -3407 -833 l  -3383 -809 l  -3359 -787 l 
-3335 -765 l  -3312 -745 l  -3288 -726 l  -3264 -710 l  -3240 -695 l  -3216 -684 l 
-3192 -675 l  -3168 -670 l  -3144 -668 l  -3120 -669 l  -3096 -673 l  -3072 -680 l 
-3048 -689 l  -3024 -700 l  -3000 -712 l  -2976 -725 l  -2952 -739 l  -2928 -754 l 
-2904 -769 l  -2880 -783 l  -2856 -797 l  -2832 -810 l  -2808 -822 l  -2784 -832 l 
-2760 -840 l  -2736 -846 l  -2712 -849 l  -2688 -850 l  -2664 -847 l  -2640 -841 l 
-2616 -832 l  -2592 -822 l  -2568 -810 l  -2544 -796 l  -2520 -782 l  -2496 -767 l 
-2472 -752 l  -2448 -738 l  -2424 -725 l  -2400 -712 l  -2376 -702 l  -2352 -693 l 
-2328 -687 l  -2304 -684 l  -2280 -684 l  -2256 -688 l  -2232 -696 l  -2208 -708 l 
-2184 -726 l  -2160 -747 l  -2136 -773 l  -2112 -802 l  -2088 -833 l  -2064 -867 l 
-2040 -902 l  -2016 -938 l  -1992 -974 l  -1968 -1010 l  -1944 -1046 l 
-1920 -1080 l  -1896 -1112 l  -1872 -1142 l  -1848 -1168 l  -1824 -1191 l 
-1800 -1210 l  -1776 -1224 l  -1752 -1232 l  -1728 -1235 l  -1704 -1231 l 
-1680 -1221 l  -1656 -1206 l  -1632 -1186 l  -1608 -1162 l  -1584 -1134 l 
-1560 -1103 l  -1536 -1069 l  -1512 -1033 l  -1488 -996 l  -1464 -958 l 
-1440 -920 l  -1416 -882 l  -1392 -845 l  -1368 -809 l  -1344 -775 l  -1320 -743 l 
-1296 -715 l  -1272 -690 l  -1248 -670 l  -1224 -654 l  -1200 -642 l  -1176 -635 l 
-1152 -632 l  -1128 -632 l  -1104 -635 l  -1080 -642 l  -1056 -651 l  -1032 -663 l 
-1008 -676 l  -984 -692 l  -960 -709 l  -936 -728 l  -912 -747 l  -888 -767 l 
-864 -787 l  -840 -808 l  -816 -828 l  -792 -848 l  -768 -867 l  -744 -885 l 
-720 -901 l  -696 -917 l  -672 -932 l  -648 -946 l  -624 -958 l  -600 -970 l 
-576 -981 l  -552 -990 l  -528 -999 l  -504 -1007 l  -480 -1014 l  -456 -1020 l 
-432 -1025 l  -408 -1029 l  -384 -1033 l  -360 -1035 l  -336 -1037 l  -312 -1038 l 
-288 -1038 l  -264 -1037 l  -240 -1036 l  -216 -1034 l  -192 -1031 l  -168 -1028 l 
-144 -1024 l  -120 -1020 l  -96 -1015 l  -72 -1010 l  -48 -1005 l  -24 -1000 l 
0 -994 l  23 -989 l  47 -983 l  71 -977 l  95 -972 l  119 -967 l  143 -962 l 
167 -957 l  191 -952 l  215 -948 l  239 -944 l  263 -941 l  287 -938 l 
311 -936 l  335 -934 l  359 -933 l  383 -932 l  407 -931 l  431 -932 l 
455 -932 l  479 -934 l  503 -936 l  527 -939 l  551 -942 l  575 -946 l 
599 -951 l  623 -956 l  647 -962 l  671 -969 l  695 -977 l  719 -985 l 
743 -994 l  767 -1003 l  791 -1012 l  815 -1021 l  839 -1030 l  863 -1038 l 
887 -1045 l  911 -1052 l  935 -1058 l  959 -1063 l  983 -1066 l  1007 -1068 l 
1031 -1068 l  1055 -1066 l  1079 -1063 l  1103 -1057 l  1127 -1049 l  1151 -1038 l 
1175 -1024 l  1199 -1008 l  1223 -991 l  1247 -971 l  1271 -950 l  1295 -927 l 
1318 -904 l  1342 -880 l  1366 -856 l  1390 -833 l  1414 -809 l  1438 -787 l 
1462 -765 l  1486 -745 l  1510 -726 l  1534 -710 l  1558 -695 l  1582 -684 l 
1606 -675 l  1630 -670 l  1654 -668 l  1678 -669 l  1702 -673 l  1726 -680 l 
1750 -689 l  1774 -700 l  1798 -712 l  1822 -725 l  1846 -739 l  1870 -754 l 
1894 -769 l  1918 -783 l  1942 -797 l  1966 -810 l  1990 -822 l  2014 -832 l 
2038 -840 l  2062 -846 l  2086 -849 l  2110 -850 l  2134 -847 l  2158 -841 l 
2182 -832 l  2206 -822 l  2230 -810 l  2254 -796 l  2278 -782 l  2302 -767 l 
2326 -752 l  2350 -738 l  2374 -725 l  2398 -712 l  2422 -702 l  2446 -693 l 
2470 -687 l  2494 -684 l  2518 -684 l  2542 -688 l  2566 -696 l  2590 -708 l 
2614 -726 l  2638 -747 l  2662 -773 l  2686 -802 l  2710 -833 l  2734 -867 l 
2758 -902 l  2782 -938 l  2806 -974 l  2830 -1010 l  2854 -1046 l  2878 -1080 l 
2902 -1112 l  2926 -1142 l  2950 -1168 l  2974 -1191 l  2998 -1210 l  3022 -1224 l 
3046 -1232 l  3070 -1235 l  3094 -1231 l  3118 -1221 l  3142 -1206 l  3166 -1186 l 
3190 -1162 l  3214 -1134 l  3238 -1103 l  3262 -1069 l  3286 -1033 l  3310 -996 l 
3334 -958 l  3358 -920 l  3382 -882 l  3406 -845 l  3430 -809 l  3454 -775 l 
3478 -743 l  3502 -715 l  3526 -690 l  3550 -670 l  3574 -654 l  3598 -642 l 
3622 -635 l  3646 -632 l  3670 -632 l  3694 -635 l  3718 -642 l  3742 -651 l 
3766 -662 l  3790 -676 l  3814 -692 l  3838 -709 l  3862 -727 l  3886 -747 l 
3910 -767 l  3934 -787 l  3958 -808 l  3982 -828 l  4006 -848 l  4030 -867 l 
4054 -885 l  4078 -902 l  4102 -917 l  4126 -932 l  4150 -946 l  4174 -959 l 
4198 -971 l  4222 -981 l  4246 -991 l  4270 -1000 l  4294 -1008 l  4318 -1015 l 
4342 -1021 l  4366 -1026 l  4390 -1030 l  4414 -1033 l  4438 -1036 l  4462 -1037 l 
4486 -1038 l  4510 -1038 l  4534 -1037 l  4558 -1035 l  4582 -1032 l  4606 -1029 l 
4630 -1026 l  4654 -1021 l  4678 -1017 l  4702 -1012 l  4726 -1007 l  4750 -1001 l 
4774 -996 l  4798 -990 l  4822 -985 l  4846 -979 l  4870 -974 l  4894 -969 l 
4918 -964 l  4942 -960 l  4966 -956 l  4990 -952 l  5014 -949 l  5038 -947 l 
5062 -945 l  5086 -944 l  5110 -943 l  5134 -943 l  5158 -943 l  5182 -943 l 
5206 -944 l  5230 -945 l  5254 -946 l  5278 -948 l  5302 -950 l  5326 -952 l 
5350 -955 l  5374 -958 l  5398 -960 l  5422 -963 l  5446 -966 l  5470 -969 l 
5494 -972 l  5518 -976 l  5542 -979 l  5566 -982 l  5590 -985 l  5614 -989 l 
5638 -992 l  5662 -996 l  5686 -999 l  5710 -1002 l  5734 -1006 l  5758 -1009 l 
5782 -1013 l  5806 -1016 l  5830 -1020 l  5854 -1023 l  5878 -1027 l  5902 -1031 l 
5926 -1034 l  5950 -1038 l  ps
-8091 -545 m  -7841 -545 l  -7966 -795 l  -8091 -545 l  p ef
0 lw -8091 -545 m  -7841 -545 l  -7966 -795 l  -8091 -545 l  pc
-7612 -725 m  -7362 -725 l  -7487 -975 l  -7612 -725 l  p ef
-7612 -725 m  -7362 -725 l  -7487 -975 l  -7612 -725 l  pc
-7132 -583 m  -6882 -583 l  -7007 -833 l  -7132 -583 l  p ef
-7132 -583 m  -6882 -583 l  -7007 -833 l  -7132 -583 l  pc
-6652 -1110 m  -6402 -1110 l  -6527 -1360 l  -6652 -1110 l  p ef
-6652 -1110 m  -6402 -1110 l  -6527 -1360 l  -6652 -1110 l  pc
-6172 -545 m  -5922 -545 l  -6047 -795 l  -6172 -545 l  p ef
-6172 -545 m  -5922 -545 l  -6047 -795 l  -6172 -545 l  pc
-5692 -742 m  -5442 -742 l  -5567 -992 l  -5692 -742 l  p ef
-5692 -742 m  -5442 -742 l  -5567 -992 l  -5692 -742 l  pc
-5212 -913 m  -4962 -913 l  -5087 -1163 l  -5212 -913 l  p ef
-5212 -913 m  -4962 -913 l  -5087 -1163 l  -5212 -913 l  pc
-4732 -827 m  -4482 -827 l  -4607 -1077 l  -4732 -827 l  p ef
-4732 -827 m  -4482 -827 l  -4607 -1077 l  -4732 -827 l  pc
-4252 -844 m  -4002 -844 l  -4127 -1094 l  -4252 -844 l  p ef
-4252 -844 m  -4002 -844 l  -4127 -1094 l  -4252 -844 l  pc
-3772 -913 m  -3522 -913 l  -3647 -1163 l  -3772 -913 l  p ef
-3772 -913 m  -3522 -913 l  -3647 -1163 l  -3772 -913 l  pc
-3293 -545 m  -3043 -545 l  -3168 -795 l  -3293 -545 l  p ef
-3293 -545 m  -3043 -545 l  -3168 -795 l  -3293 -545 l  pc
-2813 -725 m  -2563 -725 l  -2688 -975 l  -2813 -725 l  p ef
-2813 -725 m  -2563 -725 l  -2688 -975 l  -2813 -725 l  pc
-2333 -583 m  -2083 -583 l  -2208 -833 l  -2333 -583 l  p ef
-2333 -583 m  -2083 -583 l  -2208 -833 l  -2333 -583 l  pc
-1853 -1110 m  -1603 -1110 l  -1728 -1360 l  -1853 -1110 l  p ef
-1853 -1110 m  -1603 -1110 l  -1728 -1360 l  -1853 -1110 l  pc
-1373 -545 m  -1123 -545 l  -1248 -795 l  -1373 -545 l  p ef
-1373 -545 m  -1123 -545 l  -1248 -795 l  -1373 -545 l  pc
-893 -742 m  -643 -742 l  -768 -992 l  -893 -742 l  p ef
-893 -742 m  -643 -742 l  -768 -992 l  -893 -742 l  pc
-413 -913 m  -163 -913 l  -288 -1163 l  -413 -913 l  p ef
-413 -913 m  -163 -913 l  -288 -1163 l  -413 -913 l  pc
66 -827 m  316 -827 l  191 -1077 l  66 -827 l  p ef
66 -827 m  316 -827 l  191 -1077 l  66 -827 l  pc
546 -844 m  796 -844 l  671 -1094 l  546 -844 l  p ef
546 -844 m  796 -844 l  671 -1094 l  546 -844 l  pc
1026 -913 m  1276 -913 l  1151 -1163 l  1026 -913 l  p ef
1026 -913 m  1276 -913 l  1151 -1163 l  1026 -913 l  pc
1505 -545 m  1755 -545 l  1630 -795 l  1505 -545 l  p ef
1505 -545 m  1755 -545 l  1630 -795 l  1505 -545 l  pc
1985 -725 m  2235 -725 l  2110 -975 l  1985 -725 l  p ef
1985 -725 m  2235 -725 l  2110 -975 l  1985 -725 l  pc
2465 -583 m  2715 -583 l  2590 -833 l  2465 -583 l  p ef
2465 -583 m  2715 -583 l  2590 -833 l  2465 -583 l  pc
2945 -1110 m  3195 -1110 l  3070 -1360 l  2945 -1110 l  p ef
2945 -1110 m  3195 -1110 l  3070 -1360 l  2945 -1110 l  pc
3425 -545 m  3675 -545 l  3550 -795 l  3425 -545 l  p ef
3425 -545 m  3675 -545 l  3550 -795 l  3425 -545 l  pc
3905 -742 m  4155 -742 l  4030 -992 l  3905 -742 l  p ef
3905 -742 m  4155 -742 l  4030 -992 l  3905 -742 l  pc
4385 -913 m  4635 -913 l  4510 -1163 l  4385 -913 l  p ef
4385 -913 m  4635 -913 l  4510 -1163 l  4385 -913 l  pc
4865 -827 m  5115 -827 l  4990 -1077 l  4865 -827 l  p ef
4865 -827 m  5115 -827 l  4990 -1077 l  4865 -827 l  pc
5345 -844 m  5595 -844 l  5470 -1094 l  5345 -844 l  p ef
5345 -844 m  5595 -844 l  5470 -1094 l  5345 -844 l  pc
5825 -913 m  6075 -913 l  5950 -1163 l  5825 -913 l  p ef
5825 -913 m  6075 -913 l  5950 -1163 l  5825 -913 l  pc
79.99611 lw 0.496 0.003 0.132 c -7966 -307 m  -7943 -298 l  -7919 -288 l 
-7895 -279 l  -7871 -269 l  -7847 -258 l  -7823 -247 l  -7799 -235 l  -7775 -223 l 
-7751 -209 l  -7727 -194 l  -7703 -177 l  -7679 -160 l  -7655 -140 l  -7631 -119 l 
-7607 -96 l  -7583 -71 l  -7559 -44 l  -7535 -15 l  -7511 16 l  -7487 50 l 
-7463 87 l  -7439 125 l  -7415 165 l  -7391 206 l  -7367 248 l  -7343 288 l 
-7319 328 l  -7295 367 l  -7271 403 l  -7247 436 l  -7223 466 l  -7199 492 l 
-7175 514 l  -7151 530 l  -7127 541 l  -7103 545 l  -7079 543 l  -7055 532 l 
-7031 514 l  -7007 487 l  -6983 451 l  -6959 406 l  -6935 354 l  -6911 296 l 
-6887 232 l  -6863 163 l  -6839 90 l  -6815 15 l  -6791 -61 l  -6767 -139 l 
-6743 -217 l  -6719 -295 l  -6695 -370 l  -6671 -442 l  -6647 -511 l  -6623 -574 l 
-6599 -633 l  -6575 -684 l  -6551 -728 l  -6527 -764 l  -6503 -790 l  -6479 -808 l 
-6455 -817 l  -6431 -819 l  -6407 -814 l  -6383 -803 l  -6359 -787 l  -6335 -765 l 
-6311 -739 l  -6287 -709 l  -6263 -676 l  -6239 -641 l  -6215 -604 l  -6191 -565 l 
-6167 -527 l  -6143 -488 l  -6119 -450 l  -6095 -413 l  -6071 -379 l  -6047 -346 l 
-6023 -317 l  -5999 -292 l  -5975 -269 l  -5951 -249 l  -5927 -232 l  -5903 -217 l 
-5879 -205 l  -5855 -195 l  -5831 -187 l  -5807 -182 l  -5783 -178 l  -5759 -176 l 
-5735 -176 l  -5711 -178 l  -5687 -181 l  -5663 -185 l  -5639 -190 l  -5615 -197 l 
-5591 -204 l  -5567 -212 l  -5543 -221 l  -5519 -230 l  -5495 -240 l  -5471 -250 l 
-5447 -261 l  -5423 -271 l  -5399 -282 l  -5375 -292 l  -5351 -303 l  -5327 -313 l 
-5303 -323 l  -5279 -332 l  -5255 -341 l  -5231 -349 l  -5207 -356 l  -5183 -363 l 
-5159 -368 l  -5135 -373 l  -5111 -376 l  -5087 -378 l  -5063 -379 l  -5039 -379 l 
-5015 -377 l  -4991 -375 l  -4967 -372 l  -4943 -368 l  -4919 -363 l  -4895 -358 l 
-4871 -353 l  -4847 -348 l  -4823 -343 l  -4799 -338 l  -4775 -334 l  -4751 -330 l 
-4727 -326 l  -4703 -324 l  -4679 -322 l  -4655 -321 l  -4631 -321 l  -4607 -323 l 
-4583 -326 l  -4559 -331 l  -4535 -336 l  -4511 -343 l  -4487 -351 l  -4463 -360 l 
-4439 -370 l  -4415 -381 l  -4391 -393 l  -4367 -405 l  -4343 -418 l  -4319 -431 l 
-4295 -445 l  -4271 -459 l  -4247 -473 l  -4223 -487 l  -4199 -502 l  -4175 -516 l 
-4151 -530 l  -4127 -544 l  -4103 -558 l  -4079 -572 l  -4055 -585 l  -4031 -597 l 
-4007 -609 l  -3983 -620 l  -3959 -630 l  -3935 -640 l  -3911 -648 l  -3887 -656 l 
-3863 -662 l  -3839 -667 l  -3815 -671 l  -3791 -674 l  -3767 -675 l  -3743 -674 l 
-3719 -672 l  -3695 -668 l  -3671 -663 l  -3647 -655 l  -3623 -646 l  -3599 -635 l 
-3575 -622 l  -3551 -608 l  -3527 -592 l  -3503 -575 l  -3479 -558 l  -3455 -539 l 
-3431 -520 l  -3407 -500 l  -3383 -480 l  -3359 -459 l  -3335 -439 l  -3312 -418 l 
-3288 -398 l  -3264 -378 l  -3240 -359 l  -3216 -341 l  -3192 -323 l  -3168 -307 l 
-3144 -291 l  -3120 -277 l  -3096 -263 l  -3072 -250 l  -3048 -237 l  -3024 -225 l 
-3000 -212 l  -2976 -199 l  -2952 -186 l  -2928 -172 l  -2904 -157 l  -2880 -141 l 
-2856 -124 l  -2832 -105 l  -2808 -84 l  -2784 -62 l  -2760 -38 l  -2736 -11 l 
-2712 18 l  -2688 50 l  -2664 85 l  -2640 122 l  -2616 161 l  -2592 201 l 
-2568 242 l  -2544 282 l  -2520 322 l  -2496 360 l  -2472 397 l  -2448 430 l 
-2424 461 l  -2400 487 l  -2376 510 l  -2352 527 l  -2328 538 l  -2304 543 l 
-2280 541 l  -2256 531 l  -2232 514 l  -2208 487 l  -2184 451 l  -2160 407 l 
-2136 355 l  -2112 297 l  -2088 233 l  -2064 164 l  -2040 92 l  -2016 17 l 
-1992 -60 l  -1968 -138 l  -1944 -216 l  -1920 -293 l  -1896 -369 l  -1872 -441 l 
-1848 -510 l  -1824 -574 l  -1800 -632 l  -1776 -684 l  -1752 -728 l  -1728 -764 l 
-1704 -790 l  -1680 -808 l  -1656 -818 l  -1632 -820 l  -1608 -815 l  -1584 -804 l 
-1560 -787 l  -1536 -765 l  -1512 -739 l  -1488 -709 l  -1464 -677 l  -1440 -641 l 
-1416 -604 l  -1392 -566 l  -1368 -527 l  -1344 -488 l  -1320 -450 l  -1296 -413 l 
-1272 -379 l  -1248 -346 l  -1224 -317 l  -1200 -292 l  -1176 -269 l  -1152 -249 l 
-1128 -232 l  -1104 -217 l  -1080 -205 l  -1056 -195 l  -1032 -187 l  -1008 -182 l 
-984 -178 l  -960 -176 l  -936 -176 l  -912 -178 l  -888 -181 l  -864 -185 l 
-840 -190 l  -816 -197 l  -792 -204 l  -768 -212 l  -744 -221 l  -720 -230 l 
-696 -240 l  -672 -250 l  -648 -261 l  -624 -271 l  -600 -282 l  -576 -292 l 
-552 -303 l  -528 -313 l  -504 -323 l  -480 -332 l  -456 -341 l  -432 -349 l 
-408 -356 l  -384 -363 l  -360 -368 l  -336 -373 l  -312 -376 l  -288 -378 l 
-264 -379 l  -240 -379 l  -216 -377 l  -192 -375 l  -168 -372 l  -144 -368 l 
-120 -363 l  -96 -358 l  -72 -353 l  -48 -348 l  -24 -343 l  0 -338 l 
23 -334 l  47 -330 l  71 -326 l  95 -324 l  119 -322 l  143 -321 l  167 -321 l 
191 -323 l  215 -326 l  239 -331 l  263 -336 l  287 -343 l  311 -351 l 
335 -360 l  359 -370 l  383 -381 l  407 -393 l  431 -405 l  455 -418 l 
479 -431 l  503 -445 l  527 -459 l  551 -473 l  575 -487 l  599 -502 l 
623 -516 l  647 -530 l  671 -544 l  695 -558 l  719 -572 l  743 -585 l 
767 -597 l  791 -609 l  815 -620 l  839 -630 l  863 -640 l  887 -648 l 
911 -656 l  935 -662 l  959 -667 l  983 -671 l  1007 -674 l  1031 -675 l 
1055 -674 l  1079 -672 l  1103 -668 l  1127 -663 l  1151 -655 l  1175 -646 l 
1199 -635 l  1223 -622 l  1247 -608 l  1271 -592 l  1295 -575 l  1318 -558 l 
1342 -539 l  1366 -520 l  1390 -500 l  1414 -480 l  1438 -459 l  1462 -439 l 
1486 -418 l  1510 -398 l  1534 -378 l  1558 -359 l  1582 -341 l  1606 -323 l 
1630 -307 l  1654 -291 l  1678 -277 l  1702 -263 l  1726 -250 l  1750 -237 l 
1774 -225 l  1798 -212 l  1822 -199 l  1846 -186 l  1870 -172 l  1894 -157 l 
1918 -141 l  1942 -124 l  1966 -105 l  1990 -84 l  2014 -62 l  2038 -38 l 
2062 -11 l  2086 18 l  2110 50 l  2134 85 l  2158 122 l  2182 161 l  2206 201 l 
2230 242 l  2254 282 l  2278 322 l  2302 360 l  2326 397 l  2350 430 l 
2374 461 l  2398 487 l  2422 510 l  2446 527 l  2470 538 l  2494 543 l 
2518 541 l  2542 531 l  2566 514 l  2590 487 l  2614 451 l  2638 407 l 
2662 355 l  2686 297 l  2710 233 l  2734 164 l  2758 92 l  2782 17 l  2806 -60 l 
2830 -138 l  2854 -216 l  2878 -293 l  2902 -368 l  2926 -441 l  2950 -510 l 
2974 -574 l  2998 -632 l  3022 -684 l  3046 -728 l  3070 -764 l  3094 -790 l 
3118 -808 l  3142 -818 l  3166 -820 l  3190 -815 l  3214 -804 l  3238 -787 l 
3262 -765 l  3286 -739 l  3310 -709 l  3334 -677 l  3358 -641 l  3382 -604 l 
3406 -566 l  3430 -527 l  3454 -488 l  3478 -450 l  3502 -413 l  3526 -379 l 
3550 -346 l  3574 -317 l  3598 -292 l  3622 -269 l  3646 -249 l  3670 -231 l 
3694 -217 l  3718 -205 l  3742 -195 l  3766 -187 l  3790 -182 l  3814 -178 l 
3838 -176 l  3862 -176 l  3886 -178 l  3910 -181 l  3934 -185 l  3958 -190 l 
3982 -197 l  4006 -204 l  4030 -212 l  4054 -221 l  4078 -231 l  4102 -240 l 
4126 -251 l  4150 -261 l  4174 -272 l  4198 -282 l  4222 -293 l  4246 -303 l 
4270 -314 l  4294 -323 l  4318 -333 l  4342 -342 l  4366 -350 l  4390 -357 l 
4414 -363 l  4438 -369 l  4462 -373 l  4486 -376 l  4510 -378 l  4534 -379 l 
4558 -378 l  4582 -376 l  4606 -374 l  4630 -370 l  4654 -366 l  4678 -361 l 
4702 -356 l  4726 -351 l  4750 -346 l  4774 -341 l  4798 -336 l  4822 -331 l 
4846 -327 l  4870 -324 l  4894 -321 l  4918 -320 l  4942 -320 l  4966 -321 l 
4990 -323 l  5014 -327 l  5038 -332 l  5062 -339 l  5086 -347 l  5110 -356 l 
5134 -366 l  5158 -377 l  5182 -389 l  5206 -401 l  5230 -414 l  5254 -428 l 
5278 -441 l  5302 -455 l  5326 -468 l  5350 -482 l  5374 -495 l  5398 -508 l 
5422 -521 l  5446 -533 l  5470 -544 l  5494 -555 l  5518 -565 l  5542 -574 l 
5566 -582 l  5590 -590 l  5614 -597 l  5638 -603 l  5662 -609 l  5686 -615 l 
5710 -620 l  5734 -625 l  5758 -629 l  5782 -633 l  5806 -637 l  5830 -640 l 
5854 -643 l  5878 -646 l  5902 -649 l  5926 -652 l  5950 -655 l  ps
-8091 -432 m  -8091 -182 l  -7841 -307 l  -8091 -432 l  p ef
0 lw -8091 -432 m  -8091 -182 l  -7841 -307 l  -8091 -432 l  pc
-7612 -74 m  -7612 175 l  -7362 50 l  -7612 -74 l  p ef
-7612 -74 m  -7612 175 l  -7362 50 l  -7612 -74 l  pc
-7132 362 m  -7132 612 l  -6882 487 l  -7132 362 l  p ef
-7132 362 m  -7132 612 l  -6882 487 l  -7132 362 l  pc
-6652 -889 m  -6652 -639 l  -6402 -764 l  -6652 -889 l  p ef
-6652 -889 m  -6652 -639 l  -6402 -764 l  -6652 -889 l  pc
-6172 -471 m  -6172 -221 l  -5922 -346 l  -6172 -471 l  p ef
-6172 -471 m  -6172 -221 l  -5922 -346 l  -6172 -471 l  pc
-5692 -337 m  -5692 -87 l  -5442 -212 l  -5692 -337 l  p ef
-5692 -337 m  -5692 -87 l  -5442 -212 l  -5692 -337 l  pc
-5212 -503 m  -5212 -253 l  -4962 -378 l  -5212 -503 l  p ef
-5212 -503 m  -5212 -253 l  -4962 -378 l  -5212 -503 l  pc
-4732 -448 m  -4732 -198 l  -4482 -323 l  -4732 -448 l  p ef
-4732 -448 m  -4732 -198 l  -4482 -323 l  -4732 -448 l  pc
-4252 -669 m  -4252 -419 l  -4002 -544 l  -4252 -669 l  p ef
-4252 -669 m  -4252 -419 l  -4002 -544 l  -4252 -669 l  pc
-3772 -780 m  -3772 -530 l  -3522 -655 l  -3772 -780 l  p ef
-3772 -780 m  -3772 -530 l  -3522 -655 l  -3772 -780 l  pc
-3293 -432 m  -3293 -182 l  -3043 -307 l  -3293 -432 l  p ef
-3293 -432 m  -3293 -182 l  -3043 -307 l  -3293 -432 l  pc
-2813 -74 m  -2813 175 l  -2563 50 l  -2813 -74 l  p ef
-2813 -74 m  -2813 175 l  -2563 50 l  -2813 -74 l  pc
-2333 362 m  -2333 612 l  -2083 487 l  -2333 362 l  p ef
-2333 362 m  -2333 612 l  -2083 487 l  -2333 362 l  pc
-1853 -889 m  -1853 -639 l  -1603 -764 l  -1853 -889 l  p ef
-1853 -889 m  -1853 -639 l  -1603 -764 l  -1853 -889 l  pc
-1373 -471 m  -1373 -221 l  -1123 -346 l  -1373 -471 l  p ef
-1373 -471 m  -1373 -221 l  -1123 -346 l  -1373 -471 l  pc
-893 -337 m  -893 -87 l  -643 -212 l  -893 -337 l  p ef
-893 -337 m  -893 -87 l  -643 -212 l  -893 -337 l  pc
-413 -503 m  -413 -253 l  -163 -378 l  -413 -503 l  p ef
-413 -503 m  -413 -253 l  -163 -378 l  -413 -503 l  pc
66 -448 m  66 -198 l  316 -323 l  66 -448 l  p ef
66 -448 m  66 -198 l  316 -323 l  66 -448 l  pc
546 -669 m  546 -419 l  796 -544 l  546 -669 l  p ef
546 -669 m  546 -419 l  796 -544 l  546 -669 l  pc
1026 -780 m  1026 -530 l  1276 -655 l  1026 -780 l  p ef
1026 -780 m  1026 -530 l  1276 -655 l  1026 -780 l  pc
1505 -432 m  1505 -182 l  1755 -307 l  1505 -432 l  p ef
1505 -432 m  1505 -182 l  1755 -307 l  1505 -432 l  pc
1985 -74 m  1985 175 l  2235 50 l  1985 -74 l  p ef
1985 -74 m  1985 175 l  2235 50 l  1985 -74 l  pc
2465 362 m  2465 612 l  2715 487 l  2465 362 l  p ef
2465 362 m  2465 612 l  2715 487 l  2465 362 l  pc
2945 -889 m  2945 -639 l  3195 -764 l  2945 -889 l  p ef
2945 -889 m  2945 -639 l  3195 -764 l  2945 -889 l  pc
3425 -471 m  3425 -221 l  3675 -346 l  3425 -471 l  p ef
3425 -471 m  3425 -221 l  3675 -346 l  3425 -471 l  pc
3905 -337 m  3905 -87 l  4155 -212 l  3905 -337 l  p ef
3905 -337 m  3905 -87 l  4155 -212 l  3905 -337 l  pc
4385 -503 m  4385 -253 l  4635 -378 l  4385 -503 l  p ef
4385 -503 m  4385 -253 l  4635 -378 l  4385 -503 l  pc
4865 -448 m  4865 -198 l  5115 -323 l  4865 -448 l  p ef
4865 -448 m  4865 -198 l  5115 -323 l  4865 -448 l  pc
5345 -669 m  5345 -419 l  5595 -544 l  5345 -669 l  p ef
5345 -669 m  5345 -419 l  5595 -544 l  5345 -669 l  pc
5825 -780 m  5825 -530 l  6075 -655 l  5825 -780 l  p ef
5825 -780 m  5825 -530 l  6075 -655 l  5825 -780 l  pc
79.99611 lw 1.000 0.261 0.058 c -7966 -2616 m  -7943 -2602 l  -7919 -2588 l 
-7895 -2574 l  -7871 -2560 l  -7847 -2544 l  -7823 -2529 l  -7799 -2512 l 
-7775 -2495 l  -7751 -2477 l  -7727 -2458 l  -7703 -2438 l  -7679 -2416 l 
-7655 -2393 l  -7631 -2369 l  -7607 -2343 l  -7583 -2315 l  -7559 -2285 l 
-7535 -2254 l  -7511 -2220 l  -7487 -2184 l  -7463 -2146 l  -7439 -2106 l 
-7415 -2065 l  -7391 -2022 l  -7367 -1980 l  -7343 -1937 l  -7319 -1896 l 
-7295 -1855 l  -7271 -1816 l  -7247 -1778 l  -7223 -1744 l  -7199 -1712 l 
-7175 -1684 l  -7151 -1660 l  -7127 -1640 l  -7103 -1625 l  -7079 -1616 l 
-7055 -1612 l  -7031 -1615 l  -7007 -1625 l  -6983 -1642 l  -6959 -1666 l 
-6935 -1695 l  -6911 -1729 l  -6887 -1768 l  -6863 -1809 l  -6839 -1853 l 
-6815 -1899 l  -6791 -1946 l  -6767 -1993 l  -6743 -2039 l  -6719 -2084 l 
-6695 -2126 l  -6671 -2165 l  -6647 -2200 l  -6623 -2231 l  -6599 -2256 l 
-6575 -2274 l  -6551 -2286 l  -6527 -2289 l  -6503 -2284 l  -6479 -2270 l 
-6455 -2250 l  -6431 -2223 l  -6407 -2191 l  -6383 -2154 l  -6359 -2114 l 
-6335 -2070 l  -6311 -2024 l  -6287 -1977 l  -6263 -1929 l  -6239 -1882 l 
-6215 -1835 l  -6191 -1791 l  -6167 -1749 l  -6143 -1711 l  -6119 -1678 l 
-6095 -1650 l  -6071 -1627 l  -6047 -1612 l  -6023 -1604 l  -5999 -1604 l 
-5975 -1609 l  -5951 -1621 l  -5927 -1638 l  -5903 -1660 l  -5879 -1686 l 
-5855 -1716 l  -5831 -1748 l  -5807 -1783 l  -5783 -1820 l  -5759 -1857 l 
-5735 -1895 l  -5711 -1934 l  -5687 -1971 l  -5663 -2007 l  -5639 -2041 l 
-5615 -2073 l  -5591 -2102 l  -5567 -2127 l  -5543 -2148 l  -5519 -2165 l 
-5495 -2178 l  -5471 -2188 l  -5447 -2195 l  -5423 -2199 l  -5399 -2201 l 
-5375 -2200 l  -5351 -2198 l  -5327 -2194 l  -5303 -2189 l  -5279 -2183 l 
-5255 -2176 l  -5231 -2169 l  -5207 -2162 l  -5183 -2156 l  -5159 -2150 l 
-5135 -2145 l  -5111 -2141 l  -5087 -2139 l  -5063 -2138 l  -5039 -2139 l 
-5015 -2142 l  -4991 -2147 l  -4967 -2153 l  -4943 -2160 l  -4919 -2168 l 
-4895 -2178 l  -4871 -2189 l  -4847 -2200 l  -4823 -2213 l  -4799 -2226 l 
-4775 -2240 l  -4751 -2255 l  -4727 -2270 l  -4703 -2286 l  -4679 -2301 l 
-4655 -2317 l  -4631 -2333 l  -4607 -2349 l  -4583 -2365 l  -4559 -2381 l 
-4535 -2397 l  -4511 -2412 l  -4487 -2426 l  -4463 -2440 l  -4439 -2453 l 
-4415 -2466 l  -4391 -2477 l  -4367 -2488 l  -4343 -2497 l  -4319 -2505 l 
-4295 -2512 l  -4271 -2517 l  -4247 -2521 l  -4223 -2523 l  -4199 -2523 l 
-4175 -2522 l  -4151 -2519 l  -4127 -2513 l  -4103 -2506 l  -4079 -2496 l 
-4055 -2486 l  -4031 -2474 l  -4007 -2461 l  -3983 -2448 l  -3959 -2435 l 
-3935 -2422 l  -3911 -2410 l  -3887 -2399 l  -3863 -2389 l  -3839 -2381 l 
-3815 -2375 l  -3791 -2371 l  -3767 -2370 l  -3743 -2373 l  -3719 -2378 l 
-3695 -2388 l  -3671 -2401 l  -3647 -2420 l  -3623 -2442 l  -3599 -2470 l 
-3575 -2500 l  -3551 -2534 l  -3527 -2570 l  -3503 -2608 l  -3479 -2647 l 
-3455 -2687 l  -3431 -2727 l  -3407 -2766 l  -3383 -2804 l  -3359 -2841 l 
-3335 -2874 l  -3312 -2905 l  -3288 -2932 l  -3264 -2955 l  -3240 -2973 l 
-3216 -2986 l  -3192 -2992 l  -3168 -2992 l  -3144 -2985 l  -3120 -2971 l 
-3096 -2950 l  -3072 -2924 l  -3048 -2893 l  -3024 -2858 l  -3000 -2818 l 
-2976 -2774 l  -2952 -2728 l  -2928 -2679 l  -2904 -2628 l  -2880 -2575 l 
-2856 -2522 l  -2832 -2468 l  -2808 -2415 l  -2784 -2362 l  -2760 -2310 l 
-2736 -2260 l  -2712 -2212 l  -2688 -2167 l  -2664 -2125 l  -2640 -2086 l 
-2616 -2050 l  -2592 -2018 l  -2568 -1988 l  -2544 -1962 l  -2520 -1938 l 
-2496 -1917 l  -2472 -1899 l  -2448 -1883 l  -2424 -1870 l  -2400 -1859 l 
-2376 -1851 l  -2352 -1845 l  -2328 -1841 l  -2304 -1839 l  -2280 -1840 l 
-2256 -1842 l  -2232 -1846 l  -2208 -1852 l  -2184 -1860 l  -2160 -1869 l 
-2136 -1880 l  -2112 -1893 l  -2088 -1906 l  -2064 -1921 l  -2040 -1936 l 
-2016 -1952 l  -1992 -1969 l  -1968 -1987 l  -1944 -2004 l  -1920 -2022 l 
-1896 -2040 l  -1872 -2058 l  -1848 -2076 l  -1824 -2094 l  -1800 -2111 l 
-1776 -2127 l  -1752 -2143 l  -1728 -2158 l  -1704 -2172 l  -1680 -2185 l 
-1656 -2196 l  -1632 -2207 l  -1608 -2217 l  -1584 -2226 l  -1560 -2234 l 
-1536 -2241 l  -1512 -2247 l  -1488 -2252 l  -1464 -2256 l  -1440 -2260 l 
-1416 -2262 l  -1392 -2263 l  -1368 -2264 l  -1344 -2264 l  -1320 -2263 l 
-1296 -2261 l  -1272 -2258 l  -1248 -2254 l  -1224 -2249 l  -1200 -2244 l 
-1176 -2238 l  -1152 -2232 l  -1128 -2225 l  -1104 -2217 l  -1080 -2210 l 
-1056 -2202 l  -1032 -2194 l  -1008 -2186 l  -984 -2178 l  -960 -2170 l 
-936 -2162 l  -912 -2155 l  -888 -2147 l  -864 -2141 l  -840 -2135 l  -816 -2130 l 
-792 -2125 l  -768 -2121 l  -744 -2118 l  -720 -2116 l  -696 -2115 l  -672 -2115 l 
-648 -2115 l  -624 -2116 l  -600 -2118 l  -576 -2121 l  -552 -2124 l  -528 -2128 l 
-504 -2132 l  -480 -2137 l  -456 -2142 l  -432 -2148 l  -408 -2154 l  -384 -2161 l 
-360 -2168 l  -336 -2176 l  -312 -2183 l  -288 -2191 l  -264 -2200 l  -240 -2208 l 
-216 -2217 l  -192 -2226 l  -168 -2235 l  -144 -2244 l  -120 -2254 l  -96 -2263 l 
-72 -2273 l  -48 -2283 l  -24 -2293 l  0 -2304 l  23 -2314 l  47 -2325 l 
71 -2335 l  95 -2346 l  119 -2357 l  143 -2368 l  167 -2379 l  191 -2390 l 
215 -2402 l  239 -2413 l  263 -2424 l  287 -2435 l  311 -2445 l  335 -2455 l 
359 -2464 l  383 -2472 l  407 -2480 l  431 -2486 l  455 -2491 l  479 -2495 l 
503 -2498 l  527 -2499 l  551 -2498 l  575 -2496 l  599 -2492 l  623 -2485 l 
647 -2477 l  671 -2466 l  695 -2453 l  719 -2438 l  743 -2422 l  767 -2404 l 
791 -2385 l  815 -2366 l  839 -2346 l  863 -2327 l  887 -2308 l  911 -2291 l 
935 -2274 l  959 -2260 l  983 -2247 l  1007 -2237 l  1031 -2230 l  1055 -2226 l 
1079 -2226 l  1103 -2229 l  1127 -2237 l  1151 -2250 l  1175 -2267 l  1199 -2289 l 
1223 -2315 l  1247 -2344 l  1271 -2376 l  1295 -2410 l  1318 -2445 l  1342 -2481 l 
1366 -2517 l  1390 -2552 l  1414 -2587 l  1438 -2620 l  1462 -2650 l  1486 -2678 l 
1510 -2702 l  1534 -2722 l  1558 -2737 l  1582 -2747 l  1606 -2750 l  1630 -2747 l 
1654 -2737 l  1678 -2721 l  1702 -2699 l  1726 -2671 l  1750 -2639 l  1774 -2603 l 
1798 -2564 l  1822 -2523 l  1846 -2480 l  1870 -2435 l  1894 -2390 l  1918 -2346 l 
1942 -2302 l  1966 -2260 l  1990 -2220 l  2014 -2183 l  2038 -2150 l  2062 -2121 l 
2086 -2097 l  2110 -2079 l  2134 -2067 l  2158 -2061 l  2182 -2061 l  2206 -2065 l 
2230 -2074 l  2254 -2088 l  2278 -2105 l  2302 -2125 l  2326 -2149 l  2350 -2175 l 
2374 -2203 l  2398 -2233 l  2422 -2264 l  2446 -2296 l  2470 -2328 l  2494 -2361 l 
2518 -2392 l  2542 -2423 l  2566 -2453 l  2590 -2481 l  2614 -2507 l  2638 -2531 l 
2662 -2552 l  2686 -2571 l  2710 -2588 l  2734 -2603 l  2758 -2615 l  2782 -2625 l 
2806 -2632 l  2830 -2637 l  2854 -2640 l  2878 -2640 l  2902 -2638 l  2926 -2633 l 
2950 -2625 l  2974 -2615 l  2998 -2602 l  3022 -2586 l  3046 -2568 l  3070 -2547 l 
3094 -2523 l  3118 -2496 l  3142 -2468 l  3166 -2438 l  3190 -2406 l  3214 -2373 l 
3238 -2339 l  3262 -2305 l  3286 -2271 l  3310 -2237 l  3334 -2203 l  3358 -2170 l 
3382 -2139 l  3406 -2109 l  3430 -2080 l  3454 -2054 l  3478 -2031 l  3502 -2010 l 
3526 -1993 l  3550 -1979 l  3574 -1969 l  3598 -1962 l  3622 -1958 l  3646 -1958 l 
3670 -1960 l  3694 -1965 l  3718 -1971 l  3742 -1979 l  3766 -1989 l  3790 -2000 l 
3814 -2011 l  3838 -2024 l  3862 -2036 l  3886 -2048 l  3910 -2060 l  3934 -2071 l 
3958 -2082 l  3982 -2091 l  4006 -2098 l  4030 -2104 l  4054 -2107 l  4078 -2109 l 
4102 -2108 l  4126 -2107 l  4150 -2104 l  4174 -2101 l  4198 -2096 l  4222 -2092 l 
4246 -2087 l  4270 -2082 l  4294 -2078 l  4318 -2074 l  4342 -2071 l  4366 -2070 l 
4390 -2069 l  4414 -2071 l  4438 -2074 l  4462 -2079 l  4486 -2087 l  4510 -2098 l 
4534 -2111 l  4558 -2127 l  4582 -2145 l  4606 -2166 l  4630 -2188 l  4654 -2211 l 
4678 -2235 l  4702 -2260 l  4726 -2285 l  4750 -2311 l  4774 -2336 l  4798 -2360 l 
4822 -2384 l  4846 -2406 l  4870 -2427 l  4894 -2445 l  4918 -2462 l  4942 -2476 l 
4966 -2488 l  4990 -2496 l  5014 -2500 l  5038 -2502 l  5062 -2500 l  5086 -2496 l 
5110 -2490 l  5134 -2481 l  5158 -2470 l  5182 -2458 l  5206 -2444 l  5230 -2429 l 
5254 -2413 l  5278 -2397 l  5302 -2380 l  5326 -2363 l  5350 -2346 l  5374 -2330 l 
5398 -2314 l  5422 -2299 l  5446 -2285 l  5470 -2273 l  5494 -2263 l  5518 -2254 l 
5542 -2247 l  5566 -2241 l  5590 -2236 l  5614 -2233 l  5638 -2231 l  5662 -2230 l 
5686 -2230 l  5710 -2231 l  5734 -2233 l  5758 -2235 l  5782 -2238 l  5806 -2242 l 
5830 -2247 l  5854 -2252 l  5878 -2257 l  5902 -2262 l  5926 -2268 l  5950 -2273 l 
ps
-8091 -2616 m  -7966 -2491 l  -7841 -2616 l  -7966 -2741 l  -8091 -2616 l 
p ef
0 lw -8091 -2616 m  -7966 -2491 l  -7841 -2616 l  -7966 -2741 l  -8091 -2616 l 
pc
-7612 -2184 m  -7487 -2059 l  -7362 -2184 l  -7487 -2309 l  -7612 -2184 l 
p ef
-7612 -2184 m  -7487 -2059 l  -7362 -2184 l  -7487 -2309 l  -7612 -2184 l 
pc
-7132 -1625 m  -7007 -1500 l  -6882 -1625 l  -7007 -1750 l  -7132 -1625 l 
p ef
-7132 -1625 m  -7007 -1500 l  -6882 -1625 l  -7007 -1750 l  -7132 -1625 l 
pc
-6652 -2289 m  -6527 -2164 l  -6402 -2289 l  -6527 -2414 l  -6652 -2289 l 
p ef
-6652 -2289 m  -6527 -2164 l  -6402 -2289 l  -6527 -2414 l  -6652 -2289 l 
pc
-6172 -1612 m  -6047 -1487 l  -5922 -1612 l  -6047 -1737 l  -6172 -1612 l 
p ef
-6172 -1612 m  -6047 -1487 l  -5922 -1612 l  -6047 -1737 l  -6172 -1612 l 
pc
-5692 -2127 m  -5567 -2002 l  -5442 -2127 l  -5567 -2252 l  -5692 -2127 l 
p ef
-5692 -2127 m  -5567 -2002 l  -5442 -2127 l  -5567 -2252 l  -5692 -2127 l 
pc
-5212 -2139 m  -5087 -2014 l  -4962 -2139 l  -5087 -2264 l  -5212 -2139 l 
p ef
-5212 -2139 m  -5087 -2014 l  -4962 -2139 l  -5087 -2264 l  -5212 -2139 l 
pc
-4732 -2349 m  -4607 -2224 l  -4482 -2349 l  -4607 -2474 l  -4732 -2349 l 
p ef
-4732 -2349 m  -4607 -2224 l  -4482 -2349 l  -4607 -2474 l  -4732 -2349 l 
pc
-4252 -2513 m  -4127 -2388 l  -4002 -2513 l  -4127 -2638 l  -4252 -2513 l 
p ef
-4252 -2513 m  -4127 -2388 l  -4002 -2513 l  -4127 -2638 l  -4252 -2513 l 
pc
-3772 -2420 m  -3647 -2295 l  -3522 -2420 l  -3647 -2545 l  -3772 -2420 l 
p ef
-3772 -2420 m  -3647 -2295 l  -3522 -2420 l  -3647 -2545 l  -3772 -2420 l 
pc
-3293 -2992 m  -3168 -2867 l  -3043 -2992 l  -3168 -3117 l  -3293 -2992 l 
p ef
-3293 -2992 m  -3168 -2867 l  -3043 -2992 l  -3168 -3117 l  -3293 -2992 l 
pc
-2813 -2167 m  -2688 -2042 l  -2563 -2167 l  -2688 -2292 l  -2813 -2167 l 
p ef
-2813 -2167 m  -2688 -2042 l  -2563 -2167 l  -2688 -2292 l  -2813 -2167 l 
pc
-2333 -1852 m  -2208 -1727 l  -2083 -1852 l  -2208 -1977 l  -2333 -1852 l 
p ef
-2333 -1852 m  -2208 -1727 l  -2083 -1852 l  -2208 -1977 l  -2333 -1852 l 
pc
-1853 -2158 m  -1728 -2033 l  -1603 -2158 l  -1728 -2283 l  -1853 -2158 l 
p ef
-1853 -2158 m  -1728 -2033 l  -1603 -2158 l  -1728 -2283 l  -1853 -2158 l 
pc
-1373 -2254 m  -1248 -2129 l  -1123 -2254 l  -1248 -2379 l  -1373 -2254 l 
p ef
-1373 -2254 m  -1248 -2129 l  -1123 -2254 l  -1248 -2379 l  -1373 -2254 l 
pc
-893 -2121 m  -768 -1996 l  -643 -2121 l  -768 -2246 l  -893 -2121 l  p ef
-893 -2121 m  -768 -1996 l  -643 -2121 l  -768 -2246 l  -893 -2121 l  pc
-413 -2191 m  -288 -2066 l  -163 -2191 l  -288 -2316 l  -413 -2191 l  p ef
-413 -2191 m  -288 -2066 l  -163 -2191 l  -288 -2316 l  -413 -2191 l  pc
66 -2390 m  191 -2265 l  316 -2390 l  191 -2515 l  66 -2390 l  p ef
66 -2390 m  191 -2265 l  316 -2390 l  191 -2515 l  66 -2390 l  pc
546 -2466 m  671 -2341 l  796 -2466 l  671 -2591 l  546 -2466 l  p ef
546 -2466 m  671 -2341 l  796 -2466 l  671 -2591 l  546 -2466 l  pc
1026 -2250 m  1151 -2125 l  1276 -2250 l  1151 -2375 l  1026 -2250 l  p ef
1026 -2250 m  1151 -2125 l  1276 -2250 l  1151 -2375 l  1026 -2250 l  pc
1505 -2747 m  1630 -2622 l  1755 -2747 l  1630 -2872 l  1505 -2747 l  p ef
1505 -2747 m  1630 -2622 l  1755 -2747 l  1630 -2872 l  1505 -2747 l  pc
1985 -2079 m  2110 -1954 l  2235 -2079 l  2110 -2204 l  1985 -2079 l  p ef
1985 -2079 m  2110 -1954 l  2235 -2079 l  2110 -2204 l  1985 -2079 l  pc
2465 -2481 m  2590 -2356 l  2715 -2481 l  2590 -2606 l  2465 -2481 l  p ef
2465 -2481 m  2590 -2356 l  2715 -2481 l  2590 -2606 l  2465 -2481 l  pc
2945 -2547 m  3070 -2422 l  3195 -2547 l  3070 -2672 l  2945 -2547 l  p ef
2945 -2547 m  3070 -2422 l  3195 -2547 l  3070 -2672 l  2945 -2547 l  pc
3425 -1979 m  3550 -1854 l  3675 -1979 l  3550 -2104 l  3425 -1979 l  p ef
3425 -1979 m  3550 -1854 l  3675 -1979 l  3550 -2104 l  3425 -1979 l  pc
3905 -2104 m  4030 -1979 l  4155 -2104 l  4030 -2229 l  3905 -2104 l  p ef
3905 -2104 m  4030 -1979 l  4155 -2104 l  4030 -2229 l  3905 -2104 l  pc
4385 -2098 m  4510 -1973 l  4635 -2098 l  4510 -2223 l  4385 -2098 l  p ef
4385 -2098 m  4510 -1973 l  4635 -2098 l  4510 -2223 l  4385 -2098 l  pc
4865 -2496 m  4990 -2371 l  5115 -2496 l  4990 -2621 l  4865 -2496 l  p ef
4865 -2496 m  4990 -2371 l  5115 -2496 l  4990 -2621 l  4865 -2496 l  pc
5345 -2273 m  5470 -2148 l  5595 -2273 l  5470 -2398 l  5345 -2273 l  p ef
5345 -2273 m  5470 -2148 l  5595 -2273 l  5470 -2398 l  5345 -2273 l  pc
5825 -2273 m  5950 -2148 l  6075 -2273 l  5950 -2398 l  5825 -2273 l  p ef
5825 -2273 m  5950 -2148 l  6075 -2273 l  5950 -2398 l  5825 -2273 l  pc
0.003 0.003 0.003 c
/Helvetica f
353 sf -8059 3261 m  185 0 (1) bs
/Helvetica f
353 sf -7580 3261 m  185 0 (2) bs
/Helvetica f
353 sf -7100 3261 m  185 0 (3) bs
/Helvetica f
353 sf -6620 3261 m  185 0 (4) bs
/Helvetica f
353 sf -6140 3261 m  185 0 (5) bs
/Helvetica f
353 sf -5660 3261 m  185 0 (6) bs
/Helvetica f
353 sf -5180 3261 m  185 0 (7) bs
/Helvetica f
353 sf -4700 3261 m  185 0 (8) bs
/Helvetica f
353 sf -4220 3261 m  185 0 (9) bs
/Helvetica f
353 sf -3832 3261 m  185 0 (1) bs
185 185 (0) bs
/Helvetica f
353 sf -3340 3261 m  185 0 (1) bs
185 159 (1) bs
/Helvetica f
353 sf -2873 3261 m  185 0 (1) bs
185 185 (2) bs
/Helvetica f
353 sf -2393 3261 m  185 0 (1) bs
185 185 (3) bs
/Helvetica f
353 sf -1913 3261 m  185 0 (1) bs
185 185 (4) bs
/Helvetica f
353 sf -1433 3261 m  185 0 (1) bs
185 185 (5) bs
/Helvetica f
353 sf -953 3261 m  185 0 (1) bs
185 185 (6) bs
/Helvetica f
353 sf -473 3261 m  185 0 (1) bs
185 185 (7) bs
/Helvetica f
353 sf 7 3261 m  185 0 (1) bs
185 185 (8) bs
/Helvetica f
353 sf 487 3261 m  185 0 (1) bs
185 185 (9) bs
/Helvetica f
353 sf 967 3261 m  185 0 (2) bs
185 185 (0) bs
/Helvetica f
353 sf 1446 3261 m  185 0 (2) bs
185 185 (1) bs
/Helvetica f
353 sf 1926 3261 m  185 0 (2) bs
185 185 (2) bs
/Helvetica f
353 sf 2406 3261 m  185 0 (2) bs
185 185 (3) bs
/Helvetica f
353 sf 2886 3261 m  185 0 (2) bs
185 185 (4) bs
/Helvetica f
353 sf 3366 3261 m  185 0 (2) bs
185 185 (5) bs
/Helvetica f
353 sf 3846 3261 m  185 0 (2) bs
185 185 (6) bs
/Helvetica f
353 sf 4326 3261 m  185 0 (2) bs
185 185 (7) bs
/Helvetica f
353 sf 4806 3261 m  185 0 (2) bs
185 185 (8) bs
/Helvetica f
353 sf 5286 3261 m  185 0 (2) bs
185 185 (9) bs
/Helvetica f
353 sf 5766 3261 m  185 0 (3) bs
185 185 (0) bs
/Helvetica f
353 sf -8877 2814 m  185 0 (0) bs
106 185 (,) bs
185 291 (0) bs
185 476 (0) bs
/Helvetica f
353 sf -8877 1961 m  185 0 (0) bs
106 185 (,) bs
185 291 (1) bs
185 476 (0) bs
/Helvetica f
353 sf -8877 1109 m  185 0 (0) bs
106 185 (,) bs
185 291 (2) bs
185 476 (0) bs
/Helvetica f
353 sf -8877 256 m  185 0 (0) bs
106 185 (,) bs
185 291 (3) bs
185 476 (0) bs
/Helvetica f
353 sf -8877 -596 m  185 0 (0) bs
106 185 (,) bs
185 291 (4) bs
185 476 (0) bs
/Helvetica f
353 sf -8877 -1448 m  185 0 (0) bs
106 185 (,) bs
185 291 (5) bs
185 476 (0) bs
/Helvetica f
353 sf -8877 -2301 m  185 0 (0) bs
106 185 (,) bs
185 291 (6) bs
185 476 (0) bs
/Helvetica f
353 sf -8877 -3153 m  185 0 (0) bs
106 185 (,) bs
185 291 (7) bs
185 476 (0) bs
/Helvetica f
353 sf -8877 -4005 m  185 0 (0) bs
106 185 (,) bs
185 291 (8) bs
185 476 (0) bs
79.99611 lw 0.003 0.273 0.527 c 6665 -997 m  7465 -997 l  ps
6959 -1102 m  6959 -891 l  7170 -891 l  7170 -1102 l  6959 -1102 l  p ef
0 lw 6959 -1102 m  6959 -891 l  7170 -891 l  7170 -1102 l  6959 -1102 l 
pc
79.99611 lw 1.000 0.828 0.128 c 6665 -499 m  7465 -499 l  ps
6959 -604 m  7065 -393 l  7170 -604 l  6959 -604 l  p ef
0 lw 6959 -604 m  7065 -393 l  7170 -604 l  6959 -604 l  pc
79.99611 lw 0.343 0.617 0.113 c 6665 -1 m  7465 -1 l  ps
6959 104 m  7170 104 l  7065 -106 l  6959 104 l  p ef
0 lw 6959 104 m  7170 104 l  7065 -106 l  6959 104 l  pc
79.99611 lw 0.496 0.003 0.132 c 6665 496 m  7465 496 l  ps
6959 391 m  6959 602 l  7170 496 l  6959 391 l  p ef
0 lw 6959 391 m  6959 602 l  7170 496 l  6959 391 l  pc
79.99611 lw 1.000 0.261 0.058 c 6665 994 m  7465 994 l  ps
6959 994 m  7065 1100 l  7170 994 l  7065 889 l  6959 994 l  p ef
0 lw 6959 994 m  7065 1100 l  7170 994 l  7065 889 l  6959 994 l  pc
0.003 0.003 0.003 c
/Helvetica f
353 sf 7565 -877 m  238 0 (H) bs
291 238 (M) bs
291 529 (M) bs
106 820 ( ) bs
106 926 (-) bs
106 1032 ( ) bs
185 1138 (k) bs
106 1323 ( ) bs
212 1429 (=) bs
106 1640 ( ) bs
185 1746 (1) bs
106 1931 (,) bs
185 2037 (5) bs
185 2223 (s) bs
/Helvetica f
353 sf 7565 -379 m  238 0 (H) bs
291 238 (M) bs
291 529 (M) bs
106 820 ( ) bs
106 926 (-) bs
106 1032 ( ) bs
185 1138 (k) bs
106 1323 ( ) bs
212 1429 (=) bs
106 1640 ( ) bs
185 1746 (3) bs
185 1931 (s) bs
/Helvetica f
353 sf 7565 118 m  238 0 (H) bs
291 238 (M) bs
291 529 (M) bs
106 820 ( ) bs
106 926 (-) bs
106 1032 ( ) bs
185 1138 (k) bs
106 1323 ( ) bs
212 1429 (=) bs
106 1640 ( ) bs
185 1746 (5) bs
185 1931 (s) bs
/Helvetica f
353 sf 7565 616 m  238 0 (H) bs
291 238 (M) bs
291 529 (M) bs
106 820 ( ) bs
106 926 (-) bs
106 1032 ( ) bs
185 1138 (k) bs
106 1323 ( ) bs
212 1429 (=) bs
106 1640 ( ) bs
185 1746 (8) bs
185 1931 (s) bs
/Helvetica f
353 sf 7565 1114 m  238 0 (K) bs
238 238 (N) bs
238 476 (N) bs
/Helvetica f
318 sf -1410 3908 m  79 0 (i) bs
/Helvetica f
318 sf -9464 -399 m  gs 90.0 r 185 0 (e) bs
gr
0 9006 t 
pom
count op_count sub {pop} repeat countdictstack dict_count sub {end} repeat b4_inc_state restore
%%PageTrailer
%%Trailer
%%EOF
