%!PS-Adobe-3.0 EPSF-3.0 
%%BoundingBox: 0 0 584 255
%%Pages: 0
%%Creator: LibreOffice 4.4
%%Title: none
%%CreationDate: none
%%LanguageLevel: 2
%%EndComments
%%BeginProlog
%%BeginResource: procset SDRes-Prolog 1.0 0
/b4_inc_state save def
/dict_count countdictstack def
/op_count count 1 sub def
userdict begin
0 setgray 0 setlinecap 1 setlinewidth 0 setlinejoin 10 setmiterlimit[] 0 setdash newpath
/languagelevel where {pop languagelevel 1 ne {false setstrokeadjust false setoverprint} if} if
/bdef {bind def} bind def
/c {setrgbcolor} bdef
/l {neg lineto} bdef
/rl {neg rlineto} bdef
/lc {setlinecap} bdef
/lj {setlinejoin} bdef
/lw {setlinewidth} bdef
/ml {setmiterlimit} bdef
/ld {setdash} bdef
/m {neg moveto} bdef
/ct {6 2 roll neg 6 2 roll neg 6 2 roll neg curveto} bdef
/r {rotate} bdef
/t {neg translate} bdef
/s {scale} bdef
/sw {show} bdef
/gs {gsave} bdef
/gr {grestore} bdef
/f {findfont dup length dict begin
{1 index /FID ne {def} {pop pop} ifelse} forall /Encoding ISOLatin1Encoding def
currentdict end /NFont exch definefont pop /NFont findfont} bdef
/p {closepath} bdef
/sf {scalefont setfont} bdef
/ef {eofill}bdef
/pc {closepath stroke}bdef
/ps {stroke}bdef
/pum {matrix currentmatrix}bdef
/pom {setmatrix}bdef
/bs {/aString exch def /nXOfs exch def /nWidth exch def currentpoint nXOfs 0 rmoveto pum nWidth aString stringwidth pop div 1 scale aString show pom moveto} bdef
%%EndResource
%%EndProlog
%%BeginSetup
%%EndSetup
%%Page: 1 1
%%BeginPageSetup
%%EndPageSetup
pum
0.02834 0.02831 s 
0 -9006 t
/tm matrix currentmatrix def
tm setmatrix
10301 4503 t 
1 1 s 
1.000 1.000 1.000 c 0 4502 m  -10301 4502 l  -10301 -4503 l  10301 -4503 l 
10301 4502 l  0 4502 l  p ef
0 lw 1 lj 0.703 0.703 0.703 c -213 2296 m  -7966 2296 l  -7966 -4124 l 
7539 -4124 l  7539 2296 l  -213 2296 l  pc
7539 2295 m  -7966 2295 l  ps
7539 1377 m  -7966 1377 l  ps
7539 460 m  -7966 460 l  ps
7539 -456 m  -7966 -456 l  ps
7539 -1374 m  -7966 -1374 l  ps
7539 -2291 m  -7966 -2291 l  ps
7539 -3208 m  -7966 -3208 l  ps
7539 -4125 m  -7966 -4125 l  ps
-7966 2445 m  -7966 2295 l  ps
-7966 2445 m  -7966 2295 l  ps
-7704 2445 m  -7704 2295 l  ps
-7704 2445 m  -7704 2295 l  ps
-7441 2445 m  -7441 2295 l  ps
-7441 2445 m  -7441 2295 l  ps
-7178 2445 m  -7178 2295 l  ps
-7178 2445 m  -7178 2295 l  ps
-6915 2445 m  -6915 2295 l  ps
-6915 2445 m  -6915 2295 l  ps
-6652 2445 m  -6652 2295 l  ps
-6652 2445 m  -6652 2295 l  ps
-6390 2445 m  -6390 2295 l  ps
-6390 2445 m  -6390 2295 l  ps
-6127 2445 m  -6127 2295 l  ps
-6127 2445 m  -6127 2295 l  ps
-5864 2445 m  -5864 2295 l  ps
-5864 2445 m  -5864 2295 l  ps
-5601 2445 m  -5601 2295 l  ps
-5601 2445 m  -5601 2295 l  ps
-5338 2445 m  -5338 2295 l  ps
-5338 2445 m  -5338 2295 l  ps
-5076 2445 m  -5076 2295 l  ps
-5076 2445 m  -5076 2295 l  ps
-4813 2445 m  -4813 2295 l  ps
-4813 2445 m  -4813 2295 l  ps
-4550 2445 m  -4550 2295 l  ps
-4550 2445 m  -4550 2295 l  ps
-4287 2445 m  -4287 2295 l  ps
-4287 2445 m  -4287 2295 l  ps
-4024 2445 m  -4024 2295 l  ps
-4024 2445 m  -4024 2295 l  ps
-3761 2445 m  -3761 2295 l  ps
-3761 2445 m  -3761 2295 l  ps
-3499 2445 m  -3499 2295 l  ps
-3499 2445 m  -3499 2295 l  ps
-3236 2445 m  -3236 2295 l  ps
-3236 2445 m  -3236 2295 l  ps
-2973 2445 m  -2973 2295 l  ps
-2973 2445 m  -2973 2295 l  ps
-2710 2445 m  -2710 2295 l  ps
-2710 2445 m  -2710 2295 l  ps
-2447 2445 m  -2447 2295 l  ps
-2447 2445 m  -2447 2295 l  ps
-2185 2445 m  -2185 2295 l  ps
-2185 2445 m  -2185 2295 l  ps
-1922 2445 m  -1922 2295 l  ps
-1922 2445 m  -1922 2295 l  ps
-1659 2445 m  -1659 2295 l  ps
-1659 2445 m  -1659 2295 l  ps
-1396 2445 m  -1396 2295 l  ps
-1396 2445 m  -1396 2295 l  ps
-1133 2445 m  -1133 2295 l  ps
-1133 2445 m  -1133 2295 l  ps
-871 2445 m  -871 2295 l  ps
-871 2445 m  -871 2295 l  ps
-608 2445 m  -608 2295 l  ps
-608 2445 m  -608 2295 l  ps
-345 2445 m  -345 2295 l  ps
-345 2445 m  -345 2295 l  ps
-82 2445 m  -82 2295 l  ps
-82 2445 m  -82 2295 l  ps
180 2445 m  180 2295 l  ps
180 2445 m  180 2295 l  ps
443 2445 m  443 2295 l  ps
443 2445 m  443 2295 l  ps
705 2445 m  705 2295 l  ps
705 2445 m  705 2295 l  ps
968 2445 m  968 2295 l  ps
968 2445 m  968 2295 l  ps
1231 2445 m  1231 2295 l  ps
1231 2445 m  1231 2295 l  ps
1494 2445 m  1494 2295 l  ps
1494 2445 m  1494 2295 l  ps
1757 2445 m  1757 2295 l  ps
1757 2445 m  1757 2295 l  ps
2019 2445 m  2019 2295 l  ps
2019 2445 m  2019 2295 l  ps
2282 2445 m  2282 2295 l  ps
2282 2445 m  2282 2295 l  ps
2545 2445 m  2545 2295 l  ps
2545 2445 m  2545 2295 l  ps
2808 2445 m  2808 2295 l  ps
2808 2445 m  2808 2295 l  ps
3071 2445 m  3071 2295 l  ps
3071 2445 m  3071 2295 l  ps
3333 2445 m  3333 2295 l  ps
3333 2445 m  3333 2295 l  ps
3596 2445 m  3596 2295 l  ps
3596 2445 m  3596 2295 l  ps
3859 2445 m  3859 2295 l  ps
3859 2445 m  3859 2295 l  ps
4122 2445 m  4122 2295 l  ps
4122 2445 m  4122 2295 l  ps
4385 2445 m  4385 2295 l  ps
4385 2445 m  4385 2295 l  ps
4648 2445 m  4648 2295 l  ps
4648 2445 m  4648 2295 l  ps
4910 2445 m  4910 2295 l  ps
4910 2445 m  4910 2295 l  ps
5173 2445 m  5173 2295 l  ps
5173 2445 m  5173 2295 l  ps
5436 2445 m  5436 2295 l  ps
5436 2445 m  5436 2295 l  ps
5699 2445 m  5699 2295 l  ps
5699 2445 m  5699 2295 l  ps
5962 2445 m  5962 2295 l  ps
5962 2445 m  5962 2295 l  ps
6224 2445 m  6224 2295 l  ps
6224 2445 m  6224 2295 l  ps
6487 2445 m  6487 2295 l  ps
6487 2445 m  6487 2295 l  ps
6750 2445 m  6750 2295 l  ps
6750 2445 m  6750 2295 l  ps
7013 2445 m  7013 2295 l  ps
7013 2445 m  7013 2295 l  ps
7276 2445 m  7276 2295 l  ps
7276 2445 m  7276 2295 l  ps
7539 2445 m  7539 2295 l  ps
7539 2445 m  7539 2295 l  ps
-7966 2295 m  7539 2295 l  ps
-8116 2295 m  -7966 2295 l  ps
-8116 2295 m  -7966 2295 l  ps
-8116 1377 m  -7966 1377 l  ps
-8116 1377 m  -7966 1377 l  ps
-8116 460 m  -7966 460 l  ps
-8116 460 m  -7966 460 l  ps
-8116 -456 m  -7966 -456 l  ps
-8116 -456 m  -7966 -456 l  ps
-8116 -1374 m  -7966 -1374 l  ps
-8116 -1374 m  -7966 -1374 l  ps
-8116 -2291 m  -7966 -2291 l  ps
-8116 -2291 m  -7966 -2291 l  ps
-8116 -3208 m  -7966 -3208 l  ps
-8116 -3208 m  -7966 -3208 l  ps
-8116 -4125 m  -7966 -4125 l  ps
-8116 -4125 m  -7966 -4125 l  ps
-7966 2295 m  -7966 -4125 l  ps
79.99611 lw 0.003 0.273 0.527 c -7966 -2464 m  -7953 -2475 l  -7940 -2486 l 
-7927 -2496 l  -7914 -2507 l  -7901 -2517 l  -7888 -2526 l  -7875 -2535 l 
-7861 -2544 l  -7848 -2552 l  -7835 -2559 l  -7822 -2565 l  -7809 -2571 l 
-7796 -2575 l  -7783 -2578 l  -7769 -2580 l  -7756 -2581 l  -7743 -2581 l 
-7730 -2579 l  -7717 -2576 l  -7704 -2571 l  -7691 -2565 l  -7677 -2557 l 
-7664 -2547 l  -7651 -2537 l  -7638 -2526 l  -7625 -2514 l  -7612 -2501 l 
-7599 -2487 l  -7585 -2474 l  -7572 -2460 l  -7559 -2446 l  -7546 -2433 l 
-7533 -2419 l  -7520 -2407 l  -7507 -2395 l  -7493 -2384 l  -7480 -2373 l 
-7467 -2364 l  -7454 -2357 l  -7441 -2351 l  -7428 -2346 l  -7415 -2343 l 
-7401 -2342 l  -7388 -2342 l  -7375 -2343 l  -7362 -2346 l  -7349 -2350 l 
-7336 -2354 l  -7323 -2360 l  -7309 -2366 l  -7296 -2373 l  -7283 -2381 l 
-7270 -2389 l  -7257 -2397 l  -7244 -2406 l  -7231 -2415 l  -7217 -2424 l 
-7204 -2433 l  -7191 -2443 l  -7178 -2451 l  -7165 -2460 l  -7152 -2468 l 
-7139 -2476 l  -7125 -2484 l  -7112 -2491 l  -7099 -2498 l  -7086 -2504 l 
-7073 -2510 l  -7060 -2516 l  -7047 -2520 l  -7034 -2525 l  -7020 -2528 l 
-7007 -2531 l  -6994 -2534 l  -6981 -2536 l  -6968 -2537 l  -6955 -2537 l 
-6942 -2537 l  -6928 -2535 l  -6915 -2533 l  -6902 -2530 l  -6889 -2527 l 
-6876 -2523 l  -6863 -2518 l  -6850 -2513 l  -6836 -2507 l  -6823 -2502 l 
-6810 -2496 l  -6797 -2491 l  -6784 -2485 l  -6771 -2480 l  -6758 -2475 l 
-6744 -2471 l  -6731 -2467 l  -6718 -2464 l  -6705 -2462 l  -6692 -2461 l 
-6679 -2461 l  -6666 -2462 l  -6652 -2464 l  -6639 -2468 l  -6626 -2472 l 
-6613 -2478 l  -6600 -2485 l  -6587 -2492 l  -6574 -2500 l  -6560 -2508 l 
-6547 -2517 l  -6534 -2525 l  -6521 -2534 l  -6508 -2542 l  -6495 -2549 l 
-6482 -2556 l  -6468 -2562 l  -6455 -2567 l  -6442 -2571 l  -6429 -2573 l 
-6416 -2574 l  -6403 -2574 l  -6390 -2571 l  -6376 -2567 l  -6363 -2560 l 
-6350 -2552 l  -6337 -2543 l  -6324 -2532 l  -6311 -2521 l  -6298 -2508 l 
-6284 -2495 l  -6271 -2481 l  -6258 -2467 l  -6245 -2452 l  -6232 -2438 l 
-6219 -2424 l  -6206 -2411 l  -6193 -2398 l  -6179 -2386 l  -6166 -2375 l 
-6153 -2366 l  -6140 -2357 l  -6127 -2351 l  -6114 -2346 l  -6101 -2342 l 
-6087 -2341 l  -6074 -2341 l  -6061 -2342 l  -6048 -2344 l  -6035 -2348 l 
-6022 -2352 l  -6009 -2358 l  -5995 -2364 l  -5982 -2371 l  -5969 -2379 l 
-5956 -2387 l  -5943 -2396 l  -5930 -2405 l  -5917 -2414 l  -5903 -2424 l 
-5890 -2433 l  -5877 -2442 l  -5864 -2451 l  -5851 -2460 l  -5838 -2469 l 
-5825 -2477 l  -5811 -2484 l  -5798 -2492 l  -5785 -2498 l  -5772 -2505 l 
-5759 -2511 l  -5746 -2516 l  -5733 -2521 l  -5719 -2525 l  -5706 -2529 l 
-5693 -2532 l  -5680 -2534 l  -5667 -2536 l  -5654 -2537 l  -5641 -2537 l 
-5627 -2537 l  -5614 -2535 l  -5601 -2533 l  -5588 -2530 l  -5575 -2527 l 
-5562 -2523 l  -5549 -2518 l  -5535 -2513 l  -5522 -2508 l  -5509 -2502 l 
-5496 -2496 l  -5483 -2491 l  -5470 -2485 l  -5457 -2480 l  -5443 -2475 l 
-5430 -2471 l  -5417 -2468 l  -5404 -2465 l  -5391 -2462 l  -5378 -2461 l 
-5365 -2461 l  -5352 -2462 l  -5338 -2464 l  -5325 -2468 l  -5312 -2472 l 
-5299 -2478 l  -5286 -2485 l  -5273 -2492 l  -5260 -2500 l  -5246 -2508 l 
-5233 -2516 l  -5220 -2525 l  -5207 -2533 l  -5194 -2541 l  -5181 -2548 l 
-5168 -2555 l  -5154 -2561 l  -5141 -2566 l  -5128 -2570 l  -5115 -2573 l 
-5102 -2574 l  -5089 -2573 l  -5076 -2571 l  -5062 -2567 l  -5049 -2561 l 
-5036 -2553 l  -5023 -2544 l  -5010 -2534 l  -4997 -2523 l  -4984 -2510 l 
-4970 -2497 l  -4957 -2484 l  -4944 -2470 l  -4931 -2456 l  -4918 -2442 l 
-4905 -2428 l  -4892 -2414 l  -4878 -2401 l  -4865 -2389 l  -4852 -2378 l 
-4839 -2367 l  -4826 -2358 l  -4813 -2351 l  -4800 -2345 l  -4786 -2340 l 
-4773 -2337 l  -4760 -2336 l  -4747 -2335 l  -4734 -2336 l  -4721 -2339 l 
-4708 -2342 l  -4694 -2347 l  -4681 -2352 l  -4668 -2359 l  -4655 -2366 l 
-4642 -2375 l  -4629 -2384 l  -4616 -2394 l  -4602 -2404 l  -4589 -2415 l 
-4576 -2427 l  -4563 -2439 l  -4550 -2451 l  -4537 -2464 l  -4524 -2477 l 
-4511 -2490 l  -4497 -2503 l  -4484 -2516 l  -4471 -2527 l  -4458 -2539 l 
-4445 -2549 l  -4432 -2558 l  -4419 -2566 l  -4405 -2572 l  -4392 -2577 l 
-4379 -2580 l  -4366 -2580 l  -4353 -2579 l  -4340 -2575 l  -4327 -2569 l 
-4313 -2560 l  -4300 -2548 l  -4287 -2533 l  -4274 -2515 l  -4261 -2494 l 
-4248 -2470 l  -4235 -2444 l  -4221 -2417 l  -4208 -2387 l  -4195 -2357 l 
-4182 -2326 l  -4169 -2294 l  -4156 -2262 l  -4143 -2230 l  -4129 -2199 l 
-4116 -2169 l  -4103 -2140 l  -4090 -2113 l  -4077 -2088 l  -4064 -2065 l 
-4051 -2045 l  -4037 -2027 l  -4024 -2014 l  -4011 -2003 l  -3998 -1997 l 
-3985 -1993 l  -3972 -1992 l  -3959 -1994 l  -3945 -1998 l  -3932 -2004 l 
-3919 -2012 l  -3906 -2021 l  -3893 -2032 l  -3880 -2043 l  -3867 -2054 l 
-3853 -2066 l  -3840 -2078 l  -3827 -2089 l  -3814 -2099 l  -3801 -2109 l 
-3788 -2117 l  -3775 -2124 l  -3761 -2129 l  -3748 -2132 l  -3735 -2133 l 
-3722 -2132 l  -3709 -2129 l  -3696 -2125 l  -3683 -2119 l  -3669 -2112 l 
-3656 -2104 l  -3643 -2095 l  -3630 -2085 l  -3617 -2074 l  -3604 -2063 l 
-3591 -2051 l  -3578 -2039 l  -3564 -2026 l  -3551 -2014 l  -3538 -2002 l 
-3525 -1990 l  -3512 -1978 l  -3499 -1967 l  -3486 -1957 l  -3472 -1947 l 
-3459 -1938 l  -3446 -1930 l  -3433 -1923 l  -3420 -1916 l  -3407 -1909 l 
-3394 -1904 l  -3380 -1899 l  -3367 -1894 l  -3354 -1891 l  -3341 -1888 l 
-3328 -1885 l  -3315 -1884 l  -3302 -1883 l  -3288 -1882 l  -3275 -1882 l 
-3262 -1883 l  -3249 -1885 l  -3236 -1887 l  -3223 -1889 l  -3210 -1892 l 
-3196 -1896 l  -3183 -1900 l  -3170 -1905 l  -3157 -1910 l  -3144 -1915 l 
-3131 -1920 l  -3118 -1926 l  -3104 -1931 l  -3091 -1937 l  -3078 -1943 l 
-3065 -1948 l  -3052 -1953 l  -3039 -1959 l  -3026 -1963 l  -3012 -1968 l 
-2999 -1972 l  -2986 -1976 l  -2973 -1979 l  -2960 -1982 l  -2947 -1984 l 
-2934 -1985 l  -2920 -1987 l  -2907 -1988 l  -2894 -1989 l  -2881 -1989 l 
-2868 -1990 l  -2855 -1990 l  -2842 -1991 l  -2828 -1992 l  -2815 -1992 l 
-2802 -1994 l  -2789 -1995 l  -2776 -1997 l  -2763 -1999 l  -2750 -2002 l 
-2737 -2005 l  -2723 -2009 l  -2710 -2014 l  -2697 -2019 l  -2684 -2025 l 
-2671 -2032 l  -2658 -2039 l  -2645 -2047 l  -2631 -2054 l  -2618 -2062 l 
-2605 -2070 l  -2592 -2078 l  -2579 -2086 l  -2566 -2093 l  -2553 -2100 l 
-2539 -2107 l  -2526 -2112 l  -2513 -2118 l  -2500 -2122 l  -2487 -2125 l 
-2474 -2128 l  -2461 -2129 l  -2447 -2129 l  -2434 -2128 l  -2421 -2125 l 
-2408 -2122 l  -2395 -2117 l  -2382 -2111 l  -2369 -2104 l  -2355 -2097 l 
-2342 -2089 l  -2329 -2080 l  -2316 -2070 l  -2303 -2061 l  -2290 -2050 l 
-2277 -2040 l  -2263 -2029 l  -2250 -2019 l  -2237 -2008 l  -2224 -1998 l 
-2211 -1987 l  -2198 -1977 l  -2185 -1967 l  -2171 -1958 l  -2158 -1950 l 
-2145 -1941 l  -2132 -1934 l  -2119 -1926 l  -2106 -1920 l  -2093 -1913 l 
-2079 -1908 l  -2066 -1903 l  -2053 -1898 l  -2040 -1894 l  -2027 -1891 l 
-2014 -1888 l  -2001 -1886 l  -1987 -1885 l  -1974 -1884 l  -1961 -1883 l 
-1948 -1884 l  -1935 -1885 l  -1922 -1887 l  -1909 -1889 l  -1896 -1892 l 
-1882 -1895 l  -1869 -1899 l  -1856 -1904 l  -1843 -1909 l  -1830 -1914 l 
-1817 -1919 l  -1804 -1925 l  -1790 -1930 l  -1777 -1936 l  -1764 -1942 l 
-1751 -1947 l  -1738 -1953 l  -1725 -1958 l  -1712 -1963 l  -1698 -1968 l 
-1685 -1972 l  -1672 -1976 l  -1659 -1979 l  -1646 -1982 l  -1633 -1984 l 
-1620 -1986 l  -1606 -1987 l  -1593 -1988 l  -1580 -1989 l  -1567 -1990 l 
-1554 -1990 l  -1541 -1991 l  -1528 -1991 l  -1514 -1992 l  -1501 -1993 l 
-1488 -1994 l  -1475 -1995 l  -1462 -1997 l  -1449 -1999 l  -1436 -2002 l 
-1422 -2005 l  -1409 -2009 l  -1396 -2014 l  -1383 -2019 l  -1370 -2025 l 
-1357 -2032 l  -1344 -2039 l  -1330 -2046 l  -1317 -2054 l  -1304 -2061 l 
-1291 -2069 l  -1278 -2077 l  -1265 -2085 l  -1252 -2092 l  -1238 -2099 l 
-1225 -2106 l  -1212 -2111 l  -1199 -2117 l  -1186 -2121 l  -1173 -2125 l 
-1160 -2127 l  -1146 -2129 l  -1133 -2129 l  -1120 -2128 l  -1107 -2126 l 
-1094 -2123 l  -1081 -2118 l  -1068 -2113 l  -1055 -2107 l  -1041 -2099 l 
-1028 -2092 l  -1015 -2083 l  -1002 -2074 l  -989 -2064 l  -976 -2054 l 
-963 -2044 l  -949 -2033 l  -936 -2022 l  -923 -2011 l  -910 -2000 l  -897 -1989 l 
-884 -1978 l  -871 -1967 l  -857 -1957 l  -844 -1947 l  -831 -1937 l  -818 -1928 l 
-805 -1919 l  -792 -1911 l  -779 -1903 l  -765 -1897 l  -752 -1890 l  -739 -1885 l 
-726 -1880 l  -713 -1877 l  -700 -1874 l  -687 -1872 l  -673 -1872 l  -660 -1872 l 
-647 -1874 l  -634 -1877 l  -621 -1881 l  -608 -1887 l  -595 -1893 l  -581 -1902 l 
-568 -1911 l  -555 -1920 l  -542 -1930 l  -529 -1941 l  -516 -1951 l  -503 -1961 l 
-489 -1971 l  -476 -1980 l  -463 -1988 l  -450 -1995 l  -437 -2000 l  -424 -2004 l 
-411 -2006 l  -397 -2006 l  -384 -2003 l  -371 -1998 l  -358 -1990 l  -345 -1979 l 
-332 -1965 l  -319 -1948 l  -305 -1928 l  -292 -1906 l  -279 -1882 l  -266 -1857 l 
-253 -1830 l  -240 -1803 l  -227 -1775 l  -213 -1747 l  -200 -1719 l  -187 -1691 l 
-174 -1665 l  -161 -1640 l  -148 -1617 l  -135 -1595 l  -122 -1576 l  -108 -1559 l 
-95 -1546 l  -82 -1536 l  -69 -1529 l  -56 -1526 l  -43 -1526 l  -30 -1529 l 
-16 -1534 l  -3 -1542 l  9 -1552 l  22 -1563 l  35 -1576 l  48 -1589 l 
61 -1604 l  75 -1619 l  88 -1634 l  101 -1649 l  114 -1663 l  127 -1677 l 
140 -1690 l  153 -1702 l  167 -1712 l  180 -1720 l  193 -1726 l  206 -1730 l 
219 -1732 l  232 -1732 l  245 -1731 l  259 -1729 l  272 -1725 l  285 -1720 l 
298 -1714 l  311 -1707 l  324 -1699 l  337 -1692 l  351 -1683 l  364 -1675 l 
377 -1666 l  390 -1658 l  403 -1649 l  416 -1642 l  429 -1634 l  443 -1628 l 
456 -1622 l  469 -1617 l  482 -1613 l  495 -1610 l  508 -1607 l  521 -1606 l 
535 -1605 l  548 -1604 l  561 -1605 l  574 -1606 l  587 -1607 l  600 -1609 l 
613 -1612 l  627 -1616 l  640 -1619 l  653 -1624 l  666 -1629 l  679 -1634 l 
692 -1640 l  705 -1646 l  718 -1653 l  732 -1660 l  745 -1667 l  758 -1674 l 
771 -1681 l  784 -1688 l  797 -1695 l  810 -1702 l  824 -1708 l  837 -1714 l 
850 -1719 l  863 -1723 l  876 -1727 l  889 -1729 l  902 -1731 l  916 -1731 l 
929 -1731 l  942 -1728 l  955 -1725 l  968 -1720 l  981 -1713 l  994 -1705 l 
1008 -1696 l  1021 -1686 l  1034 -1675 l  1047 -1663 l  1060 -1650 l  1073 -1638 l 
1086 -1625 l  1100 -1613 l  1113 -1600 l  1126 -1589 l  1139 -1578 l  1152 -1567 l 
1165 -1558 l  1178 -1550 l  1192 -1544 l  1205 -1539 l  1218 -1537 l  1231 -1536 l 
1244 -1537 l  1257 -1540 l  1270 -1546 l  1284 -1553 l  1297 -1561 l  1310 -1570 l 
1323 -1581 l  1336 -1592 l  1349 -1604 l  1362 -1617 l  1376 -1629 l  1389 -1642 l 
1402 -1654 l  1415 -1666 l  1428 -1678 l  1441 -1689 l  1454 -1699 l  1468 -1707 l 
1481 -1714 l  1494 -1720 l  1507 -1724 l  1520 -1726 l  1533 -1727 l  1546 -1726 l 
1559 -1724 l  1573 -1721 l  1586 -1717 l  1599 -1712 l  1612 -1706 l  1625 -1700 l 
1638 -1693 l  1651 -1685 l  1665 -1678 l  1678 -1670 l  1691 -1662 l  1704 -1655 l 
1717 -1647 l  1730 -1640 l  1743 -1634 l  1757 -1628 l  1770 -1623 l  1783 -1618 l 
1796 -1615 l  1809 -1612 l  1822 -1609 l  1835 -1608 l  1849 -1607 l  1862 -1606 l 
1875 -1607 l  1888 -1608 l  1901 -1609 l  1914 -1611 l  1927 -1614 l  1941 -1617 l 
1954 -1621 l  1967 -1625 l  1980 -1629 l  1993 -1635 l  2006 -1640 l  2019 -1646 l 
2033 -1653 l  2046 -1660 l  2059 -1667 l  2072 -1674 l  2085 -1681 l  2098 -1688 l 
2111 -1695 l  2125 -1701 l  2138 -1707 l  2151 -1713 l  2164 -1718 l  2177 -1723 l 
2190 -1726 l  2203 -1729 l  2217 -1730 l  2230 -1731 l  2243 -1730 l  2256 -1728 l 
2269 -1725 l  2282 -1720 l  2295 -1713 l  2309 -1705 l  2322 -1696 l  2335 -1686 l 
2348 -1675 l  2361 -1663 l  2374 -1651 l  2387 -1638 l  2400 -1626 l  2414 -1613 l 
2427 -1601 l  2440 -1589 l  2453 -1578 l  2466 -1568 l  2479 -1559 l  2492 -1551 l 
2506 -1544 l  2519 -1540 l  2532 -1537 l  2545 -1536 l  2558 -1537 l  2571 -1540 l 
2584 -1545 l  2598 -1552 l  2611 -1560 l  2624 -1569 l  2637 -1580 l  2650 -1591 l 
2663 -1603 l  2676 -1615 l  2690 -1628 l  2703 -1640 l  2716 -1653 l  2729 -1665 l 
2742 -1677 l  2755 -1688 l  2768 -1698 l  2782 -1706 l  2795 -1714 l  2808 -1720 l 
2821 -1724 l  2834 -1727 l  2847 -1728 l  2860 -1728 l  2874 -1727 l  2887 -1724 l 
2900 -1721 l  2913 -1716 l  2926 -1711 l  2939 -1705 l  2952 -1698 l  2966 -1691 l 
2979 -1683 l  2992 -1675 l  3005 -1667 l  3018 -1659 l  3031 -1651 l  3044 -1643 l 
3058 -1635 l  3071 -1628 l  3084 -1621 l  3097 -1615 l  3110 -1609 l  3123 -1604 l 
3136 -1599 l  3150 -1595 l  3163 -1592 l  3176 -1590 l  3189 -1589 l  3202 -1589 l 
3215 -1589 l  3228 -1591 l  3241 -1593 l  3255 -1597 l  3268 -1602 l  3281 -1608 l 
3294 -1616 l  3307 -1625 l  3320 -1635 l  3333 -1646 l  3347 -1659 l  3360 -1673 l 
3373 -1688 l  3386 -1703 l  3399 -1719 l  3412 -1734 l  3425 -1748 l  3439 -1761 l 
3452 -1774 l  3465 -1784 l  3478 -1792 l  3491 -1798 l  3504 -1802 l  3517 -1802 l 
3531 -1799 l  3544 -1792 l  3557 -1781 l  3570 -1766 l  3583 -1745 l  3596 -1720 l 
3609 -1689 l  3623 -1654 l  3636 -1614 l  3649 -1570 l  3662 -1523 l  3675 -1473 l 
3688 -1422 l  3701 -1369 l  3715 -1315 l  3728 -1261 l  3741 -1207 l  3754 -1154 l 
3767 -1103 l  3780 -1053 l  3793 -1006 l  3807 -963 l  3820 -923 l  3833 -887 l 
3846 -857 l  3859 -832 l  3872 -812 l  3885 -799 l  3899 -791 l  3912 -787 l 
3925 -788 l  3938 -793 l  3951 -801 l  3964 -812 l  3977 -825 l  3991 -841 l 
4004 -858 l  4017 -876 l  4030 -895 l  4043 -914 l  4056 -933 l  4069 -952 l 
4083 -969 l  4096 -985 l  4109 -999 l  4122 -1010 l  4135 -1019 l  4148 -1025 l 
4161 -1028 l  4174 -1030 l  4188 -1029 l  4201 -1027 l  4214 -1023 l  4227 -1018 l 
4240 -1013 l  4253 -1006 l  4266 -999 l  4280 -991 l  4293 -984 l  4306 -977 l 
4319 -970 l  4332 -964 l  4345 -958 l  4358 -954 l  4372 -952 l  4385 -951 l 
4398 -952 l  4411 -954 l  4424 -958 l  4437 -964 l  4450 -971 l  4464 -980 l 
4477 -990 l  4490 -1001 l  4503 -1013 l  4516 -1026 l  4529 -1040 l  4542 -1055 l 
4556 -1070 l  4569 -1086 l  4582 -1103 l  4595 -1120 l  4608 -1137 l  4621 -1154 l 
4634 -1172 l  4648 -1189 l  4661 -1206 l  4674 -1223 l  4687 -1240 l  4700 -1256 l 
4713 -1271 l  4726 -1285 l  4740 -1298 l  4753 -1311 l  4766 -1321 l  4779 -1331 l 
4792 -1338 l  4805 -1344 l  4818 -1348 l  4832 -1350 l  4845 -1349 l  4858 -1346 l 
4871 -1341 l  4884 -1333 l  4897 -1322 l  4910 -1308 l  4924 -1291 l  4937 -1271 l 
4950 -1249 l  4963 -1225 l  4976 -1198 l  4989 -1171 l  5002 -1142 l  5015 -1113 l 
5029 -1083 l  5042 -1053 l  5055 -1024 l  5068 -995 l  5081 -968 l  5094 -941 l 
5107 -917 l  5121 -894 l  5134 -874 l  5147 -857 l  5160 -842 l  5173 -832 l 
5186 -825 l  5199 -821 l  5213 -821 l  5226 -823 l  5239 -828 l  5252 -836 l 
5265 -845 l  5278 -856 l  5291 -869 l  5305 -882 l  5318 -897 l  5331 -912 l 
5344 -927 l  5357 -941 l  5370 -956 l  5383 -969 l  5397 -982 l  5410 -993 l 
5423 -1003 l  5436 -1010 l  5449 -1016 l  5462 -1019 l  5475 -1020 l  5489 -1020 l 
5502 -1018 l  5515 -1016 l  5528 -1011 l  5541 -1006 l  5554 -1001 l  5567 -995 l 
5581 -988 l  5594 -982 l  5607 -975 l  5620 -969 l  5633 -964 l  5646 -959 l 
5659 -955 l  5673 -952 l  5686 -951 l  5699 -951 l  5712 -952 l  5725 -956 l 
5738 -960 l  5751 -967 l  5765 -974 l  5778 -983 l  5791 -993 l  5804 -1004 l 
5817 -1016 l  5830 -1029 l  5843 -1043 l  5856 -1058 l  5870 -1073 l  5883 -1088 l 
5896 -1105 l  5909 -1121 l  5922 -1138 l  5935 -1155 l  5948 -1172 l  5962 -1189 l 
5975 -1206 l  5988 -1223 l  6001 -1239 l  6014 -1255 l  6027 -1270 l  6040 -1284 l 
6054 -1298 l  6067 -1310 l  6080 -1321 l  6093 -1330 l  6106 -1338 l  6119 -1343 l 
6132 -1347 l  6146 -1349 l  6159 -1349 l  6172 -1346 l  6185 -1341 l  6198 -1333 l 
6211 -1322 l  6224 -1308 l  6238 -1291 l  6251 -1271 l  6264 -1249 l  6277 -1225 l 
6290 -1198 l  6303 -1171 l  6316 -1142 l  6330 -1113 l  6343 -1083 l  6356 -1053 l 
6369 -1024 l  6382 -995 l  6395 -967 l  6408 -941 l  6422 -916 l  6435 -894 l 
6448 -874 l  6461 -856 l  6474 -842 l  6487 -832 l  6500 -825 l  6514 -821 l 
6527 -821 l  6540 -824 l  6553 -829 l  6566 -836 l  6579 -846 l  6592 -857 l 
6606 -870 l  6619 -883 l  6632 -898 l  6645 -913 l  6658 -928 l  6671 -942 l 
6684 -957 l  6697 -970 l  6711 -983 l  6724 -994 l  6737 -1003 l  6750 -1010 l 
6763 -1015 l  6776 -1018 l  6789 -1019 l  6803 -1018 l  6816 -1016 l  6829 -1013 l 
6842 -1008 l  6855 -1003 l  6868 -997 l  6881 -991 l  6895 -984 l  6908 -977 l 
6921 -971 l  6934 -965 l  6947 -960 l  6960 -955 l  6973 -952 l  6987 -950 l 
7000 -950 l  7013 -951 l  7026 -954 l  7039 -959 l  7052 -965 l  7065 -973 l 
7079 -983 l  7092 -993 l  7105 -1005 l  7118 -1017 l  7131 -1031 l  7144 -1045 l 
7157 -1059 l  7171 -1074 l  7184 -1089 l  7197 -1104 l  7210 -1120 l  7223 -1134 l 
7236 -1149 l  7249 -1163 l  7263 -1176 l  7276 -1189 l  7289 -1201 l  7302 -1212 l 
7315 -1221 l  7328 -1231 l  7341 -1239 l  7355 -1247 l  7368 -1254 l  7381 -1260 l 
7394 -1266 l  7407 -1272 l  7420 -1277 l  7433 -1281 l  7447 -1285 l  7460 -1289 l 
7473 -1293 l  7486 -1296 l  7499 -1299 l  7512 -1302 l  7525 -1305 l  7539 -1308 l 
ps
-8091 -2589 m  -8091 -2339 l  -7841 -2339 l  -7841 -2589 l  -8091 -2589 l 
p ef
0 lw -8091 -2589 m  -8091 -2339 l  -7841 -2339 l  -7841 -2589 l  -8091 -2589 l 
pc
-7829 -2696 m  -7829 -2446 l  -7579 -2446 l  -7579 -2696 l  -7829 -2696 l 
p ef
-7829 -2696 m  -7829 -2446 l  -7579 -2446 l  -7579 -2696 l  -7829 -2696 l 
pc
-7566 -2476 m  -7566 -2226 l  -7316 -2226 l  -7316 -2476 l  -7566 -2476 l 
p ef
-7566 -2476 m  -7566 -2226 l  -7316 -2226 l  -7316 -2476 l  -7566 -2476 l 
pc
-7303 -2576 m  -7303 -2326 l  -7053 -2326 l  -7053 -2576 l  -7303 -2576 l 
p ef
-7303 -2576 m  -7303 -2326 l  -7053 -2326 l  -7053 -2576 l  -7303 -2576 l 
pc
-7040 -2658 m  -7040 -2408 l  -6790 -2408 l  -6790 -2658 l  -7040 -2658 l 
p ef
-7040 -2658 m  -7040 -2408 l  -6790 -2408 l  -6790 -2658 l  -7040 -2658 l 
pc
-6777 -2589 m  -6777 -2339 l  -6527 -2339 l  -6527 -2589 l  -6777 -2589 l 
p ef
-6777 -2589 m  -6777 -2339 l  -6527 -2339 l  -6527 -2589 l  -6777 -2589 l 
pc
-6515 -2696 m  -6515 -2446 l  -6265 -2446 l  -6265 -2696 l  -6515 -2696 l 
p ef
-6515 -2696 m  -6515 -2446 l  -6265 -2446 l  -6265 -2696 l  -6515 -2696 l 
pc
-6252 -2476 m  -6252 -2226 l  -6002 -2226 l  -6002 -2476 l  -6252 -2476 l 
p ef
-6252 -2476 m  -6252 -2226 l  -6002 -2226 l  -6002 -2476 l  -6252 -2476 l 
pc
-5989 -2576 m  -5989 -2326 l  -5739 -2326 l  -5739 -2576 l  -5989 -2576 l 
p ef
-5989 -2576 m  -5989 -2326 l  -5739 -2326 l  -5739 -2576 l  -5989 -2576 l 
pc
-5726 -2658 m  -5726 -2408 l  -5476 -2408 l  -5476 -2658 l  -5726 -2658 l 
p ef
-5726 -2658 m  -5726 -2408 l  -5476 -2408 l  -5476 -2658 l  -5726 -2658 l 
pc
-5463 -2589 m  -5463 -2339 l  -5213 -2339 l  -5213 -2589 l  -5463 -2589 l 
p ef
-5463 -2589 m  -5463 -2339 l  -5213 -2339 l  -5213 -2589 l  -5463 -2589 l 
pc
-5201 -2696 m  -5201 -2446 l  -4951 -2446 l  -4951 -2696 l  -5201 -2696 l 
p ef
-5201 -2696 m  -5201 -2446 l  -4951 -2446 l  -4951 -2696 l  -5201 -2696 l 
pc
-4938 -2476 m  -4938 -2226 l  -4688 -2226 l  -4688 -2476 l  -4938 -2476 l 
p ef
-4938 -2476 m  -4938 -2226 l  -4688 -2226 l  -4688 -2476 l  -4938 -2476 l 
pc
-4675 -2576 m  -4675 -2326 l  -4425 -2326 l  -4425 -2576 l  -4675 -2576 l 
p ef
-4675 -2576 m  -4675 -2326 l  -4425 -2326 l  -4425 -2576 l  -4675 -2576 l 
pc
-4412 -2658 m  -4412 -2408 l  -4162 -2408 l  -4162 -2658 l  -4412 -2658 l 
p ef
-4412 -2658 m  -4412 -2408 l  -4162 -2408 l  -4162 -2658 l  -4412 -2658 l 
pc
-4149 -2139 m  -4149 -1889 l  -3899 -1889 l  -3899 -2139 l  -4149 -2139 l 
p ef
-4149 -2139 m  -4149 -1889 l  -3899 -1889 l  -3899 -2139 l  -4149 -2139 l 
pc
-3886 -2254 m  -3886 -2004 l  -3636 -2004 l  -3636 -2254 l  -3886 -2254 l 
p ef
-3886 -2254 m  -3886 -2004 l  -3636 -2004 l  -3636 -2254 l  -3886 -2254 l 
pc
-3624 -2092 m  -3624 -1842 l  -3374 -1842 l  -3374 -2092 l  -3624 -2092 l 
p ef
-3624 -2092 m  -3624 -1842 l  -3374 -1842 l  -3374 -2092 l  -3624 -2092 l 
pc
-3361 -2012 m  -3361 -1762 l  -3111 -1762 l  -3111 -2012 l  -3361 -2012 l 
p ef
-3361 -2012 m  -3361 -1762 l  -3111 -1762 l  -3111 -2012 l  -3361 -2012 l 
pc
-3098 -2104 m  -3098 -1854 l  -2848 -1854 l  -2848 -2104 l  -3098 -2104 l 
p ef
-3098 -2104 m  -3098 -1854 l  -2848 -1854 l  -2848 -2104 l  -3098 -2104 l 
pc
-2835 -2139 m  -2835 -1889 l  -2585 -1889 l  -2585 -2139 l  -2835 -2139 l 
p ef
-2835 -2139 m  -2835 -1889 l  -2585 -1889 l  -2585 -2139 l  -2835 -2139 l 
pc
-2572 -2254 m  -2572 -2004 l  -2322 -2004 l  -2322 -2254 l  -2572 -2254 l 
p ef
-2572 -2254 m  -2572 -2004 l  -2322 -2004 l  -2322 -2254 l  -2572 -2254 l 
pc
-2310 -2092 m  -2310 -1842 l  -2060 -1842 l  -2060 -2092 l  -2310 -2092 l 
p ef
-2310 -2092 m  -2310 -1842 l  -2060 -1842 l  -2060 -2092 l  -2310 -2092 l 
pc
-2047 -2012 m  -2047 -1762 l  -1797 -1762 l  -1797 -2012 l  -2047 -2012 l 
p ef
-2047 -2012 m  -2047 -1762 l  -1797 -1762 l  -1797 -2012 l  -2047 -2012 l 
pc
-1784 -2104 m  -1784 -1854 l  -1534 -1854 l  -1534 -2104 l  -1784 -2104 l 
p ef
-1784 -2104 m  -1784 -1854 l  -1534 -1854 l  -1534 -2104 l  -1784 -2104 l 
pc
-1521 -2139 m  -1521 -1889 l  -1271 -1889 l  -1271 -2139 l  -1521 -2139 l 
p ef
-1521 -2139 m  -1521 -1889 l  -1271 -1889 l  -1271 -2139 l  -1521 -2139 l 
pc
-1258 -2254 m  -1258 -2004 l  -1008 -2004 l  -1008 -2254 l  -1258 -2254 l 
p ef
-1258 -2254 m  -1258 -2004 l  -1008 -2004 l  -1008 -2254 l  -1258 -2254 l 
pc
-996 -2092 m  -996 -1842 l  -746 -1842 l  -746 -2092 l  -996 -2092 l  p ef
-996 -2092 m  -996 -1842 l  -746 -1842 l  -746 -2092 l  -996 -2092 l  pc
-733 -2012 m  -733 -1762 l  -483 -1762 l  -483 -2012 l  -733 -2012 l  p ef
-733 -2012 m  -733 -1762 l  -483 -1762 l  -483 -2012 l  -733 -2012 l  pc
-470 -2104 m  -470 -1854 l  -220 -1854 l  -220 -2104 l  -470 -2104 l  p ef
-470 -2104 m  -470 -1854 l  -220 -1854 l  -220 -2104 l  -470 -2104 l  pc
-207 -1661 m  -207 -1411 l  42 -1411 l  42 -1661 l  -207 -1661 l  p ef
-207 -1661 m  -207 -1411 l  42 -1411 l  42 -1661 l  -207 -1661 l  pc
55 -1845 m  55 -1595 l  305 -1595 l  305 -1845 l  55 -1845 l  p ef
55 -1845 m  55 -1595 l  305 -1595 l  305 -1845 l  55 -1845 l  pc
318 -1753 m  318 -1503 l  568 -1503 l  568 -1753 l  318 -1753 l  p ef
318 -1753 m  318 -1503 l  568 -1503 l  568 -1753 l  318 -1753 l  pc
580 -1771 m  580 -1521 l  830 -1521 l  830 -1771 l  580 -1771 l  p ef
580 -1771 m  580 -1521 l  830 -1521 l  830 -1771 l  580 -1771 l  pc
843 -1845 m  843 -1595 l  1093 -1595 l  1093 -1845 l  843 -1845 l  p ef
843 -1845 m  843 -1595 l  1093 -1595 l  1093 -1845 l  843 -1845 l  pc
1106 -1661 m  1106 -1411 l  1356 -1411 l  1356 -1661 l  1106 -1661 l  p ef
1106 -1661 m  1106 -1411 l  1356 -1411 l  1356 -1661 l  1106 -1661 l  pc
1369 -1845 m  1369 -1595 l  1619 -1595 l  1619 -1845 l  1369 -1845 l  p ef
1369 -1845 m  1369 -1595 l  1619 -1595 l  1619 -1845 l  1369 -1845 l  pc
1632 -1753 m  1632 -1503 l  1882 -1503 l  1882 -1753 l  1632 -1753 l  p ef
1632 -1753 m  1632 -1503 l  1882 -1503 l  1882 -1753 l  1632 -1753 l  pc
1894 -1771 m  1894 -1521 l  2144 -1521 l  2144 -1771 l  1894 -1771 l  p ef
1894 -1771 m  1894 -1521 l  2144 -1521 l  2144 -1771 l  1894 -1771 l  pc
2157 -1845 m  2157 -1595 l  2407 -1595 l  2407 -1845 l  2157 -1845 l  p ef
2157 -1845 m  2157 -1595 l  2407 -1595 l  2407 -1845 l  2157 -1845 l  pc
2420 -1661 m  2420 -1411 l  2670 -1411 l  2670 -1661 l  2420 -1661 l  p ef
2420 -1661 m  2420 -1411 l  2670 -1411 l  2670 -1661 l  2420 -1661 l  pc
2683 -1845 m  2683 -1595 l  2933 -1595 l  2933 -1845 l  2683 -1845 l  p ef
2683 -1845 m  2683 -1595 l  2933 -1595 l  2933 -1845 l  2683 -1845 l  pc
2946 -1753 m  2946 -1503 l  3196 -1503 l  3196 -1753 l  2946 -1753 l  p ef
2946 -1753 m  2946 -1503 l  3196 -1503 l  3196 -1753 l  2946 -1753 l  pc
3208 -1771 m  3208 -1521 l  3458 -1521 l  3458 -1771 l  3208 -1771 l  p ef
3208 -1771 m  3208 -1521 l  3458 -1521 l  3458 -1771 l  3208 -1771 l  pc
3471 -1845 m  3471 -1595 l  3721 -1595 l  3721 -1845 l  3471 -1845 l  p ef
3471 -1845 m  3471 -1595 l  3721 -1595 l  3721 -1845 l  3471 -1845 l  pc
3734 -957 m  3734 -707 l  3984 -707 l  3984 -957 l  3734 -957 l  p ef
3734 -957 m  3734 -707 l  3984 -707 l  3984 -957 l  3734 -957 l  pc
3997 -1135 m  3997 -885 l  4247 -885 l  4247 -1135 l  3997 -1135 l  p ef
3997 -1135 m  3997 -885 l  4247 -885 l  4247 -1135 l  3997 -1135 l  pc
4260 -1076 m  4260 -826 l  4510 -826 l  4510 -1076 l  4260 -1076 l  p ef
4260 -1076 m  4260 -826 l  4510 -826 l  4510 -1076 l  4260 -1076 l  pc
4523 -1314 m  4523 -1064 l  4773 -1064 l  4773 -1314 l  4523 -1314 l  p ef
4523 -1314 m  4523 -1064 l  4773 -1064 l  4773 -1314 l  4523 -1314 l  pc
4785 -1433 m  4785 -1183 l  5035 -1183 l  5035 -1433 l  4785 -1433 l  p ef
4785 -1433 m  4785 -1183 l  5035 -1183 l  5035 -1433 l  4785 -1433 l  pc
5048 -957 m  5048 -707 l  5298 -707 l  5298 -957 l  5048 -957 l  p ef
5048 -957 m  5048 -707 l  5298 -707 l  5298 -957 l  5048 -957 l  pc
5311 -1135 m  5311 -885 l  5561 -885 l  5561 -1135 l  5311 -1135 l  p ef
5311 -1135 m  5311 -885 l  5561 -885 l  5561 -1135 l  5311 -1135 l  pc
5574 -1076 m  5574 -826 l  5824 -826 l  5824 -1076 l  5574 -1076 l  p ef
5574 -1076 m  5574 -826 l  5824 -826 l  5824 -1076 l  5574 -1076 l  pc
5837 -1314 m  5837 -1064 l  6087 -1064 l  6087 -1314 l  5837 -1314 l  p ef
5837 -1314 m  5837 -1064 l  6087 -1064 l  6087 -1314 l  5837 -1314 l  pc
6099 -1433 m  6099 -1183 l  6349 -1183 l  6349 -1433 l  6099 -1433 l  p ef
6099 -1433 m  6099 -1183 l  6349 -1183 l  6349 -1433 l  6099 -1433 l  pc
6362 -957 m  6362 -707 l  6612 -707 l  6612 -957 l  6362 -957 l  p ef
6362 -957 m  6362 -707 l  6612 -707 l  6612 -957 l  6362 -957 l  pc
6625 -1135 m  6625 -885 l  6875 -885 l  6875 -1135 l  6625 -1135 l  p ef
6625 -1135 m  6625 -885 l  6875 -885 l  6875 -1135 l  6625 -1135 l  pc
6888 -1076 m  6888 -826 l  7138 -826 l  7138 -1076 l  6888 -1076 l  p ef
6888 -1076 m  6888 -826 l  7138 -826 l  7138 -1076 l  6888 -1076 l  pc
7151 -1314 m  7151 -1064 l  7401 -1064 l  7401 -1314 l  7151 -1314 l  p ef
7151 -1314 m  7151 -1064 l  7401 -1064 l  7401 -1314 l  7151 -1314 l  pc
7414 -1433 m  7414 -1183 l  7664 -1183 l  7664 -1433 l  7414 -1433 l  p ef
7414 -1433 m  7414 -1183 l  7664 -1183 l  7664 -1433 l  7414 -1433 l  pc
79.99611 lw 1.000 0.261 0.058 c -7966 -2867 m  -7953 -2858 l  -7940 -2850 l 
-7927 -2841 l  -7914 -2833 l  -7901 -2826 l  -7888 -2819 l  -7875 -2813 l 
-7861 -2807 l  -7848 -2803 l  -7835 -2800 l  -7822 -2798 l  -7809 -2798 l 
-7796 -2799 l  -7783 -2802 l  -7769 -2806 l  -7756 -2813 l  -7743 -2822 l 
-7730 -2832 l  -7717 -2845 l  -7704 -2861 l  -7691 -2879 l  -7677 -2899 l 
-7664 -2921 l  -7651 -2945 l  -7638 -2970 l  -7625 -2996 l  -7612 -3022 l 
-7599 -3049 l  -7585 -3076 l  -7572 -3103 l  -7559 -3129 l  -7546 -3155 l 
-7533 -3179 l  -7520 -3202 l  -7507 -3223 l  -7493 -3241 l  -7480 -3258 l 
-7467 -3271 l  -7454 -3282 l  -7441 -3289 l  -7428 -3292 l  -7415 -3292 l 
-7401 -3290 l  -7388 -3284 l  -7375 -3276 l  -7362 -3265 l  -7349 -3253 l 
-7336 -3239 l  -7323 -3223 l  -7309 -3207 l  -7296 -3190 l  -7283 -3172 l 
-7270 -3154 l  -7257 -3136 l  -7244 -3119 l  -7231 -3103 l  -7217 -3087 l 
-7204 -3073 l  -7191 -3060 l  -7178 -3050 l  -7165 -3041 l  -7152 -3034 l 
-7139 -3029 l  -7125 -3026 l  -7112 -3025 l  -7099 -3024 l  -7086 -3025 l 
-7073 -3026 l  -7060 -3029 l  -7047 -3031 l  -7034 -3035 l  -7020 -3038 l 
-7007 -3041 l  -6994 -3045 l  -6981 -3047 l  -6968 -3050 l  -6955 -3051 l 
-6942 -3052 l  -6928 -3051 l  -6915 -3050 l  -6902 -3046 l  -6889 -3042 l 
-6876 -3036 l  -6863 -3030 l  -6850 -3022 l  -6836 -3013 l  -6823 -3004 l 
-6810 -2995 l  -6797 -2985 l  -6784 -2974 l  -6771 -2964 l  -6758 -2954 l 
-6744 -2943 l  -6731 -2933 l  -6718 -2924 l  -6705 -2914 l  -6692 -2906 l 
-6679 -2898 l  -6666 -2892 l  -6652 -2886 l  -6639 -2881 l  -6626 -2878 l 
-6613 -2876 l  -6600 -2874 l  -6587 -2874 l  -6574 -2875 l  -6560 -2877 l 
-6547 -2879 l  -6534 -2883 l  -6521 -2887 l  -6508 -2892 l  -6495 -2897 l 
-6482 -2904 l  -6468 -2910 l  -6455 -2918 l  -6442 -2926 l  -6429 -2934 l 
-6416 -2943 l  -6403 -2952 l  -6390 -2961 l  -6376 -2971 l  -6363 -2981 l 
-6350 -2991 l  -6337 -3002 l  -6324 -3013 l  -6311 -3023 l  -6298 -3034 l 
-6284 -3045 l  -6271 -3056 l  -6258 -3068 l  -6245 -3079 l  -6232 -3090 l 
-6219 -3101 l  -6206 -3112 l  -6193 -3123 l  -6179 -3134 l  -6166 -3144 l 
-6153 -3155 l  -6140 -3165 l  -6127 -3175 l  -6114 -3185 l  -6101 -3195 l 
-6087 -3204 l  -6074 -3213 l  -6061 -3221 l  -6048 -3229 l  -6035 -3237 l 
-6022 -3243 l  -6009 -3249 l  -5995 -3255 l  -5982 -3259 l  -5969 -3263 l 
-5956 -3266 l  -5943 -3268 l  -5930 -3269 l  -5917 -3269 l  -5903 -3268 l 
-5890 -3265 l  -5877 -3262 l  -5864 -3257 l  -5851 -3251 l  -5838 -3244 l 
-5825 -3236 l  -5811 -3227 l  -5798 -3217 l  -5785 -3206 l  -5772 -3194 l 
-5759 -3182 l  -5746 -3170 l  -5733 -3157 l  -5719 -3143 l  -5706 -3130 l 
-5693 -3116 l  -5680 -3102 l  -5667 -3088 l  -5654 -3075 l  -5641 -3062 l 
-5627 -3049 l  -5614 -3036 l  -5601 -3024 l  -5588 -3013 l  -5575 -3003 l 
-5562 -2993 l  -5549 -2983 l  -5535 -2974 l  -5522 -2966 l  -5509 -2958 l 
-5496 -2951 l  -5483 -2944 l  -5470 -2937 l  -5457 -2931 l  -5443 -2926 l 
-5430 -2921 l  -5417 -2916 l  -5404 -2911 l  -5391 -2907 l  -5378 -2903 l 
-5365 -2899 l  -5352 -2896 l  -5338 -2892 l  -5325 -2889 l  -5312 -2886 l 
-5299 -2883 l  -5286 -2881 l  -5273 -2879 l  -5260 -2877 l  -5246 -2876 l 
-5233 -2875 l  -5220 -2874 l  -5207 -2874 l  -5194 -2874 l  -5181 -2875 l 
-5168 -2877 l  -5154 -2879 l  -5141 -2881 l  -5128 -2884 l  -5115 -2888 l 
-5102 -2893 l  -5089 -2899 l  -5076 -2905 l  -5062 -2912 l  -5049 -2920 l 
-5036 -2928 l  -5023 -2937 l  -5010 -2947 l  -4997 -2957 l  -4984 -2968 l 
-4970 -2979 l  -4957 -2991 l  -4944 -3003 l  -4931 -3015 l  -4918 -3028 l 
-4905 -3040 l  -4892 -3053 l  -4878 -3066 l  -4865 -3079 l  -4852 -3093 l 
-4839 -3106 l  -4826 -3119 l  -4813 -3131 l  -4800 -3144 l  -4786 -3156 l 
-4773 -3169 l  -4760 -3180 l  -4747 -3192 l  -4734 -3203 l  -4721 -3214 l 
-4708 -3224 l  -4694 -3234 l  -4681 -3244 l  -4668 -3253 l  -4655 -3262 l 
-4642 -3270 l  -4629 -3277 l  -4616 -3284 l  -4602 -3290 l  -4589 -3295 l 
-4576 -3300 l  -4563 -3304 l  -4550 -3308 l  -4537 -3310 l  -4524 -3312 l 
-4511 -3313 l  -4497 -3313 l  -4484 -3313 l  -4471 -3311 l  -4458 -3309 l 
-4445 -3306 l  -4432 -3302 l  -4419 -3298 l  -4405 -3292 l  -4392 -3286 l 
-4379 -3279 l  -4366 -3271 l  -4353 -3262 l  -4340 -3253 l  -4327 -3243 l 
-4313 -3232 l  -4300 -3220 l  -4287 -3207 l  -4274 -3193 l  -4261 -3179 l 
-4248 -3164 l  -4235 -3149 l  -4221 -3133 l  -4208 -3116 l  -4195 -3099 l 
-4182 -3082 l  -4169 -3065 l  -4156 -3048 l  -4143 -3031 l  -4129 -3014 l 
-4116 -2997 l  -4103 -2981 l  -4090 -2964 l  -4077 -2949 l  -4064 -2933 l 
-4051 -2919 l  -4037 -2905 l  -4024 -2892 l  -4011 -2879 l  -3998 -2868 l 
-3985 -2858 l  -3972 -2849 l  -3959 -2840 l  -3945 -2834 l  -3932 -2828 l 
-3919 -2824 l  -3906 -2821 l  -3893 -2820 l  -3880 -2820 l  -3867 -2822 l 
-3853 -2825 l  -3840 -2831 l  -3827 -2838 l  -3814 -2847 l  -3801 -2858 l 
-3788 -2871 l  -3775 -2886 l  -3761 -2903 l  -3748 -2923 l  -3735 -2944 l 
-3722 -2967 l  -3709 -2992 l  -3696 -3018 l  -3683 -3044 l  -3669 -3071 l 
-3656 -3098 l  -3643 -3126 l  -3630 -3152 l  -3617 -3179 l  -3604 -3204 l 
-3591 -3229 l  -3578 -3251 l  -3564 -3272 l  -3551 -3292 l  -3538 -3308 l 
-3525 -3323 l  -3512 -3334 l  -3499 -3342 l  -3486 -3347 l  -3472 -3349 l 
-3459 -3348 l  -3446 -3344 l  -3433 -3338 l  -3420 -3329 l  -3407 -3319 l 
-3394 -3308 l  -3380 -3295 l  -3367 -3281 l  -3354 -3266 l  -3341 -3251 l 
-3328 -3236 l  -3315 -3221 l  -3302 -3206 l  -3288 -3192 l  -3275 -3178 l 
-3262 -3166 l  -3249 -3155 l  -3236 -3146 l  -3223 -3139 l  -3210 -3133 l 
-3196 -3129 l  -3183 -3127 l  -3170 -3125 l  -3157 -3125 l  -3144 -3126 l 
-3131 -3127 l  -3118 -3129 l  -3104 -3131 l  -3091 -3134 l  -3078 -3136 l 
-3065 -3138 l  -3052 -3140 l  -3039 -3142 l  -3026 -3142 l  -3012 -3142 l 
-2999 -3141 l  -2986 -3138 l  -2973 -3134 l  -2960 -3129 l  -2947 -3122 l 
-2934 -3114 l  -2920 -3104 l  -2907 -3094 l  -2894 -3083 l  -2881 -3071 l 
-2868 -3059 l  -2855 -3046 l  -2842 -3033 l  -2828 -3020 l  -2815 -3007 l 
-2802 -2994 l  -2789 -2982 l  -2776 -2971 l  -2763 -2960 l  -2750 -2950 l 
-2737 -2941 l  -2723 -2933 l  -2710 -2926 l  -2697 -2921 l  -2684 -2918 l 
-2671 -2915 l  -2658 -2914 l  -2645 -2915 l  -2631 -2916 l  -2618 -2919 l 
-2605 -2922 l  -2592 -2927 l  -2579 -2932 l  -2566 -2938 l  -2553 -2945 l 
-2539 -2953 l  -2526 -2961 l  -2513 -2969 l  -2500 -2979 l  -2487 -2988 l 
-2474 -2998 l  -2461 -3008 l  -2447 -3019 l  -2434 -3029 l  -2421 -3040 l 
-2408 -3051 l  -2395 -3062 l  -2382 -3072 l  -2369 -3083 l  -2355 -3094 l 
-2342 -3105 l  -2329 -3116 l  -2316 -3127 l  -2303 -3137 l  -2290 -3148 l 
-2277 -3159 l  -2263 -3169 l  -2250 -3179 l  -2237 -3189 l  -2224 -3199 l 
-2211 -3208 l  -2198 -3218 l  -2185 -3227 l  -2171 -3235 l  -2158 -3244 l 
-2145 -3252 l  -2132 -3259 l  -2119 -3267 l  -2106 -3273 l  -2093 -3280 l 
-2079 -3285 l  -2066 -3290 l  -2053 -3295 l  -2040 -3298 l  -2027 -3301 l 
-2014 -3304 l  -2001 -3305 l  -1987 -3306 l  -1974 -3306 l  -1961 -3305 l 
-1948 -3303 l  -1935 -3300 l  -1922 -3296 l  -1909 -3291 l  -1896 -3285 l 
-1882 -3278 l  -1869 -3271 l  -1856 -3262 l  -1843 -3253 l  -1830 -3244 l 
-1817 -3234 l  -1804 -3223 l  -1790 -3212 l  -1777 -3201 l  -1764 -3190 l 
-1751 -3178 l  -1738 -3167 l  -1725 -3155 l  -1712 -3143 l  -1698 -3132 l 
-1685 -3121 l  -1672 -3110 l  -1659 -3100 l  -1646 -3090 l  -1633 -3080 l 
-1620 -3071 l  -1606 -3062 l  -1593 -3054 l  -1580 -3046 l  -1567 -3039 l 
-1554 -3031 l  -1541 -3025 l  -1528 -3018 l  -1514 -3012 l  -1501 -3007 l 
-1488 -3001 l  -1475 -2996 l  -1462 -2992 l  -1449 -2987 l  -1436 -2983 l 
-1422 -2979 l  -1409 -2976 l  -1396 -2973 l  -1383 -2970 l  -1370 -2967 l 
-1357 -2964 l  -1344 -2962 l  -1330 -2960 l  -1317 -2959 l  -1304 -2957 l 
-1291 -2956 l  -1278 -2956 l  -1265 -2955 l  -1252 -2955 l  -1238 -2956 l 
-1225 -2957 l  -1212 -2958 l  -1199 -2959 l  -1186 -2961 l  -1173 -2963 l 
-1160 -2966 l  -1146 -2969 l  -1133 -2973 l  -1120 -2976 l  -1107 -2981 l 
-1094 -2986 l  -1081 -2991 l  -1068 -2996 l  -1055 -3002 l  -1041 -3009 l 
-1028 -3016 l  -1015 -3023 l  -1002 -3031 l  -989 -3039 l  -976 -3048 l 
-963 -3057 l  -949 -3067 l  -936 -3077 l  -923 -3088 l  -910 -3099 l  -897 -3110 l 
-884 -3122 l  -871 -3134 l  -857 -3147 l  -844 -3160 l  -831 -3174 l  -818 -3188 l 
-805 -3202 l  -792 -3216 l  -779 -3230 l  -765 -3244 l  -752 -3258 l  -739 -3272 l 
-726 -3286 l  -713 -3299 l  -700 -3312 l  -687 -3325 l  -673 -3337 l  -660 -3349 l 
-647 -3360 l  -634 -3370 l  -621 -3380 l  -608 -3388 l  -595 -3396 l  -581 -3403 l 
-568 -3409 l  -555 -3414 l  -542 -3417 l  -529 -3419 l  -516 -3420 l  -503 -3420 l 
-489 -3418 l  -476 -3414 l  -463 -3409 l  -450 -3402 l  -437 -3393 l  -424 -3382 l 
-411 -3369 l  -397 -3354 l  -384 -3337 l  -371 -3318 l  -358 -3297 l  -345 -3273 l 
-332 -3247 l  -319 -3218 l  -305 -3188 l  -292 -3156 l  -279 -3123 l  -266 -3088 l 
-253 -3053 l  -240 -3017 l  -227 -2981 l  -213 -2945 l  -200 -2909 l  -187 -2874 l 
-174 -2839 l  -161 -2806 l  -148 -2773 l  -135 -2743 l  -122 -2714 l  -108 -2687 l 
-95 -2663 l  -82 -2641 l  -69 -2622 l  -56 -2606 l  -43 -2593 l  -30 -2582 l 
-16 -2574 l  -3 -2569 l  9 -2566 l  22 -2565 l  35 -2567 l  48 -2571 l 
61 -2577 l  75 -2585 l  88 -2595 l  101 -2607 l  114 -2621 l  127 -2636 l 
140 -2654 l  153 -2672 l  167 -2693 l  180 -2715 l  193 -2738 l  206 -2762 l 
219 -2787 l  232 -2813 l  245 -2839 l  259 -2866 l  272 -2892 l  285 -2919 l 
298 -2945 l  311 -2970 l  324 -2994 l  337 -3018 l  351 -3040 l  364 -3060 l 
377 -3079 l  390 -3096 l  403 -3110 l  416 -3122 l  429 -3132 l  443 -3138 l 
456 -3142 l  469 -3143 l  482 -3141 l  495 -3136 l  508 -3130 l  521 -3122 l 
535 -3112 l  548 -3101 l  561 -3089 l  574 -3076 l  587 -3062 l  600 -3048 l 
613 -3034 l  627 -3020 l  640 -3007 l  653 -2994 l  666 -2982 l  679 -2971 l 
692 -2962 l  705 -2954 l  718 -2948 l  732 -2944 l  745 -2941 l  758 -2940 l 
771 -2940 l  784 -2941 l  797 -2942 l  810 -2945 l  824 -2947 l  837 -2950 l 
850 -2953 l  863 -2956 l  876 -2959 l  889 -2961 l  902 -2963 l  916 -2963 l 
929 -2963 l  942 -2961 l  955 -2959 l  968 -2954 l  981 -2948 l  994 -2940 l 
1008 -2931 l  1021 -2920 l  1034 -2909 l  1047 -2896 l  1060 -2883 l  1073 -2869 l 
1086 -2855 l  1100 -2840 l  1113 -2825 l  1126 -2810 l  1139 -2796 l  1152 -2782 l 
1165 -2768 l  1178 -2756 l  1192 -2744 l  1205 -2733 l  1218 -2723 l  1231 -2715 l 
1244 -2708 l  1257 -2702 l  1270 -2698 l  1284 -2696 l  1297 -2695 l  1310 -2695 l 
1323 -2696 l  1336 -2699 l  1349 -2703 l  1362 -2707 l  1376 -2713 l  1389 -2720 l 
1402 -2728 l  1415 -2737 l  1428 -2747 l  1441 -2757 l  1454 -2769 l  1468 -2781 l 
1481 -2793 l  1494 -2807 l  1507 -2821 l  1520 -2835 l  1533 -2850 l  1546 -2865 l 
1559 -2881 l  1573 -2896 l  1586 -2912 l  1599 -2928 l  1612 -2943 l  1625 -2959 l 
1638 -2974 l  1651 -2989 l  1665 -3003 l  1678 -3017 l  1691 -3030 l  1704 -3042 l 
1717 -3054 l  1730 -3065 l  1743 -3074 l  1757 -3083 l  1770 -3091 l  1783 -3097 l 
1796 -3102 l  1809 -3107 l  1822 -3110 l  1835 -3112 l  1849 -3114 l  1862 -3114 l 
1875 -3114 l  1888 -3113 l  1901 -3111 l  1914 -3108 l  1927 -3105 l  1941 -3101 l 
1954 -3096 l  1967 -3091 l  1980 -3085 l  1993 -3079 l  2006 -3072 l  2019 -3065 l 
2033 -3057 l  2046 -3049 l  2059 -3040 l  2072 -3031 l  2085 -3022 l  2098 -3013 l 
2111 -3003 l  2125 -2993 l  2138 -2983 l  2151 -2972 l  2164 -2962 l  2177 -2951 l 
2190 -2940 l  2203 -2929 l  2217 -2918 l  2230 -2907 l  2243 -2895 l  2256 -2884 l 
2269 -2873 l  2282 -2862 l  2295 -2851 l  2309 -2840 l  2322 -2829 l  2335 -2818 l 
2348 -2808 l  2361 -2797 l  2374 -2787 l  2387 -2778 l  2400 -2768 l  2414 -2759 l 
2427 -2751 l  2440 -2742 l  2453 -2735 l  2466 -2727 l  2479 -2721 l  2492 -2714 l 
2506 -2709 l  2519 -2704 l  2532 -2700 l  2545 -2696 l  2558 -2693 l  2571 -2691 l 
2584 -2690 l  2598 -2689 l  2611 -2689 l  2624 -2689 l  2637 -2690 l  2650 -2692 l 
2663 -2694 l  2676 -2697 l  2690 -2701 l  2703 -2705 l  2716 -2709 l  2729 -2714 l 
2742 -2719 l  2755 -2725 l  2768 -2731 l  2782 -2737 l  2795 -2744 l  2808 -2751 l 
2821 -2759 l  2834 -2767 l  2847 -2775 l  2860 -2784 l  2874 -2793 l  2887 -2802 l 
2900 -2811 l  2913 -2821 l  2926 -2832 l  2939 -2843 l  2952 -2854 l  2966 -2865 l 
2979 -2877 l  2992 -2889 l  3005 -2902 l  3018 -2915 l  3031 -2929 l  3044 -2943 l 
3058 -2958 l  3071 -2972 l  3084 -2988 l  3097 -3003 l  3110 -3019 l  3123 -3036 l 
3136 -3052 l  3150 -3068 l  3163 -3084 l  3176 -3099 l  3189 -3115 l  3202 -3130 l 
3215 -3144 l  3228 -3157 l  3241 -3170 l  3255 -3182 l  3268 -3193 l  3281 -3203 l 
3294 -3212 l  3307 -3220 l  3320 -3226 l  3333 -3230 l  3347 -3233 l  3360 -3235 l 
3373 -3235 l  3386 -3234 l  3399 -3232 l  3412 -3229 l  3425 -3224 l  3439 -3219 l 
3452 -3213 l  3465 -3206 l  3478 -3199 l  3491 -3191 l  3504 -3183 l  3517 -3174 l 
3531 -3165 l  3544 -3156 l  3557 -3147 l  3570 -3138 l  3583 -3129 l  3596 -3120 l 
3609 -3111 l  3623 -3103 l  3636 -3095 l  3649 -3088 l  3662 -3081 l  3675 -3074 l 
3688 -3067 l  3701 -3061 l  3715 -3055 l  3728 -3049 l  3741 -3044 l  3754 -3039 l 
3767 -3034 l  3780 -3029 l  3793 -3025 l  3807 -3020 l  3820 -3016 l  3833 -3013 l 
3846 -3009 l  3859 -3006 l  3872 -3003 l  3885 -3000 l  3899 -2997 l  3912 -2995 l 
3925 -2993 l  3938 -2992 l  3951 -2992 l  3964 -2992 l  3977 -2993 l  3991 -2994 l 
4004 -2997 l  4017 -3000 l  4030 -3004 l  4043 -3009 l  4056 -3016 l  4069 -3023 l 
4083 -3032 l  4096 -3041 l  4109 -3053 l  4122 -3065 l  4135 -3079 l  4148 -3095 l 
4161 -3111 l  4174 -3128 l  4188 -3146 l  4201 -3164 l  4214 -3183 l  4227 -3201 l 
4240 -3220 l  4253 -3238 l  4266 -3256 l  4280 -3273 l  4293 -3290 l  4306 -3305 l 
4319 -3319 l  4332 -3331 l  4345 -3342 l  4358 -3351 l  4372 -3358 l  4385 -3363 l 
4398 -3366 l  4411 -3366 l  4424 -3364 l  4437 -3360 l  4450 -3355 l  4464 -3348 l 
4477 -3340 l  4490 -3331 l  4503 -3322 l  4516 -3311 l  4529 -3300 l  4542 -3289 l 
4556 -3278 l  4569 -3267 l  4582 -3256 l  4595 -3246 l  4608 -3236 l  4621 -3228 l 
4634 -3220 l  4648 -3214 l  4661 -3209 l  4674 -3206 l  4687 -3204 l  4700 -3203 l 
4713 -3203 l  4726 -3204 l  4740 -3205 l  4753 -3207 l  4766 -3209 l  4779 -3211 l 
4792 -3214 l  4805 -3216 l  4818 -3218 l  4832 -3220 l  4845 -3221 l  4858 -3222 l 
4871 -3221 l  4884 -3220 l  4897 -3218 l  4910 -3214 l  4924 -3209 l  4937 -3203 l 
4950 -3195 l  4963 -3187 l  4976 -3178 l  4989 -3167 l  5002 -3156 l  5015 -3145 l 
5029 -3133 l  5042 -3121 l  5055 -3108 l  5068 -3096 l  5081 -3083 l  5094 -3071 l 
5107 -3058 l  5121 -3047 l  5134 -3035 l  5147 -3025 l  5160 -3015 l  5173 -3006 l 
5186 -2998 l  5199 -2990 l  5213 -2984 l  5226 -2979 l  5239 -2975 l  5252 -2972 l 
5265 -2970 l  5278 -2969 l  5291 -2968 l  5305 -2969 l  5318 -2971 l  5331 -2974 l 
5344 -2978 l  5357 -2983 l  5370 -2989 l  5383 -2996 l  5397 -3005 l  5410 -3014 l 
5423 -3024 l  5436 -3035 l  5449 -3048 l  5462 -3061 l  5475 -3076 l  5489 -3091 l 
5502 -3106 l  5515 -3122 l  5528 -3139 l  5541 -3155 l  5554 -3172 l  5567 -3189 l 
5581 -3206 l  5594 -3222 l  5607 -3239 l  5620 -3254 l  5633 -3270 l  5646 -3284 l 
5659 -3298 l  5673 -3311 l  5686 -3323 l  5699 -3333 l  5712 -3343 l  5725 -3351 l 
5738 -3358 l  5751 -3364 l  5765 -3369 l  5778 -3372 l  5791 -3375 l  5804 -3377 l 
5817 -3377 l  5830 -3377 l  5843 -3376 l  5856 -3374 l  5870 -3371 l  5883 -3368 l 
5896 -3364 l  5909 -3359 l  5922 -3353 l  5935 -3347 l  5948 -3340 l  5962 -3333 l 
5975 -3326 l  5988 -3317 l  6001 -3309 l  6014 -3300 l  6027 -3291 l  6040 -3281 l 
6054 -3271 l  6067 -3261 l  6080 -3250 l  6093 -3239 l  6106 -3228 l  6119 -3217 l 
6132 -3206 l  6146 -3194 l  6159 -3183 l  6172 -3171 l  6185 -3160 l  6198 -3148 l 
6211 -3136 l  6224 -3125 l  6238 -3113 l  6251 -3102 l  6264 -3091 l  6277 -3080 l 
6290 -3069 l  6303 -3059 l  6316 -3049 l  6330 -3039 l  6343 -3030 l  6356 -3021 l 
6369 -3013 l  6382 -3006 l  6395 -2999 l  6408 -2993 l  6422 -2988 l  6435 -2984 l 
6448 -2980 l  6461 -2978 l  6474 -2976 l  6487 -2976 l  6500 -2976 l  6514 -2978 l 
6527 -2981 l  6540 -2984 l  6553 -2988 l  6566 -2993 l  6579 -2998 l  6592 -3004 l 
6606 -3011 l  6619 -3018 l  6632 -3025 l  6645 -3033 l  6658 -3041 l  6671 -3049 l 
6684 -3057 l  6697 -3065 l  6711 -3073 l  6724 -3080 l  6737 -3088 l  6750 -3095 l 
6763 -3102 l  6776 -3108 l  6789 -3114 l  6803 -3120 l  6816 -3126 l  6829 -3132 l 
6842 -3137 l  6855 -3142 l  6868 -3148 l  6881 -3153 l  6895 -3158 l  6908 -3163 l 
6921 -3169 l  6934 -3175 l  6947 -3180 l  6960 -3186 l  6973 -3193 l  6987 -3200 l 
7000 -3207 l  7013 -3214 l  7026 -3222 l  7039 -3230 l  7052 -3239 l  7065 -3248 l 
7079 -3257 l  7092 -3266 l  7105 -3275 l  7118 -3285 l  7131 -3294 l  7144 -3302 l 
7157 -3311 l  7171 -3319 l  7184 -3327 l  7197 -3334 l  7210 -3341 l  7223 -3347 l 
7236 -3352 l  7249 -3357 l  7263 -3360 l  7276 -3363 l  7289 -3365 l  7302 -3366 l 
7315 -3366 l  7328 -3365 l  7341 -3363 l  7355 -3360 l  7368 -3357 l  7381 -3353 l 
7394 -3349 l  7407 -3344 l  7420 -3338 l  7433 -3332 l  7447 -3326 l  7460 -3319 l 
7473 -3312 l  7486 -3305 l  7499 -3297 l  7512 -3289 l  7525 -3282 l  7539 -3274 l 
ps
-8091 -2867 m  -7966 -2742 l  -7841 -2867 l  -7966 -2992 l  -8091 -2867 l 
p ef
0 lw -8091 -2867 m  -7966 -2742 l  -7841 -2867 l  -7966 -2992 l  -8091 -2867 l 
pc
-7829 -2861 m  -7704 -2736 l  -7579 -2861 l  -7704 -2986 l  -7829 -2861 l 
p ef
-7829 -2861 m  -7704 -2736 l  -7579 -2861 l  -7704 -2986 l  -7829 -2861 l 
pc
-7566 -3289 m  -7441 -3164 l  -7316 -3289 l  -7441 -3414 l  -7566 -3289 l 
p ef
-7566 -3289 m  -7441 -3164 l  -7316 -3289 l  -7441 -3414 l  -7566 -3289 l 
pc
-7303 -3050 m  -7178 -2925 l  -7053 -3050 l  -7178 -3175 l  -7303 -3050 l 
p ef
-7303 -3050 m  -7178 -2925 l  -7053 -3050 l  -7178 -3175 l  -7303 -3050 l 
pc
-7040 -3050 m  -6915 -2925 l  -6790 -3050 l  -6915 -3175 l  -7040 -3050 l 
p ef
-7040 -3050 m  -6915 -2925 l  -6790 -3050 l  -6915 -3175 l  -7040 -3050 l 
pc
-6777 -2886 m  -6652 -2761 l  -6527 -2886 l  -6652 -3011 l  -6777 -2886 l 
p ef
-6777 -2886 m  -6652 -2761 l  -6527 -2886 l  -6652 -3011 l  -6777 -2886 l 
pc
-6515 -2961 m  -6390 -2836 l  -6265 -2961 l  -6390 -3086 l  -6515 -2961 l 
p ef
-6515 -2961 m  -6390 -2836 l  -6265 -2961 l  -6390 -3086 l  -6515 -2961 l 
pc
-6252 -3175 m  -6127 -3050 l  -6002 -3175 l  -6127 -3300 l  -6252 -3175 l 
p ef
-6252 -3175 m  -6127 -3050 l  -6002 -3175 l  -6127 -3300 l  -6252 -3175 l 
pc
-5989 -3257 m  -5864 -3132 l  -5739 -3257 l  -5864 -3382 l  -5989 -3257 l 
p ef
-5989 -3257 m  -5864 -3132 l  -5739 -3257 l  -5864 -3382 l  -5989 -3257 l 
pc
-5726 -3024 m  -5601 -2899 l  -5476 -3024 l  -5601 -3149 l  -5726 -3024 l 
p ef
-5726 -3024 m  -5601 -2899 l  -5476 -3024 l  -5601 -3149 l  -5726 -3024 l 
pc
-5463 -2892 m  -5338 -2767 l  -5213 -2892 l  -5338 -3017 l  -5463 -2892 l 
p ef
-5463 -2892 m  -5338 -2767 l  -5213 -2892 l  -5338 -3017 l  -5463 -2892 l 
pc
-5201 -2905 m  -5076 -2780 l  -4951 -2905 l  -5076 -3030 l  -5201 -2905 l 
p ef
-5201 -2905 m  -5076 -2780 l  -4951 -2905 l  -5076 -3030 l  -5201 -2905 l 
pc
-4938 -3131 m  -4813 -3006 l  -4688 -3131 l  -4813 -3256 l  -4938 -3131 l 
p ef
-4938 -3131 m  -4813 -3006 l  -4688 -3131 l  -4813 -3256 l  -4938 -3131 l 
pc
-4675 -3308 m  -4550 -3183 l  -4425 -3308 l  -4550 -3433 l  -4675 -3308 l 
p ef
-4675 -3308 m  -4550 -3183 l  -4425 -3308 l  -4550 -3433 l  -4675 -3308 l 
pc
-4412 -3207 m  -4287 -3082 l  -4162 -3207 l  -4287 -3332 l  -4412 -3207 l 
p ef
-4412 -3207 m  -4287 -3082 l  -4162 -3207 l  -4287 -3332 l  -4412 -3207 l 
pc
-4149 -2892 m  -4024 -2767 l  -3899 -2892 l  -4024 -3017 l  -4149 -2892 l 
p ef
-4149 -2892 m  -4024 -2767 l  -3899 -2892 l  -4024 -3017 l  -4149 -2892 l 
pc
-3886 -2903 m  -3761 -2778 l  -3636 -2903 l  -3761 -3028 l  -3886 -2903 l 
p ef
-3886 -2903 m  -3761 -2778 l  -3636 -2903 l  -3761 -3028 l  -3886 -2903 l 
pc
-3624 -3342 m  -3499 -3217 l  -3374 -3342 l  -3499 -3467 l  -3624 -3342 l 
p ef
-3624 -3342 m  -3499 -3217 l  -3374 -3342 l  -3499 -3467 l  -3624 -3342 l 
pc
-3361 -3146 m  -3236 -3021 l  -3111 -3146 l  -3236 -3271 l  -3361 -3146 l 
p ef
-3361 -3146 m  -3236 -3021 l  -3111 -3146 l  -3236 -3271 l  -3361 -3146 l 
pc
-3098 -3134 m  -2973 -3009 l  -2848 -3134 l  -2973 -3259 l  -3098 -3134 l 
p ef
-3098 -3134 m  -2973 -3009 l  -2848 -3134 l  -2973 -3259 l  -3098 -3134 l 
pc
-2835 -2926 m  -2710 -2801 l  -2585 -2926 l  -2710 -3051 l  -2835 -2926 l 
p ef
-2835 -2926 m  -2710 -2801 l  -2585 -2926 l  -2710 -3051 l  -2835 -2926 l 
pc
-2572 -3019 m  -2447 -2894 l  -2322 -3019 l  -2447 -3144 l  -2572 -3019 l 
p ef
-2572 -3019 m  -2447 -2894 l  -2322 -3019 l  -2447 -3144 l  -2572 -3019 l 
pc
-2310 -3227 m  -2185 -3102 l  -2060 -3227 l  -2185 -3352 l  -2310 -3227 l 
p ef
-2310 -3227 m  -2185 -3102 l  -2060 -3227 l  -2185 -3352 l  -2310 -3227 l 
pc
-2047 -3296 m  -1922 -3171 l  -1797 -3296 l  -1922 -3421 l  -2047 -3296 l 
p ef
-2047 -3296 m  -1922 -3171 l  -1797 -3296 l  -1922 -3421 l  -2047 -3296 l 
pc
-1784 -3100 m  -1659 -2975 l  -1534 -3100 l  -1659 -3225 l  -1784 -3100 l 
p ef
-1784 -3100 m  -1659 -2975 l  -1534 -3100 l  -1659 -3225 l  -1784 -3100 l 
pc
-1521 -2973 m  -1396 -2848 l  -1271 -2973 l  -1396 -3098 l  -1521 -2973 l 
p ef
-1521 -2973 m  -1396 -2848 l  -1271 -2973 l  -1396 -3098 l  -1521 -2973 l 
pc
-1258 -2973 m  -1133 -2848 l  -1008 -2973 l  -1133 -3098 l  -1258 -2973 l 
p ef
-1258 -2973 m  -1133 -2848 l  -1008 -2973 l  -1133 -3098 l  -1258 -2973 l 
pc
-996 -3134 m  -871 -3009 l  -746 -3134 l  -871 -3259 l  -996 -3134 l  p ef
-996 -3134 m  -871 -3009 l  -746 -3134 l  -871 -3259 l  -996 -3134 l  pc
-733 -3388 m  -608 -3263 l  -483 -3388 l  -608 -3513 l  -733 -3388 l  p ef
-733 -3388 m  -608 -3263 l  -483 -3388 l  -608 -3513 l  -733 -3388 l  pc
-470 -3273 m  -345 -3148 l  -220 -3273 l  -345 -3398 l  -470 -3273 l  p ef
-470 -3273 m  -345 -3148 l  -220 -3273 l  -345 -3398 l  -470 -3273 l  pc
-207 -2641 m  -82 -2516 l  42 -2641 l  -82 -2766 l  -207 -2641 l  p ef
-207 -2641 m  -82 -2516 l  42 -2641 l  -82 -2766 l  -207 -2641 l  pc
55 -2715 m  180 -2590 l  305 -2715 l  180 -2840 l  55 -2715 l  p ef
55 -2715 m  180 -2590 l  305 -2715 l  180 -2840 l  55 -2715 l  pc
318 -3138 m  443 -3013 l  568 -3138 l  443 -3263 l  318 -3138 l  p ef
318 -3138 m  443 -3013 l  568 -3138 l  443 -3263 l  318 -3138 l  pc
580 -2954 m  705 -2829 l  830 -2954 l  705 -3079 l  580 -2954 l  p ef
580 -2954 m  705 -2829 l  830 -2954 l  705 -3079 l  580 -2954 l  pc
843 -2954 m  968 -2829 l  1093 -2954 l  968 -3079 l  843 -2954 l  p ef
843 -2954 m  968 -2829 l  1093 -2954 l  968 -3079 l  843 -2954 l  pc
1106 -2715 m  1231 -2590 l  1356 -2715 l  1231 -2840 l  1106 -2715 l  p ef
1106 -2715 m  1231 -2590 l  1356 -2715 l  1231 -2840 l  1106 -2715 l  pc
1369 -2807 m  1494 -2682 l  1619 -2807 l  1494 -2932 l  1369 -2807 l  p ef
1369 -2807 m  1494 -2682 l  1619 -2807 l  1494 -2932 l  1369 -2807 l  pc
1632 -3083 m  1757 -2958 l  1882 -3083 l  1757 -3208 l  1632 -3083 l  p ef
1632 -3083 m  1757 -2958 l  1882 -3083 l  1757 -3208 l  1632 -3083 l  pc
1894 -3065 m  2019 -2940 l  2144 -3065 l  2019 -3190 l  1894 -3065 l  p ef
1894 -3065 m  2019 -2940 l  2144 -3065 l  2019 -3190 l  1894 -3065 l  pc
2157 -2862 m  2282 -2737 l  2407 -2862 l  2282 -2987 l  2157 -2862 l  p ef
2157 -2862 m  2282 -2737 l  2407 -2862 l  2282 -2987 l  2157 -2862 l  pc
2420 -2696 m  2545 -2571 l  2670 -2696 l  2545 -2821 l  2420 -2696 l  p ef
2420 -2696 m  2545 -2571 l  2670 -2696 l  2545 -2821 l  2420 -2696 l  pc
2683 -2751 m  2808 -2626 l  2933 -2751 l  2808 -2876 l  2683 -2751 l  p ef
2683 -2751 m  2808 -2626 l  2933 -2751 l  2808 -2876 l  2683 -2751 l  pc
2946 -2972 m  3071 -2847 l  3196 -2972 l  3071 -3097 l  2946 -2972 l  p ef
2946 -2972 m  3071 -2847 l  3196 -2972 l  3071 -3097 l  2946 -2972 l  pc
3208 -3230 m  3333 -3105 l  3458 -3230 l  3333 -3355 l  3208 -3230 l  p ef
3208 -3230 m  3333 -3105 l  3458 -3230 l  3333 -3355 l  3208 -3230 l  pc
3471 -3120 m  3596 -2995 l  3721 -3120 l  3596 -3245 l  3471 -3120 l  p ef
3471 -3120 m  3596 -2995 l  3721 -3120 l  3596 -3245 l  3471 -3120 l  pc
3734 -3006 m  3859 -2881 l  3984 -3006 l  3859 -3131 l  3734 -3006 l  p ef
3734 -3006 m  3859 -2881 l  3984 -3006 l  3859 -3131 l  3734 -3006 l  pc
3997 -3065 m  4122 -2940 l  4247 -3065 l  4122 -3190 l  3997 -3065 l  p ef
3997 -3065 m  4122 -2940 l  4247 -3065 l  4122 -3190 l  3997 -3065 l  pc
4260 -3363 m  4385 -3238 l  4510 -3363 l  4385 -3488 l  4260 -3363 l  p ef
4260 -3363 m  4385 -3238 l  4510 -3363 l  4385 -3488 l  4260 -3363 l  pc
4523 -3214 m  4648 -3089 l  4773 -3214 l  4648 -3339 l  4523 -3214 l  p ef
4523 -3214 m  4648 -3089 l  4773 -3214 l  4648 -3339 l  4523 -3214 l  pc
4785 -3214 m  4910 -3089 l  5035 -3214 l  4910 -3339 l  4785 -3214 l  p ef
4785 -3214 m  4910 -3089 l  5035 -3214 l  4910 -3339 l  4785 -3214 l  pc
5048 -3006 m  5173 -2881 l  5298 -3006 l  5173 -3131 l  5048 -3006 l  p ef
5048 -3006 m  5173 -2881 l  5298 -3006 l  5173 -3131 l  5048 -3006 l  pc
5311 -3035 m  5436 -2910 l  5561 -3035 l  5436 -3160 l  5311 -3035 l  p ef
5311 -3035 m  5436 -2910 l  5561 -3035 l  5436 -3160 l  5311 -3035 l  pc
5574 -3333 m  5699 -3208 l  5824 -3333 l  5699 -3458 l  5574 -3333 l  p ef
5574 -3333 m  5699 -3208 l  5824 -3333 l  5699 -3458 l  5574 -3333 l  pc
5837 -3333 m  5962 -3208 l  6087 -3333 l  5962 -3458 l  5837 -3333 l  p ef
5837 -3333 m  5962 -3208 l  6087 -3333 l  5962 -3458 l  5837 -3333 l  pc
6099 -3125 m  6224 -3000 l  6349 -3125 l  6224 -3250 l  6099 -3125 l  p ef
6099 -3125 m  6224 -3000 l  6349 -3125 l  6224 -3250 l  6099 -3125 l  pc
6362 -2976 m  6487 -2851 l  6612 -2976 l  6487 -3101 l  6362 -2976 l  p ef
6362 -2976 m  6487 -2851 l  6612 -2976 l  6487 -3101 l  6362 -2976 l  pc
6625 -3095 m  6750 -2970 l  6875 -3095 l  6750 -3220 l  6625 -3095 l  p ef
6625 -3095 m  6750 -2970 l  6875 -3095 l  6750 -3220 l  6625 -3095 l  pc
6888 -3214 m  7013 -3089 l  7138 -3214 l  7013 -3339 l  6888 -3214 l  p ef
6888 -3214 m  7013 -3089 l  7138 -3214 l  7013 -3339 l  6888 -3214 l  pc
7151 -3363 m  7276 -3238 l  7401 -3363 l  7276 -3488 l  7151 -3363 l  p ef
7151 -3363 m  7276 -3238 l  7401 -3363 l  7276 -3488 l  7151 -3363 l  pc
7414 -3274 m  7539 -3149 l  7664 -3274 l  7539 -3399 l  7414 -3274 l  p ef
7414 -3274 m  7539 -3149 l  7664 -3274 l  7539 -3399 l  7414 -3274 l  pc
0.003 0.003 0.003 c
/Helvetica f
353 sf -8059 3261 m  185 0 (1) bs
/Helvetica f
353 sf -7797 2863 m  185 0 (2) bs
/Helvetica f
353 sf -7534 3261 m  185 0 (3) bs
/Helvetica f
353 sf -7271 2863 m  185 0 (4) bs
/Helvetica f
353 sf -7008 3261 m  185 0 (5) bs
/Helvetica f
353 sf -6745 2863 m  185 0 (6) bs
/Helvetica f
353 sf -6483 3261 m  185 0 (7) bs
/Helvetica f
353 sf -6220 2863 m  185 0 (8) bs
/Helvetica f
353 sf -5957 3261 m  185 0 (9) bs
/Helvetica f
353 sf -5786 2863 m  185 0 (1) bs
185 185 (0) bs
/Helvetica f
353 sf -5510 3261 m  185 0 (1) bs
185 159 (1) bs
/Helvetica f
353 sf -5261 2863 m  185 0 (1) bs
185 185 (2) bs
/Helvetica f
353 sf -4998 3261 m  185 0 (1) bs
185 185 (3) bs
/Helvetica f
353 sf -4735 2863 m  185 0 (1) bs
185 185 (4) bs
/Helvetica f
353 sf -4472 3261 m  185 0 (1) bs
185 185 (5) bs
/Helvetica f
353 sf -4209 2863 m  185 0 (1) bs
185 185 (6) bs
/Helvetica f
353 sf -3946 3261 m  185 0 (1) bs
185 185 (7) bs
/Helvetica f
353 sf -3684 2863 m  185 0 (1) bs
185 185 (8) bs
/Helvetica f
353 sf -3421 3261 m  185 0 (1) bs
185 185 (9) bs
/Helvetica f
353 sf -3158 2863 m  185 0 (2) bs
185 185 (0) bs
/Helvetica f
353 sf -2895 3261 m  185 0 (2) bs
185 185 (1) bs
/Helvetica f
353 sf -2632 2863 m  185 0 (2) bs
185 185 (2) bs
/Helvetica f
353 sf -2370 3261 m  185 0 (2) bs
185 185 (3) bs
/Helvetica f
353 sf -2107 2863 m  185 0 (2) bs
185 185 (4) bs
/Helvetica f
353 sf -1844 3261 m  185 0 (2) bs
185 185 (5) bs
/Helvetica f
353 sf -1581 2863 m  185 0 (2) bs
185 185 (6) bs
/Helvetica f
353 sf -1318 3261 m  185 0 (2) bs
185 185 (7) bs
/Helvetica f
353 sf -1056 2863 m  185 0 (2) bs
185 185 (8) bs
/Helvetica f
353 sf -793 3261 m  185 0 (2) bs
185 185 (9) bs
/Helvetica f
353 sf -530 2863 m  185 0 (3) bs
185 185 (0) bs
/Helvetica f
353 sf -267 3261 m  185 0 (3) bs
185 185 (1) bs
/Helvetica f
353 sf -4 2863 m  185 0 (3) bs
185 185 (2) bs
/Helvetica f
353 sf 259 3261 m  185 0 (3) bs
185 185 (3) bs
/Helvetica f
353 sf 521 2863 m  185 0 (3) bs
185 185 (4) bs
/Helvetica f
353 sf 784 3261 m  185 0 (3) bs
185 185 (5) bs
/Helvetica f
353 sf 1047 2863 m  185 0 (3) bs
185 185 (6) bs
/Helvetica f
353 sf 1310 3261 m  185 0 (3) bs
185 185 (7) bs
/Helvetica f
353 sf 1573 2863 m  185 0 (3) bs
185 185 (8) bs
/Helvetica f
353 sf 1835 3261 m  185 0 (3) bs
185 185 (9) bs
/Helvetica f
353 sf 2098 2863 m  185 0 (4) bs
185 185 (0) bs
/Helvetica f
353 sf 2361 3261 m  185 0 (4) bs
185 185 (1) bs
/Helvetica f
353 sf 2624 2863 m  185 0 (4) bs
185 185 (2) bs
/Helvetica f
353 sf 2887 3261 m  185 0 (4) bs
185 185 (3) bs
/Helvetica f
353 sf 3149 2863 m  185 0 (4) bs
185 185 (4) bs
/Helvetica f
353 sf 3412 3261 m  185 0 (4) bs
185 185 (5) bs
/Helvetica f
353 sf 3675 2863 m  185 0 (4) bs
185 185 (6) bs
/Helvetica f
353 sf 3938 3261 m  185 0 (4) bs
185 185 (7) bs
/Helvetica f
353 sf 4201 2863 m  185 0 (4) bs
185 185 (8) bs
/Helvetica f
353 sf 4464 3261 m  185 0 (4) bs
185 185 (9) bs
/Helvetica f
353 sf 4726 2863 m  185 0 (5) bs
185 185 (0) bs
/Helvetica f
353 sf 4989 3261 m  185 0 (5) bs
185 185 (1) bs
/Helvetica f
353 sf 5252 2863 m  185 0 (5) bs
185 185 (2) bs
/Helvetica f
353 sf 5515 3261 m  185 0 (5) bs
185 185 (3) bs
/Helvetica f
353 sf 5778 2863 m  185 0 (5) bs
185 185 (4) bs
/Helvetica f
353 sf 6040 3261 m  185 0 (5) bs
185 185 (5) bs
/Helvetica f
353 sf 6303 2863 m  185 0 (5) bs
185 185 (6) bs
/Helvetica f
353 sf 6566 3261 m  185 0 (5) bs
185 185 (7) bs
/Helvetica f
353 sf 6829 2863 m  185 0 (5) bs
185 185 (8) bs
/Helvetica f
353 sf 7092 3261 m  185 0 (5) bs
185 185 (9) bs
/Helvetica f
353 sf 7355 2863 m  185 0 (6) bs
185 185 (0) bs
/Helvetica f
353 sf -8877 2416 m  185 0 (0) bs
106 185 (,) bs
185 291 (0) bs
185 476 (0) bs
/Helvetica f
353 sf -8877 1498 m  185 0 (0) bs
106 185 (,) bs
185 291 (1) bs
185 476 (0) bs
/Helvetica f
353 sf -8877 581 m  185 0 (0) bs
106 185 (,) bs
185 291 (2) bs
185 476 (0) bs
/Helvetica f
353 sf -8877 -336 m  185 0 (0) bs
106 185 (,) bs
185 291 (3) bs
185 476 (0) bs
/Helvetica f
353 sf -8877 -1254 m  185 0 (0) bs
106 185 (,) bs
185 291 (4) bs
185 476 (0) bs
/Helvetica f
353 sf -8877 -2171 m  185 0 (0) bs
106 185 (,) bs
185 291 (5) bs
185 476 (0) bs
/Helvetica f
353 sf -8877 -3088 m  185 0 (0) bs
106 185 (,) bs
185 291 (6) bs
185 476 (0) bs
/Helvetica f
353 sf -8877 -4005 m  185 0 (0) bs
106 185 (,) bs
185 291 (7) bs
185 476 (0) bs
79.99611 lw 0.003 0.273 0.527 c 8253 -250 m  9053 -250 l  ps
8547 -355 m  8547 -144 l  8758 -144 l  8758 -355 l  8547 -355 l  p ef
0 lw 8547 -355 m  8547 -144 l  8758 -144 l  8758 -355 l  8547 -355 l  pc
79.99611 lw 1.000 0.261 0.058 c 8253 247 m  9053 247 l  ps
8547 247 m  8653 353 l  8758 247 l  8653 142 l  8547 247 l  p ef
0 lw 8547 247 m  8653 353 l  8758 247 l  8653 142 l  8547 247 l  pc
0.003 0.003 0.003 c
/Helvetica f
353 sf 9153 -130 m  238 0 (H) bs
291 238 (M) bs
291 529 (M) bs
/Helvetica f
353 sf 9153 367 m  238 0 (K) bs
238 238 (N) bs
238 476 (N) bs
/Helvetica f
318 sf -616 3908 m  79 0 (i) bs
/Helvetica f
318 sf -9464 -399 m  gs 90.0 r 185 0 (e) bs
gr
0 9006 t 
pom
count op_count sub {pop} repeat countdictstack dict_count sub {end} repeat b4_inc_state restore
%%PageTrailer
%%Trailer
%%EOF
