%!PS-Adobe-3.0 EPSF-3.0 
%%BoundingBox: 0 0 584 255
%%Pages: 0
%%Creator: LibreOffice 4.4
%%Title: none
%%CreationDate: none
%%LanguageLevel: 2
%%EndComments
%%BeginProlog
%%BeginResource: procset SDRes-Prolog 1.0 0
/b4_inc_state save def
/dict_count countdictstack def
/op_count count 1 sub def
userdict begin
0 setgray 0 setlinecap 1 setlinewidth 0 setlinejoin 10 setmiterlimit[] 0 setdash newpath
/languagelevel where {pop languagelevel 1 ne {false setstrokeadjust false setoverprint} if} if
/bdef {bind def} bind def
/c {setrgbcolor} bdef
/l {neg lineto} bdef
/rl {neg rlineto} bdef
/lc {setlinecap} bdef
/lj {setlinejoin} bdef
/lw {setlinewidth} bdef
/ml {setmiterlimit} bdef
/ld {setdash} bdef
/m {neg moveto} bdef
/ct {6 2 roll neg 6 2 roll neg 6 2 roll neg curveto} bdef
/r {rotate} bdef
/t {neg translate} bdef
/s {scale} bdef
/sw {show} bdef
/gs {gsave} bdef
/gr {grestore} bdef
/f {findfont dup length dict begin
{1 index /FID ne {def} {pop pop} ifelse} forall /Encoding ISOLatin1Encoding def
currentdict end /NFont exch definefont pop /NFont findfont} bdef
/p {closepath} bdef
/sf {scalefont setfont} bdef
/ef {eofill}bdef
/pc {closepath stroke}bdef
/ps {stroke}bdef
/pum {matrix currentmatrix}bdef
/pom {setmatrix}bdef
/bs {/aString exch def /nXOfs exch def /nWidth exch def currentpoint nXOfs 0 rmoveto pum nWidth aString stringwidth pop div 1 scale aString show pom moveto} bdef
%%EndResource
%%EndProlog
%%BeginSetup
%%EndSetup
%%Page: 1 1
%%BeginPageSetup
%%EndPageSetup
pum
0.02834 0.02831 s 
0 -9006 t
/tm matrix currentmatrix def
tm setmatrix
10301 4503 t 
1 1 s 
1.000 1.000 1.000 c 0 4502 m  -10301 4502 l  -10301 -4503 l  10301 -4503 l 
10301 4502 l  0 4502 l  p ef
0 lw 1 lj 0.703 0.703 0.703 c -269 3675 m  -8474 3675 l  -8474 -3029 l 
7936 -3029 l  7936 3675 l  -269 3675 l  pc
7936 3674 m  -8474 3674 l  ps
7936 2835 m  -8474 2835 l  ps
7936 1997 m  -8474 1997 l  ps
7936 1159 m  -8474 1159 l  ps
7936 321 m  -8474 321 l  ps
7936 -516 m  -8474 -516 l  ps
7936 -1354 m  -8474 -1354 l  ps
7936 -2192 m  -8474 -2192 l  ps
7936 -3030 m  -8474 -3030 l  ps
-8474 3824 m  -8474 3674 l  ps
-8474 3824 m  -8474 3674 l  ps
-7909 3824 m  -7909 3674 l  ps
-7909 3824 m  -7909 3674 l  ps
-7343 3824 m  -7343 3674 l  ps
-7343 3824 m  -7343 3674 l  ps
-6777 3824 m  -6777 3674 l  ps
-6777 3824 m  -6777 3674 l  ps
-6211 3824 m  -6211 3674 l  ps
-6211 3824 m  -6211 3674 l  ps
-5645 3824 m  -5645 3674 l  ps
-5645 3824 m  -5645 3674 l  ps
-5079 3824 m  -5079 3674 l  ps
-5079 3824 m  -5079 3674 l  ps
-4513 3824 m  -4513 3674 l  ps
-4513 3824 m  -4513 3674 l  ps
-3947 3824 m  -3947 3674 l  ps
-3947 3824 m  -3947 3674 l  ps
-3381 3824 m  -3381 3674 l  ps
-3381 3824 m  -3381 3674 l  ps
-2816 3824 m  -2816 3674 l  ps
-2816 3824 m  -2816 3674 l  ps
-2250 3824 m  -2250 3674 l  ps
-2250 3824 m  -2250 3674 l  ps
-1684 3824 m  -1684 3674 l  ps
-1684 3824 m  -1684 3674 l  ps
-1118 3824 m  -1118 3674 l  ps
-1118 3824 m  -1118 3674 l  ps
-552 3824 m  -552 3674 l  ps
-552 3824 m  -552 3674 l  ps
13 3824 m  13 3674 l  ps
13 3824 m  13 3674 l  ps
579 3824 m  579 3674 l  ps
579 3824 m  579 3674 l  ps
1145 3824 m  1145 3674 l  ps
1145 3824 m  1145 3674 l  ps
1711 3824 m  1711 3674 l  ps
1711 3824 m  1711 3674 l  ps
2277 3824 m  2277 3674 l  ps
2277 3824 m  2277 3674 l  ps
2842 3824 m  2842 3674 l  ps
2842 3824 m  2842 3674 l  ps
3408 3824 m  3408 3674 l  ps
3408 3824 m  3408 3674 l  ps
3974 3824 m  3974 3674 l  ps
3974 3824 m  3974 3674 l  ps
4540 3824 m  4540 3674 l  ps
4540 3824 m  4540 3674 l  ps
5106 3824 m  5106 3674 l  ps
5106 3824 m  5106 3674 l  ps
5672 3824 m  5672 3674 l  ps
5672 3824 m  5672 3674 l  ps
6238 3824 m  6238 3674 l  ps
6238 3824 m  6238 3674 l  ps
6804 3824 m  6804 3674 l  ps
6804 3824 m  6804 3674 l  ps
7370 3824 m  7370 3674 l  ps
7370 3824 m  7370 3674 l  ps
7936 3824 m  7936 3674 l  ps
7936 3824 m  7936 3674 l  ps
-8474 3674 m  7936 3674 l  ps
-8624 3674 m  -8474 3674 l  ps
-8624 3674 m  -8474 3674 l  ps
-8624 2835 m  -8474 2835 l  ps
-8624 2835 m  -8474 2835 l  ps
-8624 1997 m  -8474 1997 l  ps
-8624 1997 m  -8474 1997 l  ps
-8624 1159 m  -8474 1159 l  ps
-8624 1159 m  -8474 1159 l  ps
-8624 321 m  -8474 321 l  ps
-8624 321 m  -8474 321 l  ps
-8624 -516 m  -8474 -516 l  ps
-8624 -516 m  -8474 -516 l  ps
-8624 -1354 m  -8474 -1354 l  ps
-8624 -1354 m  -8474 -1354 l  ps
-8624 -2192 m  -8474 -2192 l  ps
-8624 -2192 m  -8474 -2192 l  ps
-8624 -3030 m  -8474 -3030 l  ps
-8624 -3030 m  -8474 -3030 l  ps
-8474 3674 m  -8474 -3030 l  ps
79.99611 lw 0.003 0.273 0.527 c -8474 366 m  -8446 350 l  -8418 333 l  -8390 317 l 
-8361 301 l  -8333 286 l  -8305 271 l  -8276 257 l  -8248 243 l  -8220 231 l 
-8192 220 l  -8163 209 l  -8135 200 l  -8107 193 l  -8078 187 l  -8050 183 l 
-8022 180 l  -7993 179 l  -7965 181 l  -7937 184 l  -7909 190 l  -7880 198 l 
-7852 207 l  -7824 219 l  -7795 232 l  -7767 246 l  -7739 260 l  -7711 275 l 
-7682 289 l  -7654 303 l  -7626 316 l  -7597 329 l  -7569 339 l  -7541 348 l 
-7512 355 l  -7484 359 l  -7456 360 l  -7428 358 l  -7399 352 l  -7371 342 l 
-7343 329 l  -7314 310 l  -7286 288 l  -7258 262 l  -7230 233 l  -7201 201 l 
-7173 168 l  -7145 133 l  -7116 98 l  -7088 62 l  -7060 27 l  -7031 -7 l 
-7003 -40 l  -6975 -71 l  -6947 -99 l  -6918 -125 l  -6890 -147 l  -6862 -165 l 
-6833 -178 l  -6805 -186 l  -6777 -188 l  -6749 -184 l  -6720 -174 l  -6692 -159 l 
-6664 -139 l  -6635 -115 l  -6607 -88 l  -6579 -57 l  -6550 -24 l  -6522 10 l 
-6494 47 l  -6466 84 l  -6437 121 l  -6409 159 l  -6381 195 l  -6352 230 l 
-6324 264 l  -6296 294 l  -6268 322 l  -6239 346 l  -6211 366 l  -6183 382 l 
-6154 393 l  -6126 400 l  -6098 404 l  -6069 403 l  -6041 400 l  -6013 394 l 
-5985 384 l  -5956 373 l  -5928 360 l  -5900 344 l  -5871 327 l  -5843 309 l 
-5815 290 l  -5786 271 l  -5758 251 l  -5730 231 l  -5702 211 l  -5673 191 l 
-5645 173 l  -5617 155 l  -5588 139 l  -5560 123 l  -5532 109 l  -5504 95 l 
-5475 83 l  -5447 71 l  -5419 61 l  -5390 51 l  -5362 43 l  -5334 35 l 
-5305 28 l  -5277 22 l  -5249 17 l  -5221 13 l  -5192 10 l  -5164 7 l 
-5136 6 l  -5107 5 l  -5079 5 l  -5051 5 l  -5023 7 l  -4994 9 l  -4966 11 l 
-4938 15 l  -4909 18 l  -4881 22 l  -4853 27 l  -4824 32 l  -4796 37 l 
-4768 42 l  -4740 47 l  -4711 53 l  -4683 58 l  -4655 64 l  -4626 69 l 
-4598 75 l  -4570 80 l  -4542 84 l  -4513 89 l  -4485 93 l  -4457 96 l 
-4428 100 l  -4400 102 l  -4372 105 l  -4343 107 l  -4315 108 l  -4287 109 l 
-4259 109 l  -4230 109 l  -4202 108 l  -4174 107 l  -4145 105 l  -4117 102 l 
-4089 99 l  -4061 95 l  -4032 90 l  -4004 85 l  -3976 79 l  -3947 72 l 
-3919 64 l  -3891 56 l  -3862 48 l  -3834 39 l  -3806 30 l  -3778 21 l 
-3749 13 l  -3721 5 l  -3693 -2 l  -3664 -9 l  -3636 -14 l  -3608 -19 l 
-3579 -22 l  -3551 -24 l  -3523 -24 l  -3495 -23 l  -3466 -19 l  -3438 -13 l 
-3410 -5 l  -3381 5 l  -3353 18 l  -3325 33 l  -3297 51 l  -3268 70 l 
-3240 91 l  -3212 113 l  -3183 136 l  -3155 159 l  -3127 183 l  -3098 206 l 
-3070 229 l  -3042 252 l  -3014 273 l  -2985 293 l  -2957 311 l  -2929 327 l 
-2900 341 l  -2872 353 l  -2844 361 l  -2816 366 l  -2787 368 l  -2759 367 l 
-2731 363 l  -2702 356 l  -2674 348 l  -2646 337 l  -2617 325 l  -2589 312 l 
-2561 298 l  -2533 284 l  -2504 269 l  -2476 255 l  -2448 241 l  -2419 228 l 
-2391 217 l  -2363 207 l  -2335 199 l  -2306 193 l  -2278 190 l  -2250 190 l 
-2221 193 l  -2193 198 l  -2165 207 l  -2136 217 l  -2108 229 l  -2080 242 l 
-2052 256 l  -2023 271 l  -1995 285 l  -1967 299 l  -1938 313 l  -1910 325 l 
-1882 335 l  -1854 343 l  -1825 349 l  -1797 353 l  -1769 352 l  -1740 349 l 
-1712 341 l  -1684 329 l  -1655 312 l  -1627 290 l  -1599 265 l  -1571 237 l 
-1542 206 l  -1514 173 l  -1486 138 l  -1457 103 l  -1429 67 l  -1401 32 l 
-1372 -2 l  -1344 -36 l  -1316 -67 l  -1288 -96 l  -1259 -123 l  -1231 -145 l 
-1203 -163 l  -1174 -177 l  -1146 -185 l  -1118 -188 l  -1090 -184 l  -1061 -175 l 
-1033 -160 l  -1005 -140 l  -976 -116 l  -948 -89 l  -920 -58 l  -891 -25 l 
-863 9 l  -835 45 l  -807 83 l  -778 120 l  -750 158 l  -722 194 l  -693 230 l 
-665 263 l  -637 294 l  -609 322 l  -580 346 l  -552 366 l  -524 382 l 
-495 393 l  -467 401 l  -439 404 l  -410 404 l  -382 400 l  -354 394 l 
-326 385 l  -297 373 l  -269 360 l  -241 345 l  -212 328 l  -184 310 l 
-156 291 l  -128 271 l  -99 251 l  -71 231 l  -43 211 l  -14 192 l  13 173 l 
41 155 l  70 139 l  98 123 l  126 109 l  154 95 l  183 83 l  211 71 l 
239 61 l  268 51 l  296 43 l  324 35 l  352 28 l  381 22 l  409 17 l  437 13 l 
466 10 l  494 7 l  522 6 l  551 5 l  579 5 l  607 5 l  635 7 l  664 9 l 
692 11 l  720 15 l  749 18 l  777 22 l  805 27 l  833 32 l  862 37 l  890 42 l 
918 48 l  947 53 l  975 58 l  1003 64 l  1032 69 l  1060 75 l  1088 80 l 
1116 84 l  1145 89 l  1173 93 l  1201 96 l  1230 100 l  1258 102 l  1286 105 l 
1315 107 l  1343 108 l  1371 109 l  1399 109 l  1428 109 l  1456 108 l 
1484 107 l  1513 105 l  1541 102 l  1569 99 l  1597 95 l  1626 90 l  1654 85 l 
1682 79 l  1711 72 l  1739 64 l  1767 56 l  1796 48 l  1824 39 l  1852 30 l 
1880 21 l  1909 13 l  1937 5 l  1965 -2 l  1994 -9 l  2022 -14 l  2050 -19 l 
2078 -22 l  2107 -24 l  2135 -24 l  2163 -23 l  2192 -19 l  2220 -13 l 
2248 -5 l  2277 5 l  2305 18 l  2333 33 l  2361 51 l  2390 70 l  2418 91 l 
2446 113 l  2475 136 l  2503 159 l  2531 183 l  2559 206 l  2588 229 l 
2616 252 l  2644 273 l  2673 293 l  2701 311 l  2729 327 l  2758 341 l 
2786 353 l  2814 361 l  2842 366 l  2871 368 l  2899 367 l  2927 363 l 
2956 356 l  2984 348 l  3012 337 l  3040 325 l  3069 312 l  3097 298 l 
3125 284 l  3154 269 l  3182 255 l  3210 241 l  3239 229 l  3267 217 l 
3295 207 l  3323 199 l  3352 193 l  3380 190 l  3408 190 l  3437 193 l 
3465 198 l  3493 207 l  3522 217 l  3550 229 l  3578 242 l  3606 256 l 
3635 271 l  3663 285 l  3691 299 l  3720 313 l  3748 325 l  3776 335 l 
3804 343 l  3833 349 l  3861 353 l  3889 352 l  3918 349 l  3946 341 l 
3974 329 l  4003 312 l  4031 290 l  4059 265 l  4087 237 l  4116 206 l 
4144 173 l  4172 138 l  4201 103 l  4229 67 l  4257 32 l  4285 -2 l  4314 -36 l 
4342 -67 l  4370 -96 l  4399 -123 l  4427 -145 l  4455 -163 l  4484 -177 l 
4512 -185 l  4540 -188 l  4568 -184 l  4597 -175 l  4625 -160 l  4653 -140 l 
4682 -116 l  4710 -89 l  4738 -58 l  4766 -25 l  4795 9 l  4823 45 l  4851 83 l 
4880 120 l  4908 158 l  4936 194 l  4965 230 l  4993 263 l  5021 294 l 
5049 322 l  5078 346 l  5106 366 l  5134 382 l  5163 393 l  5191 401 l 
5219 404 l  5247 404 l  5276 400 l  5304 394 l  5332 385 l  5361 374 l 
5389 360 l  5417 345 l  5446 328 l  5474 310 l  5502 291 l  5530 271 l 
5559 251 l  5587 231 l  5615 211 l  5644 192 l  5672 173 l  5700 155 l 
5729 139 l  5757 123 l  5785 108 l  5813 95 l  5842 82 l  5870 71 l  5898 60 l 
5927 50 l  5955 42 l  5983 34 l  6011 27 l  6040 21 l  6068 16 l  6096 12 l 
6125 9 l  6153 7 l  6181 5 l  6210 4 l  6238 5 l  6266 6 l  6294 7 l  6323 10 l 
6351 13 l  6379 17 l  6408 21 l  6436 25 l  6464 30 l  6492 35 l  6521 40 l 
6549 46 l  6577 51 l  6606 57 l  6634 62 l  6662 67 l  6691 72 l  6719 77 l 
6747 81 l  6775 85 l  6804 89 l  6832 92 l  6860 94 l  6889 96 l  6917 97 l 
6945 98 l  6973 98 l  7002 98 l  7030 98 l  7058 97 l  7087 96 l  7115 94 l 
7143 93 l  7172 91 l  7200 89 l  7228 86 l  7256 84 l  7285 81 l  7313 78 l 
7341 75 l  7370 72 l  7398 69 l  7426 66 l  7454 63 l  7483 59 l  7511 56 l 
7539 53 l  7568 50 l  7596 46 l  7624 43 l  7653 39 l  7681 36 l  7709 33 l 
7737 29 l  7766 26 l  7794 22 l  7822 19 l  7851 15 l  7879 12 l  7907 8 l 
7936 5 l  ps
-8599 241 m  -8599 491 l  -8349 491 l  -8349 241 l  -8599 241 l  p ef
0 lw -8599 241 m  -8599 491 l  -8349 491 l  -8349 241 l  -8599 241 l  pc
-8034 65 m  -8034 315 l  -7784 315 l  -7784 65 l  -8034 65 l  p ef
-8034 65 m  -8034 315 l  -7784 315 l  -7784 65 l  -8034 65 l  pc
-7468 204 m  -7468 454 l  -7218 454 l  -7218 204 l  -7468 204 l  p ef
-7468 204 m  -7468 454 l  -7218 454 l  -7218 204 l  -7468 204 l  pc
-6902 -313 m  -6902 -63 l  -6652 -63 l  -6652 -313 l  -6902 -313 l  p ef
-6902 -313 m  -6902 -63 l  -6652 -63 l  -6652 -313 l  -6902 -313 l  pc
-6336 241 m  -6336 491 l  -6086 491 l  -6086 241 l  -6336 241 l  p ef
-6336 241 m  -6336 491 l  -6086 491 l  -6086 241 l  -6336 241 l  pc
-5770 48 m  -5770 298 l  -5520 298 l  -5520 48 l  -5770 48 l  p ef
-5770 48 m  -5770 298 l  -5520 298 l  -5520 48 l  -5770 48 l  pc
-5204 -119 m  -5204 130 l  -4954 130 l  -4954 -119 l  -5204 -119 l  p ef
-5204 -119 m  -5204 130 l  -4954 130 l  -4954 -119 l  -5204 -119 l  pc
-4638 -35 m  -4638 214 l  -4388 214 l  -4388 -35 l  -4638 -35 l  p ef
-4638 -35 m  -4638 214 l  -4388 214 l  -4388 -35 l  -4638 -35 l  pc
-4072 -52 m  -4072 197 l  -3822 197 l  -3822 -52 l  -4072 -52 l  p ef
-4072 -52 m  -4072 197 l  -3822 197 l  -3822 -52 l  -4072 -52 l  pc
-3506 -119 m  -3506 130 l  -3256 130 l  -3256 -119 l  -3506 -119 l  p ef
-3506 -119 m  -3506 130 l  -3256 130 l  -3256 -119 l  -3506 -119 l  pc
-2941 241 m  -2941 491 l  -2691 491 l  -2691 241 l  -2941 241 l  p ef
-2941 241 m  -2941 491 l  -2691 491 l  -2691 241 l  -2941 241 l  pc
-2375 65 m  -2375 315 l  -2125 315 l  -2125 65 l  -2375 65 l  p ef
-2375 65 m  -2375 315 l  -2125 315 l  -2125 65 l  -2375 65 l  pc
-1809 204 m  -1809 454 l  -1559 454 l  -1559 204 l  -1809 204 l  p ef
-1809 204 m  -1809 454 l  -1559 454 l  -1559 204 l  -1809 204 l  pc
-1243 -313 m  -1243 -63 l  -993 -63 l  -993 -313 l  -1243 -313 l  p ef
-1243 -313 m  -1243 -63 l  -993 -63 l  -993 -313 l  -1243 -313 l  pc
-677 241 m  -677 491 l  -427 491 l  -427 241 l  -677 241 l  p ef
-677 241 m  -677 491 l  -427 491 l  -427 241 l  -677 241 l  pc
-111 48 m  -111 298 l  138 298 l  138 48 l  -111 48 l  p ef
-111 48 m  -111 298 l  138 298 l  138 48 l  -111 48 l  pc
454 -119 m  454 130 l  704 130 l  704 -119 l  454 -119 l  p ef
454 -119 m  454 130 l  704 130 l  704 -119 l  454 -119 l  pc
1020 -35 m  1020 214 l  1270 214 l  1270 -35 l  1020 -35 l  p ef
1020 -35 m  1020 214 l  1270 214 l  1270 -35 l  1020 -35 l  pc
1586 -52 m  1586 197 l  1836 197 l  1836 -52 l  1586 -52 l  p ef
1586 -52 m  1586 197 l  1836 197 l  1836 -52 l  1586 -52 l  pc
2152 -119 m  2152 130 l  2402 130 l  2402 -119 l  2152 -119 l  p ef
2152 -119 m  2152 130 l  2402 130 l  2402 -119 l  2152 -119 l  pc
2717 241 m  2717 491 l  2967 491 l  2967 241 l  2717 241 l  p ef
2717 241 m  2717 491 l  2967 491 l  2967 241 l  2717 241 l  pc
3283 65 m  3283 315 l  3533 315 l  3533 65 l  3283 65 l  p ef
3283 65 m  3283 315 l  3533 315 l  3533 65 l  3283 65 l  pc
3849 204 m  3849 454 l  4099 454 l  4099 204 l  3849 204 l  p ef
3849 204 m  3849 454 l  4099 454 l  4099 204 l  3849 204 l  pc
4415 -313 m  4415 -63 l  4665 -63 l  4665 -313 l  4415 -313 l  p ef
4415 -313 m  4415 -63 l  4665 -63 l  4665 -313 l  4415 -313 l  pc
4981 241 m  4981 491 l  5231 491 l  5231 241 l  4981 241 l  p ef
4981 241 m  4981 491 l  5231 491 l  5231 241 l  4981 241 l  pc
5547 48 m  5547 298 l  5797 298 l  5797 48 l  5547 48 l  p ef
5547 48 m  5547 298 l  5797 298 l  5797 48 l  5547 48 l  pc
6113 -119 m  6113 130 l  6363 130 l  6363 -119 l  6113 -119 l  p ef
6113 -119 m  6113 130 l  6363 130 l  6363 -119 l  6113 -119 l  pc
6679 -35 m  6679 214 l  6929 214 l  6929 -35 l  6679 -35 l  p ef
6679 -35 m  6679 214 l  6929 214 l  6929 -35 l  6679 -35 l  pc
7245 -52 m  7245 197 l  7495 197 l  7495 -52 l  7245 -52 l  p ef
7245 -52 m  7245 197 l  7495 197 l  7495 -52 l  7245 -52 l  pc
7811 -119 m  7811 130 l  8061 130 l  8061 -119 l  7811 -119 l  p ef
7811 -119 m  7811 130 l  8061 130 l  8061 -119 l  7811 -119 l  pc
79.99611 lw 1.000 0.261 0.058 c -8474 -1551 m  -8446 -1543 l  -8418 -1534 l 
-8390 -1525 l  -8361 -1516 l  -8333 -1506 l  -8305 -1496 l  -8276 -1484 l 
-8248 -1472 l  -8220 -1458 l  -8192 -1443 l  -8163 -1426 l  -8135 -1408 l 
-8107 -1388 l  -8078 -1366 l  -8050 -1342 l  -8022 -1316 l  -7993 -1287 l 
-7965 -1256 l  -7937 -1222 l  -7909 -1185 l  -7880 -1145 l  -7852 -1103 l 
-7824 -1059 l  -7795 -1014 l  -7767 -968 l  -7739 -921 l  -7711 -875 l 
-7682 -829 l  -7654 -785 l  -7626 -742 l  -7597 -701 l  -7569 -664 l  -7541 -630 l 
-7512 -599 l  -7484 -573 l  -7456 -553 l  -7428 -537 l  -7399 -528 l  -7371 -525 l 
-7343 -529 l  -7314 -540 l  -7286 -559 l  -7258 -583 l  -7230 -613 l  -7201 -647 l 
-7173 -685 l  -7145 -726 l  -7116 -769 l  -7088 -814 l  -7060 -859 l  -7031 -905 l 
-7003 -949 l  -6975 -992 l  -6947 -1033 l  -6918 -1070 l  -6890 -1104 l 
-6862 -1133 l  -6833 -1157 l  -6805 -1174 l  -6777 -1185 l  -6749 -1188 l 
-6720 -1184 l  -6692 -1174 l  -6664 -1158 l  -6635 -1137 l  -6607 -1112 l 
-6579 -1082 l  -6550 -1050 l  -6522 -1015 l  -6494 -979 l  -6466 -941 l 
-6437 -902 l  -6409 -864 l  -6381 -827 l  -6352 -791 l  -6324 -757 l  -6296 -726 l 
-6268 -698 l  -6239 -674 l  -6211 -655 l  -6183 -641 l  -6154 -632 l  -6126 -628 l 
-6098 -628 l  -6069 -631 l  -6041 -638 l  -6013 -649 l  -5985 -661 l  -5956 -677 l 
-5928 -694 l  -5900 -712 l  -5871 -732 l  -5843 -753 l  -5815 -774 l  -5786 -795 l 
-5758 -815 l  -5730 -835 l  -5702 -854 l  -5673 -871 l  -5645 -886 l  -5617 -900 l 
-5588 -911 l  -5560 -920 l  -5532 -927 l  -5504 -933 l  -5475 -937 l  -5447 -940 l 
-5419 -942 l  -5390 -943 l  -5362 -943 l  -5334 -943 l  -5305 -942 l  -5277 -941 l 
-5249 -939 l  -5221 -938 l  -5192 -937 l  -5164 -936 l  -5136 -935 l  -5107 -936 l 
-5079 -937 l  -5051 -939 l  -5023 -942 l  -4994 -946 l  -4966 -951 l  -4938 -957 l 
-4909 -963 l  -4881 -971 l  -4853 -979 l  -4824 -989 l  -4796 -999 l  -4768 -1009 l 
-4740 -1021 l  -4711 -1033 l  -4683 -1046 l  -4655 -1060 l  -4626 -1075 l 
-4598 -1090 l  -4570 -1105 l  -4542 -1122 l  -4513 -1139 l  -4485 -1156 l 
-4457 -1174 l  -4428 -1193 l  -4400 -1211 l  -4372 -1229 l  -4343 -1247 l 
-4315 -1264 l  -4287 -1281 l  -4259 -1297 l  -4230 -1312 l  -4202 -1326 l 
-4174 -1339 l  -4145 -1350 l  -4117 -1360 l  -4089 -1368 l  -4061 -1374 l 
-4032 -1378 l  -4004 -1379 l  -3976 -1378 l  -3947 -1374 l  -3919 -1368 l 
-3891 -1359 l  -3862 -1349 l  -3834 -1336 l  -3806 -1323 l  -3778 -1309 l 
-3749 -1294 l  -3721 -1280 l  -3693 -1266 l  -3664 -1254 l  -3636 -1242 l 
-3608 -1233 l  -3579 -1226 l  -3551 -1221 l  -3523 -1220 l  -3495 -1222 l 
-3466 -1228 l  -3438 -1238 l  -3410 -1253 l  -3381 -1273 l  -3353 -1299 l 
-3325 -1330 l  -3297 -1365 l  -3268 -1404 l  -3240 -1445 l  -3212 -1489 l 
-3183 -1535 l  -3155 -1581 l  -3127 -1628 l  -3098 -1674 l  -3070 -1719 l 
-3042 -1763 l  -3014 -1804 l  -2985 -1842 l  -2957 -1876 l  -2929 -1906 l 
-2900 -1931 l  -2872 -1950 l  -2844 -1962 l  -2816 -1968 l  -2787 -1966 l 
-2759 -1956 l  -2731 -1940 l  -2702 -1918 l  -2674 -1890 l  -2646 -1857 l 
-2617 -1819 l  -2589 -1778 l  -2561 -1733 l  -2533 -1685 l  -2504 -1634 l 
-2476 -1582 l  -2448 -1528 l  -2419 -1474 l  -2391 -1419 l  -2363 -1365 l 
-2335 -1311 l  -2306 -1259 l  -2278 -1208 l  -2250 -1160 l  -2221 -1115 l 
-2193 -1072 l  -2165 -1032 l  -2136 -996 l  -2108 -961 l  -2080 -930 l 
-2052 -901 l  -2023 -874 l  -1995 -850 l  -1967 -829 l  -1938 -809 l  -1910 -792 l 
-1882 -778 l  -1854 -765 l  -1825 -754 l  -1797 -746 l  -1769 -739 l  -1740 -735 l 
-1712 -732 l  -1684 -731 l  -1655 -731 l  -1627 -734 l  -1599 -738 l  -1571 -743 l 
-1542 -750 l  -1514 -759 l  -1486 -769 l  -1457 -780 l  -1429 -792 l  -1401 -806 l 
-1372 -821 l  -1344 -837 l  -1316 -853 l  -1288 -871 l  -1259 -890 l  -1231 -910 l 
-1203 -930 l  -1174 -951 l  -1146 -973 l  -1118 -996 l  -1090 -1019 l 
-1061 -1042 l  -1033 -1066 l  -1005 -1089 l  -976 -1113 l  -948 -1135 l 
-920 -1158 l  -891 -1179 l  -863 -1199 l  -835 -1219 l  -807 -1236 l  -778 -1252 l 
-750 -1267 l  -722 -1279 l  -693 -1289 l  -665 -1296 l  -637 -1301 l  -609 -1304 l 
-580 -1303 l  -552 -1299 l  -524 -1291 l  -495 -1281 l  -467 -1267 l  -439 -1252 l 
-410 -1234 l  -382 -1214 l  -354 -1192 l  -326 -1169 l  -297 -1145 l  -269 -1121 l 
-241 -1096 l  -212 -1071 l  -184 -1046 l  -156 -1022 l  -128 -998 l  -99 -976 l 
-71 -955 l  -43 -935 l  -14 -918 l  13 -903 l  41 -891 l  70 -881 l  98 -873 l 
126 -868 l  154 -865 l  183 -864 l  211 -865 l  239 -867 l  268 -871 l 
296 -877 l  324 -884 l  352 -892 l  381 -901 l  409 -912 l  437 -923 l 
466 -935 l  494 -947 l  522 -960 l  551 -974 l  579 -987 l  607 -1001 l 
635 -1015 l  664 -1029 l  692 -1043 l  720 -1057 l  749 -1071 l  777 -1084 l 
805 -1098 l  833 -1112 l  862 -1125 l  890 -1138 l  918 -1151 l  947 -1163 l 
975 -1175 l  1003 -1187 l  1032 -1199 l  1060 -1210 l  1088 -1220 l  1116 -1230 l 
1145 -1240 l  1173 -1249 l  1201 -1257 l  1230 -1265 l  1258 -1272 l  1286 -1278 l 
1315 -1283 l  1343 -1287 l  1371 -1290 l  1399 -1292 l  1428 -1293 l  1456 -1292 l 
1484 -1291 l  1513 -1288 l  1541 -1283 l  1569 -1277 l  1597 -1270 l  1626 -1261 l 
1654 -1250 l  1682 -1237 l  1711 -1223 l  1739 -1207 l  1767 -1189 l  1796 -1170 l 
1824 -1151 l  1852 -1131 l  1880 -1110 l  1909 -1091 l  1937 -1072 l  1965 -1054 l 
1994 -1038 l  2022 -1023 l  2050 -1011 l  2078 -1001 l  2107 -994 l  2135 -991 l 
2163 -992 l  2192 -996 l  2220 -1005 l  2248 -1019 l  2277 -1038 l  2305 -1062 l 
2333 -1092 l  2361 -1125 l  2390 -1163 l  2418 -1203 l  2446 -1245 l  2475 -1289 l 
2503 -1334 l  2531 -1380 l  2559 -1424 l  2588 -1468 l  2616 -1510 l  2644 -1550 l 
2673 -1586 l  2701 -1619 l  2729 -1647 l  2758 -1670 l  2786 -1688 l  2814 -1699 l 
2842 -1703 l  2871 -1699 l  2899 -1688 l  2927 -1671 l  2956 -1648 l  2984 -1620 l 
3012 -1588 l  3040 -1552 l  3069 -1512 l  3097 -1471 l  3125 -1427 l  3154 -1383 l 
3182 -1338 l  3210 -1294 l  3239 -1250 l  3267 -1208 l  3295 -1168 l  3323 -1132 l 
3352 -1099 l  3380 -1070 l  3408 -1046 l  3437 -1028 l  3465 -1015 l  3493 -1007 l 
3522 -1004 l  3550 -1005 l  3578 -1010 l  3606 -1018 l  3635 -1030 l  3663 -1044 l 
3691 -1062 l  3720 -1081 l  3748 -1102 l  3776 -1125 l  3804 -1149 l  3833 -1174 l 
3861 -1199 l  3889 -1225 l  3918 -1250 l  3946 -1275 l  3974 -1299 l  4003 -1321 l 
4031 -1343 l  4059 -1363 l  4087 -1381 l  4116 -1399 l  4144 -1414 l  4172 -1428 l 
4201 -1440 l  4229 -1450 l  4257 -1459 l  4285 -1465 l  4314 -1470 l  4342 -1472 l 
4370 -1473 l  4399 -1471 l  4427 -1466 l  4455 -1460 l  4484 -1451 l  4512 -1439 l 
4540 -1425 l  4568 -1408 l  4597 -1389 l  4625 -1368 l  4653 -1345 l  4682 -1320 l 
4710 -1293 l  4738 -1266 l  4766 -1238 l  4795 -1209 l  4823 -1179 l  4851 -1150 l 
4880 -1121 l  4908 -1092 l  4936 -1063 l  4965 -1036 l  4993 -1009 l  5021 -984 l 
5049 -961 l  5078 -939 l  5106 -920 l  5134 -903 l  5163 -888 l  5191 -875 l 
5219 -865 l  5247 -855 l  5276 -848 l  5304 -842 l  5332 -838 l  5361 -834 l 
5389 -832 l  5417 -831 l  5446 -830 l  5474 -830 l  5502 -831 l  5530 -832 l 
5559 -833 l  5587 -834 l  5615 -835 l  5644 -836 l  5672 -836 l  5700 -836 l 
5729 -835 l  5757 -834 l  5785 -833 l  5813 -832 l  5842 -831 l  5870 -831 l 
5898 -830 l  5927 -831 l  5955 -831 l  5983 -833 l  6011 -835 l  6040 -839 l 
6068 -844 l  6096 -850 l  6125 -857 l  6153 -866 l  6181 -876 l  6210 -889 l 
6238 -903 l  6266 -920 l  6294 -938 l  6323 -957 l  6351 -979 l  6379 -1001 l 
6408 -1024 l  6436 -1047 l  6464 -1071 l  6492 -1095 l  6521 -1119 l  6549 -1142 l 
6577 -1164 l  6606 -1186 l  6634 -1207 l  6662 -1226 l  6691 -1243 l  6719 -1258 l 
6747 -1271 l  6775 -1282 l  6804 -1290 l  6832 -1296 l  6860 -1298 l  6889 -1298 l 
6917 -1296 l  6945 -1291 l  6973 -1285 l  7002 -1277 l  7030 -1268 l  7058 -1257 l 
7087 -1246 l  7115 -1233 l  7143 -1220 l  7172 -1207 l  7200 -1194 l  7228 -1180 l 
7256 -1167 l  7285 -1155 l  7313 -1143 l  7341 -1132 l  7370 -1122 l  7398 -1114 l 
7426 -1106 l  7454 -1101 l  7483 -1096 l  7511 -1092 l  7539 -1089 l  7568 -1088 l 
7596 -1087 l  7624 -1087 l  7653 -1088 l  7681 -1089 l  7709 -1091 l  7737 -1094 l 
7766 -1097 l  7794 -1101 l  7822 -1105 l  7851 -1109 l  7879 -1113 l  7907 -1117 l 
7936 -1122 l  ps
-8599 -1551 m  -8474 -1426 l  -8349 -1551 l  -8474 -1676 l  -8599 -1551 l 
p ef
0 lw -8599 -1551 m  -8474 -1426 l  -8349 -1551 l  -8474 -1676 l  -8599 -1551 l 
pc
-8034 -1185 m  -7909 -1060 l  -7784 -1185 l  -7909 -1310 l  -8034 -1185 l 
p ef
-8034 -1185 m  -7909 -1060 l  -7784 -1185 l  -7909 -1310 l  -8034 -1185 l 
pc
-7468 -529 m  -7343 -404 l  -7218 -529 l  -7343 -654 l  -7468 -529 l  p ef
-7468 -529 m  -7343 -404 l  -7218 -529 l  -7343 -654 l  -7468 -529 l  pc
-6902 -1185 m  -6777 -1060 l  -6652 -1185 l  -6777 -1310 l  -6902 -1185 l 
p ef
-6902 -1185 m  -6777 -1060 l  -6652 -1185 l  -6777 -1310 l  -6902 -1185 l 
pc
-6336 -655 m  -6211 -530 l  -6086 -655 l  -6211 -780 l  -6336 -655 l  p ef
-6336 -655 m  -6211 -530 l  -6086 -655 l  -6211 -780 l  -6336 -655 l  pc
-5770 -886 m  -5645 -761 l  -5520 -886 l  -5645 -1011 l  -5770 -886 l 
p ef
-5770 -886 m  -5645 -761 l  -5520 -886 l  -5645 -1011 l  -5770 -886 l 
pc
-5204 -937 m  -5079 -812 l  -4954 -937 l  -5079 -1062 l  -5204 -937 l 
p ef
-5204 -937 m  -5079 -812 l  -4954 -937 l  -5079 -1062 l  -5204 -937 l 
pc
-4638 -1139 m  -4513 -1014 l  -4388 -1139 l  -4513 -1264 l  -4638 -1139 l 
p ef
-4638 -1139 m  -4513 -1014 l  -4388 -1139 l  -4513 -1264 l  -4638 -1139 l 
pc
-4072 -1374 m  -3947 -1249 l  -3822 -1374 l  -3947 -1499 l  -4072 -1374 l 
p ef
-4072 -1374 m  -3947 -1249 l  -3822 -1374 l  -3947 -1499 l  -4072 -1374 l 
pc
-3506 -1273 m  -3381 -1148 l  -3256 -1273 l  -3381 -1398 l  -3506 -1273 l 
p ef
-3506 -1273 m  -3381 -1148 l  -3256 -1273 l  -3381 -1398 l  -3506 -1273 l 
pc
-2941 -1968 m  -2816 -1843 l  -2691 -1968 l  -2816 -2093 l  -2941 -1968 l 
p ef
-2941 -1968 m  -2816 -1843 l  -2691 -1968 l  -2816 -2093 l  -2941 -1968 l 
pc
-2375 -1160 m  -2250 -1035 l  -2125 -1160 l  -2250 -1285 l  -2375 -1160 l 
p ef
-2375 -1160 m  -2250 -1035 l  -2125 -1160 l  -2250 -1285 l  -2375 -1160 l 
pc
-1809 -731 m  -1684 -606 l  -1559 -731 l  -1684 -856 l  -1809 -731 l  p ef
-1809 -731 m  -1684 -606 l  -1559 -731 l  -1684 -856 l  -1809 -731 l  pc
-1243 -996 m  -1118 -871 l  -993 -996 l  -1118 -1121 l  -1243 -996 l  p ef
-1243 -996 m  -1118 -871 l  -993 -996 l  -1118 -1121 l  -1243 -996 l  pc
-677 -1299 m  -552 -1174 l  -427 -1299 l  -552 -1424 l  -677 -1299 l  p ef
-677 -1299 m  -552 -1174 l  -427 -1299 l  -552 -1424 l  -677 -1299 l  pc
-111 -903 m  13 -778 l  138 -903 l  13 -1028 l  -111 -903 l  p ef
-111 -903 m  13 -778 l  138 -903 l  13 -1028 l  -111 -903 l  pc
454 -987 m  579 -862 l  704 -987 l  579 -1112 l  454 -987 l  p ef
454 -987 m  579 -862 l  704 -987 l  579 -1112 l  454 -987 l  pc
1020 -1240 m  1145 -1115 l  1270 -1240 l  1145 -1365 l  1020 -1240 l  p ef
1020 -1240 m  1145 -1115 l  1270 -1240 l  1145 -1365 l  1020 -1240 l  pc
1586 -1223 m  1711 -1098 l  1836 -1223 l  1711 -1348 l  1586 -1223 l  p ef
1586 -1223 m  1711 -1098 l  1836 -1223 l  1711 -1348 l  1586 -1223 l  pc
2152 -1038 m  2277 -913 l  2402 -1038 l  2277 -1163 l  2152 -1038 l  p ef
2152 -1038 m  2277 -913 l  2402 -1038 l  2277 -1163 l  2152 -1038 l  pc
2717 -1703 m  2842 -1578 l  2967 -1703 l  2842 -1828 l  2717 -1703 l  p ef
2717 -1703 m  2842 -1578 l  2967 -1703 l  2842 -1828 l  2717 -1703 l  pc
3283 -1046 m  3408 -921 l  3533 -1046 l  3408 -1171 l  3283 -1046 l  p ef
3283 -1046 m  3408 -921 l  3533 -1046 l  3408 -1171 l  3283 -1046 l  pc
3849 -1299 m  3974 -1174 l  4099 -1299 l  3974 -1424 l  3849 -1299 l  p ef
3849 -1299 m  3974 -1174 l  4099 -1299 l  3974 -1424 l  3849 -1299 l  pc
4415 -1425 m  4540 -1300 l  4665 -1425 l  4540 -1550 l  4415 -1425 l  p ef
4415 -1425 m  4540 -1300 l  4665 -1425 l  4540 -1550 l  4415 -1425 l  pc
4981 -920 m  5106 -795 l  5231 -920 l  5106 -1045 l  4981 -920 l  p ef
4981 -920 m  5106 -795 l  5231 -920 l  5106 -1045 l  4981 -920 l  pc
5547 -836 m  5672 -711 l  5797 -836 l  5672 -961 l  5547 -836 l  p ef
5547 -836 m  5672 -711 l  5797 -836 l  5672 -961 l  5547 -836 l  pc
6113 -903 m  6238 -778 l  6363 -903 l  6238 -1028 l  6113 -903 l  p ef
6113 -903 m  6238 -778 l  6363 -903 l  6238 -1028 l  6113 -903 l  pc
6679 -1290 m  6804 -1165 l  6929 -1290 l  6804 -1415 l  6679 -1290 l  p ef
6679 -1290 m  6804 -1165 l  6929 -1290 l  6804 -1415 l  6679 -1290 l  pc
7245 -1122 m  7370 -997 l  7495 -1122 l  7370 -1247 l  7245 -1122 l  p ef
7245 -1122 m  7370 -997 l  7495 -1122 l  7370 -1247 l  7245 -1122 l  pc
7811 -1122 m  7936 -997 l  8061 -1122 l  7936 -1247 l  7811 -1122 l  p ef
7811 -1122 m  7936 -997 l  8061 -1122 l  7936 -1247 l  7811 -1122 l  pc
0.003 0.003 0.003 c
/Helvetica f
353 sf -8567 4242 m  185 0 (1) bs
/Helvetica f
353 sf -8002 4242 m  185 0 (2) bs
/Helvetica f
353 sf -7436 4242 m  185 0 (3) bs
/Helvetica f
353 sf -6870 4242 m  185 0 (4) bs
/Helvetica f
353 sf -6304 4242 m  185 0 (5) bs
/Helvetica f
353 sf -5738 4242 m  185 0 (6) bs
/Helvetica f
353 sf -5172 4242 m  185 0 (7) bs
/Helvetica f
353 sf -4606 4242 m  185 0 (8) bs
/Helvetica f
353 sf -4040 4242 m  185 0 (9) bs
/Helvetica f
353 sf -3566 4242 m  185 0 (1) bs
185 185 (0) bs
/Helvetica f
353 sf -2988 4242 m  185 0 (1) bs
185 159 (1) bs
/Helvetica f
353 sf -2435 4242 m  185 0 (1) bs
185 185 (2) bs
/Helvetica f
353 sf -1869 4242 m  185 0 (1) bs
185 185 (3) bs
/Helvetica f
353 sf -1303 4242 m  185 0 (1) bs
185 185 (4) bs
/Helvetica f
353 sf -737 4242 m  185 0 (1) bs
185 185 (5) bs
/Helvetica f
353 sf -171 4242 m  185 0 (1) bs
185 185 (6) bs
/Helvetica f
353 sf 395 4242 m  185 0 (1) bs
185 185 (7) bs
/Helvetica f
353 sf 961 4242 m  185 0 (1) bs
185 185 (8) bs
/Helvetica f
353 sf 1527 4242 m  185 0 (1) bs
185 185 (9) bs
/Helvetica f
353 sf 2093 4242 m  185 0 (2) bs
185 185 (0) bs
/Helvetica f
353 sf 2658 4242 m  185 0 (2) bs
185 185 (1) bs
/Helvetica f
353 sf 3224 4242 m  185 0 (2) bs
185 185 (2) bs
/Helvetica f
353 sf 3790 4242 m  185 0 (2) bs
185 185 (3) bs
/Helvetica f
353 sf 4356 4242 m  185 0 (2) bs
185 185 (4) bs
/Helvetica f
353 sf 4922 4242 m  185 0 (2) bs
185 185 (5) bs
/Helvetica f
353 sf 5488 4242 m  185 0 (2) bs
185 185 (6) bs
/Helvetica f
353 sf 6054 4242 m  185 0 (2) bs
185 185 (7) bs
/Helvetica f
353 sf 6620 4242 m  185 0 (2) bs
185 185 (8) bs
/Helvetica f
353 sf 7186 4242 m  185 0 (2) bs
185 185 (9) bs
/Helvetica f
353 sf 7752 4242 m  185 0 (3) bs
185 185 (0) bs
/Helvetica f
353 sf -9703 3795 m  185 0 (0) bs
106 185 (,) bs
185 291 (0) bs
185 476 (0) bs
318 661 (%) bs
/Helvetica f
353 sf -9888 2956 m  185 0 (1) bs
185 185 (0) bs
106 370 (,) bs
185 476 (0) bs
185 661 (0) bs
318 847 (%) bs
/Helvetica f
353 sf -9888 2118 m  185 0 (2) bs
185 185 (0) bs
106 370 (,) bs
185 476 (0) bs
185 661 (0) bs
318 847 (%) bs
/Helvetica f
353 sf -9888 1280 m  185 0 (3) bs
185 185 (0) bs
106 370 (,) bs
185 476 (0) bs
185 661 (0) bs
318 847 (%) bs
/Helvetica f
353 sf -9888 442 m  185 0 (4) bs
185 185 (0) bs
106 370 (,) bs
185 476 (0) bs
185 661 (0) bs
318 847 (%) bs
/Helvetica f
353 sf -9888 -396 m  185 0 (5) bs
185 185 (0) bs
106 370 (,) bs
185 476 (0) bs
185 661 (0) bs
318 847 (%) bs
/Helvetica f
353 sf -9888 -1234 m  185 0 (6) bs
185 185 (0) bs
106 370 (,) bs
185 476 (0) bs
185 661 (0) bs
318 847 (%) bs
/Helvetica f
353 sf -9888 -2072 m  185 0 (7) bs
185 185 (0) bs
106 370 (,) bs
185 476 (0) bs
185 661 (0) bs
318 847 (%) bs
/Helvetica f
353 sf -9888 -2910 m  185 0 (8) bs
185 185 (0) bs
106 370 (,) bs
185 476 (0) bs
185 661 (0) bs
318 847 (%) bs
/Helvetica f
459 sf -2342 -3652 m  159 0 (r) bs
238 159 (e) bs
238 397 (p) bs
238 635 (o) bs
159 873 (r) bs
106 1032 (t) bs
238 1138 (_) bs
238 1376 (8) bs
238 1614 (_) bs
238 1852 (2) bs
238 2090 (_) bs
238 2328 (1) bs
132 2566 ( ) bs
159 2699 (-) bs
132 2858 ( ) bs
238 2990 (p) bs
159 3228 (r) bs
238 3387 (e) bs
238 3625 (d) bs
106 3863 (i) bs
238 3969 (c) bs
106 4207 (t) bs
132 4313 ( ) bs
238 4445 (5) bs
79.99611 lw 0.003 0.273 0.527 c 8650 -250 m  9450 -250 l  ps
8944 -355 m  8944 -144 l  9155 -144 l  9155 -355 l  8944 -355 l  p ef
0 lw 8944 -355 m  8944 -144 l  9155 -144 l  9155 -355 l  8944 -355 l  pc
79.99611 lw 1.000 0.261 0.058 c 8650 247 m  9450 247 l  ps
8944 247 m  9050 353 l  9155 247 l  9050 142 l  8944 247 l  p ef
0 lw 8944 247 m  9050 353 l  9155 247 l  9050 142 l  8944 247 l  pc
0.003 0.003 0.003 c
/Helvetica f
353 sf 9550 -130 m  238 0 (H) bs
185 238 (e) bs
/Helvetica f
353 sf 9550 367 m  238 0 (K) bs
185 238 (e) bs
0 9006 t 
pom
count op_count sub {pop} repeat countdictstack dict_count sub {end} repeat b4_inc_state restore
%%PageTrailer
%%Trailer
%%EOF
