%!PS-Adobe-3.0 EPSF-3.0 
%%BoundingBox: 0 0 584 255
%%Pages: 0
%%Creator: LibreOffice 4.4
%%Title: none
%%CreationDate: none
%%LanguageLevel: 2
%%EndComments
%%BeginProlog
%%BeginResource: procset SDRes-Prolog 1.0 0
/b4_inc_state save def
/dict_count countdictstack def
/op_count count 1 sub def
userdict begin
0 setgray 0 setlinecap 1 setlinewidth 0 setlinejoin 10 setmiterlimit[] 0 setdash newpath
/languagelevel where {pop languagelevel 1 ne {false setstrokeadjust false setoverprint} if} if
/bdef {bind def} bind def
/c {setrgbcolor} bdef
/l {neg lineto} bdef
/rl {neg rlineto} bdef
/lc {setlinecap} bdef
/lj {setlinejoin} bdef
/lw {setlinewidth} bdef
/ml {setmiterlimit} bdef
/ld {setdash} bdef
/m {neg moveto} bdef
/ct {6 2 roll neg 6 2 roll neg 6 2 roll neg curveto} bdef
/r {rotate} bdef
/t {neg translate} bdef
/s {scale} bdef
/sw {show} bdef
/gs {gsave} bdef
/gr {grestore} bdef
/f {findfont dup length dict begin
{1 index /FID ne {def} {pop pop} ifelse} forall /Encoding ISOLatin1Encoding def
currentdict end /NFont exch definefont pop /NFont findfont} bdef
/p {closepath} bdef
/sf {scalefont setfont} bdef
/ef {eofill}bdef
/pc {closepath stroke}bdef
/ps {stroke}bdef
/pum {matrix currentmatrix}bdef
/pom {setmatrix}bdef
/bs {/aString exch def /nXOfs exch def /nWidth exch def currentpoint nXOfs 0 rmoveto pum nWidth aString stringwidth pop div 1 scale aString show pom moveto} bdef
%%EndResource
%%EndProlog
%%BeginSetup
%%EndSetup
%%Page: 1 1
%%BeginPageSetup
%%EndPageSetup
pum
0.02834 0.02831 s 
0 -9006 t
/tm matrix currentmatrix def
tm setmatrix
10301 4503 t 
1 1 s 
1.000 1.000 1.000 c 0 4502 m  -10301 4502 l  -10301 -4503 l  10301 -4503 l 
10301 4502 l  0 4502 l  p ef
0 lw 1 lj 0.703 0.703 0.703 c -269 3675 m  -8474 3675 l  -8474 -3029 l 
7936 -3029 l  7936 3675 l  -269 3675 l  pc
7936 3674 m  -8474 3674 l  ps
7936 2835 m  -8474 2835 l  ps
7936 1997 m  -8474 1997 l  ps
7936 1159 m  -8474 1159 l  ps
7936 321 m  -8474 321 l  ps
7936 -516 m  -8474 -516 l  ps
7936 -1354 m  -8474 -1354 l  ps
7936 -2192 m  -8474 -2192 l  ps
7936 -3030 m  -8474 -3030 l  ps
-8474 3824 m  -8474 3674 l  ps
-8474 3824 m  -8474 3674 l  ps
-7909 3824 m  -7909 3674 l  ps
-7909 3824 m  -7909 3674 l  ps
-7343 3824 m  -7343 3674 l  ps
-7343 3824 m  -7343 3674 l  ps
-6777 3824 m  -6777 3674 l  ps
-6777 3824 m  -6777 3674 l  ps
-6211 3824 m  -6211 3674 l  ps
-6211 3824 m  -6211 3674 l  ps
-5645 3824 m  -5645 3674 l  ps
-5645 3824 m  -5645 3674 l  ps
-5079 3824 m  -5079 3674 l  ps
-5079 3824 m  -5079 3674 l  ps
-4513 3824 m  -4513 3674 l  ps
-4513 3824 m  -4513 3674 l  ps
-3947 3824 m  -3947 3674 l  ps
-3947 3824 m  -3947 3674 l  ps
-3381 3824 m  -3381 3674 l  ps
-3381 3824 m  -3381 3674 l  ps
-2816 3824 m  -2816 3674 l  ps
-2816 3824 m  -2816 3674 l  ps
-2250 3824 m  -2250 3674 l  ps
-2250 3824 m  -2250 3674 l  ps
-1684 3824 m  -1684 3674 l  ps
-1684 3824 m  -1684 3674 l  ps
-1118 3824 m  -1118 3674 l  ps
-1118 3824 m  -1118 3674 l  ps
-552 3824 m  -552 3674 l  ps
-552 3824 m  -552 3674 l  ps
13 3824 m  13 3674 l  ps
13 3824 m  13 3674 l  ps
579 3824 m  579 3674 l  ps
579 3824 m  579 3674 l  ps
1145 3824 m  1145 3674 l  ps
1145 3824 m  1145 3674 l  ps
1711 3824 m  1711 3674 l  ps
1711 3824 m  1711 3674 l  ps
2277 3824 m  2277 3674 l  ps
2277 3824 m  2277 3674 l  ps
2842 3824 m  2842 3674 l  ps
2842 3824 m  2842 3674 l  ps
3408 3824 m  3408 3674 l  ps
3408 3824 m  3408 3674 l  ps
3974 3824 m  3974 3674 l  ps
3974 3824 m  3974 3674 l  ps
4540 3824 m  4540 3674 l  ps
4540 3824 m  4540 3674 l  ps
5106 3824 m  5106 3674 l  ps
5106 3824 m  5106 3674 l  ps
5672 3824 m  5672 3674 l  ps
5672 3824 m  5672 3674 l  ps
6238 3824 m  6238 3674 l  ps
6238 3824 m  6238 3674 l  ps
6804 3824 m  6804 3674 l  ps
6804 3824 m  6804 3674 l  ps
7370 3824 m  7370 3674 l  ps
7370 3824 m  7370 3674 l  ps
7936 3824 m  7936 3674 l  ps
7936 3824 m  7936 3674 l  ps
-8474 3674 m  7936 3674 l  ps
-8624 3674 m  -8474 3674 l  ps
-8624 3674 m  -8474 3674 l  ps
-8624 2835 m  -8474 2835 l  ps
-8624 2835 m  -8474 2835 l  ps
-8624 1997 m  -8474 1997 l  ps
-8624 1997 m  -8474 1997 l  ps
-8624 1159 m  -8474 1159 l  ps
-8624 1159 m  -8474 1159 l  ps
-8624 321 m  -8474 321 l  ps
-8624 321 m  -8474 321 l  ps
-8624 -516 m  -8474 -516 l  ps
-8624 -516 m  -8474 -516 l  ps
-8624 -1354 m  -8474 -1354 l  ps
-8624 -1354 m  -8474 -1354 l  ps
-8624 -2192 m  -8474 -2192 l  ps
-8624 -2192 m  -8474 -2192 l  ps
-8624 -3030 m  -8474 -3030 l  ps
-8624 -3030 m  -8474 -3030 l  ps
-8474 3674 m  -8474 -3030 l  ps
79.99611 lw 0.003 0.273 0.527 c -8474 366 m  -8446 350 l  -8418 333 l  -8390 317 l 
-8361 301 l  -8333 286 l  -8305 271 l  -8276 257 l  -8248 244 l  -8220 231 l 
-8192 220 l  -8163 210 l  -8135 201 l  -8107 193 l  -8078 188 l  -8050 183 l 
-8022 181 l  -7993 180 l  -7965 181 l  -7937 184 l  -7909 190 l  -7880 197 l 
-7852 207 l  -7824 219 l  -7795 231 l  -7767 245 l  -7739 259 l  -7711 273 l 
-7682 288 l  -7654 302 l  -7626 315 l  -7597 327 l  -7569 338 l  -7541 346 l 
-7512 353 l  -7484 357 l  -7456 358 l  -7428 357 l  -7399 351 l  -7371 342 l 
-7343 329 l  -7314 311 l  -7286 289 l  -7258 264 l  -7230 235 l  -7201 204 l 
-7173 172 l  -7145 138 l  -7116 103 l  -7088 68 l  -7060 33 l  -7031 -1 l 
-7003 -33 l  -6975 -65 l  -6947 -93 l  -6918 -119 l  -6890 -142 l  -6862 -161 l 
-6833 -175 l  -6805 -184 l  -6777 -188 l  -6749 -186 l  -6720 -178 l  -6692 -165 l 
-6664 -148 l  -6635 -127 l  -6607 -101 l  -6579 -73 l  -6550 -42 l  -6522 -9 l 
-6494 25 l  -6466 61 l  -6437 99 l  -6409 136 l  -6381 173 l  -6352 210 l 
-6324 245 l  -6296 279 l  -6268 311 l  -6239 340 l  -6211 366 l  -6183 389 l 
-6154 409 l  -6126 425 l  -6098 439 l  -6069 449 l  -6041 457 l  -6013 462 l 
-5985 465 l  -5956 465 l  -5928 464 l  -5900 460 l  -5871 455 l  -5843 448 l 
-5815 439 l  -5786 430 l  -5758 419 l  -5730 407 l  -5702 394 l  -5673 380 l 
-5645 366 l  -5617 352 l  -5588 337 l  -5560 322 l  -5532 308 l  -5504 293 l 
-5475 279 l  -5447 265 l  -5419 252 l  -5390 239 l  -5362 227 l  -5334 217 l 
-5305 207 l  -5277 199 l  -5249 192 l  -5221 187 l  -5192 184 l  -5164 182 l 
-5136 182 l  -5107 185 l  -5079 190 l  -5051 197 l  -5023 206 l  -4994 217 l 
-4966 230 l  -4938 243 l  -4909 257 l  -4881 271 l  -4853 286 l  -4824 300 l 
-4796 313 l  -4768 325 l  -4740 336 l  -4711 345 l  -4683 352 l  -4655 356 l 
-4626 358 l  -4598 356 l  -4570 351 l  -4542 342 l  -4513 329 l  -4485 311 l 
-4457 289 l  -4428 264 l  -4400 236 l  -4372 205 l  -4343 172 l  -4315 138 l 
-4287 103 l  -4259 68 l  -4230 33 l  -4202 -1 l  -4174 -33 l  -4145 -64 l 
-4117 -93 l  -4089 -119 l  -4061 -142 l  -4032 -161 l  -4004 -175 l  -3976 -184 l 
-3947 -188 l  -3919 -186 l  -3891 -178 l  -3862 -165 l  -3834 -148 l  -3806 -127 l 
-3778 -102 l  -3749 -73 l  -3721 -42 l  -3693 -9 l  -3664 25 l  -3636 61 l 
-3608 98 l  -3579 136 l  -3551 173 l  -3523 210 l  -3495 245 l  -3466 279 l 
-3438 311 l  -3410 340 l  -3381 366 l  -3353 389 l  -3325 409 l  -3297 425 l 
-3268 439 l  -3240 449 l  -3212 457 l  -3183 462 l  -3155 465 l  -3127 465 l 
-3098 464 l  -3070 460 l  -3042 455 l  -3014 448 l  -2985 439 l  -2957 430 l 
-2929 419 l  -2900 407 l  -2872 394 l  -2844 380 l  -2816 366 l  -2787 352 l 
-2759 337 l  -2731 323 l  -2702 308 l  -2674 293 l  -2646 279 l  -2617 265 l 
-2589 252 l  -2561 239 l  -2533 228 l  -2504 217 l  -2476 208 l  -2448 199 l 
-2419 193 l  -2391 187 l  -2363 184 l  -2335 182 l  -2306 183 l  -2278 185 l 
-2250 190 l  -2221 197 l  -2193 206 l  -2165 217 l  -2136 229 l  -2108 242 l 
-2080 256 l  -2052 270 l  -2023 284 l  -1995 298 l  -1967 311 l  -1938 323 l 
-1910 334 l  -1882 343 l  -1854 350 l  -1825 354 l  -1797 356 l  -1769 355 l 
-1740 350 l  -1712 341 l  -1684 329 l  -1655 311 l  -1627 290 l  -1599 266 l 
-1571 238 l  -1542 209 l  -1514 177 l  -1486 143 l  -1457 109 l  -1429 75 l 
-1401 40 l  -1372 6 l  -1344 -26 l  -1316 -57 l  -1288 -86 l  -1259 -113 l 
-1231 -136 l  -1203 -156 l  -1174 -171 l  -1146 -182 l  -1118 -188 l  -1090 -188 l 
-1061 -183 l  -1033 -173 l  -1005 -159 l  -976 -140 l  -948 -118 l  -920 -92 l 
-891 -63 l  -863 -32 l  -835 0 l  -807 35 l  -778 72 l  -750 109 l  -722 147 l 
-693 185 l  -665 224 l  -637 261 l  -609 298 l  -580 333 l  -552 366 l 
-524 398 l  -495 427 l  -467 455 l  -439 481 l  -410 505 l  -382 527 l 
-354 548 l  -326 567 l  -297 585 l  -269 602 l  -241 617 l  -212 632 l 
-184 646 l  -156 659 l  -128 671 l  -99 682 l  -71 693 l  -43 703 l  -14 714 l 
13 723 l  41 733 l  70 743 l  98 753 l  126 763 l  154 773 l  183 784 l 
211 796 l  239 809 l  268 822 l  296 837 l  324 853 l  352 870 l  381 889 l 
409 909 l  437 932 l  466 956 l  494 982 l  522 1011 l  551 1042 l  579 1075 l 
607 1111 l  635 1149 l  664 1189 l  692 1229 l  720 1269 l  749 1310 l 
777 1349 l  805 1387 l  833 1423 l  862 1456 l  890 1485 l  918 1511 l 
947 1532 l  975 1548 l  1003 1559 l  1032 1563 l  1060 1560 l  1088 1550 l 
1116 1532 l  1145 1505 l  1173 1469 l  1201 1425 l  1230 1373 l  1258 1315 l 
1286 1251 l  1315 1183 l  1343 1111 l  1371 1037 l  1399 960 l  1428 883 l 
1456 806 l  1484 730 l  1513 656 l  1541 585 l  1569 518 l  1597 456 l 
1626 400 l  1654 350 l  1682 308 l  1711 274 l  1739 250 l  1767 234 l 
1796 227 l  1824 227 l  1852 234 l  1880 247 l  1909 265 l  1937 288 l 
1965 316 l  1994 346 l  2022 379 l  2050 414 l  2078 451 l  2107 488 l 
2135 525 l  2163 561 l  2192 596 l  2220 628 l  2248 658 l  2277 684 l 
2305 707 l  2333 725 l  2361 740 l  2390 751 l  2418 760 l  2446 765 l 
2475 769 l  2503 770 l  2531 769 l  2559 767 l  2588 763 l  2616 759 l 
2644 754 l  2673 748 l  2701 742 l  2729 737 l  2758 732 l  2786 728 l 
2814 725 l  2842 723 l  2871 723 l  2899 725 l  2927 729 l  2956 734 l 
2984 741 l  3012 750 l  3040 760 l  3069 773 l  3097 787 l  3125 803 l 
3154 821 l  3182 842 l  3210 864 l  3239 888 l  3267 914 l  3295 942 l 
3323 972 l  3352 1004 l  3380 1039 l  3408 1075 l  3437 1114 l  3465 1154 l 
3493 1195 l  3522 1237 l  3550 1278 l  3578 1319 l  3606 1359 l  3635 1397 l 
3663 1432 l  3691 1465 l  3720 1494 l  3748 1519 l  3776 1539 l  3804 1554 l 
3833 1564 l  3861 1567 l  3889 1563 l  3918 1552 l  3946 1533 l  3974 1505 l 
4003 1468 l  4031 1423 l  4059 1371 l  4087 1313 l  4116 1249 l  4144 1181 l 
4172 1109 l  4201 1034 l  4229 958 l  4257 881 l  4285 804 l  4314 728 l 
4342 655 l  4370 584 l  4399 517 l  4427 455 l  4455 399 l  4484 349 l 
4512 307 l  4540 274 l  4568 250 l  4597 235 l  4625 227 l  4653 228 l 
4682 235 l  4710 248 l  4738 266 l  4766 289 l  4795 316 l  4823 347 l 
4851 380 l  4880 415 l  4908 451 l  4936 488 l  4965 525 l  4993 561 l 
5021 596 l  5049 628 l  5078 658 l  5106 684 l  5134 707 l  5163 725 l 
5191 739 l  5219 751 l  5247 759 l  5276 765 l  5304 768 l  5332 769 l 
5361 768 l  5389 766 l  5417 763 l  5446 758 l  5474 753 l  5502 748 l 
5530 742 l  5559 737 l  5587 732 l  5615 728 l  5644 725 l  5672 723 l 
5700 724 l  5729 726 l  5757 729 l  5785 735 l  5813 742 l  5842 751 l 
5870 761 l  5898 774 l  5927 789 l  5955 805 l  5983 823 l  6011 843 l 
6040 865 l  6068 889 l  6096 915 l  6125 943 l  6153 973 l  6181 1005 l 
6210 1039 l  6238 1075 l  6266 1113 l  6294 1153 l  6323 1193 l  6351 1234 l 
6379 1275 l  6408 1315 l  6436 1355 l  6464 1392 l  6492 1427 l  6521 1459 l 
6549 1488 l  6577 1513 l  6606 1533 l  6634 1549 l  6662 1558 l  6691 1562 l 
6719 1559 l  6747 1549 l  6775 1531 l  6804 1505 l  6832 1470 l  6860 1427 l 
6889 1378 l  6917 1321 l  6945 1260 l  6973 1194 l  7002 1124 l  7030 1051 l 
7058 977 l  7087 901 l  7115 826 l  7143 750 l  7172 677 l  7200 605 l 
7228 537 l  7256 473 l  7285 414 l  7313 360 l  7341 313 l  7370 274 l 
7398 243 l  7426 220 l  7454 204 l  7483 196 l  7511 194 l  7539 198 l 
7568 208 l  7596 224 l  7624 245 l  7653 270 l  7681 300 l  7709 333 l 
7737 370 l  7766 409 l  7794 451 l  7822 495 l  7851 541 l  7879 588 l 
7907 636 l  7936 684 l  ps
-8599 241 m  -8599 491 l  -8349 491 l  -8349 241 l  -8599 241 l  p ef
0 lw -8599 241 m  -8599 491 l  -8349 491 l  -8349 241 l  -8599 241 l  pc
-8034 65 m  -8034 315 l  -7784 315 l  -7784 65 l  -8034 65 l  p ef
-8034 65 m  -8034 315 l  -7784 315 l  -7784 65 l  -8034 65 l  pc
-7468 204 m  -7468 454 l  -7218 454 l  -7218 204 l  -7468 204 l  p ef
-7468 204 m  -7468 454 l  -7218 454 l  -7218 204 l  -7468 204 l  pc
-6902 -313 m  -6902 -63 l  -6652 -63 l  -6652 -313 l  -6902 -313 l  p ef
-6902 -313 m  -6902 -63 l  -6652 -63 l  -6652 -313 l  -6902 -313 l  pc
-6336 241 m  -6336 491 l  -6086 491 l  -6086 241 l  -6336 241 l  p ef
-6336 241 m  -6336 491 l  -6086 491 l  -6086 241 l  -6336 241 l  pc
-5770 241 m  -5770 491 l  -5520 491 l  -5520 241 l  -5770 241 l  p ef
-5770 241 m  -5770 491 l  -5520 491 l  -5520 241 l  -5770 241 l  pc
-5204 65 m  -5204 315 l  -4954 315 l  -4954 65 l  -5204 65 l  p ef
-5204 65 m  -5204 315 l  -4954 315 l  -4954 65 l  -5204 65 l  pc
-4638 204 m  -4638 454 l  -4388 454 l  -4388 204 l  -4638 204 l  p ef
-4638 204 m  -4638 454 l  -4388 454 l  -4388 204 l  -4638 204 l  pc
-4072 -313 m  -4072 -63 l  -3822 -63 l  -3822 -313 l  -4072 -313 l  p ef
-4072 -313 m  -4072 -63 l  -3822 -63 l  -3822 -313 l  -4072 -313 l  pc
-3506 241 m  -3506 491 l  -3256 491 l  -3256 241 l  -3506 241 l  p ef
-3506 241 m  -3506 491 l  -3256 491 l  -3256 241 l  -3506 241 l  pc
-2941 241 m  -2941 491 l  -2691 491 l  -2691 241 l  -2941 241 l  p ef
-2941 241 m  -2941 491 l  -2691 491 l  -2691 241 l  -2941 241 l  pc
-2375 65 m  -2375 315 l  -2125 315 l  -2125 65 l  -2375 65 l  p ef
-2375 65 m  -2375 315 l  -2125 315 l  -2125 65 l  -2375 65 l  pc
-1809 204 m  -1809 454 l  -1559 454 l  -1559 204 l  -1809 204 l  p ef
-1809 204 m  -1809 454 l  -1559 454 l  -1559 204 l  -1809 204 l  pc
-1243 -313 m  -1243 -63 l  -993 -63 l  -993 -313 l  -1243 -313 l  p ef
-1243 -313 m  -1243 -63 l  -993 -63 l  -993 -313 l  -1243 -313 l  pc
-677 241 m  -677 491 l  -427 491 l  -427 241 l  -677 241 l  p ef
-677 241 m  -677 491 l  -427 491 l  -427 241 l  -677 241 l  pc
-111 598 m  -111 848 l  138 848 l  138 598 l  -111 598 l  p ef
-111 598 m  -111 848 l  138 848 l  138 598 l  -111 598 l  pc
454 950 m  454 1200 l  704 1200 l  704 950 l  454 950 l  p ef
454 950 m  454 1200 l  704 1200 l  704 950 l  454 950 l  pc
1020 1380 m  1020 1630 l  1270 1630 l  1270 1380 l  1020 1380 l  p ef
1020 1380 m  1020 1630 l  1270 1630 l  1270 1380 l  1020 1380 l  pc
1586 149 m  1586 399 l  1836 399 l  1836 149 l  1586 149 l  p ef
1586 149 m  1586 399 l  1836 399 l  1836 149 l  1586 149 l  pc
2152 559 m  2152 809 l  2402 809 l  2402 559 l  2152 559 l  p ef
2152 559 m  2152 809 l  2402 809 l  2402 559 l  2152 559 l  pc
2717 598 m  2717 848 l  2967 848 l  2967 598 l  2717 598 l  p ef
2717 598 m  2717 848 l  2967 848 l  2967 598 l  2717 598 l  pc
3283 950 m  3283 1200 l  3533 1200 l  3533 950 l  3283 950 l  p ef
3283 950 m  3283 1200 l  3533 1200 l  3533 950 l  3283 950 l  pc
3849 1380 m  3849 1630 l  4099 1630 l  4099 1380 l  3849 1380 l  p ef
3849 1380 m  3849 1630 l  4099 1630 l  4099 1380 l  3849 1380 l  pc
4415 149 m  4415 399 l  4665 399 l  4665 149 l  4415 149 l  p ef
4415 149 m  4415 399 l  4665 399 l  4665 149 l  4415 149 l  pc
4981 559 m  4981 809 l  5231 809 l  5231 559 l  4981 559 l  p ef
4981 559 m  4981 809 l  5231 809 l  5231 559 l  4981 559 l  pc
5547 598 m  5547 848 l  5797 848 l  5797 598 l  5547 598 l  p ef
5547 598 m  5547 848 l  5797 848 l  5797 598 l  5547 598 l  pc
6113 950 m  6113 1200 l  6363 1200 l  6363 950 l  6113 950 l  p ef
6113 950 m  6113 1200 l  6363 1200 l  6363 950 l  6113 950 l  pc
6679 1380 m  6679 1630 l  6929 1630 l  6929 1380 l  6679 1380 l  p ef
6679 1380 m  6679 1630 l  6929 1630 l  6929 1380 l  6679 1380 l  pc
7245 149 m  7245 399 l  7495 399 l  7495 149 l  7245 149 l  p ef
7245 149 m  7245 399 l  7495 399 l  7495 149 l  7245 149 l  pc
7811 559 m  7811 809 l  8061 809 l  8061 559 l  7811 559 l  p ef
7811 559 m  7811 809 l  8061 809 l  8061 559 l  7811 559 l  pc
79.99611 lw 1.000 0.261 0.058 c -8474 -1703 m  -8446 -1658 l  -8418 -1614 l 
-8390 -1570 l  -8361 -1527 l  -8333 -1485 l  -8305 -1443 l  -8276 -1402 l 
-8248 -1363 l  -8220 -1325 l  -8192 -1288 l  -8163 -1253 l  -8135 -1221 l 
-8107 -1190 l  -8078 -1161 l  -8050 -1135 l  -8022 -1111 l  -7993 -1091 l 
-7965 -1073 l  -7937 -1058 l  -7909 -1046 l  -7880 -1038 l  -7852 -1033 l 
-7824 -1031 l  -7795 -1033 l  -7767 -1036 l  -7739 -1043 l  -7711 -1052 l 
-7682 -1062 l  -7654 -1075 l  -7626 -1090 l  -7597 -1107 l  -7569 -1125 l 
-7541 -1144 l  -7512 -1164 l  -7484 -1185 l  -7456 -1207 l  -7428 -1230 l 
-7399 -1252 l  -7371 -1276 l  -7343 -1299 l  -7314 -1322 l  -7286 -1344 l 
-7258 -1366 l  -7230 -1387 l  -7201 -1407 l  -7173 -1426 l  -7145 -1443 l 
-7116 -1459 l  -7088 -1472 l  -7060 -1484 l  -7031 -1493 l  -7003 -1499 l 
-6975 -1502 l  -6947 -1502 l  -6918 -1499 l  -6890 -1492 l  -6862 -1482 l 
-6833 -1467 l  -6805 -1448 l  -6777 -1425 l  -6749 -1397 l  -6720 -1365 l 
-6692 -1330 l  -6664 -1292 l  -6635 -1253 l  -6607 -1212 l  -6579 -1171 l 
-6550 -1130 l  -6522 -1090 l  -6494 -1051 l  -6466 -1016 l  -6437 -983 l 
-6409 -954 l  -6381 -930 l  -6352 -911 l  -6324 -898 l  -6296 -892 l  -6268 -893 l 
-6239 -902 l  -6211 -920 l  -6183 -947 l  -6154 -983 l  -6126 -1027 l 
-6098 -1077 l  -6069 -1133 l  -6041 -1193 l  -6013 -1257 l  -5985 -1324 l 
-5956 -1392 l  -5928 -1461 l  -5900 -1529 l  -5871 -1596 l  -5843 -1661 l 
-5815 -1723 l  -5786 -1780 l  -5758 -1832 l  -5730 -1878 l  -5702 -1916 l 
-5673 -1947 l  -5645 -1968 l  -5617 -1979 l  -5588 -1980 l  -5560 -1973 l 
-5532 -1957 l  -5504 -1934 l  -5475 -1905 l  -5447 -1869 l  -5419 -1828 l 
-5390 -1782 l  -5362 -1731 l  -5334 -1678 l  -5305 -1622 l  -5277 -1564 l 
-5249 -1505 l  -5221 -1445 l  -5192 -1385 l  -5164 -1326 l  -5136 -1268 l 
-5107 -1213 l  -5079 -1160 l  -5051 -1111 l  -5023 -1065 l  -4994 -1022 l 
-4966 -983 l  -4938 -947 l  -4909 -914 l  -4881 -884 l  -4853 -857 l  -4824 -833 l 
-4796 -812 l  -4768 -793 l  -4740 -777 l  -4711 -763 l  -4683 -752 l  -4655 -743 l 
-4626 -736 l  -4598 -732 l  -4570 -730 l  -4542 -729 l  -4513 -731 l  -4485 -734 l 
-4457 -739 l  -4428 -746 l  -4400 -754 l  -4372 -763 l  -4343 -774 l  -4315 -786 l 
-4287 -799 l  -4259 -813 l  -4230 -828 l  -4202 -843 l  -4174 -859 l  -4145 -876 l 
-4117 -893 l  -4089 -910 l  -4061 -927 l  -4032 -944 l  -4004 -962 l  -3976 -979 l 
-3947 -996 l  -3919 -1012 l  -3891 -1028 l  -3862 -1044 l  -3834 -1060 l 
-3806 -1075 l  -3778 -1090 l  -3749 -1105 l  -3721 -1119 l  -3693 -1134 l 
-3664 -1149 l  -3636 -1163 l  -3608 -1178 l  -3579 -1192 l  -3551 -1207 l 
-3523 -1222 l  -3495 -1237 l  -3466 -1252 l  -3438 -1267 l  -3410 -1283 l 
-3381 -1299 l  -3353 -1315 l  -3325 -1332 l  -3297 -1348 l  -3268 -1365 l 
-3240 -1382 l  -3212 -1398 l  -3183 -1414 l  -3155 -1430 l  -3127 -1445 l 
-3098 -1460 l  -3070 -1474 l  -3042 -1487 l  -3014 -1499 l  -2985 -1511 l 
-2957 -1521 l  -2929 -1530 l  -2900 -1537 l  -2872 -1544 l  -2844 -1548 l 
-2816 -1551 l  -2787 -1552 l  -2759 -1552 l  -2731 -1549 l  -2702 -1545 l 
-2674 -1539 l  -2646 -1531 l  -2617 -1521 l  -2589 -1508 l  -2561 -1494 l 
-2533 -1478 l  -2504 -1459 l  -2476 -1438 l  -2448 -1415 l  -2419 -1389 l 
-2391 -1361 l  -2363 -1331 l  -2335 -1298 l  -2306 -1263 l  -2278 -1225 l 
-2250 -1185 l  -2221 -1142 l  -2193 -1097 l  -2165 -1051 l  -2136 -1003 l 
-2108 -955 l  -2080 -907 l  -2052 -859 l  -2023 -813 l  -1995 -768 l  -1967 -725 l 
-1938 -685 l  -1910 -648 l  -1882 -615 l  -1854 -585 l  -1825 -561 l  -1797 -542 l 
-1769 -529 l  -1740 -522 l  -1712 -522 l  -1684 -529 l  -1655 -544 l  -1627 -566 l 
-1599 -594 l  -1571 -627 l  -1542 -665 l  -1514 -707 l  -1486 -751 l  -1457 -797 l 
-1429 -844 l  -1401 -891 l  -1372 -938 l  -1344 -983 l  -1316 -1026 l 
-1288 -1065 l  -1259 -1101 l  -1231 -1131 l  -1203 -1155 l  -1174 -1173 l 
-1146 -1183 l  -1118 -1185 l  -1090 -1178 l  -1061 -1163 l  -1033 -1140 l 
-1005 -1111 l  -976 -1077 l  -948 -1039 l  -920 -998 l  -891 -955 l  -863 -911 l 
-835 -867 l  -807 -824 l  -778 -783 l  -750 -745 l  -722 -711 l  -693 -683 l 
-665 -661 l  -637 -646 l  -609 -639 l  -580 -642 l  -552 -655 l  -524 -679 l 
-495 -714 l  -467 -757 l  -439 -809 l  -410 -867 l  -382 -931 l  -354 -999 l 
-326 -1071 l  -297 -1145 l  -269 -1220 l  -241 -1295 l  -212 -1369 l  -184 -1440 l 
-156 -1508 l  -128 -1571 l  -99 -1629 l  -71 -1679 l  -43 -1721 l  -14 -1754 l 
13 -1776 l  41 -1787 l  70 -1788 l  98 -1779 l  126 -1761 l  154 -1735 l 
183 -1702 l  211 -1664 l  239 -1620 l  268 -1573 l  296 -1522 l  324 -1469 l 
352 -1415 l  381 -1361 l  409 -1307 l  437 -1255 l  466 -1206 l  494 -1160 l 
522 -1119 l  551 -1083 l  579 -1053 l  607 -1031 l  635 -1015 l  664 -1006 l 
692 -1003 l  720 -1005 l  749 -1013 l  777 -1025 l  805 -1042 l  833 -1063 l 
862 -1087 l  890 -1114 l  918 -1144 l  947 -1176 l  975 -1209 l  1003 -1244 l 
1032 -1280 l  1060 -1317 l  1088 -1353 l  1116 -1389 l  1145 -1425 l  1173 -1459 l 
1201 -1491 l  1230 -1523 l  1258 -1552 l  1286 -1579 l  1315 -1604 l  1343 -1627 l 
1371 -1647 l  1399 -1665 l  1428 -1679 l  1456 -1691 l  1484 -1699 l  1513 -1703 l 
1541 -1704 l  1569 -1701 l  1597 -1694 l  1626 -1682 l  1654 -1666 l  1682 -1646 l 
1711 -1620 l  1739 -1589 l  1767 -1555 l  1796 -1516 l  1824 -1475 l  1852 -1431 l 
1880 -1386 l  1909 -1341 l  1937 -1295 l  1965 -1250 l  1994 -1207 l  2022 -1166 l 
2050 -1128 l  2078 -1093 l  2107 -1063 l  2135 -1038 l  2163 -1018 l  2192 -1006 l 
2220 -1000 l  2248 -1003 l  2277 -1014 l  2305 -1035 l  2333 -1064 l  2361 -1101 l 
2390 -1144 l  2418 -1193 l  2446 -1246 l  2475 -1304 l  2503 -1364 l  2531 -1426 l 
2559 -1488 l  2588 -1551 l  2616 -1612 l  2644 -1672 l  2673 -1729 l  2701 -1781 l 
2729 -1829 l  2758 -1871 l  2786 -1906 l  2814 -1933 l  2842 -1952 l  2871 -1961 l 
2899 -1961 l  2927 -1953 l  2956 -1937 l  2984 -1914 l  3012 -1884 l  3040 -1848 l 
3069 -1808 l  3097 -1762 l  3125 -1712 l  3154 -1659 l  3182 -1603 l  3210 -1545 l 
3239 -1486 l  3267 -1425 l  3295 -1365 l  3323 -1304 l  3352 -1245 l  3380 -1187 l 
3408 -1132 l  3437 -1079 l  3465 -1029 l  3493 -982 l  3522 -938 l  3550 -897 l 
3578 -859 l  3606 -824 l  3635 -792 l  3663 -763 l  3691 -738 l  3720 -715 l 
3748 -696 l  3776 -680 l  3804 -668 l  3833 -658 l  3861 -652 l  3889 -650 l 
3918 -651 l  3946 -655 l  3974 -663 l  4003 -674 l  4031 -688 l  4059 -706 l 
4087 -725 l  4116 -748 l  4144 -772 l  4172 -798 l  4201 -825 l  4229 -854 l 
4257 -883 l  4285 -912 l  4314 -942 l  4342 -972 l  4370 -1001 l  4399 -1030 l 
4427 -1057 l  4455 -1083 l  4484 -1108 l  4512 -1131 l  4540 -1151 l  4568 -1169 l 
4597 -1185 l  4625 -1198 l  4653 -1210 l  4682 -1219 l  4710 -1228 l  4738 -1235 l 
4766 -1241 l  4795 -1246 l  4823 -1251 l  4851 -1255 l  4880 -1259 l  4908 -1263 l 
4936 -1267 l  4965 -1271 l  4993 -1276 l  5021 -1282 l  5049 -1289 l  5078 -1298 l 
5106 -1307 l  5134 -1319 l  5163 -1332 l  5191 -1346 l  5219 -1361 l  5247 -1377 l 
5276 -1394 l  5304 -1411 l  5332 -1428 l  5361 -1446 l  5389 -1463 l  5417 -1480 l 
5446 -1496 l  5474 -1512 l  5502 -1526 l  5530 -1540 l  5559 -1551 l  5587 -1562 l 
5615 -1570 l  5644 -1577 l  5672 -1581 l  5700 -1583 l  5729 -1582 l  5757 -1579 l 
5785 -1573 l  5813 -1566 l  5842 -1555 l  5870 -1542 l  5898 -1527 l  5927 -1509 l 
5955 -1489 l  5983 -1466 l  6011 -1441 l  6040 -1414 l  6068 -1383 l  6096 -1351 l 
6125 -1316 l  6153 -1278 l  6181 -1238 l  6210 -1196 l  6238 -1151 l  6266 -1104 l 
6294 -1055 l  6323 -1004 l  6351 -952 l  6379 -901 l  6408 -849 l  6436 -799 l 
6464 -749 l  6492 -702 l  6521 -657 l  6549 -616 l  6577 -577 l  6606 -543 l 
6634 -514 l  6662 -490 l  6691 -472 l  6719 -460 l  6747 -455 l  6775 -457 l 
6804 -467 l  6832 -486 l  6860 -512 l  6889 -546 l  6917 -585 l  6945 -630 l 
6973 -678 l  7002 -731 l  7030 -786 l  7058 -843 l  7087 -900 l  7115 -958 l 
7143 -1015 l  7172 -1071 l  7200 -1124 l  7228 -1174 l  7256 -1220 l  7285 -1261 l 
7313 -1297 l  7341 -1325 l  7370 -1346 l  7398 -1360 l  7426 -1365 l  7454 -1363 l 
7483 -1353 l  7511 -1337 l  7539 -1315 l  7568 -1287 l  7596 -1254 l  7624 -1216 l 
7653 -1173 l  7681 -1126 l  7709 -1075 l  7737 -1021 l  7766 -964 l  7794 -905 l 
7822 -843 l  7851 -780 l  7879 -715 l  7907 -650 l  7936 -585 l  ps
-8599 -1703 m  -8474 -1578 l  -8349 -1703 l  -8474 -1828 l  -8599 -1703 l 
p ef
0 lw -8599 -1703 m  -8474 -1578 l  -8349 -1703 l  -8474 -1828 l  -8599 -1703 l 
pc
-8034 -1046 m  -7909 -921 l  -7784 -1046 l  -7909 -1171 l  -8034 -1046 l 
p ef
-8034 -1046 m  -7909 -921 l  -7784 -1046 l  -7909 -1171 l  -8034 -1046 l 
pc
-7468 -1299 m  -7343 -1174 l  -7218 -1299 l  -7343 -1424 l  -7468 -1299 l 
p ef
-7468 -1299 m  -7343 -1174 l  -7218 -1299 l  -7343 -1424 l  -7468 -1299 l 
pc
-6902 -1425 m  -6777 -1300 l  -6652 -1425 l  -6777 -1550 l  -6902 -1425 l 
p ef
-6902 -1425 m  -6777 -1300 l  -6652 -1425 l  -6777 -1550 l  -6902 -1425 l 
pc
-6336 -920 m  -6211 -795 l  -6086 -920 l  -6211 -1045 l  -6336 -920 l 
p ef
-6336 -920 m  -6211 -795 l  -6086 -920 l  -6211 -1045 l  -6336 -920 l 
pc
-5770 -1968 m  -5645 -1843 l  -5520 -1968 l  -5645 -2093 l  -5770 -1968 l 
p ef
-5770 -1968 m  -5645 -1843 l  -5520 -1968 l  -5645 -2093 l  -5770 -1968 l 
pc
-5204 -1160 m  -5079 -1035 l  -4954 -1160 l  -5079 -1285 l  -5204 -1160 l 
p ef
-5204 -1160 m  -5079 -1035 l  -4954 -1160 l  -5079 -1285 l  -5204 -1160 l 
pc
-4638 -731 m  -4513 -606 l  -4388 -731 l  -4513 -856 l  -4638 -731 l  p ef
-4638 -731 m  -4513 -606 l  -4388 -731 l  -4513 -856 l  -4638 -731 l  pc
-4072 -996 m  -3947 -871 l  -3822 -996 l  -3947 -1121 l  -4072 -996 l 
p ef
-4072 -996 m  -3947 -871 l  -3822 -996 l  -3947 -1121 l  -4072 -996 l 
pc
-3506 -1299 m  -3381 -1174 l  -3256 -1299 l  -3381 -1424 l  -3506 -1299 l 
p ef
-3506 -1299 m  -3381 -1174 l  -3256 -1299 l  -3381 -1424 l  -3506 -1299 l 
pc
-2941 -1551 m  -2816 -1426 l  -2691 -1551 l  -2816 -1676 l  -2941 -1551 l 
p ef
-2941 -1551 m  -2816 -1426 l  -2691 -1551 l  -2816 -1676 l  -2941 -1551 l 
pc
-2375 -1185 m  -2250 -1060 l  -2125 -1185 l  -2250 -1310 l  -2375 -1185 l 
p ef
-2375 -1185 m  -2250 -1060 l  -2125 -1185 l  -2250 -1310 l  -2375 -1185 l 
pc
-1809 -529 m  -1684 -404 l  -1559 -529 l  -1684 -654 l  -1809 -529 l  p ef
-1809 -529 m  -1684 -404 l  -1559 -529 l  -1684 -654 l  -1809 -529 l  pc
-1243 -1185 m  -1118 -1060 l  -993 -1185 l  -1118 -1310 l  -1243 -1185 l 
p ef
-1243 -1185 m  -1118 -1060 l  -993 -1185 l  -1118 -1310 l  -1243 -1185 l 
pc
-677 -655 m  -552 -530 l  -427 -655 l  -552 -780 l  -677 -655 l  p ef
-677 -655 m  -552 -530 l  -427 -655 l  -552 -780 l  -677 -655 l  pc
-111 -1776 m  13 -1651 l  138 -1776 l  13 -1901 l  -111 -1776 l  p ef
-111 -1776 m  13 -1651 l  138 -1776 l  13 -1901 l  -111 -1776 l  pc
454 -1053 m  579 -928 l  704 -1053 l  579 -1178 l  454 -1053 l  p ef
454 -1053 m  579 -928 l  704 -1053 l  579 -1178 l  454 -1053 l  pc
1020 -1425 m  1145 -1300 l  1270 -1425 l  1145 -1550 l  1020 -1425 l  p ef
1020 -1425 m  1145 -1300 l  1270 -1425 l  1145 -1550 l  1020 -1425 l  pc
1586 -1620 m  1711 -1495 l  1836 -1620 l  1711 -1745 l  1586 -1620 l  p ef
1586 -1620 m  1711 -1495 l  1836 -1620 l  1711 -1745 l  1586 -1620 l  pc
2152 -1014 m  2277 -889 l  2402 -1014 l  2277 -1139 l  2152 -1014 l  p ef
2152 -1014 m  2277 -889 l  2402 -1014 l  2277 -1139 l  2152 -1014 l  pc
2717 -1952 m  2842 -1827 l  2967 -1952 l  2842 -2077 l  2717 -1952 l  p ef
2717 -1952 m  2842 -1827 l  2967 -1952 l  2842 -2077 l  2717 -1952 l  pc
3283 -1132 m  3408 -1007 l  3533 -1132 l  3408 -1257 l  3283 -1132 l  p ef
3283 -1132 m  3408 -1007 l  3533 -1132 l  3408 -1257 l  3283 -1132 l  pc
3849 -663 m  3974 -538 l  4099 -663 l  3974 -788 l  3849 -663 l  p ef
3849 -663 m  3974 -538 l  4099 -663 l  3974 -788 l  3849 -663 l  pc
4415 -1151 m  4540 -1026 l  4665 -1151 l  4540 -1276 l  4415 -1151 l  p ef
4415 -1151 m  4540 -1026 l  4665 -1151 l  4540 -1276 l  4415 -1151 l  pc
4981 -1307 m  5106 -1182 l  5231 -1307 l  5106 -1432 l  4981 -1307 l  p ef
4981 -1307 m  5106 -1182 l  5231 -1307 l  5106 -1432 l  4981 -1307 l  pc
5547 -1581 m  5672 -1456 l  5797 -1581 l  5672 -1706 l  5547 -1581 l  p ef
5547 -1581 m  5672 -1456 l  5797 -1581 l  5672 -1706 l  5547 -1581 l  pc
6113 -1151 m  6238 -1026 l  6363 -1151 l  6238 -1276 l  6113 -1151 l  p ef
6113 -1151 m  6238 -1026 l  6363 -1151 l  6238 -1276 l  6113 -1151 l  pc
6679 -467 m  6804 -342 l  6929 -467 l  6804 -592 l  6679 -467 l  p ef
6679 -467 m  6804 -342 l  6929 -467 l  6804 -592 l  6679 -467 l  pc
7245 -1346 m  7370 -1221 l  7495 -1346 l  7370 -1471 l  7245 -1346 l  p ef
7245 -1346 m  7370 -1221 l  7495 -1346 l  7370 -1471 l  7245 -1346 l  pc
7811 -585 m  7936 -460 l  8061 -585 l  7936 -710 l  7811 -585 l  p ef
7811 -585 m  7936 -460 l  8061 -585 l  7936 -710 l  7811 -585 l  pc
0.003 0.003 0.003 c
/Helvetica f
353 sf -8567 4242 m  185 0 (1) bs
/Helvetica f
353 sf -8002 4242 m  185 0 (2) bs
/Helvetica f
353 sf -7436 4242 m  185 0 (3) bs
/Helvetica f
353 sf -6870 4242 m  185 0 (4) bs
/Helvetica f
353 sf -6304 4242 m  185 0 (5) bs
/Helvetica f
353 sf -5738 4242 m  185 0 (6) bs
/Helvetica f
353 sf -5172 4242 m  185 0 (7) bs
/Helvetica f
353 sf -4606 4242 m  185 0 (8) bs
/Helvetica f
353 sf -4040 4242 m  185 0 (9) bs
/Helvetica f
353 sf -3566 4242 m  185 0 (1) bs
185 185 (0) bs
/Helvetica f
353 sf -2988 4242 m  185 0 (1) bs
185 159 (1) bs
/Helvetica f
353 sf -2435 4242 m  185 0 (1) bs
185 185 (2) bs
/Helvetica f
353 sf -1869 4242 m  185 0 (1) bs
185 185 (3) bs
/Helvetica f
353 sf -1303 4242 m  185 0 (1) bs
185 185 (4) bs
/Helvetica f
353 sf -737 4242 m  185 0 (1) bs
185 185 (5) bs
/Helvetica f
353 sf -171 4242 m  185 0 (1) bs
185 185 (6) bs
/Helvetica f
353 sf 395 4242 m  185 0 (1) bs
185 185 (7) bs
/Helvetica f
353 sf 961 4242 m  185 0 (1) bs
185 185 (8) bs
/Helvetica f
353 sf 1527 4242 m  185 0 (1) bs
185 185 (9) bs
/Helvetica f
353 sf 2093 4242 m  185 0 (2) bs
185 185 (0) bs
/Helvetica f
353 sf 2658 4242 m  185 0 (2) bs
185 185 (1) bs
/Helvetica f
353 sf 3224 4242 m  185 0 (2) bs
185 185 (2) bs
/Helvetica f
353 sf 3790 4242 m  185 0 (2) bs
185 185 (3) bs
/Helvetica f
353 sf 4356 4242 m  185 0 (2) bs
185 185 (4) bs
/Helvetica f
353 sf 4922 4242 m  185 0 (2) bs
185 185 (5) bs
/Helvetica f
353 sf 5488 4242 m  185 0 (2) bs
185 185 (6) bs
/Helvetica f
353 sf 6054 4242 m  185 0 (2) bs
185 185 (7) bs
/Helvetica f
353 sf 6620 4242 m  185 0 (2) bs
185 185 (8) bs
/Helvetica f
353 sf 7186 4242 m  185 0 (2) bs
185 185 (9) bs
/Helvetica f
353 sf 7752 4242 m  185 0 (3) bs
185 185 (0) bs
/Helvetica f
353 sf -9703 3795 m  185 0 (0) bs
106 185 (,) bs
185 291 (0) bs
185 476 (0) bs
318 661 (%) bs
/Helvetica f
353 sf -9888 2956 m  185 0 (1) bs
185 185 (0) bs
106 370 (,) bs
185 476 (0) bs
185 661 (0) bs
318 847 (%) bs
/Helvetica f
353 sf -9888 2118 m  185 0 (2) bs
185 185 (0) bs
106 370 (,) bs
185 476 (0) bs
185 661 (0) bs
318 847 (%) bs
/Helvetica f
353 sf -9888 1280 m  185 0 (3) bs
185 185 (0) bs
106 370 (,) bs
185 476 (0) bs
185 661 (0) bs
318 847 (%) bs
/Helvetica f
353 sf -9888 442 m  185 0 (4) bs
185 185 (0) bs
106 370 (,) bs
185 476 (0) bs
185 661 (0) bs
318 847 (%) bs
/Helvetica f
353 sf -9888 -396 m  185 0 (5) bs
185 185 (0) bs
106 370 (,) bs
185 476 (0) bs
185 661 (0) bs
318 847 (%) bs
/Helvetica f
353 sf -9888 -1234 m  185 0 (6) bs
185 185 (0) bs
106 370 (,) bs
185 476 (0) bs
185 661 (0) bs
318 847 (%) bs
/Helvetica f
353 sf -9888 -2072 m  185 0 (7) bs
185 185 (0) bs
106 370 (,) bs
185 476 (0) bs
185 661 (0) bs
318 847 (%) bs
/Helvetica f
353 sf -9888 -2910 m  185 0 (8) bs
185 185 (0) bs
106 370 (,) bs
185 476 (0) bs
185 661 (0) bs
318 847 (%) bs
/Helvetica f
459 sf -3255 -3652 m  159 0 (r) bs
238 159 (e) bs
238 397 (p) bs
238 635 (o) bs
159 873 (r) bs
106 1032 (t) bs
238 1138 (_) bs
238 1376 (8) bs
238 1614 (_) bs
238 1852 (2) bs
238 2090 (_) bs
238 2328 (1) bs
132 2566 ( ) bs
159 2699 (-) bs
132 2858 ( ) bs
238 2990 (q) bs
238 3228 (u) bs
238 3466 (a) bs
238 3704 (n) bs
106 3942 (t) bs
106 4048 (i) bs
79 4154 (l) bs
238 4233 (e) bs
212 4471 (s) bs
132 4683 ( ) bs
238 4815 (5) bs
132 5054 ( ) bs
159 5186 (-) bs
132 5345 ( ) bs
212 5477 (z) bs
238 5689 (o) bs
238 5927 (o) bs
344 6165 (m) bs
79.99611 lw 0.003 0.273 0.527 c 8650 -250 m  9450 -250 l  ps
8944 -355 m  8944 -144 l  9155 -144 l  9155 -355 l  8944 -355 l  p ef
0 lw 8944 -355 m  8944 -144 l  9155 -144 l  9155 -355 l  8944 -355 l  pc
79.99611 lw 1.000 0.261 0.058 c 8650 247 m  9450 247 l  ps
8944 247 m  9050 353 l  9155 247 l  9050 142 l  8944 247 l  p ef
0 lw 8944 247 m  9050 353 l  9155 247 l  9050 142 l  8944 247 l  pc
0.003 0.003 0.003 c
/Helvetica f
353 sf 9550 -130 m  238 0 (H) bs
185 238 (e) bs
/Helvetica f
353 sf 9550 367 m  238 0 (K) bs
185 238 (e) bs
0 9006 t 
pom
count op_count sub {pop} repeat countdictstack dict_count sub {end} repeat b4_inc_state restore
%%PageTrailer
%%Trailer
%%EOF
