%!PS-Adobe-3.0 EPSF-3.0 
%%BoundingBox: 0 0 584 255
%%Pages: 0
%%Creator: LibreOffice 4.4
%%Title: none
%%CreationDate: none
%%LanguageLevel: 2
%%EndComments
%%BeginProlog
%%BeginResource: procset SDRes-Prolog 1.0 0
/b4_inc_state save def
/dict_count countdictstack def
/op_count count 1 sub def
userdict begin
0 setgray 0 setlinecap 1 setlinewidth 0 setlinejoin 10 setmiterlimit[] 0 setdash newpath
/languagelevel where {pop languagelevel 1 ne {false setstrokeadjust false setoverprint} if} if
/bdef {bind def} bind def
/c {setrgbcolor} bdef
/l {neg lineto} bdef
/rl {neg rlineto} bdef
/lc {setlinecap} bdef
/lj {setlinejoin} bdef
/lw {setlinewidth} bdef
/ml {setmiterlimit} bdef
/ld {setdash} bdef
/m {neg moveto} bdef
/ct {6 2 roll neg 6 2 roll neg 6 2 roll neg curveto} bdef
/r {rotate} bdef
/t {neg translate} bdef
/s {scale} bdef
/sw {show} bdef
/gs {gsave} bdef
/gr {grestore} bdef
/f {findfont dup length dict begin
{1 index /FID ne {def} {pop pop} ifelse} forall /Encoding ISOLatin1Encoding def
currentdict end /NFont exch definefont pop /NFont findfont} bdef
/p {closepath} bdef
/sf {scalefont setfont} bdef
/ef {eofill}bdef
/pc {closepath stroke}bdef
/ps {stroke}bdef
/pum {matrix currentmatrix}bdef
/pom {setmatrix}bdef
/bs {/aString exch def /nXOfs exch def /nWidth exch def currentpoint nXOfs 0 rmoveto pum nWidth aString stringwidth pop div 1 scale aString show pom moveto} bdef
%%EndResource
%%EndProlog
%%BeginSetup
%%EndSetup
%%Page: 1 1
%%BeginPageSetup
%%EndPageSetup
pum
0.02834 0.02831 s 
0 -9006 t
/tm matrix currentmatrix def
tm setmatrix
10301 4503 t 
1 1 s 
1.000 1.000 1.000 c 0 4502 m  -10301 4502 l  -10301 -4503 l  10301 -4503 l 
10301 4502 l  0 4502 l  p ef
0 lw 1 lj 0.703 0.703 0.703 c -269 3277 m  -8474 3277 l  -8474 -3029 l 
7935 -3029 l  7935 3277 l  -269 3277 l  pc
7935 3276 m  -8474 3276 l  ps
7935 2375 m  -8474 2375 l  ps
7935 1474 m  -8474 1474 l  ps
7935 573 m  -8474 573 l  ps
7935 -327 m  -8474 -327 l  ps
7935 -1228 m  -8474 -1228 l  ps
7935 -2130 m  -8474 -2130 l  ps
7935 -3031 m  -8474 -3031 l  ps
-8474 3426 m  -8474 3276 l  ps
-8474 3426 m  -8474 3276 l  ps
-8196 3426 m  -8196 3276 l  ps
-8196 3426 m  -8196 3276 l  ps
-7918 3426 m  -7918 3276 l  ps
-7918 3426 m  -7918 3276 l  ps
-7640 3426 m  -7640 3276 l  ps
-7640 3426 m  -7640 3276 l  ps
-7362 3426 m  -7362 3276 l  ps
-7362 3426 m  -7362 3276 l  ps
-7084 3426 m  -7084 3276 l  ps
-7084 3426 m  -7084 3276 l  ps
-6806 3426 m  -6806 3276 l  ps
-6806 3426 m  -6806 3276 l  ps
-6528 3426 m  -6528 3276 l  ps
-6528 3426 m  -6528 3276 l  ps
-6249 3426 m  -6249 3276 l  ps
-6249 3426 m  -6249 3276 l  ps
-5971 3426 m  -5971 3276 l  ps
-5971 3426 m  -5971 3276 l  ps
-5693 3426 m  -5693 3276 l  ps
-5693 3426 m  -5693 3276 l  ps
-5415 3426 m  -5415 3276 l  ps
-5415 3426 m  -5415 3276 l  ps
-5137 3426 m  -5137 3276 l  ps
-5137 3426 m  -5137 3276 l  ps
-4859 3426 m  -4859 3276 l  ps
-4859 3426 m  -4859 3276 l  ps
-4581 3426 m  -4581 3276 l  ps
-4581 3426 m  -4581 3276 l  ps
-4302 3426 m  -4302 3276 l  ps
-4302 3426 m  -4302 3276 l  ps
-4024 3426 m  -4024 3276 l  ps
-4024 3426 m  -4024 3276 l  ps
-3746 3426 m  -3746 3276 l  ps
-3746 3426 m  -3746 3276 l  ps
-3468 3426 m  -3468 3276 l  ps
-3468 3426 m  -3468 3276 l  ps
-3190 3426 m  -3190 3276 l  ps
-3190 3426 m  -3190 3276 l  ps
-2912 3426 m  -2912 3276 l  ps
-2912 3426 m  -2912 3276 l  ps
-2634 3426 m  -2634 3276 l  ps
-2634 3426 m  -2634 3276 l  ps
-2356 3426 m  -2356 3276 l  ps
-2356 3426 m  -2356 3276 l  ps
-2077 3426 m  -2077 3276 l  ps
-2077 3426 m  -2077 3276 l  ps
-1799 3426 m  -1799 3276 l  ps
-1799 3426 m  -1799 3276 l  ps
-1521 3426 m  -1521 3276 l  ps
-1521 3426 m  -1521 3276 l  ps
-1243 3426 m  -1243 3276 l  ps
-1243 3426 m  -1243 3276 l  ps
-965 3426 m  -965 3276 l  ps
-965 3426 m  -965 3276 l  ps
-687 3426 m  -687 3276 l  ps
-687 3426 m  -687 3276 l  ps
-409 3426 m  -409 3276 l  ps
-409 3426 m  -409 3276 l  ps
-130 3426 m  -130 3276 l  ps
-130 3426 m  -130 3276 l  ps
147 3426 m  147 3276 l  ps
147 3426 m  147 3276 l  ps
425 3426 m  425 3276 l  ps
425 3426 m  425 3276 l  ps
703 3426 m  703 3276 l  ps
703 3426 m  703 3276 l  ps
981 3426 m  981 3276 l  ps
981 3426 m  981 3276 l  ps
1259 3426 m  1259 3276 l  ps
1259 3426 m  1259 3276 l  ps
1537 3426 m  1537 3276 l  ps
1537 3426 m  1537 3276 l  ps
1816 3426 m  1816 3276 l  ps
1816 3426 m  1816 3276 l  ps
2094 3426 m  2094 3276 l  ps
2094 3426 m  2094 3276 l  ps
2372 3426 m  2372 3276 l  ps
2372 3426 m  2372 3276 l  ps
2650 3426 m  2650 3276 l  ps
2650 3426 m  2650 3276 l  ps
2928 3426 m  2928 3276 l  ps
2928 3426 m  2928 3276 l  ps
3206 3426 m  3206 3276 l  ps
3206 3426 m  3206 3276 l  ps
3484 3426 m  3484 3276 l  ps
3484 3426 m  3484 3276 l  ps
3762 3426 m  3762 3276 l  ps
3762 3426 m  3762 3276 l  ps
4041 3426 m  4041 3276 l  ps
4041 3426 m  4041 3276 l  ps
4319 3426 m  4319 3276 l  ps
4319 3426 m  4319 3276 l  ps
4597 3426 m  4597 3276 l  ps
4597 3426 m  4597 3276 l  ps
4875 3426 m  4875 3276 l  ps
4875 3426 m  4875 3276 l  ps
5153 3426 m  5153 3276 l  ps
5153 3426 m  5153 3276 l  ps
5431 3426 m  5431 3276 l  ps
5431 3426 m  5431 3276 l  ps
5709 3426 m  5709 3276 l  ps
5709 3426 m  5709 3276 l  ps
5988 3426 m  5988 3276 l  ps
5988 3426 m  5988 3276 l  ps
6266 3426 m  6266 3276 l  ps
6266 3426 m  6266 3276 l  ps
6544 3426 m  6544 3276 l  ps
6544 3426 m  6544 3276 l  ps
6822 3426 m  6822 3276 l  ps
6822 3426 m  6822 3276 l  ps
7100 3426 m  7100 3276 l  ps
7100 3426 m  7100 3276 l  ps
7378 3426 m  7378 3276 l  ps
7378 3426 m  7378 3276 l  ps
7656 3426 m  7656 3276 l  ps
7656 3426 m  7656 3276 l  ps
7935 3426 m  7935 3276 l  ps
7935 3426 m  7935 3276 l  ps
-8474 3276 m  7935 3276 l  ps
-8624 3276 m  -8474 3276 l  ps
-8624 3276 m  -8474 3276 l  ps
-8624 2375 m  -8474 2375 l  ps
-8624 2375 m  -8474 2375 l  ps
-8624 1474 m  -8474 1474 l  ps
-8624 1474 m  -8474 1474 l  ps
-8624 573 m  -8474 573 l  ps
-8624 573 m  -8474 573 l  ps
-8624 -327 m  -8474 -327 l  ps
-8624 -327 m  -8474 -327 l  ps
-8624 -1228 m  -8474 -1228 l  ps
-8624 -1228 m  -8474 -1228 l  ps
-8624 -2130 m  -8474 -2130 l  ps
-8624 -2130 m  -8474 -2130 l  ps
-8624 -3031 m  -8474 -3031 l  ps
-8624 -3031 m  -8474 -3031 l  ps
-8474 3276 m  -8474 -3031 l  ps
79.99611 lw 0.003 0.273 0.527 c -8474 -1399 m  -8461 -1409 l  -8447 -1420 l 
-8433 -1430 l  -8419 -1440 l  -8405 -1450 l  -8391 -1460 l  -8377 -1469 l 
-8363 -1477 l  -8349 -1485 l  -8335 -1492 l  -8322 -1498 l  -8308 -1503 l 
-8294 -1507 l  -8280 -1511 l  -8266 -1513 l  -8252 -1514 l  -8238 -1513 l 
-8224 -1512 l  -8210 -1508 l  -8196 -1504 l  -8182 -1497 l  -8169 -1490 l 
-8155 -1480 l  -8141 -1470 l  -8127 -1459 l  -8113 -1447 l  -8099 -1435 l 
-8085 -1421 l  -8071 -1408 l  -8057 -1395 l  -8043 -1381 l  -8029 -1368 l 
-8016 -1355 l  -8002 -1342 l  -7988 -1330 l  -7974 -1319 l  -7960 -1309 l 
-7946 -1301 l  -7932 -1293 l  -7918 -1287 l  -7904 -1283 l  -7890 -1280 l 
-7877 -1279 l  -7863 -1279 l  -7849 -1280 l  -7835 -1283 l  -7821 -1286 l 
-7807 -1291 l  -7793 -1296 l  -7779 -1302 l  -7765 -1309 l  -7751 -1317 l 
-7737 -1325 l  -7724 -1333 l  -7710 -1342 l  -7696 -1351 l  -7682 -1360 l 
-7668 -1369 l  -7654 -1377 l  -7640 -1386 l  -7626 -1395 l  -7612 -1403 l 
-7598 -1411 l  -7584 -1418 l  -7571 -1425 l  -7557 -1432 l  -7543 -1438 l 
-7529 -1444 l  -7515 -1449 l  -7501 -1454 l  -7487 -1458 l  -7473 -1462 l 
-7459 -1465 l  -7445 -1467 l  -7431 -1469 l  -7418 -1470 l  -7404 -1470 l 
-7390 -1470 l  -7376 -1469 l  -7362 -1467 l  -7348 -1464 l  -7334 -1460 l 
-7320 -1456 l  -7306 -1452 l  -7292 -1447 l  -7279 -1441 l  -7265 -1436 l 
-7251 -1430 l  -7237 -1425 l  -7223 -1419 l  -7209 -1414 l  -7195 -1410 l 
-7181 -1405 l  -7167 -1402 l  -7153 -1399 l  -7139 -1397 l  -7126 -1396 l 
-7112 -1395 l  -7098 -1396 l  -7084 -1399 l  -7070 -1402 l  -7056 -1407 l 
-7042 -1412 l  -7028 -1419 l  -7014 -1426 l  -7000 -1434 l  -6986 -1442 l 
-6973 -1450 l  -6959 -1459 l  -6945 -1467 l  -6931 -1475 l  -6917 -1482 l 
-6903 -1489 l  -6889 -1495 l  -6875 -1500 l  -6861 -1503 l  -6847 -1506 l 
-6833 -1507 l  -6820 -1506 l  -6806 -1504 l  -6792 -1499 l  -6778 -1493 l 
-6764 -1485 l  -6750 -1476 l  -6736 -1466 l  -6722 -1454 l  -6708 -1442 l 
-6694 -1429 l  -6681 -1415 l  -6667 -1401 l  -6653 -1387 l  -6639 -1373 l 
-6625 -1360 l  -6611 -1347 l  -6597 -1334 l  -6583 -1322 l  -6569 -1312 l 
-6555 -1302 l  -6541 -1294 l  -6528 -1287 l  -6514 -1282 l  -6500 -1279 l 
-6486 -1277 l  -6472 -1277 l  -6458 -1278 l  -6444 -1281 l  -6430 -1284 l 
-6416 -1289 l  -6402 -1294 l  -6388 -1300 l  -6375 -1307 l  -6361 -1315 l 
-6347 -1323 l  -6333 -1332 l  -6319 -1341 l  -6305 -1350 l  -6291 -1359 l 
-6277 -1368 l  -6263 -1377 l  -6249 -1386 l  -6236 -1395 l  -6222 -1403 l 
-6208 -1411 l  -6194 -1419 l  -6180 -1426 l  -6166 -1432 l  -6152 -1439 l 
-6138 -1444 l  -6124 -1450 l  -6110 -1454 l  -6096 -1459 l  -6083 -1462 l 
-6069 -1465 l  -6055 -1467 l  -6041 -1469 l  -6027 -1470 l  -6013 -1470 l 
-5999 -1470 l  -5985 -1469 l  -5971 -1467 l  -5957 -1464 l  -5943 -1460 l 
-5930 -1456 l  -5916 -1452 l  -5902 -1447 l  -5888 -1441 l  -5874 -1436 l 
-5860 -1430 l  -5846 -1425 l  -5832 -1420 l  -5818 -1414 l  -5804 -1410 l 
-5790 -1406 l  -5777 -1402 l  -5763 -1399 l  -5749 -1397 l  -5735 -1396 l 
-5721 -1395 l  -5707 -1396 l  -5693 -1399 l  -5679 -1402 l  -5665 -1407 l 
-5651 -1412 l  -5638 -1419 l  -5624 -1426 l  -5610 -1434 l  -5596 -1442 l 
-5582 -1450 l  -5568 -1458 l  -5554 -1466 l  -5540 -1474 l  -5526 -1481 l 
-5512 -1488 l  -5498 -1494 l  -5485 -1499 l  -5471 -1503 l  -5457 -1505 l 
-5443 -1506 l  -5429 -1506 l  -5415 -1504 l  -5401 -1500 l  -5387 -1494 l 
-5373 -1486 l  -5359 -1477 l  -5345 -1467 l  -5332 -1456 l  -5318 -1444 l 
-5304 -1431 l  -5290 -1418 l  -5276 -1404 l  -5262 -1391 l  -5248 -1377 l 
-5234 -1363 l  -5220 -1350 l  -5206 -1337 l  -5192 -1325 l  -5179 -1314 l 
-5165 -1304 l  -5151 -1295 l  -5137 -1287 l  -5123 -1281 l  -5109 -1277 l 
-5095 -1274 l  -5081 -1272 l  -5067 -1272 l  -5053 -1273 l  -5040 -1275 l 
-5026 -1279 l  -5012 -1283 l  -4998 -1289 l  -4984 -1295 l  -4970 -1302 l 
-4956 -1311 l  -4942 -1320 l  -4928 -1329 l  -4914 -1340 l  -4900 -1351 l 
-4887 -1362 l  -4873 -1374 l  -4859 -1386 l  -4845 -1399 l  -4831 -1412 l 
-4817 -1424 l  -4803 -1437 l  -4789 -1449 l  -4775 -1461 l  -4761 -1472 l 
-4747 -1482 l  -4734 -1491 l  -4720 -1498 l  -4706 -1505 l  -4692 -1509 l 
-4678 -1512 l  -4664 -1513 l  -4650 -1512 l  -4636 -1508 l  -4622 -1502 l 
-4608 -1493 l  -4595 -1481 l  -4581 -1467 l  -4567 -1449 l  -4553 -1428 l 
-4539 -1405 l  -4525 -1379 l  -4511 -1352 l  -4497 -1323 l  -4483 -1293 l 
-4469 -1263 l  -4455 -1231 l  -4442 -1200 l  -4428 -1169 l  -4414 -1138 l 
-4400 -1109 l  -4386 -1080 l  -4372 -1054 l  -4358 -1029 l  -4344 -1006 l 
-4330 -987 l  -4316 -970 l  -4302 -956 l  -4289 -946 l  -4275 -940 l  -4261 -936 l 
-4247 -935 l  -4233 -937 l  -4219 -941 l  -4205 -947 l  -4191 -955 l  -4177 -964 l 
-4163 -974 l  -4149 -985 l  -4136 -996 l  -4122 -1007 l  -4108 -1019 l 
-4094 -1030 l  -4080 -1040 l  -4066 -1050 l  -4052 -1058 l  -4038 -1065 l 
-4024 -1070 l  -4010 -1072 l  -3997 -1073 l  -3983 -1072 l  -3969 -1070 l 
-3955 -1066 l  -3941 -1060 l  -3927 -1053 l  -3913 -1045 l  -3899 -1036 l 
-3885 -1026 l  -3871 -1015 l  -3857 -1004 l  -3844 -993 l  -3830 -981 l 
-3816 -969 l  -3802 -957 l  -3788 -945 l  -3774 -933 l  -3760 -922 l  -3746 -911 l 
-3732 -901 l  -3718 -891 l  -3704 -882 l  -3691 -874 l  -3677 -867 l  -3663 -860 l 
-3649 -854 l  -3635 -848 l  -3621 -843 l  -3607 -839 l  -3593 -835 l  -3579 -832 l 
-3565 -830 l  -3551 -828 l  -3538 -827 l  -3524 -827 l  -3510 -827 l  -3496 -828 l 
-3482 -829 l  -3468 -831 l  -3454 -834 l  -3440 -837 l  -3426 -841 l  -3412 -845 l 
-3399 -849 l  -3385 -854 l  -3371 -859 l  -3357 -865 l  -3343 -870 l  -3329 -875 l 
-3315 -881 l  -3301 -886 l  -3287 -892 l  -3273 -897 l  -3259 -902 l  -3246 -907 l 
-3232 -911 l  -3218 -915 l  -3204 -919 l  -3190 -922 l  -3176 -925 l  -3162 -927 l 
-3148 -928 l  -3134 -930 l  -3120 -931 l  -3106 -932 l  -3093 -932 l  -3079 -933 l 
-3065 -933 l  -3051 -934 l  -3037 -934 l  -3023 -935 l  -3009 -936 l  -2995 -938 l 
-2981 -940 l  -2967 -942 l  -2954 -944 l  -2940 -948 l  -2926 -952 l  -2912 -956 l 
-2898 -961 l  -2884 -968 l  -2870 -974 l  -2856 -981 l  -2842 -988 l  -2828 -996 l 
-2814 -1004 l  -2801 -1012 l  -2787 -1019 l  -2773 -1027 l  -2759 -1034 l 
-2745 -1041 l  -2731 -1047 l  -2717 -1053 l  -2703 -1058 l  -2689 -1063 l 
-2675 -1066 l  -2661 -1068 l  -2648 -1070 l  -2634 -1070 l  -2620 -1068 l 
-2606 -1066 l  -2592 -1062 l  -2578 -1057 l  -2564 -1052 l  -2550 -1045 l 
-2536 -1038 l  -2522 -1030 l  -2508 -1021 l  -2495 -1012 l  -2481 -1002 l 
-2467 -992 l  -2453 -982 l  -2439 -972 l  -2425 -961 l  -2411 -951 l  -2397 -940 l 
-2383 -930 l  -2369 -920 l  -2356 -911 l  -2342 -902 l  -2328 -893 l  -2314 -885 l 
-2300 -877 l  -2286 -870 l  -2272 -864 l  -2258 -858 l  -2244 -852 l  -2230 -847 l 
-2216 -843 l  -2203 -839 l  -2189 -836 l  -2175 -833 l  -2161 -831 l  -2147 -829 l 
-2133 -829 l  -2119 -828 l  -2105 -829 l  -2091 -830 l  -2077 -831 l  -2063 -834 l 
-2050 -837 l  -2036 -840 l  -2022 -844 l  -2008 -848 l  -1994 -853 l  -1980 -858 l 
-1966 -863 l  -1952 -869 l  -1938 -874 l  -1924 -880 l  -1910 -885 l  -1897 -891 l 
-1883 -896 l  -1869 -901 l  -1855 -906 l  -1841 -911 l  -1827 -915 l  -1813 -919 l 
-1799 -922 l  -1785 -925 l  -1771 -927 l  -1758 -929 l  -1744 -930 l  -1730 -931 l 
-1716 -932 l  -1702 -933 l  -1688 -933 l  -1674 -934 l  -1660 -934 l  -1646 -935 l 
-1632 -936 l  -1618 -937 l  -1605 -938 l  -1591 -940 l  -1577 -942 l  -1563 -945 l 
-1549 -948 l  -1535 -952 l  -1521 -956 l  -1507 -961 l  -1493 -967 l  -1479 -974 l 
-1465 -981 l  -1452 -988 l  -1438 -995 l  -1424 -1003 l  -1410 -1011 l 
-1396 -1018 l  -1382 -1026 l  -1368 -1033 l  -1354 -1040 l  -1340 -1046 l 
-1326 -1052 l  -1313 -1057 l  -1299 -1062 l  -1285 -1065 l  -1271 -1068 l 
-1257 -1069 l  -1243 -1070 l  -1229 -1069 l  -1215 -1067 l  -1201 -1063 l 
-1187 -1059 l  -1173 -1054 l  -1160 -1047 l  -1146 -1040 l  -1132 -1033 l 
-1118 -1024 l  -1104 -1015 l  -1090 -1006 l  -1076 -996 l  -1062 -986 l 
-1048 -975 l  -1034 -964 l  -1020 -954 l  -1007 -943 l  -993 -932 l  -979 -921 l 
-965 -911 l  -951 -901 l  -937 -891 l  -923 -881 l  -909 -872 l  -895 -863 l 
-881 -855 l  -867 -848 l  -854 -841 l  -840 -835 l  -826 -830 l  -812 -825 l 
-798 -822 l  -784 -819 l  -770 -817 l  -756 -817 l  -742 -817 l  -728 -819 l 
-715 -822 l  -701 -826 l  -687 -831 l  -673 -838 l  -659 -846 l  -645 -855 l 
-631 -864 l  -617 -874 l  -603 -885 l  -589 -895 l  -575 -905 l  -562 -914 l 
-548 -923 l  -534 -931 l  -520 -938 l  -506 -943 l  -492 -947 l  -478 -949 l 
-464 -948 l  -450 -946 l  -436 -941 l  -422 -933 l  -409 -922 l  -395 -908 l 
-381 -891 l  -367 -872 l  -353 -850 l  -339 -827 l  -325 -802 l  -311 -776 l 
-297 -749 l  -283 -721 l  -269 -694 l  -256 -666 l  -242 -640 l  -228 -614 l 
-214 -589 l  -200 -566 l  -186 -545 l  -172 -526 l  -158 -510 l  -144 -497 l 
-130 -487 l  -117 -480 l  -103 -477 l  -89 -477 l  -75 -480 l  -61 -485 l 
-47 -493 l  -33 -502 l  -19 -514 l  -5 -526 l  8 -539 l  22 -554 l  35 -568 l 
49 -583 l  63 -598 l  77 -612 l  91 -626 l  105 -638 l  119 -650 l  133 -660 l 
147 -668 l  161 -674 l  175 -677 l  188 -680 l  202 -680 l  216 -679 l 
230 -676 l  244 -672 l  258 -667 l  272 -662 l  286 -655 l  300 -648 l 
314 -640 l  327 -632 l  341 -623 l  355 -615 l  369 -606 l  383 -598 l 
397 -591 l  411 -584 l  425 -577 l  439 -572 l  453 -567 l  467 -563 l 
480 -560 l  494 -557 l  508 -555 l  522 -554 l  536 -554 l  550 -554 l 
564 -555 l  578 -557 l  592 -559 l  606 -562 l  620 -565 l  633 -569 l 
647 -573 l  661 -578 l  675 -583 l  689 -589 l  703 -595 l  717 -602 l 
731 -609 l  745 -616 l  759 -623 l  773 -630 l  786 -637 l  800 -643 l 
814 -650 l  828 -656 l  842 -662 l  856 -667 l  870 -671 l  884 -674 l 
898 -677 l  912 -678 l  925 -679 l  939 -678 l  953 -676 l  967 -673 l 
981 -668 l  995 -661 l  1009 -653 l  1023 -644 l  1037 -634 l  1051 -623 l 
1065 -611 l  1078 -599 l  1092 -587 l  1106 -575 l  1120 -562 l  1134 -550 l 
1148 -539 l  1162 -528 l  1176 -518 l  1190 -509 l  1204 -501 l  1218 -495 l 
1231 -490 l  1245 -488 l  1259 -487 l  1273 -488 l  1287 -491 l  1301 -496 l 
1315 -503 l  1329 -511 l  1343 -521 l  1357 -531 l  1371 -542 l  1384 -554 l 
1398 -566 l  1412 -579 l  1426 -591 l  1440 -603 l  1454 -615 l  1468 -626 l 
1482 -637 l  1496 -647 l  1510 -655 l  1523 -662 l  1537 -668 l  1551 -671 l 
1565 -674 l  1579 -674 l  1593 -674 l  1607 -672 l  1621 -669 l  1635 -665 l 
1649 -660 l  1663 -654 l  1676 -648 l  1690 -641 l  1704 -634 l  1718 -626 l 
1732 -619 l  1746 -611 l  1760 -603 l  1774 -596 l  1788 -589 l  1802 -583 l 
1816 -577 l  1829 -572 l  1843 -568 l  1857 -564 l  1871 -561 l  1885 -559 l 
1899 -557 l  1913 -556 l  1927 -556 l  1941 -556 l  1955 -557 l  1968 -559 l 
1982 -561 l  1996 -563 l  2010 -566 l  2024 -570 l  2038 -574 l  2052 -579 l 
2066 -584 l  2080 -589 l  2094 -595 l  2108 -602 l  2121 -608 l  2135 -615 l 
2149 -622 l  2163 -629 l  2177 -636 l  2191 -643 l  2205 -649 l  2219 -655 l 
2233 -661 l  2247 -666 l  2261 -670 l  2274 -674 l  2288 -676 l  2302 -678 l 
2316 -679 l  2330 -678 l  2344 -676 l  2358 -672 l  2372 -668 l  2386 -661 l 
2400 -653 l  2414 -644 l  2427 -634 l  2441 -623 l  2455 -612 l  2469 -600 l 
2483 -587 l  2497 -575 l  2511 -563 l  2525 -551 l  2539 -539 l  2553 -528 l 
2566 -518 l  2580 -509 l  2594 -502 l  2608 -495 l  2622 -491 l  2636 -488 l 
2650 -487 l  2664 -488 l  2678 -491 l  2692 -496 l  2706 -503 l  2719 -511 l 
2733 -520 l  2747 -530 l  2761 -541 l  2775 -553 l  2789 -565 l  2803 -577 l 
2817 -589 l  2831 -602 l  2845 -614 l  2859 -625 l  2872 -636 l  2886 -646 l 
2900 -654 l  2914 -662 l  2928 -668 l  2942 -672 l  2956 -675 l  2970 -676 l 
2984 -676 l  2998 -674 l  3012 -672 l  3025 -668 l  3039 -664 l  3053 -659 l 
3067 -653 l  3081 -646 l  3095 -639 l  3109 -632 l  3123 -624 l  3137 -616 l 
3151 -608 l  3164 -600 l  3178 -592 l  3192 -584 l  3206 -577 l  3220 -570 l 
3234 -564 l  3248 -558 l  3262 -553 l  3276 -549 l  3290 -545 l  3304 -542 l 
3317 -540 l  3331 -539 l  3345 -539 l  3359 -539 l  3373 -541 l  3387 -543 l 
3401 -547 l  3415 -552 l  3429 -558 l  3443 -565 l  3457 -574 l  3470 -584 l 
3484 -595 l  3498 -608 l  3512 -622 l  3526 -636 l  3540 -651 l  3554 -666 l 
3568 -681 l  3582 -695 l  3596 -708 l  3609 -720 l  3623 -731 l  3637 -739 l 
3651 -745 l  3665 -748 l  3679 -748 l  3693 -745 l  3707 -738 l  3721 -728 l 
3735 -712 l  3749 -693 l  3762 -668 l  3776 -637 l  3790 -602 l  3804 -563 l 
3818 -520 l  3832 -474 l  3846 -425 l  3860 -375 l  3874 -323 l  3888 -270 l 
3902 -217 l  3915 -164 l  3929 -112 l  3943 -61 l  3957 -13 l  3971 32 l 
3985 75 l  3999 114 l  4013 149 l  4027 179 l  4041 204 l  4055 223 l 
4068 236 l  4082 244 l  4096 248 l  4110 247 l  4124 242 l  4138 234 l 
4152 224 l  4166 210 l  4180 195 l  4194 178 l  4207 160 l  4221 142 l 
4235 123 l  4249 104 l  4263 86 l  4277 69 l  4291 53 l  4305 40 l  4319 28 l 
4333 20 l  4347 14 l  4360 11 l  4374 9 l  4388 10 l  4402 12 l  4416 16 l 
4430 20 l  4444 26 l  4458 33 l  4472 40 l  4486 47 l  4500 54 l  4513 61 l 
4527 68 l  4541 74 l  4555 79 l  4569 83 l  4583 86 l  4597 87 l  4611 86 l 
4625 84 l  4639 79 l  4653 74 l  4666 67 l  4680 58 l  4694 48 l  4708 38 l 
4722 26 l  4736 13 l  4750 -1 l  4764 -15 l  4778 -30 l  4792 -45 l  4805 -62 l 
4819 -78 l  4833 -95 l  4847 -112 l  4861 -129 l  4875 -146 l  4889 -163 l 
4903 -180 l  4917 -196 l  4931 -212 l  4945 -227 l  4958 -241 l  4972 -254 l 
4986 -266 l  5000 -276 l  5014 -285 l  5028 -293 l  5042 -298 l  5056 -302 l 
5070 -304 l  5084 -304 l  5098 -301 l  5111 -296 l  5125 -288 l  5139 -277 l 
5153 -263 l  5167 -246 l  5181 -227 l  5195 -205 l  5209 -181 l  5223 -155 l 
5237 -128 l  5250 -100 l  5264 -71 l  5278 -42 l  5292 -13 l  5306 15 l 
5320 43 l  5334 70 l  5348 96 l  5362 120 l  5376 143 l  5390 162 l  5403 179 l 
5417 193 l  5431 204 l  5445 211 l  5459 214 l  5473 215 l  5487 212 l 
5501 207 l  5515 200 l  5529 191 l  5543 180 l  5556 167 l  5570 154 l 
5584 140 l  5598 125 l  5612 111 l  5626 96 l  5640 82 l  5654 69 l  5668 56 l 
5682 45 l  5696 36 l  5709 28 l  5723 23 l  5737 20 l  5751 18 l  5765 19 l 
5779 20 l  5793 23 l  5807 27 l  5821 32 l  5835 38 l  5848 44 l  5862 50 l 
5876 56 l  5890 63 l  5904 69 l  5918 74 l  5932 79 l  5946 83 l  5960 85 l 
5974 87 l  5988 87 l  6001 85 l  6015 82 l  6029 77 l  6043 71 l  6057 64 l 
6071 55 l  6085 45 l  6099 34 l  6113 23 l  6127 10 l  6141 -3 l  6154 -17 l 
6168 -32 l  6182 -47 l  6196 -63 l  6210 -79 l  6224 -96 l  6238 -113 l 
6252 -129 l  6266 -146 l  6280 -163 l  6294 -179 l  6307 -195 l  6321 -211 l 
6335 -226 l  6349 -240 l  6363 -253 l  6377 -265 l  6391 -275 l  6405 -284 l 
6419 -292 l  6433 -298 l  6446 -302 l  6460 -304 l  6474 -303 l  6488 -301 l 
6502 -295 l  6516 -287 l  6530 -277 l  6544 -263 l  6558 -246 l  6572 -227 l 
6586 -205 l  6599 -181 l  6613 -155 l  6627 -128 l  6641 -100 l  6655 -71 l 
6669 -42 l  6683 -13 l  6697 15 l  6711 43 l  6725 71 l  6739 96 l  6752 121 l 
6766 143 l  6780 162 l  6794 179 l  6808 193 l  6822 204 l  6836 211 l 
6850 214 l  6864 214 l  6878 212 l  6891 207 l  6905 199 l  6919 190 l 
6933 179 l  6947 166 l  6961 153 l  6975 139 l  6989 124 l  7003 110 l 
7017 95 l  7031 81 l  7044 68 l  7058 55 l  7072 45 l  7086 36 l  7100 28 l 
7114 23 l  7128 21 l  7142 20 l  7156 20 l  7170 23 l  7184 26 l  7197 30 l 
7211 36 l  7225 41 l  7239 48 l  7253 54 l  7267 61 l  7281 67 l  7295 73 l 
7309 78 l  7323 82 l  7337 86 l  7350 88 l  7364 88 l  7378 87 l  7392 84 l 
7406 79 l  7420 73 l  7434 65 l  7448 56 l  7462 45 l  7476 34 l  7489 21 l 
7503 8 l  7517 -4 l  7531 -19 l  7545 -33 l  7559 -48 l  7573 -63 l  7587 -78 l 
7601 -93 l  7615 -107 l  7629 -121 l  7642 -134 l  7656 -146 l  7670 -158 l 
7684 -168 l  7698 -178 l  7712 -187 l  7726 -195 l  7740 -203 l  7754 -210 l 
7768 -216 l  7782 -222 l  7795 -227 l  7809 -232 l  7823 -237 l  7837 -241 l 
7851 -245 l  7865 -248 l  7879 -251 l  7893 -255 l  7907 -257 l  7921 -260 l 
7935 -263 l  ps
-8599 -1524 m  -8599 -1274 l  -8349 -1274 l  -8349 -1524 l  -8599 -1524 l 
p ef
0 lw -8599 -1524 m  -8599 -1274 l  -8349 -1274 l  -8349 -1524 l  -8599 -1524 l 
pc
-8321 -1629 m  -8321 -1379 l  -8071 -1379 l  -8071 -1629 l  -8321 -1629 l 
p ef
-8321 -1629 m  -8321 -1379 l  -8071 -1379 l  -8071 -1629 l  -8321 -1629 l 
pc
-8043 -1412 m  -8043 -1162 l  -7793 -1162 l  -7793 -1412 l  -8043 -1412 l 
p ef
-8043 -1412 m  -8043 -1162 l  -7793 -1162 l  -7793 -1412 l  -8043 -1412 l 
pc
-7765 -1511 m  -7765 -1261 l  -7515 -1261 l  -7515 -1511 l  -7765 -1511 l 
p ef
-7765 -1511 m  -7765 -1261 l  -7515 -1261 l  -7515 -1511 l  -7765 -1511 l 
pc
-7487 -1592 m  -7487 -1342 l  -7237 -1342 l  -7237 -1592 l  -7487 -1592 l 
p ef
-7487 -1592 m  -7487 -1342 l  -7237 -1342 l  -7237 -1592 l  -7487 -1592 l 
pc
-7209 -1524 m  -7209 -1274 l  -6959 -1274 l  -6959 -1524 l  -7209 -1524 l 
p ef
-7209 -1524 m  -7209 -1274 l  -6959 -1274 l  -6959 -1524 l  -7209 -1524 l 
pc
-6931 -1629 m  -6931 -1379 l  -6681 -1379 l  -6681 -1629 l  -6931 -1629 l 
p ef
-6931 -1629 m  -6931 -1379 l  -6681 -1379 l  -6681 -1629 l  -6931 -1629 l 
pc
-6653 -1412 m  -6653 -1162 l  -6403 -1162 l  -6403 -1412 l  -6653 -1412 l 
p ef
-6653 -1412 m  -6653 -1162 l  -6403 -1162 l  -6403 -1412 l  -6653 -1412 l 
pc
-6374 -1511 m  -6374 -1261 l  -6124 -1261 l  -6124 -1511 l  -6374 -1511 l 
p ef
-6374 -1511 m  -6374 -1261 l  -6124 -1261 l  -6124 -1511 l  -6374 -1511 l 
pc
-6096 -1592 m  -6096 -1342 l  -5846 -1342 l  -5846 -1592 l  -6096 -1592 l 
p ef
-6096 -1592 m  -6096 -1342 l  -5846 -1342 l  -5846 -1592 l  -6096 -1592 l 
pc
-5818 -1524 m  -5818 -1274 l  -5568 -1274 l  -5568 -1524 l  -5818 -1524 l 
p ef
-5818 -1524 m  -5818 -1274 l  -5568 -1274 l  -5568 -1524 l  -5818 -1524 l 
pc
-5540 -1629 m  -5540 -1379 l  -5290 -1379 l  -5290 -1629 l  -5540 -1629 l 
p ef
-5540 -1629 m  -5540 -1379 l  -5290 -1379 l  -5290 -1629 l  -5540 -1629 l 
pc
-5262 -1412 m  -5262 -1162 l  -5012 -1162 l  -5012 -1412 l  -5262 -1412 l 
p ef
-5262 -1412 m  -5262 -1162 l  -5012 -1162 l  -5012 -1412 l  -5262 -1412 l 
pc
-4984 -1511 m  -4984 -1261 l  -4734 -1261 l  -4734 -1511 l  -4984 -1511 l 
p ef
-4984 -1511 m  -4984 -1261 l  -4734 -1261 l  -4734 -1511 l  -4984 -1511 l 
pc
-4706 -1592 m  -4706 -1342 l  -4456 -1342 l  -4456 -1592 l  -4706 -1592 l 
p ef
-4706 -1592 m  -4706 -1342 l  -4456 -1342 l  -4456 -1592 l  -4706 -1592 l 
pc
-4427 -1081 m  -4427 -831 l  -4177 -831 l  -4177 -1081 l  -4427 -1081 l 
p ef
-4427 -1081 m  -4427 -831 l  -4177 -831 l  -4177 -1081 l  -4427 -1081 l 
pc
-4149 -1195 m  -4149 -945 l  -3899 -945 l  -3899 -1195 l  -4149 -1195 l 
p ef
-4149 -1195 m  -4149 -945 l  -3899 -945 l  -3899 -1195 l  -4149 -1195 l 
pc
-3871 -1036 m  -3871 -786 l  -3621 -786 l  -3621 -1036 l  -3871 -1036 l 
p ef
-3871 -1036 m  -3871 -786 l  -3621 -786 l  -3621 -1036 l  -3871 -1036 l 
pc
-3593 -956 m  -3593 -706 l  -3343 -706 l  -3343 -956 l  -3593 -956 l  p ef
-3593 -956 m  -3593 -706 l  -3343 -706 l  -3343 -956 l  -3593 -956 l  pc
-3315 -1047 m  -3315 -797 l  -3065 -797 l  -3065 -1047 l  -3315 -1047 l 
p ef
-3315 -1047 m  -3315 -797 l  -3065 -797 l  -3065 -1047 l  -3315 -1047 l 
pc
-3037 -1081 m  -3037 -831 l  -2787 -831 l  -2787 -1081 l  -3037 -1081 l 
p ef
-3037 -1081 m  -3037 -831 l  -2787 -831 l  -2787 -1081 l  -3037 -1081 l 
pc
-2759 -1195 m  -2759 -945 l  -2509 -945 l  -2509 -1195 l  -2759 -1195 l 
p ef
-2759 -1195 m  -2759 -945 l  -2509 -945 l  -2509 -1195 l  -2759 -1195 l 
pc
-2481 -1036 m  -2481 -786 l  -2231 -786 l  -2231 -1036 l  -2481 -1036 l 
p ef
-2481 -1036 m  -2481 -786 l  -2231 -786 l  -2231 -1036 l  -2481 -1036 l 
pc
-2202 -956 m  -2202 -706 l  -1952 -706 l  -1952 -956 l  -2202 -956 l  p ef
-2202 -956 m  -2202 -706 l  -1952 -706 l  -1952 -956 l  -2202 -956 l  pc
-1924 -1047 m  -1924 -797 l  -1674 -797 l  -1674 -1047 l  -1924 -1047 l 
p ef
-1924 -1047 m  -1924 -797 l  -1674 -797 l  -1674 -1047 l  -1924 -1047 l 
pc
-1646 -1081 m  -1646 -831 l  -1396 -831 l  -1396 -1081 l  -1646 -1081 l 
p ef
-1646 -1081 m  -1646 -831 l  -1396 -831 l  -1396 -1081 l  -1646 -1081 l 
pc
-1368 -1195 m  -1368 -945 l  -1118 -945 l  -1118 -1195 l  -1368 -1195 l 
p ef
-1368 -1195 m  -1368 -945 l  -1118 -945 l  -1118 -1195 l  -1368 -1195 l 
pc
-1090 -1036 m  -1090 -786 l  -840 -786 l  -840 -1036 l  -1090 -1036 l 
p ef
-1090 -1036 m  -1090 -786 l  -840 -786 l  -840 -1036 l  -1090 -1036 l 
pc
-812 -956 m  -812 -706 l  -562 -706 l  -562 -956 l  -812 -956 l  p ef
-812 -956 m  -812 -706 l  -562 -706 l  -562 -956 l  -812 -956 l  pc
-534 -1047 m  -534 -797 l  -284 -797 l  -284 -1047 l  -534 -1047 l  p ef
-534 -1047 m  -534 -797 l  -284 -797 l  -284 -1047 l  -534 -1047 l  pc
-255 -612 m  -255 -362 l  -5 -362 l  -5 -612 l  -255 -612 l  p ef
-255 -612 m  -255 -362 l  -5 -362 l  -5 -612 l  -255 -612 l  pc
22 -793 m  22 -543 l  272 -543 l  272 -793 l  22 -793 l  p ef
22 -793 m  22 -543 l  272 -543 l  272 -793 l  22 -793 l  pc
300 -702 m  300 -452 l  550 -452 l  550 -702 l  300 -702 l  p ef
300 -702 m  300 -452 l  550 -452 l  550 -702 l  300 -702 l  pc
578 -720 m  578 -470 l  828 -470 l  828 -720 l  578 -720 l  p ef
578 -720 m  578 -470 l  828 -470 l  828 -720 l  578 -720 l  pc
856 -793 m  856 -543 l  1106 -543 l  1106 -793 l  856 -793 l  p ef
856 -793 m  856 -543 l  1106 -543 l  1106 -793 l  856 -793 l  pc
1134 -612 m  1134 -362 l  1384 -362 l  1384 -612 l  1134 -612 l  p ef
1134 -612 m  1134 -362 l  1384 -362 l  1384 -612 l  1134 -612 l  pc
1412 -793 m  1412 -543 l  1662 -543 l  1662 -793 l  1412 -793 l  p ef
1412 -793 m  1412 -543 l  1662 -543 l  1662 -793 l  1412 -793 l  pc
1691 -702 m  1691 -452 l  1941 -452 l  1941 -702 l  1691 -702 l  p ef
1691 -702 m  1691 -452 l  1941 -452 l  1941 -702 l  1691 -702 l  pc
1969 -720 m  1969 -470 l  2219 -470 l  2219 -720 l  1969 -720 l  p ef
1969 -720 m  1969 -470 l  2219 -470 l  2219 -720 l  1969 -720 l  pc
2247 -793 m  2247 -543 l  2497 -543 l  2497 -793 l  2247 -793 l  p ef
2247 -793 m  2247 -543 l  2497 -543 l  2497 -793 l  2247 -793 l  pc
2525 -612 m  2525 -362 l  2775 -362 l  2775 -612 l  2525 -612 l  p ef
2525 -612 m  2525 -362 l  2775 -362 l  2775 -612 l  2525 -612 l  pc
2803 -793 m  2803 -543 l  3053 -543 l  3053 -793 l  2803 -793 l  p ef
2803 -793 m  2803 -543 l  3053 -543 l  3053 -793 l  2803 -793 l  pc
3081 -702 m  3081 -452 l  3331 -452 l  3331 -702 l  3081 -702 l  p ef
3081 -702 m  3081 -452 l  3331 -452 l  3331 -702 l  3081 -702 l  pc
3359 -720 m  3359 -470 l  3609 -470 l  3609 -720 l  3359 -720 l  p ef
3359 -720 m  3359 -470 l  3609 -470 l  3609 -720 l  3359 -720 l  pc
3637 -793 m  3637 -543 l  3887 -543 l  3887 -793 l  3637 -793 l  p ef
3637 -793 m  3637 -543 l  3887 -543 l  3887 -793 l  3637 -793 l  pc
3916 79 m  3916 329 l  4166 329 l  4166 79 l  3916 79 l  p ef
3916 79 m  3916 329 l  4166 329 l  4166 79 l  3916 79 l  pc
4194 -96 m  4194 153 l  4444 153 l  4444 -96 l  4194 -96 l  p ef
4194 -96 m  4194 153 l  4444 153 l  4444 -96 l  4194 -96 l  pc
4472 -37 m  4472 212 l  4722 212 l  4722 -37 l  4472 -37 l  p ef
4472 -37 m  4472 212 l  4722 212 l  4722 -37 l  4472 -37 l  pc
4750 -271 m  4750 -21 l  5000 -21 l  5000 -271 l  4750 -271 l  p ef
4750 -271 m  4750 -21 l  5000 -21 l  5000 -271 l  4750 -271 l  pc
5028 -388 m  5028 -138 l  5278 -138 l  5278 -388 l  5028 -388 l  p ef
5028 -388 m  5028 -138 l  5278 -138 l  5278 -388 l  5028 -388 l  pc
5306 79 m  5306 329 l  5556 329 l  5556 79 l  5306 79 l  p ef
5306 79 m  5306 329 l  5556 329 l  5556 79 l  5306 79 l  pc
5584 -96 m  5584 153 l  5834 153 l  5834 -96 l  5584 -96 l  p ef
5584 -96 m  5584 153 l  5834 153 l  5834 -96 l  5584 -96 l  pc
5863 -37 m  5863 212 l  6113 212 l  6113 -37 l  5863 -37 l  p ef
5863 -37 m  5863 212 l  6113 212 l  6113 -37 l  5863 -37 l  pc
6141 -271 m  6141 -21 l  6391 -21 l  6391 -271 l  6141 -271 l  p ef
6141 -271 m  6141 -21 l  6391 -21 l  6391 -271 l  6141 -271 l  pc
6419 -388 m  6419 -138 l  6669 -138 l  6669 -388 l  6419 -388 l  p ef
6419 -388 m  6419 -138 l  6669 -138 l  6669 -388 l  6419 -388 l  pc
6697 79 m  6697 329 l  6947 329 l  6947 79 l  6697 79 l  p ef
6697 79 m  6697 329 l  6947 329 l  6947 79 l  6697 79 l  pc
6975 -96 m  6975 153 l  7225 153 l  7225 -96 l  6975 -96 l  p ef
6975 -96 m  6975 153 l  7225 153 l  7225 -96 l  6975 -96 l  pc
7253 -37 m  7253 212 l  7503 212 l  7503 -37 l  7253 -37 l  p ef
7253 -37 m  7253 212 l  7503 212 l  7503 -37 l  7253 -37 l  pc
7531 -271 m  7531 -21 l  7781 -21 l  7781 -271 l  7531 -271 l  p ef
7531 -271 m  7531 -21 l  7781 -21 l  7781 -271 l  7531 -271 l  pc
7810 -388 m  7810 -138 l  8060 -138 l  8060 -388 l  7810 -388 l  p ef
7810 -388 m  7810 -138 l  8060 -138 l  8060 -388 l  7810 -388 l  pc
79.99611 lw 1.000 0.261 0.058 c -8474 -1794 m  -8461 -1786 l  -8447 -1777 l 
-8433 -1769 l  -8419 -1761 l  -8405 -1754 l  -8391 -1747 l  -8377 -1741 l 
-8363 -1736 l  -8349 -1732 l  -8335 -1729 l  -8322 -1727 l  -8308 -1726 l 
-8294 -1728 l  -8280 -1730 l  -8266 -1735 l  -8252 -1741 l  -8238 -1750 l 
-8224 -1760 l  -8210 -1773 l  -8196 -1788 l  -8182 -1806 l  -8169 -1826 l 
-8155 -1847 l  -8141 -1870 l  -8127 -1895 l  -8113 -1921 l  -8099 -1947 l 
-8085 -1973 l  -8071 -2000 l  -8057 -2026 l  -8043 -2052 l  -8029 -2077 l 
-8016 -2101 l  -8002 -2123 l  -7988 -2144 l  -7974 -2162 l  -7960 -2178 l 
-7946 -2191 l  -7932 -2202 l  -7918 -2209 l  -7904 -2212 l  -7890 -2212 l 
-7877 -2209 l  -7863 -2204 l  -7849 -2196 l  -7835 -2185 l  -7821 -2173 l 
-7807 -2159 l  -7793 -2144 l  -7779 -2128 l  -7765 -2111 l  -7751 -2094 l 
-7737 -2076 l  -7724 -2059 l  -7710 -2042 l  -7696 -2026 l  -7682 -2011 l 
-7668 -1997 l  -7654 -1984 l  -7640 -1974 l  -7626 -1965 l  -7612 -1959 l 
-7598 -1954 l  -7584 -1951 l  -7571 -1949 l  -7557 -1949 l  -7543 -1949 l 
-7529 -1951 l  -7515 -1953 l  -7501 -1956 l  -7487 -1959 l  -7473 -1962 l 
-7459 -1966 l  -7445 -1969 l  -7431 -1971 l  -7418 -1974 l  -7404 -1975 l 
-7390 -1976 l  -7376 -1975 l  -7362 -1974 l  -7348 -1971 l  -7334 -1966 l 
-7320 -1961 l  -7306 -1954 l  -7292 -1947 l  -7279 -1938 l  -7265 -1929 l 
-7251 -1920 l  -7237 -1910 l  -7223 -1900 l  -7209 -1890 l  -7195 -1879 l 
-7181 -1869 l  -7167 -1859 l  -7153 -1850 l  -7139 -1841 l  -7126 -1833 l 
-7112 -1825 l  -7098 -1818 l  -7084 -1813 l  -7070 -1808 l  -7056 -1805 l 
-7042 -1803 l  -7028 -1802 l  -7014 -1802 l  -7000 -1802 l  -6986 -1804 l 
-6973 -1806 l  -6959 -1810 l  -6945 -1814 l  -6931 -1819 l  -6917 -1824 l 
-6903 -1830 l  -6889 -1837 l  -6875 -1844 l  -6861 -1852 l  -6847 -1860 l 
-6833 -1869 l  -6820 -1878 l  -6806 -1887 l  -6792 -1897 l  -6778 -1907 l 
-6764 -1917 l  -6750 -1927 l  -6736 -1937 l  -6722 -1948 l  -6708 -1959 l 
-6694 -1969 l  -6681 -1980 l  -6667 -1991 l  -6653 -2002 l  -6639 -2013 l 
-6625 -2024 l  -6611 -2035 l  -6597 -2046 l  -6583 -2056 l  -6569 -2067 l 
-6555 -2077 l  -6541 -2087 l  -6528 -2097 l  -6514 -2107 l  -6500 -2116 l 
-6486 -2126 l  -6472 -2134 l  -6458 -2142 l  -6444 -2150 l  -6430 -2157 l 
-6416 -2164 l  -6402 -2170 l  -6388 -2175 l  -6375 -2180 l  -6361 -2183 l 
-6347 -2186 l  -6333 -2188 l  -6319 -2189 l  -6305 -2189 l  -6291 -2188 l 
-6277 -2186 l  -6263 -2182 l  -6249 -2178 l  -6236 -2172 l  -6222 -2165 l 
-6208 -2157 l  -6194 -2148 l  -6180 -2138 l  -6166 -2127 l  -6152 -2116 l 
-6138 -2104 l  -6124 -2092 l  -6110 -2079 l  -6096 -2066 l  -6083 -2052 l 
-6069 -2039 l  -6055 -2025 l  -6041 -2012 l  -6027 -1998 l  -6013 -1985 l 
-5999 -1973 l  -5985 -1961 l  -5971 -1949 l  -5957 -1938 l  -5943 -1927 l 
-5930 -1918 l  -5916 -1908 l  -5902 -1900 l  -5888 -1892 l  -5874 -1884 l 
-5860 -1877 l  -5846 -1870 l  -5832 -1864 l  -5818 -1858 l  -5804 -1852 l 
-5790 -1847 l  -5777 -1842 l  -5763 -1838 l  -5749 -1833 l  -5735 -1830 l 
-5721 -1826 l  -5707 -1822 l  -5693 -1819 l  -5679 -1816 l  -5665 -1813 l 
-5651 -1810 l  -5638 -1808 l  -5624 -1806 l  -5610 -1804 l  -5596 -1803 l 
-5582 -1802 l  -5568 -1801 l  -5554 -1801 l  -5540 -1801 l  -5526 -1802 l 
-5512 -1804 l  -5498 -1806 l  -5485 -1808 l  -5471 -1812 l  -5457 -1815 l 
-5443 -1820 l  -5429 -1825 l  -5415 -1831 l  -5401 -1838 l  -5387 -1846 l 
-5373 -1854 l  -5359 -1863 l  -5345 -1873 l  -5332 -1883 l  -5318 -1893 l 
-5304 -1904 l  -5290 -1916 l  -5276 -1928 l  -5262 -1940 l  -5248 -1952 l 
-5234 -1965 l  -5220 -1977 l  -5206 -1990 l  -5192 -2003 l  -5179 -2016 l 
-5165 -2029 l  -5151 -2041 l  -5137 -2054 l  -5123 -2066 l  -5109 -2079 l 
-5095 -2091 l  -5081 -2102 l  -5067 -2114 l  -5053 -2125 l  -5040 -2135 l 
-5026 -2145 l  -5012 -2155 l  -4998 -2165 l  -4984 -2174 l  -4970 -2182 l 
-4956 -2190 l  -4942 -2197 l  -4928 -2204 l  -4914 -2210 l  -4900 -2215 l 
-4887 -2220 l  -4873 -2224 l  -4859 -2227 l  -4845 -2230 l  -4831 -2231 l 
-4817 -2232 l  -4803 -2233 l  -4789 -2232 l  -4775 -2231 l  -4761 -2228 l 
-4747 -2226 l  -4734 -2222 l  -4720 -2217 l  -4706 -2212 l  -4692 -2206 l 
-4678 -2199 l  -4664 -2191 l  -4650 -2183 l  -4636 -2173 l  -4622 -2163 l 
-4608 -2152 l  -4595 -2141 l  -4581 -2128 l  -4567 -2115 l  -4553 -2101 l 
-4539 -2086 l  -4525 -2071 l  -4511 -2055 l  -4497 -2039 l  -4483 -2023 l 
-4469 -2006 l  -4455 -1989 l  -4442 -1972 l  -4428 -1955 l  -4414 -1939 l 
-4400 -1922 l  -4386 -1906 l  -4372 -1890 l  -4358 -1874 l  -4344 -1860 l 
-4330 -1845 l  -4316 -1831 l  -4302 -1819 l  -4289 -1807 l  -4275 -1795 l 
-4261 -1785 l  -4247 -1776 l  -4233 -1768 l  -4219 -1762 l  -4205 -1756 l 
-4191 -1752 l  -4177 -1749 l  -4163 -1748 l  -4149 -1748 l  -4136 -1750 l 
-4122 -1753 l  -4108 -1759 l  -4094 -1766 l  -4080 -1774 l  -4066 -1785 l 
-4052 -1798 l  -4038 -1813 l  -4024 -1830 l  -4010 -1849 l  -3997 -1870 l 
-3983 -1893 l  -3969 -1917 l  -3955 -1942 l  -3941 -1968 l  -3927 -1995 l 
-3913 -2022 l  -3899 -2048 l  -3885 -2075 l  -3871 -2101 l  -3857 -2126 l 
-3844 -2149 l  -3830 -2172 l  -3816 -2193 l  -3802 -2211 l  -3788 -2228 l 
-3774 -2242 l  -3760 -2253 l  -3746 -2261 l  -3732 -2266 l  -3718 -2268 l 
-3704 -2266 l  -3691 -2263 l  -3677 -2257 l  -3663 -2249 l  -3649 -2239 l 
-3635 -2227 l  -3621 -2215 l  -3607 -2201 l  -3593 -2187 l  -3579 -2172 l 
-3565 -2157 l  -3551 -2142 l  -3538 -2127 l  -3524 -2113 l  -3510 -2100 l 
-3496 -2088 l  -3482 -2077 l  -3468 -2068 l  -3454 -2061 l  -3440 -2056 l 
-3426 -2052 l  -3412 -2049 l  -3399 -2048 l  -3385 -2048 l  -3371 -2048 l 
-3357 -2050 l  -3343 -2052 l  -3329 -2054 l  -3315 -2056 l  -3301 -2059 l 
-3287 -2061 l  -3273 -2063 l  -3259 -2064 l  -3246 -2065 l  -3232 -2065 l 
-3218 -2063 l  -3204 -2061 l  -3190 -2057 l  -3176 -2051 l  -3162 -2045 l 
-3148 -2037 l  -3134 -2027 l  -3120 -2017 l  -3106 -2006 l  -3093 -1995 l 
-3079 -1982 l  -3065 -1970 l  -3051 -1957 l  -3037 -1945 l  -3023 -1932 l 
-3009 -1920 l  -2995 -1908 l  -2981 -1896 l  -2967 -1885 l  -2954 -1876 l 
-2940 -1867 l  -2926 -1859 l  -2912 -1853 l  -2898 -1848 l  -2884 -1844 l 
-2870 -1842 l  -2856 -1841 l  -2842 -1841 l  -2828 -1843 l  -2814 -1845 l 
-2801 -1848 l  -2787 -1853 l  -2773 -1858 l  -2759 -1864 l  -2745 -1871 l 
-2731 -1878 l  -2717 -1886 l  -2703 -1895 l  -2689 -1904 l  -2675 -1913 l 
-2661 -1923 l  -2648 -1933 l  -2634 -1943 l  -2620 -1954 l  -2606 -1964 l 
-2592 -1975 l  -2578 -1985 l  -2564 -1996 l  -2550 -2007 l  -2536 -2018 l 
-2522 -2028 l  -2508 -2039 l  -2495 -2049 l  -2481 -2060 l  -2467 -2070 l 
-2453 -2081 l  -2439 -2091 l  -2425 -2101 l  -2411 -2111 l  -2397 -2120 l 
-2383 -2130 l  -2369 -2139 l  -2356 -2148 l  -2342 -2156 l  -2328 -2164 l 
-2314 -2172 l  -2300 -2180 l  -2286 -2187 l  -2272 -2193 l  -2258 -2200 l 
-2244 -2205 l  -2230 -2210 l  -2216 -2214 l  -2203 -2218 l  -2189 -2221 l 
-2175 -2223 l  -2161 -2225 l  -2147 -2226 l  -2133 -2225 l  -2119 -2224 l 
-2105 -2222 l  -2091 -2220 l  -2077 -2216 l  -2063 -2211 l  -2050 -2205 l 
-2036 -2198 l  -2022 -2191 l  -2008 -2183 l  -1994 -2174 l  -1980 -2165 l 
-1966 -2155 l  -1952 -2144 l  -1938 -2134 l  -1924 -2123 l  -1910 -2111 l 
-1897 -2100 l  -1883 -2089 l  -1869 -2077 l  -1855 -2066 l  -1841 -2055 l 
-1827 -2044 l  -1813 -2033 l  -1799 -2023 l  -1785 -2013 l  -1771 -2004 l 
-1758 -1995 l  -1744 -1986 l  -1730 -1978 l  -1716 -1970 l  -1702 -1963 l 
-1688 -1956 l  -1674 -1949 l  -1660 -1943 l  -1646 -1937 l  -1632 -1931 l 
-1618 -1926 l  -1605 -1921 l  -1591 -1917 l  -1577 -1912 l  -1563 -1908 l 
-1549 -1905 l  -1535 -1901 l  -1521 -1898 l  -1507 -1895 l  -1493 -1892 l 
-1479 -1890 l  -1465 -1888 l  -1452 -1886 l  -1438 -1884 l  -1424 -1883 l 
-1410 -1882 l  -1396 -1882 l  -1382 -1881 l  -1368 -1881 l  -1354 -1882 l 
-1340 -1882 l  -1326 -1883 l  -1313 -1885 l  -1299 -1887 l  -1285 -1889 l 
-1271 -1892 l  -1257 -1895 l  -1243 -1898 l  -1229 -1902 l  -1215 -1906 l 
-1201 -1911 l  -1187 -1916 l  -1173 -1921 l  -1160 -1927 l  -1146 -1934 l 
-1132 -1941 l  -1118 -1948 l  -1104 -1956 l  -1090 -1964 l  -1076 -1972 l 
-1062 -1981 l  -1048 -1991 l  -1034 -2001 l  -1020 -2011 l  -1007 -2022 l 
-993 -2033 l  -979 -2045 l  -965 -2057 l  -951 -2069 l  -937 -2082 l  -923 -2096 l 
-909 -2109 l  -895 -2123 l  -881 -2137 l  -867 -2151 l  -854 -2165 l  -840 -2179 l 
-826 -2192 l  -812 -2206 l  -798 -2219 l  -784 -2232 l  -770 -2244 l  -756 -2256 l 
-742 -2268 l  -728 -2278 l  -715 -2289 l  -701 -2298 l  -687 -2307 l  -673 -2314 l 
-659 -2321 l  -645 -2327 l  -631 -2331 l  -617 -2335 l  -603 -2337 l  -589 -2338 l 
-575 -2337 l  -562 -2335 l  -548 -2332 l  -534 -2326 l  -520 -2319 l  -506 -2311 l 
-492 -2300 l  -478 -2288 l  -464 -2273 l  -450 -2256 l  -436 -2238 l  -422 -2216 l 
-409 -2193 l  -395 -2167 l  -381 -2139 l  -367 -2110 l  -353 -2078 l  -339 -2046 l 
-325 -2012 l  -311 -1977 l  -297 -1942 l  -283 -1906 l  -269 -1871 l  -256 -1836 l 
-242 -1801 l  -228 -1767 l  -214 -1734 l  -200 -1702 l  -186 -1672 l  -172 -1644 l 
-158 -1617 l  -144 -1594 l  -130 -1572 l  -117 -1554 l  -103 -1538 l  -89 -1525 l 
-75 -1515 l  -61 -1507 l  -47 -1501 l  -33 -1499 l  -19 -1498 l  -5 -1500 l 
8 -1503 l  22 -1509 l  35 -1517 l  49 -1527 l  63 -1539 l  77 -1553 l 
91 -1568 l  105 -1585 l  119 -1603 l  133 -1623 l  147 -1645 l  161 -1667 l 
175 -1691 l  188 -1716 l  202 -1741 l  216 -1767 l  230 -1793 l  244 -1819 l 
258 -1845 l  272 -1871 l  286 -1895 l  300 -1919 l  314 -1942 l  327 -1964 l 
341 -1984 l  355 -2002 l  369 -2019 l  383 -2033 l  397 -2045 l  411 -2054 l 
425 -2061 l  439 -2064 l  453 -2065 l  467 -2063 l  480 -2059 l  494 -2053 l 
508 -2045 l  522 -2035 l  536 -2024 l  550 -2012 l  564 -2000 l  578 -1986 l 
592 -1972 l  606 -1959 l  620 -1945 l  633 -1932 l  647 -1919 l  661 -1907 l 
675 -1897 l  689 -1887 l  703 -1880 l  717 -1874 l  731 -1870 l  745 -1867 l 
759 -1866 l  773 -1866 l  786 -1867 l  800 -1868 l  814 -1871 l  828 -1873 l 
842 -1876 l  856 -1879 l  870 -1882 l  884 -1885 l  898 -1887 l  912 -1888 l 
925 -1889 l  939 -1889 l  953 -1887 l  967 -1884 l  981 -1880 l  995 -1874 l 
1009 -1866 l  1023 -1857 l  1037 -1847 l  1051 -1835 l  1065 -1823 l  1078 -1810 l 
1092 -1796 l  1106 -1782 l  1120 -1768 l  1134 -1753 l  1148 -1739 l  1162 -1725 l 
1176 -1711 l  1190 -1697 l  1204 -1685 l  1218 -1673 l  1231 -1662 l  1245 -1653 l 
1259 -1645 l  1273 -1638 l  1287 -1633 l  1301 -1629 l  1315 -1626 l  1329 -1625 l 
1343 -1625 l  1357 -1627 l  1371 -1629 l  1384 -1633 l  1398 -1638 l  1412 -1643 l 
1426 -1650 l  1440 -1658 l  1454 -1667 l  1468 -1676 l  1482 -1686 l  1496 -1698 l 
1510 -1709 l  1523 -1722 l  1537 -1735 l  1551 -1749 l  1565 -1763 l  1579 -1778 l 
1593 -1793 l  1607 -1808 l  1621 -1823 l  1635 -1839 l  1649 -1854 l  1663 -1869 l 
1676 -1884 l  1690 -1899 l  1704 -1914 l  1718 -1928 l  1732 -1941 l  1746 -1954 l 
1760 -1966 l  1774 -1978 l  1788 -1988 l  1802 -1998 l  1816 -2006 l  1829 -2014 l 
1843 -2020 l  1857 -2026 l  1871 -2030 l  1885 -2033 l  1899 -2035 l  1913 -2037 l 
1927 -2037 l  1941 -2037 l  1955 -2036 l  1968 -2034 l  1982 -2031 l  1996 -2028 l 
2010 -2024 l  2024 -2020 l  2038 -2014 l  2052 -2009 l  2066 -2002 l  2080 -1996 l 
2094 -1988 l  2108 -1981 l  2121 -1973 l  2135 -1964 l  2149 -1956 l  2163 -1947 l 
2177 -1937 l  2191 -1928 l  2205 -1918 l  2219 -1908 l  2233 -1898 l  2247 -1887 l 
2261 -1877 l  2274 -1866 l  2288 -1855 l  2302 -1844 l  2316 -1833 l  2330 -1822 l 
2344 -1811 l  2358 -1800 l  2372 -1789 l  2386 -1778 l  2400 -1768 l  2414 -1757 l 
2427 -1746 l  2441 -1736 l  2455 -1726 l  2469 -1716 l  2483 -1707 l  2497 -1697 l 
2511 -1688 l  2525 -1680 l  2539 -1672 l  2553 -1664 l  2566 -1657 l  2580 -1651 l 
2594 -1645 l  2608 -1639 l  2622 -1634 l  2636 -1630 l  2650 -1627 l  2664 -1624 l 
2678 -1622 l  2692 -1620 l  2706 -1619 l  2719 -1619 l  2733 -1620 l  2747 -1621 l 
2761 -1623 l  2775 -1625 l  2789 -1628 l  2803 -1631 l  2817 -1635 l  2831 -1639 l 
2845 -1644 l  2859 -1649 l  2872 -1655 l  2886 -1661 l  2900 -1667 l  2914 -1674 l 
2928 -1681 l  2942 -1688 l  2956 -1696 l  2970 -1704 l  2984 -1712 l  2998 -1721 l 
3012 -1730 l  3025 -1740 l  3039 -1750 l  3053 -1760 l  3067 -1770 l  3081 -1781 l 
3095 -1793 l  3109 -1804 l  3123 -1816 l  3137 -1829 l  3151 -1842 l  3164 -1855 l 
3178 -1869 l  3192 -1883 l  3206 -1898 l  3220 -1913 l  3234 -1928 l  3248 -1944 l 
3262 -1960 l  3276 -1976 l  3290 -1992 l  3304 -2007 l  3317 -2023 l  3331 -2038 l 
3345 -2052 l  3359 -2066 l  3373 -2080 l  3387 -2092 l  3401 -2104 l  3415 -2115 l 
3429 -2125 l  3443 -2133 l  3457 -2141 l  3470 -2147 l  3484 -2151 l  3498 -2154 l 
3512 -2156 l  3526 -2156 l  3540 -2155 l  3554 -2153 l  3568 -2150 l  3582 -2145 l 
3596 -2140 l  3609 -2134 l  3623 -2128 l  3637 -2120 l  3651 -2112 l  3665 -2104 l 
3679 -2096 l  3693 -2087 l  3707 -2078 l  3721 -2069 l  3735 -2060 l  3749 -2051 l 
3762 -2043 l  3776 -2034 l  3790 -2026 l  3804 -2019 l  3818 -2011 l  3832 -2004 l 
3846 -1998 l  3860 -1991 l  3874 -1985 l  3888 -1979 l  3902 -1973 l  3915 -1968 l 
3929 -1963 l  3943 -1958 l  3957 -1953 l  3971 -1949 l  3985 -1945 l  3999 -1941 l 
4013 -1937 l  4027 -1934 l  4041 -1931 l  4055 -1928 l  4068 -1925 l  4082 -1922 l 
4096 -1920 l  4110 -1919 l  4124 -1917 l  4138 -1917 l  4152 -1917 l  4166 -1918 l 
4180 -1919 l  4194 -1922 l  4207 -1925 l  4221 -1929 l  4235 -1934 l  4249 -1940 l 
4263 -1948 l  4277 -1956 l  4291 -1966 l  4305 -1977 l  4319 -1989 l  4333 -2003 l 
4347 -2018 l  4360 -2034 l  4374 -2051 l  4388 -2068 l  4402 -2086 l  4416 -2105 l 
4430 -2123 l  4444 -2141 l  4458 -2159 l  4472 -2177 l  4486 -2194 l  4500 -2210 l 
4513 -2224 l  4527 -2238 l  4541 -2250 l  4555 -2261 l  4569 -2270 l  4583 -2277 l 
4597 -2282 l  4611 -2284 l  4625 -2284 l  4639 -2282 l  4653 -2279 l  4666 -2274 l 
4680 -2267 l  4694 -2259 l  4708 -2251 l  4722 -2241 l  4736 -2231 l  4750 -2220 l 
4764 -2209 l  4778 -2198 l  4792 -2187 l  4805 -2176 l  4819 -2166 l  4833 -2157 l 
4847 -2149 l  4861 -2141 l  4875 -2135 l  4889 -2131 l  4903 -2128 l  4917 -2125 l 
4931 -2124 l  4945 -2124 l  4958 -2125 l  4972 -2126 l  4986 -2128 l  5000 -2130 l 
5014 -2133 l  5028 -2135 l  5042 -2137 l  5056 -2139 l  5070 -2141 l  5084 -2142 l 
5098 -2143 l  5111 -2143 l  5125 -2141 l  5139 -2139 l  5153 -2135 l  5167 -2130 l 
5181 -2124 l  5195 -2117 l  5209 -2109 l  5223 -2099 l  5237 -2089 l  5250 -2079 l 
5264 -2067 l  5278 -2056 l  5292 -2043 l  5306 -2031 l  5320 -2019 l  5334 -2007 l 
5348 -1994 l  5362 -1982 l  5376 -1971 l  5390 -1960 l  5403 -1949 l  5417 -1939 l 
5431 -1931 l  5445 -1923 l  5459 -1916 l  5473 -1910 l  5487 -1904 l  5501 -1900 l 
5515 -1897 l  5529 -1895 l  5543 -1894 l  5556 -1894 l  5570 -1895 l  5584 -1897 l 
5598 -1900 l  5612 -1903 l  5626 -1908 l  5640 -1914 l  5654 -1921 l  5668 -1929 l 
5682 -1939 l  5696 -1949 l  5709 -1960 l  5723 -1972 l  5737 -1985 l  5751 -1999 l 
5765 -2014 l  5779 -2029 l  5793 -2045 l  5807 -2061 l  5821 -2078 l  5835 -2094 l 
5848 -2111 l  5862 -2127 l  5876 -2143 l  5890 -2159 l  5904 -2175 l  5918 -2190 l 
5932 -2204 l  5946 -2218 l  5960 -2230 l  5974 -2242 l  5988 -2252 l  6001 -2262 l 
6015 -2270 l  6029 -2277 l  6043 -2282 l  6057 -2287 l  6071 -2291 l  6085 -2293 l 
6099 -2295 l  6113 -2296 l  6127 -2295 l  6141 -2294 l  6154 -2292 l  6168 -2290 l 
6182 -2286 l  6196 -2282 l  6210 -2277 l  6224 -2272 l  6238 -2266 l  6252 -2259 l 
6266 -2252 l  6280 -2245 l  6294 -2237 l  6307 -2228 l  6321 -2220 l  6335 -2210 l 
6349 -2201 l  6363 -2191 l  6377 -2181 l  6391 -2171 l  6405 -2160 l  6419 -2149 l 
6433 -2138 l  6446 -2127 l  6460 -2116 l  6474 -2105 l  6488 -2093 l  6502 -2082 l 
6516 -2070 l  6530 -2059 l  6544 -2048 l  6558 -2036 l  6572 -2025 l  6586 -2014 l 
6599 -2003 l  6613 -1993 l  6627 -1983 l  6641 -1973 l  6655 -1963 l  6669 -1954 l 
6683 -1946 l  6697 -1938 l  6711 -1931 l  6725 -1924 l  6739 -1919 l  6752 -1913 l 
6766 -1909 l  6780 -1906 l  6794 -1903 l  6808 -1902 l  6822 -1901 l  6836 -1902 l 
6850 -1903 l  6864 -1906 l  6878 -1909 l  6891 -1913 l  6905 -1918 l  6919 -1923 l 
6933 -1929 l  6947 -1936 l  6961 -1943 l  6975 -1950 l  6989 -1957 l  7003 -1965 l 
7017 -1973 l  7031 -1981 l  7044 -1989 l  7058 -1996 l  7072 -2004 l  7086 -2011 l 
7100 -2018 l  7114 -2025 l  7128 -2031 l  7142 -2037 l  7156 -2043 l  7170 -2049 l 
7184 -2054 l  7197 -2060 l  7211 -2065 l  7225 -2070 l  7239 -2075 l  7253 -2080 l 
7267 -2085 l  7281 -2091 l  7295 -2096 l  7309 -2102 l  7323 -2108 l  7337 -2114 l 
7350 -2121 l  7364 -2128 l  7378 -2135 l  7392 -2143 l  7406 -2151 l  7420 -2160 l 
7434 -2169 l  7448 -2178 l  7462 -2186 l  7476 -2196 l  7489 -2204 l  7503 -2213 l 
7517 -2222 l  7531 -2230 l  7545 -2238 l  7559 -2246 l  7573 -2253 l  7587 -2260 l 
7601 -2266 l  7615 -2271 l  7629 -2275 l  7642 -2279 l  7656 -2282 l  7670 -2283 l 
7684 -2284 l  7698 -2284 l  7712 -2283 l  7726 -2281 l  7740 -2279 l  7754 -2276 l 
7768 -2272 l  7782 -2267 l  7795 -2263 l  7809 -2257 l  7823 -2251 l  7837 -2245 l 
7851 -2238 l  7865 -2231 l  7879 -2224 l  7893 -2217 l  7907 -2209 l  7921 -2202 l 
7935 -2194 l  ps
-8599 -1794 m  -8474 -1669 l  -8349 -1794 l  -8474 -1919 l  -8599 -1794 l 
p ef
0 lw -8599 -1794 m  -8474 -1669 l  -8349 -1794 l  -8474 -1919 l  -8599 -1794 l 
pc
-8321 -1788 m  -8196 -1663 l  -8071 -1788 l  -8196 -1913 l  -8321 -1788 l 
p ef
-8321 -1788 m  -8196 -1663 l  -8071 -1788 l  -8196 -1913 l  -8321 -1788 l 
pc
-8043 -2209 m  -7918 -2084 l  -7793 -2209 l  -7918 -2334 l  -8043 -2209 l 
p ef
-8043 -2209 m  -7918 -2084 l  -7793 -2209 l  -7918 -2334 l  -8043 -2209 l 
pc
-7765 -1974 m  -7640 -1849 l  -7515 -1974 l  -7640 -2099 l  -7765 -1974 l 
p ef
-7765 -1974 m  -7640 -1849 l  -7515 -1974 l  -7640 -2099 l  -7765 -1974 l 
pc
-7487 -1974 m  -7362 -1849 l  -7237 -1974 l  -7362 -2099 l  -7487 -1974 l 
p ef
-7487 -1974 m  -7362 -1849 l  -7237 -1974 l  -7362 -2099 l  -7487 -1974 l 
pc
-7209 -1813 m  -7084 -1688 l  -6959 -1813 l  -7084 -1938 l  -7209 -1813 l 
p ef
-7209 -1813 m  -7084 -1688 l  -6959 -1813 l  -7084 -1938 l  -7209 -1813 l 
pc
-6931 -1887 m  -6806 -1762 l  -6681 -1887 l  -6806 -2012 l  -6931 -1887 l 
p ef
-6931 -1887 m  -6806 -1762 l  -6681 -1887 l  -6806 -2012 l  -6931 -1887 l 
pc
-6653 -2097 m  -6528 -1972 l  -6403 -2097 l  -6528 -2222 l  -6653 -2097 l 
p ef
-6653 -2097 m  -6528 -1972 l  -6403 -2097 l  -6528 -2222 l  -6653 -2097 l 
pc
-6374 -2178 m  -6249 -2053 l  -6124 -2178 l  -6249 -2303 l  -6374 -2178 l 
p ef
-6374 -2178 m  -6249 -2053 l  -6124 -2178 l  -6249 -2303 l  -6374 -2178 l 
pc
-6096 -1949 m  -5971 -1824 l  -5846 -1949 l  -5971 -2074 l  -6096 -1949 l 
p ef
-6096 -1949 m  -5971 -1824 l  -5846 -1949 l  -5971 -2074 l  -6096 -1949 l 
pc
-5818 -1819 m  -5693 -1694 l  -5568 -1819 l  -5693 -1944 l  -5818 -1819 l 
p ef
-5818 -1819 m  -5693 -1694 l  -5568 -1819 l  -5693 -1944 l  -5818 -1819 l 
pc
-5540 -1831 m  -5415 -1706 l  -5290 -1831 l  -5415 -1956 l  -5540 -1831 l 
p ef
-5540 -1831 m  -5415 -1706 l  -5290 -1831 l  -5415 -1956 l  -5540 -1831 l 
pc
-5262 -2054 m  -5137 -1929 l  -5012 -2054 l  -5137 -2179 l  -5262 -2054 l 
p ef
-5262 -2054 m  -5137 -1929 l  -5012 -2054 l  -5137 -2179 l  -5262 -2054 l 
pc
-4984 -2227 m  -4859 -2102 l  -4734 -2227 l  -4859 -2352 l  -4984 -2227 l 
p ef
-4984 -2227 m  -4859 -2102 l  -4734 -2227 l  -4859 -2352 l  -4984 -2227 l 
pc
-4706 -2128 m  -4581 -2003 l  -4456 -2128 l  -4581 -2253 l  -4706 -2128 l 
p ef
-4706 -2128 m  -4581 -2003 l  -4456 -2128 l  -4581 -2253 l  -4706 -2128 l 
pc
-4427 -1819 m  -4302 -1694 l  -4177 -1819 l  -4302 -1944 l  -4427 -1819 l 
p ef
-4427 -1819 m  -4302 -1694 l  -4177 -1819 l  -4302 -1944 l  -4427 -1819 l 
pc
-4149 -1830 m  -4024 -1705 l  -3899 -1830 l  -4024 -1955 l  -4149 -1830 l 
p ef
-4149 -1830 m  -4024 -1705 l  -3899 -1830 l  -4024 -1955 l  -4149 -1830 l 
pc
-3871 -2261 m  -3746 -2136 l  -3621 -2261 l  -3746 -2386 l  -3871 -2261 l 
p ef
-3871 -2261 m  -3746 -2136 l  -3621 -2261 l  -3746 -2386 l  -3871 -2261 l 
pc
-3593 -2068 m  -3468 -1943 l  -3343 -2068 l  -3468 -2193 l  -3593 -2068 l 
p ef
-3593 -2068 m  -3468 -1943 l  -3343 -2068 l  -3468 -2193 l  -3593 -2068 l 
pc
-3315 -2057 m  -3190 -1932 l  -3065 -2057 l  -3190 -2182 l  -3315 -2057 l 
p ef
-3315 -2057 m  -3190 -1932 l  -3065 -2057 l  -3190 -2182 l  -3315 -2057 l 
pc
-3037 -1853 m  -2912 -1728 l  -2787 -1853 l  -2912 -1978 l  -3037 -1853 l 
p ef
-3037 -1853 m  -2912 -1728 l  -2787 -1853 l  -2912 -1978 l  -3037 -1853 l 
pc
-2759 -1943 m  -2634 -1818 l  -2509 -1943 l  -2634 -2068 l  -2759 -1943 l 
p ef
-2759 -1943 m  -2634 -1818 l  -2509 -1943 l  -2634 -2068 l  -2759 -1943 l 
pc
-2481 -2148 m  -2356 -2023 l  -2231 -2148 l  -2356 -2273 l  -2481 -2148 l 
p ef
-2481 -2148 m  -2356 -2023 l  -2231 -2148 l  -2356 -2273 l  -2481 -2148 l 
pc
-2202 -2216 m  -2077 -2091 l  -1952 -2216 l  -2077 -2341 l  -2202 -2216 l 
p ef
-2202 -2216 m  -2077 -2091 l  -1952 -2216 l  -2077 -2341 l  -2202 -2216 l 
pc
-1924 -2023 m  -1799 -1898 l  -1674 -2023 l  -1799 -2148 l  -1924 -2023 l 
p ef
-1924 -2023 m  -1799 -1898 l  -1674 -2023 l  -1799 -2148 l  -1924 -2023 l 
pc
-1646 -1898 m  -1521 -1773 l  -1396 -1898 l  -1521 -2023 l  -1646 -1898 l 
p ef
-1646 -1898 m  -1521 -1773 l  -1396 -1898 l  -1521 -2023 l  -1646 -1898 l 
pc
-1368 -1898 m  -1243 -1773 l  -1118 -1898 l  -1243 -2023 l  -1368 -1898 l 
p ef
-1368 -1898 m  -1243 -1773 l  -1118 -1898 l  -1243 -2023 l  -1368 -1898 l 
pc
-1090 -2057 m  -965 -1932 l  -840 -2057 l  -965 -2182 l  -1090 -2057 l 
p ef
-1090 -2057 m  -965 -1932 l  -840 -2057 l  -965 -2182 l  -1090 -2057 l 
pc
-812 -2307 m  -687 -2182 l  -562 -2307 l  -687 -2432 l  -812 -2307 l  p ef
-812 -2307 m  -687 -2182 l  -562 -2307 l  -687 -2432 l  -812 -2307 l  pc
-534 -2193 m  -409 -2068 l  -284 -2193 l  -409 -2318 l  -534 -2193 l  p ef
-534 -2193 m  -409 -2068 l  -284 -2193 l  -409 -2318 l  -534 -2193 l  pc
-255 -1572 m  -130 -1447 l  -5 -1572 l  -130 -1697 l  -255 -1572 l  p ef
-255 -1572 m  -130 -1447 l  -5 -1572 l  -130 -1697 l  -255 -1572 l  pc
22 -1645 m  147 -1520 l  272 -1645 l  147 -1770 l  22 -1645 l  p ef
22 -1645 m  147 -1520 l  272 -1645 l  147 -1770 l  22 -1645 l  pc
300 -2061 m  425 -1936 l  550 -2061 l  425 -2186 l  300 -2061 l  p ef
300 -2061 m  425 -1936 l  550 -2061 l  425 -2186 l  300 -2061 l  pc
578 -1880 m  703 -1755 l  828 -1880 l  703 -2005 l  578 -1880 l  p ef
578 -1880 m  703 -1755 l  828 -1880 l  703 -2005 l  578 -1880 l  pc
856 -1880 m  981 -1755 l  1106 -1880 l  981 -2005 l  856 -1880 l  p ef
856 -1880 m  981 -1755 l  1106 -1880 l  981 -2005 l  856 -1880 l  pc
1134 -1645 m  1259 -1520 l  1384 -1645 l  1259 -1770 l  1134 -1645 l  p ef
1134 -1645 m  1259 -1520 l  1384 -1645 l  1259 -1770 l  1134 -1645 l  pc
1412 -1735 m  1537 -1610 l  1662 -1735 l  1537 -1860 l  1412 -1735 l  p ef
1412 -1735 m  1537 -1610 l  1662 -1735 l  1537 -1860 l  1412 -1735 l  pc
1691 -2006 m  1816 -1881 l  1941 -2006 l  1816 -2131 l  1691 -2006 l  p ef
1691 -2006 m  1816 -1881 l  1941 -2006 l  1816 -2131 l  1691 -2006 l  pc
1969 -1988 m  2094 -1863 l  2219 -1988 l  2094 -2113 l  1969 -1988 l  p ef
1969 -1988 m  2094 -1863 l  2219 -1988 l  2094 -2113 l  1969 -1988 l  pc
2247 -1789 m  2372 -1664 l  2497 -1789 l  2372 -1914 l  2247 -1789 l  p ef
2247 -1789 m  2372 -1664 l  2497 -1789 l  2372 -1914 l  2247 -1789 l  pc
2525 -1627 m  2650 -1502 l  2775 -1627 l  2650 -1752 l  2525 -1627 l  p ef
2525 -1627 m  2650 -1502 l  2775 -1627 l  2650 -1752 l  2525 -1627 l  pc
2803 -1681 m  2928 -1556 l  3053 -1681 l  2928 -1806 l  2803 -1681 l  p ef
2803 -1681 m  2928 -1556 l  3053 -1681 l  2928 -1806 l  2803 -1681 l  pc
3081 -1898 m  3206 -1773 l  3331 -1898 l  3206 -2023 l  3081 -1898 l  p ef
3081 -1898 m  3206 -1773 l  3331 -1898 l  3206 -2023 l  3081 -1898 l  pc
3359 -2151 m  3484 -2026 l  3609 -2151 l  3484 -2276 l  3359 -2151 l  p ef
3359 -2151 m  3484 -2026 l  3609 -2151 l  3484 -2276 l  3359 -2151 l  pc
3637 -2043 m  3762 -1918 l  3887 -2043 l  3762 -2168 l  3637 -2043 l  p ef
3637 -2043 m  3762 -1918 l  3887 -2043 l  3762 -2168 l  3637 -2043 l  pc
3916 -1931 m  4041 -1806 l  4166 -1931 l  4041 -2056 l  3916 -1931 l  p ef
3916 -1931 m  4041 -1806 l  4166 -1931 l  4041 -2056 l  3916 -1931 l  pc
4194 -1989 m  4319 -1864 l  4444 -1989 l  4319 -2114 l  4194 -1989 l  p ef
4194 -1989 m  4319 -1864 l  4444 -1989 l  4319 -2114 l  4194 -1989 l  pc
4472 -2282 m  4597 -2157 l  4722 -2282 l  4597 -2407 l  4472 -2282 l  p ef
4472 -2282 m  4597 -2157 l  4722 -2282 l  4597 -2407 l  4472 -2282 l  pc
4750 -2135 m  4875 -2010 l  5000 -2135 l  4875 -2260 l  4750 -2135 l  p ef
4750 -2135 m  4875 -2010 l  5000 -2135 l  4875 -2260 l  4750 -2135 l  pc
5028 -2135 m  5153 -2010 l  5278 -2135 l  5153 -2260 l  5028 -2135 l  p ef
5028 -2135 m  5153 -2010 l  5278 -2135 l  5153 -2260 l  5028 -2135 l  pc
5306 -1931 m  5431 -1806 l  5556 -1931 l  5431 -2056 l  5306 -1931 l  p ef
5306 -1931 m  5431 -1806 l  5556 -1931 l  5431 -2056 l  5306 -1931 l  pc
5584 -1960 m  5709 -1835 l  5834 -1960 l  5709 -2085 l  5584 -1960 l  p ef
5584 -1960 m  5709 -1835 l  5834 -1960 l  5709 -2085 l  5584 -1960 l  pc
5863 -2252 m  5988 -2127 l  6113 -2252 l  5988 -2377 l  5863 -2252 l  p ef
5863 -2252 m  5988 -2127 l  6113 -2252 l  5988 -2377 l  5863 -2252 l  pc
6141 -2252 m  6266 -2127 l  6391 -2252 l  6266 -2377 l  6141 -2252 l  p ef
6141 -2252 m  6266 -2127 l  6391 -2252 l  6266 -2377 l  6141 -2252 l  pc
6419 -2048 m  6544 -1923 l  6669 -2048 l  6544 -2173 l  6419 -2048 l  p ef
6419 -2048 m  6544 -1923 l  6669 -2048 l  6544 -2173 l  6419 -2048 l  pc
6697 -1901 m  6822 -1776 l  6947 -1901 l  6822 -2026 l  6697 -1901 l  p ef
6697 -1901 m  6822 -1776 l  6947 -1901 l  6822 -2026 l  6697 -1901 l  pc
6975 -2018 m  7100 -1893 l  7225 -2018 l  7100 -2143 l  6975 -2018 l  p ef
6975 -2018 m  7100 -1893 l  7225 -2018 l  7100 -2143 l  6975 -2018 l  pc
7253 -2135 m  7378 -2010 l  7503 -2135 l  7378 -2260 l  7253 -2135 l  p ef
7253 -2135 m  7378 -2010 l  7503 -2135 l  7378 -2260 l  7253 -2135 l  pc
7531 -2282 m  7656 -2157 l  7781 -2282 l  7656 -2407 l  7531 -2282 l  p ef
7531 -2282 m  7656 -2157 l  7781 -2282 l  7656 -2407 l  7531 -2282 l  pc
7810 -2194 m  7935 -2069 l  8060 -2194 l  7935 -2319 l  7810 -2194 l  p ef
7810 -2194 m  7935 -2069 l  8060 -2194 l  7935 -2319 l  7810 -2194 l  pc
0.003 0.003 0.003 c
/Helvetica f
353 sf -8567 4242 m  185 0 (1) bs
/Helvetica f
353 sf -8289 3844 m  185 0 (2) bs
/Helvetica f
353 sf -8011 4242 m  185 0 (3) bs
/Helvetica f
353 sf -7733 3844 m  185 0 (4) bs
/Helvetica f
353 sf -7455 4242 m  185 0 (5) bs
/Helvetica f
353 sf -7177 3844 m  185 0 (6) bs
/Helvetica f
353 sf -6899 4242 m  185 0 (7) bs
/Helvetica f
353 sf -6621 3844 m  185 0 (8) bs
/Helvetica f
353 sf -6342 4242 m  185 0 (9) bs
/Helvetica f
353 sf -6156 3844 m  185 0 (1) bs
185 185 (0) bs
/Helvetica f
353 sf -5865 4242 m  185 0 (1) bs
185 159 (1) bs
/Helvetica f
353 sf -5600 3844 m  185 0 (1) bs
185 185 (2) bs
/Helvetica f
353 sf -5322 4242 m  185 0 (1) bs
185 185 (3) bs
/Helvetica f
353 sf -5044 3844 m  185 0 (1) bs
185 185 (4) bs
/Helvetica f
353 sf -4766 4242 m  185 0 (1) bs
185 185 (5) bs
/Helvetica f
353 sf -4487 3844 m  185 0 (1) bs
185 185 (6) bs
/Helvetica f
353 sf -4209 4242 m  185 0 (1) bs
185 185 (7) bs
/Helvetica f
353 sf -3931 3844 m  185 0 (1) bs
185 185 (8) bs
/Helvetica f
353 sf -3653 4242 m  185 0 (1) bs
185 185 (9) bs
/Helvetica f
353 sf -3375 3844 m  185 0 (2) bs
185 185 (0) bs
/Helvetica f
353 sf -3097 4242 m  185 0 (2) bs
185 185 (1) bs
/Helvetica f
353 sf -2819 3844 m  185 0 (2) bs
185 185 (2) bs
/Helvetica f
353 sf -2541 4242 m  185 0 (2) bs
185 185 (3) bs
/Helvetica f
353 sf -2262 3844 m  185 0 (2) bs
185 185 (4) bs
/Helvetica f
353 sf -1984 4242 m  185 0 (2) bs
185 185 (5) bs
/Helvetica f
353 sf -1706 3844 m  185 0 (2) bs
185 185 (6) bs
/Helvetica f
353 sf -1428 4242 m  185 0 (2) bs
185 185 (7) bs
/Helvetica f
353 sf -1150 3844 m  185 0 (2) bs
185 185 (8) bs
/Helvetica f
353 sf -872 4242 m  185 0 (2) bs
185 185 (9) bs
/Helvetica f
353 sf -594 3844 m  185 0 (3) bs
185 185 (0) bs
/Helvetica f
353 sf -315 4242 m  185 0 (3) bs
185 185 (1) bs
/Helvetica f
353 sf -37 3844 m  185 0 (3) bs
185 185 (2) bs
/Helvetica f
353 sf 241 4242 m  185 0 (3) bs
185 185 (3) bs
/Helvetica f
353 sf 519 3844 m  185 0 (3) bs
185 185 (4) bs
/Helvetica f
353 sf 797 4242 m  185 0 (3) bs
185 185 (5) bs
/Helvetica f
353 sf 1075 3844 m  185 0 (3) bs
185 185 (6) bs
/Helvetica f
353 sf 1353 4242 m  185 0 (3) bs
185 185 (7) bs
/Helvetica f
353 sf 1632 3844 m  185 0 (3) bs
185 185 (8) bs
/Helvetica f
353 sf 1910 4242 m  185 0 (3) bs
185 185 (9) bs
/Helvetica f
353 sf 2188 3844 m  185 0 (4) bs
185 185 (0) bs
/Helvetica f
353 sf 2466 4242 m  185 0 (4) bs
185 185 (1) bs
/Helvetica f
353 sf 2744 3844 m  185 0 (4) bs
185 185 (2) bs
/Helvetica f
353 sf 3022 4242 m  185 0 (4) bs
185 185 (3) bs
/Helvetica f
353 sf 3300 3844 m  185 0 (4) bs
185 185 (4) bs
/Helvetica f
353 sf 3578 4242 m  185 0 (4) bs
185 185 (5) bs
/Helvetica f
353 sf 3857 3844 m  185 0 (4) bs
185 185 (6) bs
/Helvetica f
353 sf 4135 4242 m  185 0 (4) bs
185 185 (7) bs
/Helvetica f
353 sf 4413 3844 m  185 0 (4) bs
185 185 (8) bs
/Helvetica f
353 sf 4691 4242 m  185 0 (4) bs
185 185 (9) bs
/Helvetica f
353 sf 4969 3844 m  185 0 (5) bs
185 185 (0) bs
/Helvetica f
353 sf 5247 4242 m  185 0 (5) bs
185 185 (1) bs
/Helvetica f
353 sf 5525 3844 m  185 0 (5) bs
185 185 (2) bs
/Helvetica f
353 sf 5804 4242 m  185 0 (5) bs
185 185 (3) bs
/Helvetica f
353 sf 6082 3844 m  185 0 (5) bs
185 185 (4) bs
/Helvetica f
353 sf 6360 4242 m  185 0 (5) bs
185 185 (5) bs
/Helvetica f
353 sf 6638 3844 m  185 0 (5) bs
185 185 (6) bs
/Helvetica f
353 sf 6916 4242 m  185 0 (5) bs
185 185 (7) bs
/Helvetica f
353 sf 7194 3844 m  185 0 (5) bs
185 185 (8) bs
/Helvetica f
353 sf 7472 4242 m  185 0 (5) bs
185 185 (9) bs
/Helvetica f
353 sf 7751 3844 m  185 0 (6) bs
185 185 (0) bs
/Helvetica f
353 sf -9703 3397 m  185 0 (0) bs
106 185 (,) bs
185 291 (0) bs
185 476 (0) bs
318 661 (%) bs
/Helvetica f
353 sf -9888 2496 m  185 0 (1) bs
185 185 (0) bs
106 370 (,) bs
185 476 (0) bs
185 661 (0) bs
318 847 (%) bs
/Helvetica f
353 sf -9888 1595 m  185 0 (2) bs
185 185 (0) bs
106 370 (,) bs
185 476 (0) bs
185 661 (0) bs
318 847 (%) bs
/Helvetica f
353 sf -9888 694 m  185 0 (3) bs
185 185 (0) bs
106 370 (,) bs
185 476 (0) bs
185 661 (0) bs
318 847 (%) bs
/Helvetica f
353 sf -9888 -207 m  185 0 (4) bs
185 185 (0) bs
106 370 (,) bs
185 476 (0) bs
185 661 (0) bs
318 847 (%) bs
/Helvetica f
353 sf -9888 -1108 m  185 0 (5) bs
185 185 (0) bs
106 370 (,) bs
185 476 (0) bs
185 661 (0) bs
318 847 (%) bs
/Helvetica f
353 sf -9888 -2010 m  185 0 (6) bs
185 185 (0) bs
106 370 (,) bs
185 476 (0) bs
185 661 (0) bs
318 847 (%) bs
/Helvetica f
353 sf -9888 -2911 m  185 0 (7) bs
185 185 (0) bs
106 370 (,) bs
185 476 (0) bs
185 661 (0) bs
318 847 (%) bs
/Helvetica f
459 sf -2527 -3652 m  159 0 (r) bs
238 159 (e) bs
238 397 (p) bs
238 635 (o) bs
159 873 (r) bs
106 1032 (t) bs
238 1138 (_) bs
238 1376 (8) bs
238 1614 (_) bs
238 1852 (2) bs
238 2090 (_) bs
238 2328 (1) bs
132 2566 ( ) bs
159 2699 (-) bs
132 2858 ( ) bs
238 2990 (q) bs
238 3228 (u) bs
238 3466 (a) bs
238 3704 (n) bs
106 3942 (t) bs
106 4048 (i) bs
79 4154 (l) bs
238 4233 (e) bs
212 4471 (s) bs
132 4683 ( ) bs
238 4815 (3) bs
79.99611 lw 0.003 0.273 0.527 c 8650 -250 m  9450 -250 l  ps
8944 -355 m  8944 -144 l  9155 -144 l  9155 -355 l  8944 -355 l  p ef
0 lw 8944 -355 m  8944 -144 l  9155 -144 l  9155 -355 l  8944 -355 l  pc
79.99611 lw 1.000 0.261 0.058 c 8650 247 m  9450 247 l  ps
8944 247 m  9050 353 l  9155 247 l  9050 142 l  8944 247 l  p ef
0 lw 8944 247 m  9050 353 l  9155 247 l  9050 142 l  8944 247 l  pc
0.003 0.003 0.003 c
/Helvetica f
353 sf 9550 -130 m  238 0 (H) bs
185 238 (e) bs
/Helvetica f
353 sf 9550 367 m  238 0 (K) bs
185 238 (e) bs
0 9006 t 
pom
count op_count sub {pop} repeat countdictstack dict_count sub {end} repeat b4_inc_state restore
%%PageTrailer
%%Trailer
%%EOF
