%!PS-Adobe-3.0 EPSF-3.0 
%%BoundingBox: 0 0 584 255
%%Pages: 0
%%Creator: LibreOffice 4.4
%%Title: none
%%CreationDate: none
%%LanguageLevel: 2
%%EndComments
%%BeginProlog
%%BeginResource: procset SDRes-Prolog 1.0 0
/b4_inc_state save def
/dict_count countdictstack def
/op_count count 1 sub def
userdict begin
0 setgray 0 setlinecap 1 setlinewidth 0 setlinejoin 10 setmiterlimit[] 0 setdash newpath
/languagelevel where {pop languagelevel 1 ne {false setstrokeadjust false setoverprint} if} if
/bdef {bind def} bind def
/c {setrgbcolor} bdef
/l {neg lineto} bdef
/rl {neg rlineto} bdef
/lc {setlinecap} bdef
/lj {setlinejoin} bdef
/lw {setlinewidth} bdef
/ml {setmiterlimit} bdef
/ld {setdash} bdef
/m {neg moveto} bdef
/ct {6 2 roll neg 6 2 roll neg 6 2 roll neg curveto} bdef
/r {rotate} bdef
/t {neg translate} bdef
/s {scale} bdef
/sw {show} bdef
/gs {gsave} bdef
/gr {grestore} bdef
/f {findfont dup length dict begin
{1 index /FID ne {def} {pop pop} ifelse} forall /Encoding ISOLatin1Encoding def
currentdict end /NFont exch definefont pop /NFont findfont} bdef
/p {closepath} bdef
/sf {scalefont setfont} bdef
/ef {eofill}bdef
/pc {closepath stroke}bdef
/ps {stroke}bdef
/pum {matrix currentmatrix}bdef
/pom {setmatrix}bdef
/bs {/aString exch def /nXOfs exch def /nWidth exch def currentpoint nXOfs 0 rmoveto pum nWidth aString stringwidth pop div 1 scale aString show pom moveto} bdef
%%EndResource
%%EndProlog
%%BeginSetup
%%EndSetup
%%Page: 1 1
%%BeginPageSetup
%%EndPageSetup
pum
0.02834 0.02831 s 
0 -9006 t
/tm matrix currentmatrix def
tm setmatrix
10301 4503 t 
1 1 s 
1.000 1.000 1.000 c 0 4502 m  -10301 4502 l  -10301 -4503 l  10301 -4503 l 
10301 4502 l  0 4502 l  p ef
0 lw 1 lj 0.703 0.703 0.703 c -269 3277 m  -8474 3277 l  -8474 -3029 l 
7935 -3029 l  7935 3277 l  -269 3277 l  pc
7935 3276 m  -8474 3276 l  ps
7935 2487 m  -8474 2487 l  ps
7935 1699 m  -8474 1699 l  ps
7935 910 m  -8474 910 l  ps
7935 122 m  -8474 122 l  ps
7935 -665 m  -8474 -665 l  ps
7935 -1454 m  -8474 -1454 l  ps
7935 -2242 m  -8474 -2242 l  ps
7935 -3031 m  -8474 -3031 l  ps
-8474 3426 m  -8474 3276 l  ps
-8474 3426 m  -8474 3276 l  ps
-8196 3426 m  -8196 3276 l  ps
-8196 3426 m  -8196 3276 l  ps
-7918 3426 m  -7918 3276 l  ps
-7918 3426 m  -7918 3276 l  ps
-7640 3426 m  -7640 3276 l  ps
-7640 3426 m  -7640 3276 l  ps
-7362 3426 m  -7362 3276 l  ps
-7362 3426 m  -7362 3276 l  ps
-7084 3426 m  -7084 3276 l  ps
-7084 3426 m  -7084 3276 l  ps
-6806 3426 m  -6806 3276 l  ps
-6806 3426 m  -6806 3276 l  ps
-6528 3426 m  -6528 3276 l  ps
-6528 3426 m  -6528 3276 l  ps
-6249 3426 m  -6249 3276 l  ps
-6249 3426 m  -6249 3276 l  ps
-5971 3426 m  -5971 3276 l  ps
-5971 3426 m  -5971 3276 l  ps
-5693 3426 m  -5693 3276 l  ps
-5693 3426 m  -5693 3276 l  ps
-5415 3426 m  -5415 3276 l  ps
-5415 3426 m  -5415 3276 l  ps
-5137 3426 m  -5137 3276 l  ps
-5137 3426 m  -5137 3276 l  ps
-4859 3426 m  -4859 3276 l  ps
-4859 3426 m  -4859 3276 l  ps
-4581 3426 m  -4581 3276 l  ps
-4581 3426 m  -4581 3276 l  ps
-4302 3426 m  -4302 3276 l  ps
-4302 3426 m  -4302 3276 l  ps
-4024 3426 m  -4024 3276 l  ps
-4024 3426 m  -4024 3276 l  ps
-3746 3426 m  -3746 3276 l  ps
-3746 3426 m  -3746 3276 l  ps
-3468 3426 m  -3468 3276 l  ps
-3468 3426 m  -3468 3276 l  ps
-3190 3426 m  -3190 3276 l  ps
-3190 3426 m  -3190 3276 l  ps
-2912 3426 m  -2912 3276 l  ps
-2912 3426 m  -2912 3276 l  ps
-2634 3426 m  -2634 3276 l  ps
-2634 3426 m  -2634 3276 l  ps
-2356 3426 m  -2356 3276 l  ps
-2356 3426 m  -2356 3276 l  ps
-2077 3426 m  -2077 3276 l  ps
-2077 3426 m  -2077 3276 l  ps
-1799 3426 m  -1799 3276 l  ps
-1799 3426 m  -1799 3276 l  ps
-1521 3426 m  -1521 3276 l  ps
-1521 3426 m  -1521 3276 l  ps
-1243 3426 m  -1243 3276 l  ps
-1243 3426 m  -1243 3276 l  ps
-965 3426 m  -965 3276 l  ps
-965 3426 m  -965 3276 l  ps
-687 3426 m  -687 3276 l  ps
-687 3426 m  -687 3276 l  ps
-409 3426 m  -409 3276 l  ps
-409 3426 m  -409 3276 l  ps
-130 3426 m  -130 3276 l  ps
-130 3426 m  -130 3276 l  ps
147 3426 m  147 3276 l  ps
147 3426 m  147 3276 l  ps
425 3426 m  425 3276 l  ps
425 3426 m  425 3276 l  ps
703 3426 m  703 3276 l  ps
703 3426 m  703 3276 l  ps
981 3426 m  981 3276 l  ps
981 3426 m  981 3276 l  ps
1259 3426 m  1259 3276 l  ps
1259 3426 m  1259 3276 l  ps
1537 3426 m  1537 3276 l  ps
1537 3426 m  1537 3276 l  ps
1816 3426 m  1816 3276 l  ps
1816 3426 m  1816 3276 l  ps
2094 3426 m  2094 3276 l  ps
2094 3426 m  2094 3276 l  ps
2372 3426 m  2372 3276 l  ps
2372 3426 m  2372 3276 l  ps
2650 3426 m  2650 3276 l  ps
2650 3426 m  2650 3276 l  ps
2928 3426 m  2928 3276 l  ps
2928 3426 m  2928 3276 l  ps
3206 3426 m  3206 3276 l  ps
3206 3426 m  3206 3276 l  ps
3484 3426 m  3484 3276 l  ps
3484 3426 m  3484 3276 l  ps
3762 3426 m  3762 3276 l  ps
3762 3426 m  3762 3276 l  ps
4041 3426 m  4041 3276 l  ps
4041 3426 m  4041 3276 l  ps
4319 3426 m  4319 3276 l  ps
4319 3426 m  4319 3276 l  ps
4597 3426 m  4597 3276 l  ps
4597 3426 m  4597 3276 l  ps
4875 3426 m  4875 3276 l  ps
4875 3426 m  4875 3276 l  ps
5153 3426 m  5153 3276 l  ps
5153 3426 m  5153 3276 l  ps
5431 3426 m  5431 3276 l  ps
5431 3426 m  5431 3276 l  ps
5709 3426 m  5709 3276 l  ps
5709 3426 m  5709 3276 l  ps
5988 3426 m  5988 3276 l  ps
5988 3426 m  5988 3276 l  ps
6266 3426 m  6266 3276 l  ps
6266 3426 m  6266 3276 l  ps
6544 3426 m  6544 3276 l  ps
6544 3426 m  6544 3276 l  ps
6822 3426 m  6822 3276 l  ps
6822 3426 m  6822 3276 l  ps
7100 3426 m  7100 3276 l  ps
7100 3426 m  7100 3276 l  ps
7378 3426 m  7378 3276 l  ps
7378 3426 m  7378 3276 l  ps
7656 3426 m  7656 3276 l  ps
7656 3426 m  7656 3276 l  ps
7935 3426 m  7935 3276 l  ps
7935 3426 m  7935 3276 l  ps
-8474 3276 m  7935 3276 l  ps
-8624 3276 m  -8474 3276 l  ps
-8624 3276 m  -8474 3276 l  ps
-8624 2487 m  -8474 2487 l  ps
-8624 2487 m  -8474 2487 l  ps
-8624 1699 m  -8474 1699 l  ps
-8624 1699 m  -8474 1699 l  ps
-8624 910 m  -8474 910 l  ps
-8624 910 m  -8474 910 l  ps
-8624 122 m  -8474 122 l  ps
-8624 122 m  -8474 122 l  ps
-8624 -665 m  -8474 -665 l  ps
-8624 -665 m  -8474 -665 l  ps
-8624 -1454 m  -8474 -1454 l  ps
-8624 -1454 m  -8474 -1454 l  ps
-8624 -2242 m  -8474 -2242 l  ps
-8624 -2242 m  -8474 -2242 l  ps
-8624 -3031 m  -8474 -3031 l  ps
-8624 -3031 m  -8474 -3031 l  ps
-8474 3276 m  -8474 -3031 l  ps
79.99611 lw 0.003 0.273 0.527 c -8474 -762 m  -8461 -774 l  -8447 -785 l 
-8433 -796 l  -8419 -807 l  -8405 -818 l  -8391 -829 l  -8377 -839 l  -8363 -849 l 
-8349 -859 l  -8335 -868 l  -8322 -876 l  -8308 -884 l  -8294 -891 l  -8280 -898 l 
-8266 -904 l  -8252 -909 l  -8238 -913 l  -8224 -916 l  -8210 -919 l  -8196 -920 l 
-8182 -920 l  -8169 -919 l  -8155 -918 l  -8141 -916 l  -8127 -913 l  -8113 -909 l 
-8099 -906 l  -8085 -902 l  -8071 -897 l  -8057 -893 l  -8043 -889 l  -8029 -885 l 
-8016 -882 l  -8002 -879 l  -7988 -876 l  -7974 -874 l  -7960 -873 l  -7946 -873 l 
-7932 -873 l  -7918 -875 l  -7904 -879 l  -7890 -883 l  -7877 -888 l  -7863 -894 l 
-7849 -901 l  -7835 -909 l  -7821 -918 l  -7807 -927 l  -7793 -937 l  -7779 -946 l 
-7765 -957 l  -7751 -967 l  -7737 -978 l  -7724 -988 l  -7710 -998 l  -7696 -1008 l 
-7682 -1018 l  -7668 -1028 l  -7654 -1037 l  -7640 -1045 l  -7626 -1053 l 
-7612 -1060 l  -7598 -1066 l  -7584 -1071 l  -7571 -1076 l  -7557 -1079 l 
-7543 -1082 l  -7529 -1084 l  -7515 -1085 l  -7501 -1085 l  -7487 -1084 l 
-7473 -1082 l  -7459 -1079 l  -7445 -1075 l  -7431 -1070 l  -7418 -1063 l 
-7404 -1055 l  -7390 -1046 l  -7376 -1036 l  -7362 -1025 l  -7348 -1012 l 
-7334 -998 l  -7320 -983 l  -7306 -968 l  -7292 -952 l  -7279 -935 l  -7265 -918 l 
-7251 -901 l  -7237 -885 l  -7223 -868 l  -7209 -852 l  -7195 -837 l  -7181 -823 l 
-7167 -810 l  -7153 -798 l  -7139 -787 l  -7126 -778 l  -7112 -771 l  -7098 -765 l 
-7084 -762 l  -7070 -761 l  -7056 -763 l  -7042 -766 l  -7028 -771 l  -7014 -777 l 
-7000 -785 l  -6986 -794 l  -6973 -804 l  -6959 -814 l  -6945 -825 l  -6931 -837 l 
-6917 -848 l  -6903 -859 l  -6889 -870 l  -6875 -881 l  -6861 -891 l  -6847 -900 l 
-6833 -908 l  -6820 -915 l  -6806 -920 l  -6792 -923 l  -6778 -925 l  -6764 -926 l 
-6750 -925 l  -6736 -924 l  -6722 -921 l  -6708 -918 l  -6694 -914 l  -6681 -909 l 
-6667 -905 l  -6653 -900 l  -6639 -895 l  -6625 -890 l  -6611 -886 l  -6597 -882 l 
-6583 -879 l  -6569 -876 l  -6555 -875 l  -6541 -875 l  -6528 -875 l  -6514 -878 l 
-6500 -881 l  -6486 -886 l  -6472 -892 l  -6458 -899 l  -6444 -906 l  -6430 -915 l 
-6416 -924 l  -6402 -933 l  -6388 -943 l  -6375 -954 l  -6361 -965 l  -6347 -975 l 
-6333 -986 l  -6319 -997 l  -6305 -1007 l  -6291 -1017 l  -6277 -1027 l 
-6263 -1036 l  -6249 -1045 l  -6236 -1053 l  -6222 -1060 l  -6208 -1066 l 
-6194 -1072 l  -6180 -1076 l  -6166 -1080 l  -6152 -1083 l  -6138 -1085 l 
-6124 -1086 l  -6110 -1086 l  -6096 -1085 l  -6083 -1083 l  -6069 -1080 l 
-6055 -1075 l  -6041 -1070 l  -6027 -1063 l  -6013 -1055 l  -5999 -1047 l 
-5985 -1036 l  -5971 -1025 l  -5957 -1012 l  -5943 -998 l  -5930 -983 l 
-5916 -968 l  -5902 -952 l  -5888 -935 l  -5874 -918 l  -5860 -902 l  -5846 -885 l 
-5832 -869 l  -5818 -853 l  -5804 -838 l  -5790 -823 l  -5777 -810 l  -5763 -798 l 
-5749 -787 l  -5735 -778 l  -5721 -771 l  -5707 -766 l  -5693 -762 l  -5679 -761 l 
-5665 -762 l  -5651 -765 l  -5638 -770 l  -5624 -776 l  -5610 -784 l  -5596 -792 l 
-5582 -802 l  -5568 -812 l  -5554 -823 l  -5540 -834 l  -5526 -846 l  -5512 -857 l 
-5498 -868 l  -5485 -879 l  -5471 -889 l  -5457 -899 l  -5443 -907 l  -5429 -914 l 
-5415 -920 l  -5401 -924 l  -5387 -927 l  -5373 -928 l  -5359 -929 l  -5345 -928 l 
-5332 -926 l  -5318 -924 l  -5304 -921 l  -5290 -917 l  -5276 -913 l  -5262 -908 l 
-5248 -903 l  -5234 -899 l  -5220 -894 l  -5206 -890 l  -5192 -886 l  -5179 -882 l 
-5165 -879 l  -5151 -877 l  -5137 -875 l  -5123 -875 l  -5109 -875 l  -5095 -877 l 
-5081 -879 l  -5067 -883 l  -5053 -887 l  -5040 -892 l  -5026 -898 l  -5012 -906 l 
-4998 -914 l  -4984 -923 l  -4970 -933 l  -4956 -943 l  -4942 -955 l  -4928 -968 l 
-4914 -982 l  -4900 -996 l  -4887 -1011 l  -4873 -1028 l  -4859 -1045 l 
-4845 -1063 l  -4831 -1082 l  -4817 -1100 l  -4803 -1118 l  -4789 -1136 l 
-4775 -1152 l  -4761 -1167 l  -4747 -1179 l  -4734 -1190 l  -4720 -1197 l 
-4706 -1201 l  -4692 -1202 l  -4678 -1198 l  -4664 -1190 l  -4650 -1177 l 
-4636 -1159 l  -4622 -1135 l  -4608 -1105 l  -4595 -1068 l  -4581 -1025 l 
-4567 -974 l  -4553 -917 l  -4539 -854 l  -4525 -787 l  -4511 -716 l  -4497 -642 l 
-4483 -567 l  -4469 -490 l  -4455 -414 l  -4442 -339 l  -4428 -266 l  -4414 -196 l 
-4400 -129 l  -4386 -67 l  -4372 -11 l  -4358 37 l  -4344 79 l  -4330 112 l 
-4316 136 l  -4302 150 l  -4289 153 l  -4275 145 l  -4261 128 l  -4247 102 l 
-4233 69 l  -4219 30 l  -4205 -14 l  -4191 -64 l  -4177 -117 l  -4163 -173 l 
-4149 -230 l  -4136 -288 l  -4122 -346 l  -4108 -403 l  -4094 -458 l  -4080 -509 l 
-4066 -557 l  -4052 -599 l  -4038 -636 l  -4024 -665 l  -4010 -687 l  -3997 -702 l 
-3983 -710 l  -3969 -712 l  -3955 -708 l  -3941 -699 l  -3927 -686 l  -3913 -670 l 
-3899 -650 l  -3885 -628 l  -3871 -604 l  -3857 -578 l  -3844 -552 l  -3830 -526 l 
-3816 -500 l  -3802 -476 l  -3788 -453 l  -3774 -432 l  -3760 -415 l  -3746 -401 l 
-3732 -390 l  -3718 -384 l  -3704 -382 l  -3691 -382 l  -3677 -386 l  -3663 -394 l 
-3649 -403 l  -3635 -416 l  -3621 -431 l  -3607 -448 l  -3593 -467 l  -3579 -487 l 
-3565 -509 l  -3551 -533 l  -3538 -557 l  -3524 -582 l  -3510 -608 l  -3496 -635 l 
-3482 -661 l  -3468 -687 l  -3454 -714 l  -3440 -739 l  -3426 -764 l  -3412 -788 l 
-3399 -810 l  -3385 -830 l  -3371 -849 l  -3357 -865 l  -3343 -878 l  -3329 -889 l 
-3315 -896 l  -3301 -900 l  -3287 -900 l  -3273 -896 l  -3259 -887 l  -3246 -874 l 
-3232 -856 l  -3218 -832 l  -3204 -803 l  -3190 -768 l  -3176 -727 l  -3162 -681 l 
-3148 -630 l  -3134 -576 l  -3120 -518 l  -3106 -459 l  -3093 -398 l  -3079 -336 l 
-3065 -275 l  -3051 -215 l  -3037 -156 l  -3023 -101 l  -3009 -48 l  -2995 -1 l 
-2981 41 l  -2967 78 l  -2954 108 l  -2940 131 l  -2926 145 l  -2912 150 l 
-2898 145 l  -2884 132 l  -2870 110 l  -2856 81 l  -2842 45 l  -2828 4 l 
-2814 -41 l  -2801 -90 l  -2787 -143 l  -2773 -197 l  -2759 -253 l  -2745 -309 l 
-2731 -365 l  -2717 -419 l  -2703 -471 l  -2689 -520 l  -2675 -564 l  -2661 -604 l 
-2648 -638 l  -2634 -665 l  -2620 -685 l  -2606 -698 l  -2592 -705 l  -2578 -706 l 
-2564 -701 l  -2550 -692 l  -2536 -679 l  -2522 -663 l  -2508 -643 l  -2495 -621 l 
-2481 -598 l  -2467 -573 l  -2453 -547 l  -2439 -522 l  -2425 -497 l  -2411 -473 l 
-2397 -451 l  -2383 -431 l  -2369 -414 l  -2356 -401 l  -2342 -391 l  -2328 -385 l 
-2314 -383 l  -2300 -384 l  -2286 -388 l  -2272 -395 l  -2258 -405 l  -2244 -418 l 
-2230 -433 l  -2216 -450 l  -2203 -468 l  -2189 -489 l  -2175 -511 l  -2161 -534 l 
-2147 -558 l  -2133 -583 l  -2119 -609 l  -2105 -635 l  -2091 -661 l  -2077 -687 l 
-2063 -713 l  -2050 -739 l  -2036 -764 l  -2022 -787 l  -2008 -809 l  -1994 -830 l 
-1980 -848 l  -1966 -864 l  -1952 -878 l  -1938 -888 l  -1924 -895 l  -1910 -899 l 
-1897 -899 l  -1883 -895 l  -1869 -887 l  -1855 -874 l  -1841 -856 l  -1827 -832 l 
-1813 -803 l  -1799 -768 l  -1785 -727 l  -1771 -681 l  -1758 -630 l  -1744 -576 l 
-1730 -518 l  -1716 -459 l  -1702 -398 l  -1688 -336 l  -1674 -275 l  -1660 -215 l 
-1646 -156 l  -1632 -101 l  -1618 -48 l  -1605 -1 l  -1591 41 l  -1577 78 l 
-1563 108 l  -1549 131 l  -1535 145 l  -1521 150 l  -1507 145 l  -1493 132 l 
-1479 110 l  -1465 81 l  -1452 45 l  -1438 4 l  -1424 -41 l  -1410 -90 l 
-1396 -143 l  -1382 -198 l  -1368 -253 l  -1354 -310 l  -1340 -365 l  -1326 -419 l 
-1313 -471 l  -1299 -520 l  -1285 -565 l  -1271 -604 l  -1257 -638 l  -1243 -665 l 
-1229 -685 l  -1215 -698 l  -1201 -705 l  -1187 -705 l  -1173 -701 l  -1160 -692 l 
-1146 -678 l  -1132 -662 l  -1118 -642 l  -1104 -620 l  -1090 -596 l  -1076 -572 l 
-1062 -546 l  -1048 -521 l  -1034 -496 l  -1020 -472 l  -1007 -450 l  -993 -431 l 
-979 -414 l  -965 -401 l  -951 -391 l  -937 -386 l  -923 -384 l  -909 -386 l 
-895 -390 l  -881 -398 l  -867 -409 l  -854 -421 l  -840 -437 l  -826 -454 l 
-812 -473 l  -798 -493 l  -784 -515 l  -770 -538 l  -756 -562 l  -742 -587 l 
-728 -612 l  -715 -637 l  -701 -662 l  -687 -687 l  -673 -712 l  -659 -736 l 
-645 -759 l  -631 -780 l  -617 -801 l  -603 -819 l  -589 -836 l  -575 -850 l 
-562 -862 l  -548 -872 l  -534 -879 l  -520 -882 l  -506 -882 l  -492 -879 l 
-478 -871 l  -464 -860 l  -450 -844 l  -436 -824 l  -422 -799 l  -409 -768 l 
-395 -733 l  -381 -693 l  -367 -649 l  -353 -601 l  -339 -550 l  -325 -497 l 
-311 -442 l  -297 -386 l  -283 -330 l  -269 -273 l  -256 -217 l  -242 -162 l 
-228 -109 l  -214 -58 l  -200 -10 l  -186 34 l  -172 74 l  -158 110 l 
-144 140 l  -130 165 l  -117 183 l  -103 196 l  -89 203 l  -75 205 l  -61 203 l 
-47 197 l  -33 187 l  -19 175 l  -5 161 l  8 145 l  22 127 l  35 109 l 
49 91 l  63 72 l  77 55 l  91 39 l  105 25 l  119 13 l  133 4 l  147 -1 l 
161 -2 l  175 -1 l  188 3 l  202 10 l  216 20 l  230 31 l  244 44 l  258 57 l 
272 71 l  286 85 l  300 98 l  314 111 l  327 122 l  341 132 l  355 139 l 
369 144 l  383 146 l  397 144 l  411 139 l  425 129 l  439 115 l  453 96 l 
467 74 l  480 49 l  494 21 l  508 -9 l  522 -40 l  536 -73 l  550 -106 l 
564 -140 l  578 -172 l  592 -204 l  606 -234 l  620 -262 l  633 -288 l 
647 -310 l  661 -329 l  675 -343 l  689 -352 l  703 -357 l  717 -355 l 
731 -349 l  745 -337 l  759 -321 l  773 -301 l  786 -278 l  800 -251 l 
814 -222 l  828 -191 l  842 -158 l  856 -123 l  870 -88 l  884 -53 l  898 -18 l 
912 16 l  925 50 l  939 82 l  953 112 l  967 140 l  981 165 l  995 186 l 
1009 205 l  1023 220 l  1037 233 l  1051 243 l  1065 250 l  1078 255 l 
1092 258 l  1106 258 l  1120 257 l  1134 253 l  1148 248 l  1162 242 l 
1176 234 l  1190 225 l  1204 214 l  1218 203 l  1231 191 l  1245 178 l 
1259 165 l  1273 151 l  1287 137 l  1301 123 l  1315 109 l  1329 96 l 
1343 82 l  1357 69 l  1371 56 l  1384 45 l  1398 34 l  1412 24 l  1426 15 l 
1440 7 l  1454 1 l  1468 -3 l  1482 -6 l  1496 -8 l  1510 -7 l  1523 -5 l 
1537 -1 l  1551 5 l  1565 14 l  1579 24 l  1593 36 l  1607 49 l  1621 62 l 
1635 75 l  1649 89 l  1663 102 l  1676 114 l  1690 126 l  1704 136 l  1718 144 l 
1732 151 l  1746 155 l  1760 156 l  1774 155 l  1788 150 l  1802 142 l 
1816 129 l  1829 112 l  1843 92 l  1857 68 l  1871 42 l  1885 13 l  1899 -17 l 
1913 -49 l  1927 -82 l  1941 -115 l  1955 -148 l  1968 -180 l  1982 -211 l 
1996 -240 l  2010 -268 l  2024 -292 l  2038 -313 l  2052 -331 l  2066 -344 l 
2080 -353 l  2094 -357 l  2108 -355 l  2121 -348 l  2135 -336 l  2149 -319 l 
2163 -299 l  2177 -275 l  2191 -249 l  2205 -220 l  2219 -188 l  2233 -155 l 
2247 -121 l  2261 -86 l  2274 -51 l  2288 -16 l  2302 17 l  2316 51 l 
2330 83 l  2344 112 l  2358 140 l  2372 165 l  2386 186 l  2400 205 l 
2414 220 l  2427 233 l  2441 242 l  2455 250 l  2469 255 l  2483 257 l 
2497 258 l  2511 256 l  2525 253 l  2539 248 l  2553 241 l  2566 233 l 
2580 224 l  2594 214 l  2608 203 l  2622 191 l  2636 178 l  2650 165 l 
2664 151 l  2678 137 l  2692 123 l  2706 110 l  2719 96 l  2733 82 l  2747 69 l 
2761 57 l  2775 45 l  2789 34 l  2803 24 l  2817 15 l  2831 8 l  2845 1 l 
2859 -3 l  2872 -6 l  2886 -7 l  2900 -7 l  2914 -5 l  2928 -1 l  2942 5 l 
2956 14 l  2970 24 l  2984 35 l  2998 48 l  3012 61 l  3025 74 l  3039 87 l 
3053 100 l  3067 113 l  3081 124 l  3095 134 l  3109 143 l  3123 149 l 
3137 153 l  3151 155 l  3164 154 l  3178 149 l  3192 141 l  3206 129 l 
3220 113 l  3234 93 l  3248 70 l  3262 44 l  3276 16 l  3290 -13 l  3304 -44 l 
3317 -76 l  3331 -109 l  3345 -141 l  3359 -173 l  3373 -204 l  3387 -234 l 
3401 -261 l  3415 -286 l  3429 -308 l  3443 -326 l  3457 -341 l  3470 -351 l 
3484 -357 l  3498 -357 l  3512 -352 l  3526 -343 l  3540 -329 l  3554 -312 l 
3568 -291 l  3582 -266 l  3596 -240 l  3609 -210 l  3623 -179 l  3637 -146 l 
3651 -112 l  3665 -76 l  3679 -41 l  3693 -5 l  3707 30 l  3721 66 l  3735 100 l 
3749 133 l  3762 165 l  3776 194 l  3790 222 l  3804 248 l  3818 272 l 
3832 295 l  3846 316 l  3860 335 l  3874 353 l  3888 370 l  3902 386 l 
3915 401 l  3929 415 l  3943 428 l  3957 440 l  3971 451 l  3985 462 l 
3999 472 l  4013 482 l  4027 491 l  4041 501 l  4055 510 l  4068 519 l 
4082 528 l  4096 538 l  4110 547 l  4124 558 l  4138 569 l  4152 581 l 
4166 593 l  4180 607 l  4194 622 l  4207 638 l  4221 656 l  4235 675 l 
4249 696 l  4263 719 l  4277 744 l  4291 771 l  4305 800 l  4319 831 l 
4333 865 l  4347 901 l  4360 938 l  4374 976 l  4388 1014 l  4402 1052 l 
4416 1089 l  4430 1125 l  4444 1158 l  4458 1189 l  4472 1217 l  4486 1241 l 
4500 1261 l  4513 1277 l  4527 1286 l  4541 1290 l  4555 1288 l  4569 1278 l 
4583 1261 l  4597 1236 l  4611 1202 l  4625 1160 l  4639 1112 l  4653 1057 l 
4666 997 l  4680 933 l  4694 865 l  4708 795 l  4722 723 l  4736 651 l 
4750 578 l  4764 507 l  4778 438 l  4792 371 l  4805 308 l  4819 249 l 
4833 196 l  4847 149 l  4861 109 l  4875 78 l  4889 55 l  4903 40 l  4917 34 l 
4931 34 l  4945 40 l  4958 52 l  4972 70 l  4986 91 l  5000 117 l  5014 146 l 
5028 177 l  5042 210 l  5056 244 l  5070 279 l  5084 314 l  5098 348 l 
5111 380 l  5125 411 l  5139 439 l  5153 464 l  5167 485 l  5181 502 l 
5195 516 l  5209 527 l  5223 535 l  5237 540 l  5250 543 l  5264 544 l 
5278 543 l  5292 541 l  5306 538 l  5320 534 l  5334 529 l  5348 524 l 
5362 518 l  5376 513 l  5390 509 l  5403 505 l  5417 502 l  5431 501 l 
5445 501 l  5459 502 l  5473 505 l  5487 510 l  5501 517 l  5515 525 l 
5529 535 l  5543 547 l  5556 560 l  5570 576 l  5584 593 l  5598 612 l 
5612 632 l  5626 655 l  5640 680 l  5654 706 l  5668 734 l  5682 765 l 
5696 797 l  5709 831 l  5723 868 l  5737 905 l  5751 944 l  5765 983 l 
5779 1022 l  5793 1061 l  5807 1098 l  5821 1134 l  5835 1167 l  5848 1198 l 
5862 1225 l  5876 1249 l  5890 1268 l  5904 1282 l  5918 1291 l  5932 1294 l 
5946 1290 l  5960 1280 l  5974 1262 l  5988 1236 l  6001 1201 l  6015 1159 l 
6029 1110 l  6043 1055 l  6057 995 l  6071 931 l  6085 863 l  6099 793 l 
6113 721 l  6127 649 l  6141 576 l  6154 505 l  6168 436 l  6182 369 l 
6196 306 l  6210 248 l  6224 195 l  6238 149 l  6252 109 l  6266 78 l 
6280 55 l  6294 41 l  6307 34 l  6321 34 l  6335 41 l  6349 53 l  6363 70 l 
6377 92 l  6391 118 l  6405 146 l  6419 177 l  6433 210 l  6446 245 l 
6460 279 l  6474 314 l  6488 348 l  6502 381 l  6516 411 l  6530 439 l 
6544 464 l  6558 485 l  6572 502 l  6586 516 l  6599 526 l  6613 534 l 
6627 540 l  6641 543 l  6655 544 l  6669 543 l  6683 541 l  6697 537 l 
6711 533 l  6725 528 l  6739 523 l  6752 518 l  6766 513 l  6780 508 l 
6794 505 l  6808 502 l  6822 501 l  6836 501 l  6850 503 l  6864 506 l 
6878 511 l  6891 518 l  6905 526 l  6919 536 l  6933 548 l  6947 562 l 
6961 577 l  6975 594 l  6989 613 l  7003 634 l  7017 657 l  7031 681 l 
7044 707 l  7058 735 l  7072 765 l  7086 797 l  7100 831 l  7114 867 l 
7128 904 l  7142 943 l  7156 981 l  7170 1020 l  7184 1057 l  7197 1094 l 
7211 1129 l  7225 1162 l  7239 1192 l  7253 1220 l  7267 1243 l  7281 1262 l 
7295 1277 l  7309 1286 l  7323 1289 l  7337 1287 l  7350 1277 l  7364 1260 l 
7378 1236 l  7392 1203 l  7406 1163 l  7420 1116 l  7434 1063 l  7448 1005 l 
7462 943 l  7476 877 l  7489 809 l  7503 739 l  7517 668 l  7531 597 l 
7545 526 l  7559 456 l  7573 389 l  7587 325 l  7601 265 l  7615 209 l 
7629 159 l  7642 115 l  7656 78 l  7670 49 l  7684 27 l  7698 12 l  7712 4 l 
7726 2 l  7740 6 l  7754 16 l  7768 31 l  7782 50 l  7795 74 l  7809 102 l 
7823 133 l  7837 168 l  7851 205 l  7865 244 l  7879 286 l  7893 329 l 
7907 373 l  7921 418 l  7935 464 l  ps
-8599 -887 m  -8599 -637 l  -8349 -637 l  -8349 -887 l  -8599 -887 l  p ef
0 lw -8599 -887 m  -8599 -637 l  -8349 -637 l  -8349 -887 l  -8599 -887 l 
pc
-8321 -1045 m  -8321 -795 l  -8071 -795 l  -8071 -1045 l  -8321 -1045 l 
p ef
-8321 -1045 m  -8321 -795 l  -8071 -795 l  -8071 -1045 l  -8321 -1045 l 
pc
-8043 -1000 m  -8043 -750 l  -7793 -750 l  -7793 -1000 l  -8043 -1000 l 
p ef
-8043 -1000 m  -8043 -750 l  -7793 -750 l  -7793 -1000 l  -8043 -1000 l 
pc
-7765 -1170 m  -7765 -920 l  -7515 -920 l  -7515 -1170 l  -7765 -1170 l 
p ef
-7765 -1170 m  -7765 -920 l  -7515 -920 l  -7515 -1170 l  -7765 -1170 l 
pc
-7487 -1150 m  -7487 -900 l  -7237 -900 l  -7237 -1150 l  -7487 -1150 l 
p ef
-7487 -1150 m  -7487 -900 l  -7237 -900 l  -7237 -1150 l  -7487 -1150 l 
pc
-7209 -887 m  -7209 -637 l  -6959 -637 l  -6959 -887 l  -7209 -887 l  p ef
-7209 -887 m  -7209 -637 l  -6959 -637 l  -6959 -887 l  -7209 -887 l  pc
-6931 -1045 m  -6931 -795 l  -6681 -795 l  -6681 -1045 l  -6931 -1045 l 
p ef
-6931 -1045 m  -6931 -795 l  -6681 -795 l  -6681 -1045 l  -6931 -1045 l 
pc
-6653 -1000 m  -6653 -750 l  -6403 -750 l  -6403 -1000 l  -6653 -1000 l 
p ef
-6653 -1000 m  -6653 -750 l  -6403 -750 l  -6403 -1000 l  -6653 -1000 l 
pc
-6374 -1170 m  -6374 -920 l  -6124 -920 l  -6124 -1170 l  -6374 -1170 l 
p ef
-6374 -1170 m  -6374 -920 l  -6124 -920 l  -6124 -1170 l  -6374 -1170 l 
pc
-6096 -1150 m  -6096 -900 l  -5846 -900 l  -5846 -1150 l  -6096 -1150 l 
p ef
-6096 -1150 m  -6096 -900 l  -5846 -900 l  -5846 -1150 l  -6096 -1150 l 
pc
-5818 -887 m  -5818 -637 l  -5568 -637 l  -5568 -887 l  -5818 -887 l  p ef
-5818 -887 m  -5818 -637 l  -5568 -637 l  -5568 -887 l  -5818 -887 l  pc
-5540 -1045 m  -5540 -795 l  -5290 -795 l  -5290 -1045 l  -5540 -1045 l 
p ef
-5540 -1045 m  -5540 -795 l  -5290 -795 l  -5290 -1045 l  -5540 -1045 l 
pc
-5262 -1000 m  -5262 -750 l  -5012 -750 l  -5012 -1000 l  -5262 -1000 l 
p ef
-5262 -1000 m  -5262 -750 l  -5012 -750 l  -5012 -1000 l  -5262 -1000 l 
pc
-4984 -1170 m  -4984 -920 l  -4734 -920 l  -4734 -1170 l  -4984 -1170 l 
p ef
-4984 -1170 m  -4984 -920 l  -4734 -920 l  -4734 -1170 l  -4984 -1170 l 
pc
-4706 -1150 m  -4706 -900 l  -4456 -900 l  -4456 -1150 l  -4706 -1150 l 
p ef
-4706 -1150 m  -4706 -900 l  -4456 -900 l  -4456 -1150 l  -4706 -1150 l 
pc
-4427 25 m  -4427 275 l  -4177 275 l  -4177 25 l  -4427 25 l  p ef
-4427 25 m  -4427 275 l  -4177 275 l  -4177 25 l  -4427 25 l  pc
-4149 -790 m  -4149 -540 l  -3899 -540 l  -3899 -790 l  -4149 -790 l  p ef
-4149 -790 m  -4149 -540 l  -3899 -540 l  -3899 -790 l  -4149 -790 l  pc
-3871 -526 m  -3871 -276 l  -3621 -276 l  -3621 -526 l  -3871 -526 l  p ef
-3871 -526 m  -3871 -276 l  -3621 -276 l  -3621 -526 l  -3871 -526 l  pc
-3593 -812 m  -3593 -562 l  -3343 -562 l  -3343 -812 l  -3593 -812 l  p ef
-3593 -812 m  -3593 -562 l  -3343 -562 l  -3343 -812 l  -3593 -812 l  pc
-3315 -893 m  -3315 -643 l  -3065 -643 l  -3065 -893 l  -3315 -893 l  p ef
-3315 -893 m  -3315 -643 l  -3065 -643 l  -3065 -893 l  -3315 -893 l  pc
-3037 25 m  -3037 275 l  -2787 275 l  -2787 25 l  -3037 25 l  p ef
-3037 25 m  -3037 275 l  -2787 275 l  -2787 25 l  -3037 25 l  pc
-2759 -790 m  -2759 -540 l  -2509 -540 l  -2509 -790 l  -2759 -790 l  p ef
-2759 -790 m  -2759 -540 l  -2509 -540 l  -2509 -790 l  -2759 -790 l  pc
-2481 -526 m  -2481 -276 l  -2231 -276 l  -2231 -526 l  -2481 -526 l  p ef
-2481 -526 m  -2481 -276 l  -2231 -276 l  -2231 -526 l  -2481 -526 l  pc
-2202 -812 m  -2202 -562 l  -1952 -562 l  -1952 -812 l  -2202 -812 l  p ef
-2202 -812 m  -2202 -562 l  -1952 -562 l  -1952 -812 l  -2202 -812 l  pc
-1924 -893 m  -1924 -643 l  -1674 -643 l  -1674 -893 l  -1924 -893 l  p ef
-1924 -893 m  -1924 -643 l  -1674 -643 l  -1674 -893 l  -1924 -893 l  pc
-1646 25 m  -1646 275 l  -1396 275 l  -1396 25 l  -1646 25 l  p ef
-1646 25 m  -1646 275 l  -1396 275 l  -1396 25 l  -1646 25 l  pc
-1368 -790 m  -1368 -540 l  -1118 -540 l  -1118 -790 l  -1368 -790 l  p ef
-1368 -790 m  -1368 -540 l  -1118 -540 l  -1118 -790 l  -1368 -790 l  pc
-1090 -526 m  -1090 -276 l  -840 -276 l  -840 -526 l  -1090 -526 l  p ef
-1090 -526 m  -1090 -276 l  -840 -276 l  -840 -526 l  -1090 -526 l  pc
-812 -812 m  -812 -562 l  -562 -562 l  -562 -812 l  -812 -812 l  p ef
-812 -812 m  -812 -562 l  -562 -562 l  -562 -812 l  -812 -812 l  pc
-534 -893 m  -534 -643 l  -284 -643 l  -284 -893 l  -534 -893 l  p ef
-534 -893 m  -534 -643 l  -284 -643 l  -284 -893 l  -534 -893 l  pc
-255 40 m  -255 290 l  -5 290 l  -5 40 l  -255 40 l  p ef
-255 40 m  -255 290 l  -5 290 l  -5 40 l  -255 40 l  pc
22 -125 m  22 124 l  272 124 l  272 -125 l  22 -125 l  p ef
22 -125 m  22 124 l  272 124 l  272 -125 l  22 -125 l  pc
300 4 m  300 254 l  550 254 l  550 4 l  300 4 l  p ef
300 4 m  300 254 l  550 254 l  550 4 l  300 4 l  pc
578 -482 m  578 -232 l  828 -232 l  828 -482 l  578 -482 l  p ef
578 -482 m  578 -232 l  828 -232 l  828 -482 l  578 -482 l  pc
856 40 m  856 290 l  1106 290 l  1106 40 l  856 40 l  p ef
856 40 m  856 290 l  1106 290 l  1106 40 l  856 40 l  pc
1134 40 m  1134 290 l  1384 290 l  1384 40 l  1134 40 l  p ef
1134 40 m  1134 290 l  1384 290 l  1384 40 l  1134 40 l  pc
1412 -125 m  1412 124 l  1662 124 l  1662 -125 l  1412 -125 l  p ef
1412 -125 m  1412 124 l  1662 124 l  1662 -125 l  1412 -125 l  pc
1691 4 m  1691 254 l  1941 254 l  1941 4 l  1691 4 l  p ef
1691 4 m  1691 254 l  1941 254 l  1941 4 l  1691 4 l  pc
1969 -482 m  1969 -232 l  2219 -232 l  2219 -482 l  1969 -482 l  p ef
1969 -482 m  1969 -232 l  2219 -232 l  2219 -482 l  1969 -482 l  pc
2247 40 m  2247 290 l  2497 290 l  2497 40 l  2247 40 l  p ef
2247 40 m  2247 290 l  2497 290 l  2497 40 l  2247 40 l  pc
2525 40 m  2525 290 l  2775 290 l  2775 40 l  2525 40 l  p ef
2525 40 m  2525 290 l  2775 290 l  2775 40 l  2525 40 l  pc
2803 -125 m  2803 124 l  3053 124 l  3053 -125 l  2803 -125 l  p ef
2803 -125 m  2803 124 l  3053 124 l  3053 -125 l  2803 -125 l  pc
3081 4 m  3081 254 l  3331 254 l  3331 4 l  3081 4 l  p ef
3081 4 m  3081 254 l  3331 254 l  3331 4 l  3081 4 l  pc
3359 -482 m  3359 -232 l  3609 -232 l  3609 -482 l  3359 -482 l  p ef
3359 -482 m  3359 -232 l  3609 -232 l  3609 -482 l  3359 -482 l  pc
3637 40 m  3637 290 l  3887 290 l  3887 40 l  3637 40 l  p ef
3637 40 m  3637 290 l  3887 290 l  3887 40 l  3637 40 l  pc
3916 376 m  3916 626 l  4166 626 l  4166 376 l  3916 376 l  p ef
3916 376 m  3916 626 l  4166 626 l  4166 376 l  3916 376 l  pc
4194 706 m  4194 956 l  4444 956 l  4444 706 l  4194 706 l  p ef
4194 706 m  4194 956 l  4444 956 l  4444 706 l  4194 706 l  pc
4472 1111 m  4472 1361 l  4722 1361 l  4722 1111 l  4472 1111 l  p ef
4472 1111 m  4472 1361 l  4722 1361 l  4722 1111 l  4472 1111 l  pc
4750 -46 m  4750 203 l  5000 203 l  5000 -46 l  4750 -46 l  p ef
4750 -46 m  4750 203 l  5000 203 l  5000 -46 l  4750 -46 l  pc
5028 339 m  5028 589 l  5278 589 l  5278 339 l  5028 339 l  p ef
5028 339 m  5028 589 l  5278 589 l  5278 339 l  5028 339 l  pc
5306 376 m  5306 626 l  5556 626 l  5556 376 l  5306 376 l  p ef
5306 376 m  5306 626 l  5556 626 l  5556 376 l  5306 376 l  pc
5584 706 m  5584 956 l  5834 956 l  5834 706 l  5584 706 l  p ef
5584 706 m  5584 956 l  5834 956 l  5834 706 l  5584 706 l  pc
5863 1111 m  5863 1361 l  6113 1361 l  6113 1111 l  5863 1111 l  p ef
5863 1111 m  5863 1361 l  6113 1361 l  6113 1111 l  5863 1111 l  pc
6141 -46 m  6141 203 l  6391 203 l  6391 -46 l  6141 -46 l  p ef
6141 -46 m  6141 203 l  6391 203 l  6391 -46 l  6141 -46 l  pc
6419 339 m  6419 589 l  6669 589 l  6669 339 l  6419 339 l  p ef
6419 339 m  6419 589 l  6669 589 l  6669 339 l  6419 339 l  pc
6697 376 m  6697 626 l  6947 626 l  6947 376 l  6697 376 l  p ef
6697 376 m  6697 626 l  6947 626 l  6947 376 l  6697 376 l  pc
6975 706 m  6975 956 l  7225 956 l  7225 706 l  6975 706 l  p ef
6975 706 m  6975 956 l  7225 956 l  7225 706 l  6975 706 l  pc
7253 1111 m  7253 1361 l  7503 1361 l  7503 1111 l  7253 1111 l  p ef
7253 1111 m  7253 1361 l  7503 1361 l  7503 1111 l  7253 1111 l  pc
7531 -46 m  7531 203 l  7781 203 l  7781 -46 l  7531 -46 l  p ef
7531 -46 m  7531 203 l  7781 203 l  7781 -46 l  7531 -46 l  pc
7810 339 m  7810 589 l  8060 589 l  8060 339 l  7810 339 l  p ef
7810 339 m  7810 589 l  8060 589 l  8060 339 l  7810 339 l  pc
79.99611 lw 1.000 0.261 0.058 c -8474 -1756 m  -8461 -1712 l  -8447 -1668 l 
-8433 -1624 l  -8419 -1581 l  -8405 -1539 l  -8391 -1498 l  -8377 -1458 l 
-8363 -1419 l  -8349 -1382 l  -8335 -1347 l  -8322 -1314 l  -8308 -1283 l 
-8294 -1254 l  -8280 -1228 l  -8266 -1205 l  -8252 -1185 l  -8238 -1168 l 
-8224 -1154 l  -8210 -1144 l  -8196 -1138 l  -8182 -1136 l  -8169 -1137 l 
-8155 -1142 l  -8141 -1150 l  -8127 -1161 l  -8113 -1175 l  -8099 -1191 l 
-8085 -1210 l  -8071 -1230 l  -8057 -1252 l  -8043 -1276 l  -8029 -1300 l 
-8016 -1326 l  -8002 -1352 l  -7988 -1379 l  -7974 -1406 l  -7960 -1432 l 
-7946 -1459 l  -7932 -1485 l  -7918 -1509 l  -7904 -1533 l  -7890 -1556 l 
-7877 -1577 l  -7863 -1596 l  -7849 -1614 l  -7835 -1630 l  -7821 -1644 l 
-7807 -1655 l  -7793 -1665 l  -7779 -1671 l  -7765 -1676 l  -7751 -1677 l 
-7737 -1676 l  -7724 -1671 l  -7710 -1663 l  -7696 -1652 l  -7682 -1637 l 
-7668 -1619 l  -7654 -1596 l  -7640 -1570 l  -7626 -1540 l  -7612 -1506 l 
-7598 -1469 l  -7584 -1431 l  -7571 -1390 l  -7557 -1349 l  -7543 -1308 l 
-7529 -1267 l  -7515 -1227 l  -7501 -1188 l  -7487 -1153 l  -7473 -1120 l 
-7459 -1091 l  -7445 -1066 l  -7431 -1046 l  -7418 -1032 l  -7404 -1024 l 
-7390 -1023 l  -7376 -1030 l  -7362 -1045 l  -7348 -1069 l  -7334 -1100 l 
-7320 -1139 l  -7306 -1184 l  -7292 -1234 l  -7279 -1288 l  -7265 -1346 l 
-7251 -1406 l  -7237 -1467 l  -7223 -1529 l  -7209 -1591 l  -7195 -1652 l 
-7181 -1711 l  -7167 -1766 l  -7153 -1817 l  -7139 -1864 l  -7126 -1904 l 
-7112 -1938 l  -7098 -1964 l  -7084 -1982 l  -7070 -1990 l  -7056 -1990 l 
-7042 -1981 l  -7028 -1965 l  -7014 -1941 l  -7000 -1912 l  -6986 -1877 l 
-6973 -1837 l  -6959 -1793 l  -6945 -1745 l  -6931 -1695 l  -6917 -1642 l 
-6903 -1587 l  -6889 -1532 l  -6875 -1477 l  -6861 -1421 l  -6847 -1367 l 
-6833 -1315 l  -6820 -1265 l  -6806 -1219 l  -6792 -1176 l  -6778 -1136 l 
-6764 -1100 l  -6750 -1068 l  -6736 -1039 l  -6722 -1013 l  -6708 -990 l 
-6694 -970 l  -6681 -953 l  -6667 -939 l  -6653 -927 l  -6639 -919 l  -6625 -912 l 
-6611 -908 l  -6597 -906 l  -6583 -907 l  -6569 -909 l  -6555 -914 l  -6541 -920 l 
-6528 -928 l  -6514 -937 l  -6500 -949 l  -6486 -961 l  -6472 -974 l  -6458 -989 l 
-6444 -1004 l  -6430 -1020 l  -6416 -1036 l  -6402 -1053 l  -6388 -1070 l 
-6375 -1087 l  -6361 -1103 l  -6347 -1120 l  -6333 -1135 l  -6319 -1151 l 
-6305 -1165 l  -6291 -1178 l  -6277 -1190 l  -6263 -1201 l  -6249 -1211 l 
-6236 -1218 l  -6222 -1225 l  -6208 -1230 l  -6194 -1234 l  -6180 -1237 l 
-6166 -1239 l  -6152 -1241 l  -6138 -1242 l  -6124 -1243 l  -6110 -1245 l 
-6096 -1246 l  -6083 -1248 l  -6069 -1250 l  -6055 -1254 l  -6041 -1258 l 
-6027 -1263 l  -6013 -1270 l  -5999 -1278 l  -5985 -1288 l  -5971 -1299 l 
-5957 -1313 l  -5943 -1329 l  -5930 -1346 l  -5916 -1364 l  -5902 -1384 l 
-5888 -1404 l  -5874 -1425 l  -5860 -1446 l  -5846 -1467 l  -5832 -1488 l 
-5818 -1509 l  -5804 -1529 l  -5790 -1548 l  -5777 -1566 l  -5763 -1582 l 
-5749 -1597 l  -5735 -1610 l  -5721 -1621 l  -5707 -1629 l  -5693 -1635 l 
-5679 -1637 l  -5665 -1637 l  -5651 -1635 l  -5638 -1629 l  -5624 -1621 l 
-5610 -1610 l  -5596 -1597 l  -5582 -1582 l  -5568 -1564 l  -5554 -1544 l 
-5540 -1521 l  -5526 -1497 l  -5512 -1471 l  -5498 -1442 l  -5485 -1412 l 
-5471 -1380 l  -5457 -1346 l  -5443 -1311 l  -5429 -1273 l  -5415 -1235 l 
-5401 -1195 l  -5387 -1154 l  -5373 -1112 l  -5359 -1070 l  -5345 -1029 l 
-5332 -988 l  -5318 -948 l  -5304 -910 l  -5290 -873 l  -5276 -839 l  -5262 -808 l 
-5248 -779 l  -5234 -755 l  -5220 -734 l  -5206 -718 l  -5192 -706 l  -5179 -700 l 
-5165 -700 l  -5151 -706 l  -5137 -718 l  -5123 -737 l  -5109 -762 l  -5095 -792 l 
-5081 -827 l  -5067 -866 l  -5053 -907 l  -5040 -951 l  -5026 -996 l  -5012 -1041 l 
-4998 -1085 l  -4984 -1129 l  -4970 -1171 l  -4956 -1209 l  -4942 -1244 l 
-4928 -1275 l  -4914 -1300 l  -4900 -1319 l  -4887 -1331 l  -4873 -1336 l 
-4859 -1332 l  -4845 -1319 l  -4831 -1297 l  -4817 -1269 l  -4803 -1234 l 
-4789 -1194 l  -4775 -1150 l  -4761 -1103 l  -4747 -1054 l  -4734 -1004 l 
-4720 -954 l  -4706 -906 l  -4692 -860 l  -4678 -818 l  -4664 -780 l  -4650 -747 l 
-4636 -722 l  -4622 -703 l  -4608 -694 l  -4595 -694 l  -4581 -706 l  -4567 -729 l 
-4553 -762 l  -4539 -805 l  -4525 -857 l  -4511 -916 l  -4497 -981 l  -4483 -1051 l 
-4469 -1124 l  -4455 -1201 l  -4442 -1278 l  -4428 -1356 l  -4414 -1433 l 
-4400 -1507 l  -4386 -1579 l  -4372 -1646 l  -4358 -1707 l  -4344 -1761 l 
-4330 -1807 l  -4316 -1845 l  -4302 -1871 l  -4289 -1887 l  -4275 -1892 l 
-4261 -1888 l  -4247 -1874 l  -4233 -1853 l  -4219 -1825 l  -4205 -1791 l 
-4191 -1752 l  -4177 -1709 l  -4163 -1663 l  -4149 -1615 l  -4136 -1565 l 
-4122 -1515 l  -4108 -1465 l  -4094 -1417 l  -4080 -1371 l  -4066 -1329 l 
-4052 -1291 l  -4038 -1258 l  -4024 -1232 l  -4010 -1212 l  -3997 -1199 l 
-3983 -1192 l  -3969 -1190 l  -3955 -1194 l  -3941 -1203 l  -3927 -1217 l 
-3913 -1234 l  -3899 -1255 l  -3885 -1279 l  -3871 -1305 l  -3857 -1334 l 
-3844 -1365 l  -3830 -1397 l  -3816 -1430 l  -3802 -1463 l  -3788 -1496 l 
-3774 -1529 l  -3760 -1561 l  -3746 -1592 l  -3732 -1621 l  -3718 -1648 l 
-3704 -1673 l  -3691 -1697 l  -3677 -1717 l  -3663 -1736 l  -3649 -1752 l 
-3635 -1765 l  -3621 -1775 l  -3607 -1782 l  -3593 -1787 l  -3579 -1788 l 
-3565 -1786 l  -3551 -1780 l  -3538 -1771 l  -3524 -1758 l  -3510 -1741 l 
-3496 -1720 l  -3482 -1695 l  -3468 -1666 l  -3454 -1632 l  -3440 -1595 l 
-3426 -1554 l  -3412 -1512 l  -3399 -1467 l  -3385 -1422 l  -3371 -1377 l 
-3357 -1332 l  -3343 -1288 l  -3329 -1246 l  -3315 -1206 l  -3301 -1170 l 
-3287 -1137 l  -3273 -1109 l  -3259 -1087 l  -3246 -1070 l  -3232 -1060 l 
-3218 -1058 l  -3204 -1063 l  -3190 -1077 l  -3176 -1101 l  -3162 -1132 l 
-3148 -1172 l  -3134 -1218 l  -3120 -1269 l  -3106 -1325 l  -3093 -1385 l 
-3079 -1447 l  -3065 -1511 l  -3051 -1576 l  -3037 -1640 l  -3023 -1703 l 
-3009 -1764 l  -2995 -1822 l  -2981 -1876 l  -2967 -1924 l  -2954 -1967 l 
-2940 -2002 l  -2926 -2030 l  -2912 -2048 l  -2898 -2057 l  -2884 -2056 l 
-2870 -2047 l  -2856 -2030 l  -2842 -2006 l  -2828 -1976 l  -2814 -1939 l 
-2801 -1898 l  -2787 -1852 l  -2773 -1802 l  -2759 -1749 l  -2745 -1694 l 
-2731 -1638 l  -2717 -1580 l  -2703 -1522 l  -2689 -1465 l  -2675 -1409 l 
-2661 -1354 l  -2648 -1302 l  -2634 -1254 l  -2620 -1209 l  -2606 -1168 l 
-2592 -1130 l  -2578 -1096 l  -2564 -1066 l  -2550 -1039 l  -2536 -1015 l 
-2522 -994 l  -2508 -976 l  -2495 -961 l  -2481 -949 l  -2467 -940 l  -2453 -933 l 
-2439 -928 l  -2425 -926 l  -2411 -926 l  -2397 -928 l  -2383 -932 l  -2369 -937 l 
-2356 -945 l  -2342 -954 l  -2328 -965 l  -2314 -976 l  -2300 -989 l  -2286 -1003 l 
-2272 -1018 l  -2258 -1034 l  -2244 -1049 l  -2230 -1066 l  -2216 -1082 l 
-2203 -1098 l  -2189 -1114 l  -2175 -1130 l  -2161 -1145 l  -2147 -1160 l 
-2133 -1174 l  -2119 -1186 l  -2105 -1198 l  -2091 -1208 l  -2077 -1217 l 
-2063 -1224 l  -2050 -1230 l  -2036 -1234 l  -2022 -1238 l  -2008 -1240 l 
-1994 -1242 l  -1980 -1244 l  -1966 -1245 l  -1952 -1247 l  -1938 -1248 l 
-1924 -1250 l  -1910 -1253 l  -1897 -1256 l  -1883 -1260 l  -1869 -1266 l 
-1855 -1273 l  -1841 -1282 l  -1827 -1292 l  -1813 -1305 l  -1799 -1320 l 
-1785 -1337 l  -1771 -1357 l  -1758 -1378 l  -1744 -1401 l  -1730 -1425 l 
-1716 -1450 l  -1702 -1476 l  -1688 -1502 l  -1674 -1528 l  -1660 -1554 l 
-1646 -1579 l  -1632 -1604 l  -1618 -1627 l  -1605 -1649 l  -1591 -1669 l 
-1577 -1687 l  -1563 -1702 l  -1549 -1715 l  -1535 -1725 l  -1521 -1732 l 
-1507 -1735 l  -1493 -1735 l  -1479 -1731 l  -1465 -1724 l  -1452 -1714 l 
-1438 -1701 l  -1424 -1685 l  -1410 -1666 l  -1396 -1644 l  -1382 -1620 l 
-1368 -1593 l  -1354 -1564 l  -1340 -1533 l  -1326 -1500 l  -1313 -1464 l 
-1299 -1427 l  -1285 -1388 l  -1271 -1347 l  -1257 -1305 l  -1243 -1261 l 
-1229 -1216 l  -1215 -1170 l  -1201 -1123 l  -1187 -1077 l  -1173 -1031 l 
-1160 -985 l  -1146 -941 l  -1132 -899 l  -1118 -858 l  -1104 -821 l  -1090 -786 l 
-1076 -755 l  -1062 -727 l  -1048 -704 l  -1034 -686 l  -1020 -672 l  -1007 -665 l 
-993 -663 l  -979 -668 l  -965 -680 l  -951 -699 l  -937 -725 l  -923 -756 l 
-909 -792 l  -895 -832 l  -881 -875 l  -867 -921 l  -854 -967 l  -840 -1015 l 
-826 -1063 l  -812 -1109 l  -798 -1154 l  -784 -1195 l  -770 -1234 l  -756 -1268 l 
-742 -1296 l  -728 -1319 l  -715 -1335 l  -701 -1343 l  -687 -1342 l  -673 -1332 l 
-659 -1314 l  -645 -1289 l  -631 -1257 l  -617 -1220 l  -603 -1179 l  -589 -1134 l 
-575 -1087 l  -562 -1040 l  -548 -992 l  -534 -944 l  -520 -899 l  -506 -857 l 
-492 -819 l  -478 -786 l  -464 -759 l  -450 -739 l  -436 -727 l  -422 -724 l 
-409 -732 l  -395 -750 l  -381 -778 l  -367 -816 l  -353 -861 l  -339 -914 l 
-325 -972 l  -311 -1035 l  -297 -1101 l  -283 -1170 l  -269 -1240 l  -256 -1311 l 
-242 -1381 l  -228 -1449 l  -214 -1514 l  -200 -1575 l  -186 -1631 l  -172 -1681 l 
-158 -1723 l  -144 -1757 l  -130 -1781 l  -117 -1796 l  -103 -1800 l  -89 -1796 l 
-75 -1783 l  -61 -1764 l  -47 -1737 l  -33 -1706 l  -19 -1669 l  -5 -1629 l 
8 -1585 l  22 -1540 l  35 -1492 l  49 -1445 l  63 -1397 l  77 -1351 l 
91 -1306 l  105 -1264 l  119 -1226 l  133 -1193 l  147 -1164 l  161 -1141 l 
175 -1124 l  188 -1113 l  202 -1106 l  216 -1105 l  230 -1107 l  244 -1114 l 
258 -1124 l  272 -1137 l  286 -1154 l  300 -1172 l  314 -1194 l  327 -1217 l 
341 -1241 l  355 -1267 l  369 -1294 l  383 -1321 l  397 -1348 l  411 -1375 l 
425 -1402 l  439 -1427 l  453 -1452 l  467 -1475 l  480 -1497 l  494 -1517 l 
508 -1536 l  522 -1552 l  536 -1567 l  550 -1579 l  564 -1589 l  578 -1597 l 
592 -1601 l  606 -1603 l  620 -1602 l  633 -1597 l  647 -1589 l  661 -1578 l 
675 -1563 l  689 -1543 l  703 -1520 l  717 -1493 l  731 -1462 l  745 -1428 l 
759 -1392 l  773 -1354 l  786 -1316 l  800 -1277 l  814 -1238 l  828 -1201 l 
842 -1165 l  856 -1132 l  870 -1101 l  884 -1075 l  898 -1052 l  912 -1035 l 
925 -1023 l  939 -1017 l  953 -1019 l  967 -1028 l  981 -1045 l  995 -1071 l 
1009 -1105 l  1023 -1147 l  1037 -1194 l  1051 -1246 l  1065 -1303 l  1078 -1363 l 
1092 -1426 l  1106 -1490 l  1120 -1555 l  1134 -1619 l  1148 -1682 l  1162 -1743 l 
1176 -1801 l  1190 -1855 l  1204 -1904 l  1218 -1947 l  1231 -1983 l  1245 -2011 l 
1259 -2031 l  1273 -2041 l  1287 -2042 l  1301 -2036 l  1315 -2021 l  1329 -1999 l 
1343 -1971 l  1357 -1937 l  1371 -1899 l  1384 -1855 l  1398 -1808 l  1412 -1758 l 
1426 -1705 l  1440 -1651 l  1454 -1595 l  1468 -1539 l  1482 -1482 l  1496 -1427 l 
1510 -1373 l  1523 -1320 l  1537 -1271 l  1551 -1225 l  1565 -1181 l  1579 -1142 l 
1593 -1105 l  1607 -1071 l  1621 -1040 l  1635 -1012 l  1649 -986 l  1663 -964 l 
1676 -943 l  1690 -926 l  1704 -911 l  1718 -898 l  1732 -887 l  1746 -879 l 
1760 -873 l  1774 -868 l  1788 -866 l  1802 -866 l  1816 -867 l  1829 -870 l 
1843 -875 l  1857 -881 l  1871 -889 l  1885 -898 l  1899 -908 l  1913 -919 l 
1927 -931 l  1941 -945 l  1955 -958 l  1968 -973 l  1982 -988 l  1996 -1004 l 
2010 -1020 l  2024 -1036 l  2038 -1052 l  2052 -1068 l  2066 -1085 l  2080 -1101 l 
2094 -1117 l  2108 -1132 l  2121 -1147 l  2135 -1162 l  2149 -1177 l  2163 -1191 l 
2177 -1205 l  2191 -1219 l  2205 -1233 l  2219 -1247 l  2233 -1260 l  2247 -1274 l 
2261 -1288 l  2274 -1301 l  2288 -1315 l  2302 -1329 l  2316 -1343 l  2330 -1357 l 
2344 -1372 l  2358 -1386 l  2372 -1402 l  2386 -1417 l  2400 -1432 l  2414 -1448 l 
2427 -1464 l  2441 -1479 l  2455 -1495 l  2469 -1510 l  2483 -1525 l  2497 -1539 l 
2511 -1553 l  2525 -1566 l  2539 -1579 l  2553 -1590 l  2566 -1601 l  2580 -1610 l 
2594 -1619 l  2608 -1626 l  2622 -1632 l  2636 -1636 l  2650 -1639 l  2664 -1640 l 
2678 -1640 l  2692 -1637 l  2706 -1633 l  2719 -1627 l  2733 -1620 l  2747 -1610 l 
2761 -1599 l  2775 -1585 l  2789 -1570 l  2803 -1552 l  2817 -1532 l  2831 -1511 l 
2845 -1487 l  2859 -1460 l  2872 -1432 l  2886 -1401 l  2900 -1368 l  2914 -1333 l 
2928 -1295 l  2942 -1254 l  2956 -1212 l  2970 -1168 l  2984 -1123 l  2998 -1078 l 
3012 -1033 l  3025 -988 l  3039 -944 l  3053 -902 l  3067 -862 l  3081 -824 l 
3095 -789 l  3109 -758 l  3123 -731 l  3137 -708 l  3151 -690 l  3164 -677 l 
3178 -671 l  3192 -670 l  3206 -677 l  3220 -691 l  3234 -712 l  3248 -738 l 
3262 -770 l  3276 -805 l  3290 -844 l  3304 -886 l  3317 -929 l  3331 -974 l 
3345 -1018 l  3359 -1062 l  3373 -1105 l  3387 -1145 l  3401 -1182 l  3415 -1215 l 
3429 -1244 l  3443 -1267 l  3457 -1283 l  3470 -1293 l  3484 -1295 l  3498 -1288 l 
3512 -1273 l  3526 -1252 l  3540 -1225 l  3554 -1193 l  3568 -1157 l  3582 -1119 l 
3596 -1078 l  3609 -1037 l  3623 -995 l  3637 -955 l  3651 -916 l  3665 -881 l 
3679 -849 l  3693 -822 l  3707 -801 l  3721 -787 l  3735 -781 l  3749 -784 l 
3762 -796 l  3776 -819 l  3790 -851 l  3804 -892 l  3818 -940 l  3832 -995 l 
3846 -1055 l  3860 -1120 l  3874 -1187 l  3888 -1257 l  3902 -1328 l  3915 -1398 l 
3929 -1468 l  3943 -1535 l  3957 -1599 l  3971 -1658 l  3985 -1712 l  3999 -1759 l 
4013 -1799 l  4027 -1830 l  4041 -1851 l  4055 -1861 l  4068 -1862 l  4082 -1853 l 
4096 -1836 l  4110 -1812 l  4124 -1781 l  4138 -1745 l  4152 -1704 l  4166 -1659 l 
4180 -1612 l  4194 -1562 l  4207 -1511 l  4221 -1460 l  4235 -1410 l  4249 -1361 l 
4263 -1314 l  4277 -1271 l  4291 -1232 l  4305 -1199 l  4319 -1171 l  4333 -1150 l 
4347 -1135 l  4360 -1126 l  4374 -1123 l  4388 -1126 l  4402 -1133 l  4416 -1144 l 
4430 -1160 l  4444 -1180 l  4458 -1202 l  4472 -1228 l  4486 -1256 l  4500 -1286 l 
4513 -1317 l  4527 -1350 l  4541 -1384 l  4555 -1418 l  4569 -1453 l  4583 -1487 l 
4597 -1520 l  4611 -1552 l  4625 -1583 l  4639 -1612 l  4653 -1640 l  4666 -1665 l 
4680 -1689 l  4694 -1711 l  4708 -1730 l  4722 -1746 l  4736 -1760 l  4750 -1770 l 
4764 -1778 l  4778 -1782 l  4792 -1783 l  4805 -1780 l  4819 -1773 l  4833 -1762 l 
4847 -1747 l  4861 -1728 l  4875 -1704 l  4889 -1675 l  4903 -1642 l  4917 -1606 l 
4931 -1567 l  4945 -1526 l  4958 -1484 l  4972 -1441 l  4986 -1398 l  5000 -1356 l 
5014 -1315 l  5028 -1276 l  5042 -1241 l  5056 -1208 l  5070 -1180 l  5084 -1156 l 
5098 -1138 l  5111 -1126 l  5125 -1121 l  5139 -1123 l  5153 -1134 l  5167 -1153 l 
5181 -1181 l  5195 -1215 l  5209 -1256 l  5223 -1302 l  5237 -1352 l  5250 -1406 l 
5264 -1463 l  5278 -1521 l  5292 -1580 l  5306 -1639 l  5320 -1697 l  5334 -1753 l 
5348 -1806 l  5362 -1855 l  5376 -1900 l  5390 -1940 l  5403 -1973 l  5417 -1999 l 
5431 -2016 l  5445 -2025 l  5459 -2025 l  5473 -2017 l  5487 -2002 l  5501 -1980 l 
5515 -1952 l  5529 -1919 l  5543 -1880 l  5556 -1837 l  5570 -1790 l  5584 -1741 l 
5598 -1688 l  5612 -1633 l  5626 -1577 l  5640 -1521 l  5654 -1463 l  5668 -1407 l 
5682 -1351 l  5696 -1296 l  5709 -1244 l  5723 -1195 l  5737 -1148 l  5751 -1104 l 
5765 -1062 l  5779 -1024 l  5793 -988 l  5807 -955 l  5821 -925 l  5835 -898 l 
5848 -874 l  5862 -853 l  5876 -835 l  5890 -820 l  5904 -808 l  5918 -799 l 
5932 -794 l  5946 -791 l  5960 -792 l  5974 -796 l  5988 -803 l  6001 -814 l 
6015 -827 l  6029 -844 l  6043 -862 l  6057 -883 l  6071 -906 l  6085 -930 l 
6099 -956 l  6113 -983 l  6127 -1010 l  6141 -1038 l  6154 -1066 l  6168 -1094 l 
6182 -1122 l  6196 -1149 l  6210 -1174 l  6224 -1199 l  6238 -1222 l  6252 -1243 l 
6266 -1263 l  6280 -1279 l  6294 -1294 l  6307 -1307 l  6321 -1318 l  6335 -1327 l 
6349 -1335 l  6363 -1342 l  6377 -1347 l  6391 -1352 l  6405 -1356 l  6419 -1360 l 
6433 -1364 l  6446 -1368 l  6460 -1371 l  6474 -1376 l  6488 -1380 l  6502 -1386 l 
6516 -1393 l  6530 -1400 l  6544 -1410 l  6558 -1420 l  6572 -1432 l  6586 -1446 l 
6599 -1460 l  6613 -1475 l  6627 -1491 l  6641 -1507 l  6655 -1523 l  6669 -1540 l 
6683 -1556 l  6697 -1572 l  6711 -1587 l  6725 -1602 l  6739 -1615 l  6752 -1628 l 
6766 -1639 l  6780 -1649 l  6794 -1657 l  6808 -1663 l  6822 -1667 l  6836 -1669 l 
6850 -1668 l  6864 -1665 l  6878 -1660 l  6891 -1652 l  6905 -1643 l  6919 -1631 l 
6933 -1616 l  6947 -1599 l  6961 -1580 l  6975 -1559 l  6989 -1535 l  7003 -1510 l 
7017 -1481 l  7031 -1451 l  7044 -1418 l  7058 -1382 l  7072 -1345 l  7086 -1305 l 
7100 -1263 l  7114 -1218 l  7128 -1172 l  7142 -1124 l  7156 -1076 l  7170 -1027 l 
7184 -979 l  7197 -931 l  7211 -885 l  7225 -840 l  7239 -798 l  7253 -759 l 
7267 -723 l  7281 -691 l  7295 -663 l  7309 -641 l  7323 -623 l  7337 -612 l 
7350 -607 l  7364 -610 l  7378 -619 l  7392 -637 l  7406 -662 l  7420 -693 l 
7434 -730 l  7448 -772 l  7462 -818 l  7476 -867 l  7489 -919 l  7503 -972 l 
7517 -1027 l  7531 -1081 l  7545 -1135 l  7559 -1187 l  7573 -1238 l  7587 -1285 l 
7601 -1328 l  7615 -1366 l  7629 -1400 l  7642 -1426 l  7656 -1446 l  7670 -1459 l 
7684 -1464 l  7698 -1462 l  7712 -1453 l  7726 -1438 l  7740 -1417 l  7754 -1391 l 
7768 -1359 l  7782 -1323 l  7795 -1283 l  7809 -1239 l  7823 -1191 l  7837 -1140 l 
7851 -1087 l  7865 -1031 l  7879 -973 l  7893 -913 l  7907 -853 l  7921 -791 l 
7935 -730 l  ps
-8599 -1756 m  -8474 -1631 l  -8349 -1756 l  -8474 -1881 l  -8599 -1756 l 
p ef
0 lw -8599 -1756 m  -8474 -1631 l  -8349 -1756 l  -8474 -1881 l  -8599 -1756 l 
pc
-8321 -1138 m  -8196 -1013 l  -8071 -1138 l  -8196 -1263 l  -8321 -1138 l 
p ef
-8321 -1138 m  -8196 -1013 l  -8071 -1138 l  -8196 -1263 l  -8321 -1138 l 
pc
-8043 -1509 m  -7918 -1384 l  -7793 -1509 l  -7918 -1634 l  -8043 -1509 l 
p ef
-8043 -1509 m  -7918 -1384 l  -7793 -1509 l  -7918 -1634 l  -8043 -1509 l 
pc
-7765 -1570 m  -7640 -1445 l  -7515 -1570 l  -7640 -1695 l  -7765 -1570 l 
p ef
-7765 -1570 m  -7640 -1445 l  -7515 -1570 l  -7640 -1695 l  -7765 -1570 l 
pc
-7487 -1045 m  -7362 -920 l  -7237 -1045 l  -7362 -1170 l  -7487 -1045 l 
p ef
-7487 -1045 m  -7362 -920 l  -7237 -1045 l  -7362 -1170 l  -7487 -1045 l 
pc
-7209 -1982 m  -7084 -1857 l  -6959 -1982 l  -7084 -2107 l  -7209 -1982 l 
p ef
-7209 -1982 m  -7084 -1857 l  -6959 -1982 l  -7084 -2107 l  -7209 -1982 l 
pc
-6931 -1219 m  -6806 -1094 l  -6681 -1219 l  -6806 -1344 l  -6931 -1219 l 
p ef
-6931 -1219 m  -6806 -1094 l  -6681 -1219 l  -6806 -1344 l  -6931 -1219 l 
pc
-6653 -928 m  -6528 -803 l  -6403 -928 l  -6528 -1053 l  -6653 -928 l 
p ef
-6653 -928 m  -6528 -803 l  -6403 -928 l  -6528 -1053 l  -6653 -928 l 
pc
-6374 -1211 m  -6249 -1086 l  -6124 -1211 l  -6249 -1336 l  -6374 -1211 l 
p ef
-6374 -1211 m  -6249 -1086 l  -6124 -1211 l  -6249 -1336 l  -6374 -1211 l 
pc
-6096 -1299 m  -5971 -1174 l  -5846 -1299 l  -5971 -1424 l  -6096 -1299 l 
p ef
-6096 -1299 m  -5971 -1174 l  -5846 -1299 l  -5971 -1424 l  -6096 -1299 l 
pc
-5818 -1635 m  -5693 -1510 l  -5568 -1635 l  -5693 -1760 l  -5818 -1635 l 
p ef
-5818 -1635 m  -5693 -1510 l  -5568 -1635 l  -5693 -1760 l  -5818 -1635 l 
pc
-5540 -1235 m  -5415 -1110 l  -5290 -1235 l  -5415 -1360 l  -5540 -1235 l 
p ef
-5540 -1235 m  -5415 -1110 l  -5290 -1235 l  -5415 -1360 l  -5540 -1235 l 
pc
-5262 -718 m  -5137 -593 l  -5012 -718 l  -5137 -843 l  -5262 -718 l  p ef
-5262 -718 m  -5137 -593 l  -5012 -718 l  -5137 -843 l  -5262 -718 l  pc
-4984 -1332 m  -4859 -1207 l  -4734 -1332 l  -4859 -1457 l  -4984 -1332 l 
p ef
-4984 -1332 m  -4859 -1207 l  -4734 -1332 l  -4859 -1457 l  -4984 -1332 l 
pc
-4706 -706 m  -4581 -581 l  -4456 -706 l  -4581 -831 l  -4706 -706 l  p ef
-4706 -706 m  -4581 -581 l  -4456 -706 l  -4581 -831 l  -4706 -706 l  pc
-4427 -1871 m  -4302 -1746 l  -4177 -1871 l  -4302 -1996 l  -4427 -1871 l 
p ef
-4427 -1871 m  -4302 -1746 l  -4177 -1871 l  -4302 -1996 l  -4427 -1871 l 
pc
-4149 -1232 m  -4024 -1107 l  -3899 -1232 l  -4024 -1357 l  -4149 -1232 l 
p ef
-4149 -1232 m  -4024 -1107 l  -3899 -1232 l  -4024 -1357 l  -4149 -1232 l 
pc
-3871 -1592 m  -3746 -1467 l  -3621 -1592 l  -3746 -1717 l  -3871 -1592 l 
p ef
-3871 -1592 m  -3746 -1467 l  -3621 -1592 l  -3746 -1717 l  -3871 -1592 l 
pc
-3593 -1666 m  -3468 -1541 l  -3343 -1666 l  -3468 -1791 l  -3593 -1666 l 
p ef
-3593 -1666 m  -3468 -1541 l  -3343 -1666 l  -3468 -1791 l  -3593 -1666 l 
pc
-3315 -1077 m  -3190 -952 l  -3065 -1077 l  -3190 -1202 l  -3315 -1077 l 
p ef
-3315 -1077 m  -3190 -952 l  -3065 -1077 l  -3190 -1202 l  -3315 -1077 l 
pc
-3037 -2048 m  -2912 -1923 l  -2787 -2048 l  -2912 -2173 l  -3037 -2048 l 
p ef
-3037 -2048 m  -2912 -1923 l  -2787 -2048 l  -2912 -2173 l  -3037 -2048 l 
pc
-2759 -1254 m  -2634 -1129 l  -2509 -1254 l  -2634 -1379 l  -2759 -1254 l 
p ef
-2759 -1254 m  -2634 -1129 l  -2509 -1254 l  -2634 -1379 l  -2759 -1254 l 
pc
-2481 -945 m  -2356 -820 l  -2231 -945 l  -2356 -1070 l  -2481 -945 l 
p ef
-2481 -945 m  -2356 -820 l  -2231 -945 l  -2356 -1070 l  -2481 -945 l 
pc
-2202 -1217 m  -2077 -1092 l  -1952 -1217 l  -2077 -1342 l  -2202 -1217 l 
p ef
-2202 -1217 m  -2077 -1092 l  -1952 -1217 l  -2077 -1342 l  -2202 -1217 l 
pc
-1924 -1320 m  -1799 -1195 l  -1674 -1320 l  -1799 -1445 l  -1924 -1320 l 
p ef
-1924 -1320 m  -1799 -1195 l  -1674 -1320 l  -1799 -1445 l  -1924 -1320 l 
pc
-1646 -1732 m  -1521 -1607 l  -1396 -1732 l  -1521 -1857 l  -1646 -1732 l 
p ef
-1646 -1732 m  -1521 -1607 l  -1396 -1732 l  -1521 -1857 l  -1646 -1732 l 
pc
-1368 -1261 m  -1243 -1136 l  -1118 -1261 l  -1243 -1386 l  -1368 -1261 l 
p ef
-1368 -1261 m  -1243 -1136 l  -1118 -1261 l  -1243 -1386 l  -1368 -1261 l 
pc
-1090 -680 m  -965 -555 l  -840 -680 l  -965 -805 l  -1090 -680 l  p ef
-1090 -680 m  -965 -555 l  -840 -680 l  -965 -805 l  -1090 -680 l  pc
-812 -1342 m  -687 -1217 l  -562 -1342 l  -687 -1467 l  -812 -1342 l  p ef
-812 -1342 m  -687 -1217 l  -562 -1342 l  -687 -1467 l  -812 -1342 l  pc
-534 -732 m  -409 -607 l  -284 -732 l  -409 -857 l  -534 -732 l  p ef
-534 -732 m  -409 -607 l  -284 -732 l  -409 -857 l  -534 -732 l  pc
-255 -1781 m  -130 -1656 l  -5 -1781 l  -130 -1906 l  -255 -1781 l  p ef
-255 -1781 m  -130 -1656 l  -5 -1781 l  -130 -1906 l  -255 -1781 l  pc
22 -1164 m  147 -1039 l  272 -1164 l  147 -1289 l  22 -1164 l  p ef
22 -1164 m  147 -1039 l  272 -1164 l  147 -1289 l  22 -1164 l  pc
300 -1402 m  425 -1277 l  550 -1402 l  425 -1527 l  300 -1402 l  p ef
300 -1402 m  425 -1277 l  550 -1402 l  425 -1527 l  300 -1402 l  pc
578 -1520 m  703 -1395 l  828 -1520 l  703 -1645 l  578 -1520 l  p ef
578 -1520 m  703 -1395 l  828 -1520 l  703 -1645 l  578 -1520 l  pc
856 -1045 m  981 -920 l  1106 -1045 l  981 -1170 l  856 -1045 l  p ef
856 -1045 m  981 -920 l  1106 -1045 l  981 -1170 l  856 -1045 l  pc
1134 -2031 m  1259 -1906 l  1384 -2031 l  1259 -2156 l  1134 -2031 l  p ef
1134 -2031 m  1259 -1906 l  1384 -2031 l  1259 -2156 l  1134 -2031 l  pc
1412 -1271 m  1537 -1146 l  1662 -1271 l  1537 -1396 l  1412 -1271 l  p ef
1412 -1271 m  1537 -1146 l  1662 -1271 l  1537 -1396 l  1412 -1271 l  pc
1691 -867 m  1816 -742 l  1941 -867 l  1816 -992 l  1691 -867 l  p ef
1691 -867 m  1816 -742 l  1941 -867 l  1816 -992 l  1691 -867 l  pc
1969 -1117 m  2094 -992 l  2219 -1117 l  2094 -1242 l  1969 -1117 l  p ef
1969 -1117 m  2094 -992 l  2219 -1117 l  2094 -1242 l  1969 -1117 l  pc
2247 -1402 m  2372 -1277 l  2497 -1402 l  2372 -1527 l  2247 -1402 l  p ef
2247 -1402 m  2372 -1277 l  2497 -1402 l  2372 -1527 l  2247 -1402 l  pc
2525 -1639 m  2650 -1514 l  2775 -1639 l  2650 -1764 l  2525 -1639 l  p ef
2525 -1639 m  2650 -1514 l  2775 -1639 l  2650 -1764 l  2525 -1639 l  pc
2803 -1295 m  2928 -1170 l  3053 -1295 l  2928 -1420 l  2803 -1295 l  p ef
2803 -1295 m  2928 -1170 l  3053 -1295 l  2928 -1420 l  2803 -1295 l  pc
3081 -677 m  3206 -552 l  3331 -677 l  3206 -802 l  3081 -677 l  p ef
3081 -677 m  3206 -552 l  3331 -677 l  3206 -802 l  3081 -677 l  pc
3359 -1295 m  3484 -1170 l  3609 -1295 l  3484 -1420 l  3359 -1295 l  p ef
3359 -1295 m  3484 -1170 l  3609 -1295 l  3484 -1420 l  3359 -1295 l  pc
3637 -796 m  3762 -671 l  3887 -796 l  3762 -921 l  3637 -796 l  p ef
3637 -796 m  3762 -671 l  3887 -796 l  3762 -921 l  3637 -796 l  pc
3916 -1851 m  4041 -1726 l  4166 -1851 l  4041 -1976 l  3916 -1851 l  p ef
3916 -1851 m  4041 -1726 l  4166 -1851 l  4041 -1976 l  3916 -1851 l  pc
4194 -1171 m  4319 -1046 l  4444 -1171 l  4319 -1296 l  4194 -1171 l  p ef
4194 -1171 m  4319 -1046 l  4444 -1171 l  4319 -1296 l  4194 -1171 l  pc
4472 -1520 m  4597 -1395 l  4722 -1520 l  4597 -1645 l  4472 -1520 l  p ef
4472 -1520 m  4597 -1395 l  4722 -1520 l  4597 -1645 l  4472 -1520 l  pc
4750 -1704 m  4875 -1579 l  5000 -1704 l  4875 -1829 l  4750 -1704 l  p ef
4750 -1704 m  4875 -1579 l  5000 -1704 l  4875 -1829 l  4750 -1704 l  pc
5028 -1134 m  5153 -1009 l  5278 -1134 l  5153 -1259 l  5028 -1134 l  p ef
5028 -1134 m  5153 -1009 l  5278 -1134 l  5153 -1259 l  5028 -1134 l  pc
5306 -2016 m  5431 -1891 l  5556 -2016 l  5431 -2141 l  5306 -2016 l  p ef
5306 -2016 m  5431 -1891 l  5556 -2016 l  5431 -2141 l  5306 -2016 l  pc
5584 -1244 m  5709 -1119 l  5834 -1244 l  5709 -1369 l  5584 -1244 l  p ef
5584 -1244 m  5709 -1119 l  5834 -1244 l  5709 -1369 l  5584 -1244 l  pc
5863 -803 m  5988 -678 l  6113 -803 l  5988 -928 l  5863 -803 l  p ef
5863 -803 m  5988 -678 l  6113 -803 l  5988 -928 l  5863 -803 l  pc
6141 -1263 m  6266 -1138 l  6391 -1263 l  6266 -1388 l  6141 -1263 l  p ef
6141 -1263 m  6266 -1138 l  6391 -1263 l  6266 -1388 l  6141 -1263 l  pc
6419 -1410 m  6544 -1285 l  6669 -1410 l  6544 -1535 l  6419 -1410 l  p ef
6419 -1410 m  6544 -1285 l  6669 -1410 l  6544 -1535 l  6419 -1410 l  pc
6697 -1667 m  6822 -1542 l  6947 -1667 l  6822 -1792 l  6697 -1667 l  p ef
6697 -1667 m  6822 -1542 l  6947 -1667 l  6822 -1792 l  6697 -1667 l  pc
6975 -1263 m  7100 -1138 l  7225 -1263 l  7100 -1388 l  6975 -1263 l  p ef
6975 -1263 m  7100 -1138 l  7225 -1263 l  7100 -1388 l  6975 -1263 l  pc
7253 -619 m  7378 -494 l  7503 -619 l  7378 -744 l  7253 -619 l  p ef
7253 -619 m  7378 -494 l  7503 -619 l  7378 -744 l  7253 -619 l  pc
7531 -1446 m  7656 -1321 l  7781 -1446 l  7656 -1571 l  7531 -1446 l  p ef
7531 -1446 m  7656 -1321 l  7781 -1446 l  7656 -1571 l  7531 -1446 l  pc
7810 -730 m  7935 -605 l  8060 -730 l  7935 -855 l  7810 -730 l  p ef
7810 -730 m  7935 -605 l  8060 -730 l  7935 -855 l  7810 -730 l  pc
0.003 0.003 0.003 c
/Helvetica f
353 sf -8567 4242 m  185 0 (1) bs
/Helvetica f
353 sf -8289 3844 m  185 0 (2) bs
/Helvetica f
353 sf -8011 4242 m  185 0 (3) bs
/Helvetica f
353 sf -7733 3844 m  185 0 (4) bs
/Helvetica f
353 sf -7455 4242 m  185 0 (5) bs
/Helvetica f
353 sf -7177 3844 m  185 0 (6) bs
/Helvetica f
353 sf -6899 4242 m  185 0 (7) bs
/Helvetica f
353 sf -6621 3844 m  185 0 (8) bs
/Helvetica f
353 sf -6342 4242 m  185 0 (9) bs
/Helvetica f
353 sf -6156 3844 m  185 0 (1) bs
185 185 (0) bs
/Helvetica f
353 sf -5865 4242 m  185 0 (1) bs
185 159 (1) bs
/Helvetica f
353 sf -5600 3844 m  185 0 (1) bs
185 185 (2) bs
/Helvetica f
353 sf -5322 4242 m  185 0 (1) bs
185 185 (3) bs
/Helvetica f
353 sf -5044 3844 m  185 0 (1) bs
185 185 (4) bs
/Helvetica f
353 sf -4766 4242 m  185 0 (1) bs
185 185 (5) bs
/Helvetica f
353 sf -4487 3844 m  185 0 (1) bs
185 185 (6) bs
/Helvetica f
353 sf -4209 4242 m  185 0 (1) bs
185 185 (7) bs
/Helvetica f
353 sf -3931 3844 m  185 0 (1) bs
185 185 (8) bs
/Helvetica f
353 sf -3653 4242 m  185 0 (1) bs
185 185 (9) bs
/Helvetica f
353 sf -3375 3844 m  185 0 (2) bs
185 185 (0) bs
/Helvetica f
353 sf -3097 4242 m  185 0 (2) bs
185 185 (1) bs
/Helvetica f
353 sf -2819 3844 m  185 0 (2) bs
185 185 (2) bs
/Helvetica f
353 sf -2541 4242 m  185 0 (2) bs
185 185 (3) bs
/Helvetica f
353 sf -2262 3844 m  185 0 (2) bs
185 185 (4) bs
/Helvetica f
353 sf -1984 4242 m  185 0 (2) bs
185 185 (5) bs
/Helvetica f
353 sf -1706 3844 m  185 0 (2) bs
185 185 (6) bs
/Helvetica f
353 sf -1428 4242 m  185 0 (2) bs
185 185 (7) bs
/Helvetica f
353 sf -1150 3844 m  185 0 (2) bs
185 185 (8) bs
/Helvetica f
353 sf -872 4242 m  185 0 (2) bs
185 185 (9) bs
/Helvetica f
353 sf -594 3844 m  185 0 (3) bs
185 185 (0) bs
/Helvetica f
353 sf -315 4242 m  185 0 (3) bs
185 185 (1) bs
/Helvetica f
353 sf -37 3844 m  185 0 (3) bs
185 185 (2) bs
/Helvetica f
353 sf 241 4242 m  185 0 (3) bs
185 185 (3) bs
/Helvetica f
353 sf 519 3844 m  185 0 (3) bs
185 185 (4) bs
/Helvetica f
353 sf 797 4242 m  185 0 (3) bs
185 185 (5) bs
/Helvetica f
353 sf 1075 3844 m  185 0 (3) bs
185 185 (6) bs
/Helvetica f
353 sf 1353 4242 m  185 0 (3) bs
185 185 (7) bs
/Helvetica f
353 sf 1632 3844 m  185 0 (3) bs
185 185 (8) bs
/Helvetica f
353 sf 1910 4242 m  185 0 (3) bs
185 185 (9) bs
/Helvetica f
353 sf 2188 3844 m  185 0 (4) bs
185 185 (0) bs
/Helvetica f
353 sf 2466 4242 m  185 0 (4) bs
185 185 (1) bs
/Helvetica f
353 sf 2744 3844 m  185 0 (4) bs
185 185 (2) bs
/Helvetica f
353 sf 3022 4242 m  185 0 (4) bs
185 185 (3) bs
/Helvetica f
353 sf 3300 3844 m  185 0 (4) bs
185 185 (4) bs
/Helvetica f
353 sf 3578 4242 m  185 0 (4) bs
185 185 (5) bs
/Helvetica f
353 sf 3857 3844 m  185 0 (4) bs
185 185 (6) bs
/Helvetica f
353 sf 4135 4242 m  185 0 (4) bs
185 185 (7) bs
/Helvetica f
353 sf 4413 3844 m  185 0 (4) bs
185 185 (8) bs
/Helvetica f
353 sf 4691 4242 m  185 0 (4) bs
185 185 (9) bs
/Helvetica f
353 sf 4969 3844 m  185 0 (5) bs
185 185 (0) bs
/Helvetica f
353 sf 5247 4242 m  185 0 (5) bs
185 185 (1) bs
/Helvetica f
353 sf 5525 3844 m  185 0 (5) bs
185 185 (2) bs
/Helvetica f
353 sf 5804 4242 m  185 0 (5) bs
185 185 (3) bs
/Helvetica f
353 sf 6082 3844 m  185 0 (5) bs
185 185 (4) bs
/Helvetica f
353 sf 6360 4242 m  185 0 (5) bs
185 185 (5) bs
/Helvetica f
353 sf 6638 3844 m  185 0 (5) bs
185 185 (6) bs
/Helvetica f
353 sf 6916 4242 m  185 0 (5) bs
185 185 (7) bs
/Helvetica f
353 sf 7194 3844 m  185 0 (5) bs
185 185 (8) bs
/Helvetica f
353 sf 7472 4242 m  185 0 (5) bs
185 185 (9) bs
/Helvetica f
353 sf 7751 3844 m  185 0 (6) bs
185 185 (0) bs
/Helvetica f
353 sf -9703 3397 m  185 0 (0) bs
106 185 (,) bs
185 291 (0) bs
185 476 (0) bs
318 661 (%) bs
/Helvetica f
353 sf -9888 2608 m  185 0 (1) bs
185 185 (0) bs
106 370 (,) bs
185 476 (0) bs
185 661 (0) bs
318 847 (%) bs
/Helvetica f
353 sf -9888 1820 m  185 0 (2) bs
185 185 (0) bs
106 370 (,) bs
185 476 (0) bs
185 661 (0) bs
318 847 (%) bs
/Helvetica f
353 sf -9888 1031 m  185 0 (3) bs
185 185 (0) bs
106 370 (,) bs
185 476 (0) bs
185 661 (0) bs
318 847 (%) bs
/Helvetica f
353 sf -9888 243 m  185 0 (4) bs
185 185 (0) bs
106 370 (,) bs
185 476 (0) bs
185 661 (0) bs
318 847 (%) bs
/Helvetica f
353 sf -9888 -545 m  185 0 (5) bs
185 185 (0) bs
106 370 (,) bs
185 476 (0) bs
185 661 (0) bs
318 847 (%) bs
/Helvetica f
353 sf -9888 -1334 m  185 0 (6) bs
185 185 (0) bs
106 370 (,) bs
185 476 (0) bs
185 661 (0) bs
318 847 (%) bs
/Helvetica f
353 sf -9888 -2122 m  185 0 (7) bs
185 185 (0) bs
106 370 (,) bs
185 476 (0) bs
185 661 (0) bs
318 847 (%) bs
/Helvetica f
353 sf -9888 -2911 m  185 0 (8) bs
185 185 (0) bs
106 370 (,) bs
185 476 (0) bs
185 661 (0) bs
318 847 (%) bs
/Helvetica f
459 sf -2527 -3652 m  159 0 (r) bs
238 159 (e) bs
238 397 (p) bs
238 635 (o) bs
159 873 (r) bs
106 1032 (t) bs
238 1138 (_) bs
238 1376 (8) bs
238 1614 (_) bs
238 1852 (2) bs
238 2090 (_) bs
238 2328 (1) bs
132 2566 ( ) bs
159 2699 (-) bs
132 2858 ( ) bs
238 2990 (q) bs
238 3228 (u) bs
238 3466 (a) bs
238 3704 (n) bs
106 3942 (t) bs
106 4048 (i) bs
79 4154 (l) bs
238 4233 (e) bs
212 4471 (s) bs
132 4683 ( ) bs
238 4815 (5) bs
79.99611 lw 0.003 0.273 0.527 c 8650 -250 m  9450 -250 l  ps
8944 -355 m  8944 -144 l  9155 -144 l  9155 -355 l  8944 -355 l  p ef
0 lw 8944 -355 m  8944 -144 l  9155 -144 l  9155 -355 l  8944 -355 l  pc
79.99611 lw 1.000 0.261 0.058 c 8650 247 m  9450 247 l  ps
8944 247 m  9050 353 l  9155 247 l  9050 142 l  8944 247 l  p ef
0 lw 8944 247 m  9050 353 l  9155 247 l  9050 142 l  8944 247 l  pc
0.003 0.003 0.003 c
/Helvetica f
353 sf 9550 -130 m  238 0 (H) bs
185 238 (e) bs
/Helvetica f
353 sf 9550 367 m  238 0 (K) bs
185 238 (e) bs
0 9006 t 
pom
count op_count sub {pop} repeat countdictstack dict_count sub {end} repeat b4_inc_state restore
%%PageTrailer
%%Trailer
%%EOF
