%!PS-Adobe-3.0 EPSF-3.0 
%%BoundingBox: 0 0 584 255
%%Pages: 0
%%Creator: LibreOffice 4.4
%%Title: none
%%CreationDate: none
%%LanguageLevel: 2
%%EndComments
%%BeginProlog
%%BeginResource: procset SDRes-Prolog 1.0 0
/b4_inc_state save def
/dict_count countdictstack def
/op_count count 1 sub def
userdict begin
0 setgray 0 setlinecap 1 setlinewidth 0 setlinejoin 10 setmiterlimit[] 0 setdash newpath
/languagelevel where {pop languagelevel 1 ne {false setstrokeadjust false setoverprint} if} if
/bdef {bind def} bind def
/c {setrgbcolor} bdef
/l {neg lineto} bdef
/rl {neg rlineto} bdef
/lc {setlinecap} bdef
/lj {setlinejoin} bdef
/lw {setlinewidth} bdef
/ml {setmiterlimit} bdef
/ld {setdash} bdef
/m {neg moveto} bdef
/ct {6 2 roll neg 6 2 roll neg 6 2 roll neg curveto} bdef
/r {rotate} bdef
/t {neg translate} bdef
/s {scale} bdef
/sw {show} bdef
/gs {gsave} bdef
/gr {grestore} bdef
/f {findfont dup length dict begin
{1 index /FID ne {def} {pop pop} ifelse} forall /Encoding ISOLatin1Encoding def
currentdict end /NFont exch definefont pop /NFont findfont} bdef
/p {closepath} bdef
/sf {scalefont setfont} bdef
/ef {eofill}bdef
/pc {closepath stroke}bdef
/ps {stroke}bdef
/pum {matrix currentmatrix}bdef
/pom {setmatrix}bdef
/bs {/aString exch def /nXOfs exch def /nWidth exch def currentpoint nXOfs 0 rmoveto pum nWidth aString stringwidth pop div 1 scale aString show pom moveto} bdef
%%EndResource
%%EndProlog
%%BeginSetup
%%EndSetup
%%Page: 1 1
%%BeginPageSetup
%%EndPageSetup
pum
0.02834 0.02831 s 
0 -9006 t
/tm matrix currentmatrix def
tm setmatrix
10301 4503 t 
1 1 s 
1.000 1.000 1.000 c 0 4502 m  -10301 4502 l  -10301 -4503 l  10301 -4503 l 
10301 4502 l  0 4502 l  p ef
0 lw 1 lj 0.703 0.703 0.703 c -269 3675 m  -8474 3675 l  -8474 -3029 l 
7936 -3029 l  7936 3675 l  -269 3675 l  pc
7936 3674 m  -8474 3674 l  ps
7936 2835 m  -8474 2835 l  ps
7936 1997 m  -8474 1997 l  ps
7936 1159 m  -8474 1159 l  ps
7936 321 m  -8474 321 l  ps
7936 -516 m  -8474 -516 l  ps
7936 -1354 m  -8474 -1354 l  ps
7936 -2192 m  -8474 -2192 l  ps
7936 -3030 m  -8474 -3030 l  ps
-8474 3824 m  -8474 3674 l  ps
-8474 3824 m  -8474 3674 l  ps
-7909 3824 m  -7909 3674 l  ps
-7909 3824 m  -7909 3674 l  ps
-7343 3824 m  -7343 3674 l  ps
-7343 3824 m  -7343 3674 l  ps
-6777 3824 m  -6777 3674 l  ps
-6777 3824 m  -6777 3674 l  ps
-6211 3824 m  -6211 3674 l  ps
-6211 3824 m  -6211 3674 l  ps
-5645 3824 m  -5645 3674 l  ps
-5645 3824 m  -5645 3674 l  ps
-5079 3824 m  -5079 3674 l  ps
-5079 3824 m  -5079 3674 l  ps
-4513 3824 m  -4513 3674 l  ps
-4513 3824 m  -4513 3674 l  ps
-3947 3824 m  -3947 3674 l  ps
-3947 3824 m  -3947 3674 l  ps
-3381 3824 m  -3381 3674 l  ps
-3381 3824 m  -3381 3674 l  ps
-2816 3824 m  -2816 3674 l  ps
-2816 3824 m  -2816 3674 l  ps
-2250 3824 m  -2250 3674 l  ps
-2250 3824 m  -2250 3674 l  ps
-1684 3824 m  -1684 3674 l  ps
-1684 3824 m  -1684 3674 l  ps
-1118 3824 m  -1118 3674 l  ps
-1118 3824 m  -1118 3674 l  ps
-552 3824 m  -552 3674 l  ps
-552 3824 m  -552 3674 l  ps
13 3824 m  13 3674 l  ps
13 3824 m  13 3674 l  ps
579 3824 m  579 3674 l  ps
579 3824 m  579 3674 l  ps
1145 3824 m  1145 3674 l  ps
1145 3824 m  1145 3674 l  ps
1711 3824 m  1711 3674 l  ps
1711 3824 m  1711 3674 l  ps
2277 3824 m  2277 3674 l  ps
2277 3824 m  2277 3674 l  ps
2842 3824 m  2842 3674 l  ps
2842 3824 m  2842 3674 l  ps
3408 3824 m  3408 3674 l  ps
3408 3824 m  3408 3674 l  ps
3974 3824 m  3974 3674 l  ps
3974 3824 m  3974 3674 l  ps
4540 3824 m  4540 3674 l  ps
4540 3824 m  4540 3674 l  ps
5106 3824 m  5106 3674 l  ps
5106 3824 m  5106 3674 l  ps
5672 3824 m  5672 3674 l  ps
5672 3824 m  5672 3674 l  ps
6238 3824 m  6238 3674 l  ps
6238 3824 m  6238 3674 l  ps
6804 3824 m  6804 3674 l  ps
6804 3824 m  6804 3674 l  ps
7370 3824 m  7370 3674 l  ps
7370 3824 m  7370 3674 l  ps
7936 3824 m  7936 3674 l  ps
7936 3824 m  7936 3674 l  ps
-8474 3674 m  7936 3674 l  ps
-8624 3674 m  -8474 3674 l  ps
-8624 3674 m  -8474 3674 l  ps
-8624 2835 m  -8474 2835 l  ps
-8624 2835 m  -8474 2835 l  ps
-8624 1997 m  -8474 1997 l  ps
-8624 1997 m  -8474 1997 l  ps
-8624 1159 m  -8474 1159 l  ps
-8624 1159 m  -8474 1159 l  ps
-8624 321 m  -8474 321 l  ps
-8624 321 m  -8474 321 l  ps
-8624 -516 m  -8474 -516 l  ps
-8624 -516 m  -8474 -516 l  ps
-8624 -1354 m  -8474 -1354 l  ps
-8624 -1354 m  -8474 -1354 l  ps
-8624 -2192 m  -8474 -2192 l  ps
-8624 -2192 m  -8474 -2192 l  ps
-8624 -3030 m  -8474 -3030 l  ps
-8624 -3030 m  -8474 -3030 l  ps
-8474 3674 m  -8474 -3030 l  ps
79.99611 lw 0.003 0.273 0.527 c -8474 351 m  -8446 290 l  -8418 229 l  -8390 169 l 
-8361 110 l  -8333 51 l  -8305 -5 l  -8276 -60 l  -8248 -113 l  -8220 -165 l 
-8192 -214 l  -8163 -260 l  -8135 -304 l  -8107 -344 l  -8078 -381 l  -8050 -414 l 
-8022 -444 l  -7993 -469 l  -7965 -489 l  -7937 -505 l  -7909 -516 l  -7880 -522 l 
-7852 -523 l  -7824 -519 l  -7795 -512 l  -7767 -501 l  -7739 -487 l  -7711 -471 l 
-7682 -453 l  -7654 -432 l  -7626 -411 l  -7597 -389 l  -7569 -367 l  -7541 -345 l 
-7512 -324 l  -7484 -303 l  -7456 -285 l  -7428 -268 l  -7399 -254 l  -7371 -243 l 
-7343 -235 l  -7314 -230 l  -7286 -230 l  -7258 -233 l  -7230 -238 l  -7201 -247 l 
-7173 -258 l  -7145 -271 l  -7116 -287 l  -7088 -304 l  -7060 -323 l  -7031 -343 l 
-7003 -364 l  -6975 -386 l  -6947 -409 l  -6918 -431 l  -6890 -454 l  -6862 -476 l 
-6833 -498 l  -6805 -519 l  -6777 -540 l  -6749 -558 l  -6720 -576 l  -6692 -592 l 
-6664 -607 l  -6635 -621 l  -6607 -633 l  -6579 -643 l  -6550 -652 l  -6522 -659 l 
-6494 -665 l  -6466 -669 l  -6437 -672 l  -6409 -672 l  -6381 -671 l  -6352 -668 l 
-6324 -664 l  -6296 -657 l  -6268 -649 l  -6239 -638 l  -6211 -626 l  -6183 -611 l 
-6154 -595 l  -6126 -577 l  -6098 -558 l  -6069 -537 l  -6041 -516 l  -6013 -495 l 
-5985 -472 l  -5956 -450 l  -5928 -428 l  -5900 -406 l  -5871 -385 l  -5843 -364 l 
-5815 -345 l  -5786 -327 l  -5758 -310 l  -5730 -295 l  -5702 -282 l  -5673 -271 l 
-5645 -263 l  -5617 -257 l  -5588 -254 l  -5560 -253 l  -5532 -254 l  -5504 -257 l 
-5475 -261 l  -5447 -267 l  -5419 -274 l  -5390 -282 l  -5362 -290 l  -5334 -300 l 
-5305 -309 l  -5277 -319 l  -5249 -328 l  -5221 -337 l  -5192 -345 l  -5164 -353 l 
-5136 -359 l  -5107 -365 l  -5079 -368 l  -5051 -371 l  -5023 -371 l  -4994 -370 l 
-4966 -368 l  -4938 -364 l  -4909 -360 l  -4881 -354 l  -4853 -347 l  -4824 -339 l 
-4796 -330 l  -4768 -321 l  -4740 -311 l  -4711 -301 l  -4683 -290 l  -4655 -278 l 
-4626 -267 l  -4598 -255 l  -4570 -244 l  -4542 -232 l  -4513 -221 l  -4485 -209 l 
-4457 -198 l  -4428 -188 l  -4400 -178 l  -4372 -168 l  -4343 -160 l  -4315 -152 l 
-4287 -144 l  -4259 -138 l  -4230 -132 l  -4202 -128 l  -4174 -124 l  -4145 -122 l 
-4117 -121 l  -4089 -122 l  -4061 -124 l  -4032 -127 l  -4004 -132 l  -3976 -138 l 
-3947 -147 l  -3919 -157 l  -3891 -168 l  -3862 -181 l  -3834 -194 l  -3806 -208 l 
-3778 -222 l  -3749 -236 l  -3721 -249 l  -3693 -261 l  -3664 -271 l  -3636 -280 l 
-3608 -288 l  -3579 -292 l  -3551 -294 l  -3523 -293 l  -3495 -289 l  -3466 -281 l 
-3438 -269 l  -3410 -252 l  -3381 -231 l  -3353 -205 l  -3325 -174 l  -3297 -140 l 
-3268 -102 l  -3240 -63 l  -3212 -21 l  -3183 20 l  -3155 63 l  -3127 106 l 
-3098 147 l  -3070 186 l  -3042 224 l  -3014 258 l  -2985 288 l  -2957 314 l 
-2929 334 l  -2900 349 l  -2872 357 l  -2844 358 l  -2816 351 l  -2787 335 l 
-2759 312 l  -2731 282 l  -2702 246 l  -2674 204 l  -2646 157 l  -2617 107 l 
-2589 54 l  -2561 -1 l  -2533 -56 l  -2504 -113 l  -2476 -170 l  -2448 -226 l 
-2419 -279 l  -2391 -330 l  -2363 -378 l  -2335 -421 l  -2306 -459 l  -2278 -491 l 
-2250 -516 l  -2221 -534 l  -2193 -545 l  -2165 -550 l  -2136 -548 l  -2108 -542 l 
-2080 -531 l  -2052 -516 l  -2023 -498 l  -1995 -477 l  -1967 -453 l  -1938 -429 l 
-1910 -403 l  -1882 -377 l  -1854 -351 l  -1825 -326 l  -1797 -302 l  -1769 -281 l 
-1740 -262 l  -1712 -246 l  -1684 -235 l  -1655 -227 l  -1627 -224 l  -1599 -224 l 
-1571 -229 l  -1542 -236 l  -1514 -246 l  -1486 -259 l  -1457 -275 l  -1429 -292 l 
-1401 -312 l  -1372 -333 l  -1344 -355 l  -1316 -378 l  -1288 -401 l  -1259 -425 l 
-1231 -449 l  -1203 -473 l  -1174 -496 l  -1146 -518 l  -1118 -540 l  -1090 -559 l 
-1061 -578 l  -1033 -595 l  -1005 -610 l  -976 -624 l  -948 -636 l  -920 -646 l 
-891 -655 l  -863 -663 l  -835 -668 l  -807 -672 l  -778 -674 l  -750 -675 l 
-722 -673 l  -693 -670 l  -665 -665 l  -637 -658 l  -609 -649 l  -580 -638 l 
-552 -626 l  -524 -611 l  -495 -594 l  -467 -576 l  -439 -557 l  -410 -537 l 
-382 -515 l  -354 -494 l  -326 -472 l  -297 -449 l  -269 -427 l  -241 -405 l 
-212 -384 l  -184 -364 l  -156 -344 l  -128 -326 l  -99 -310 l  -71 -295 l 
-43 -282 l  -14 -271 l  13 -263 l  41 -257 l  70 -254 l  98 -253 l  126 -254 l 
154 -257 l  183 -261 l  211 -267 l  239 -274 l  268 -282 l  296 -291 l 
324 -300 l  352 -309 l  381 -319 l  409 -328 l  437 -337 l  466 -345 l 
494 -353 l  522 -359 l  551 -365 l  579 -368 l  607 -371 l  635 -371 l 
664 -370 l  692 -368 l  720 -364 l  749 -360 l  777 -354 l  805 -347 l 
833 -339 l  862 -330 l  890 -321 l  918 -311 l  947 -301 l  975 -290 l 
1003 -278 l  1032 -267 l  1060 -255 l  1088 -244 l  1116 -232 l  1145 -221 l 
1173 -209 l  1201 -198 l  1230 -188 l  1258 -178 l  1286 -168 l  1315 -160 l 
1343 -152 l  1371 -144 l  1399 -138 l  1428 -132 l  1456 -128 l  1484 -124 l 
1513 -122 l  1541 -121 l  1569 -122 l  1597 -124 l  1626 -127 l  1654 -132 l 
1682 -138 l  1711 -147 l  1739 -157 l  1767 -168 l  1796 -181 l  1824 -194 l 
1852 -208 l  1880 -222 l  1909 -236 l  1937 -249 l  1965 -261 l  1994 -271 l 
2022 -280 l  2050 -288 l  2078 -292 l  2107 -294 l  2135 -293 l  2163 -289 l 
2192 -281 l  2220 -269 l  2248 -252 l  2277 -231 l  2305 -205 l  2333 -174 l 
2361 -140 l  2390 -102 l  2418 -63 l  2446 -21 l  2475 20 l  2503 63 l 
2531 106 l  2559 147 l  2588 186 l  2616 224 l  2644 258 l  2673 288 l 
2701 314 l  2729 334 l  2758 349 l  2786 357 l  2814 358 l  2842 351 l 
2871 335 l  2899 312 l  2927 282 l  2956 246 l  2984 204 l  3012 157 l 
3040 107 l  3069 54 l  3097 -1 l  3125 -56 l  3154 -113 l  3182 -170 l 
3210 -226 l  3239 -279 l  3267 -330 l  3295 -378 l  3323 -421 l  3352 -459 l 
3380 -491 l  3408 -516 l  3437 -534 l  3465 -545 l  3493 -550 l  3522 -548 l 
3550 -542 l  3578 -531 l  3606 -516 l  3635 -498 l  3663 -477 l  3691 -453 l 
3720 -429 l  3748 -403 l  3776 -377 l  3804 -351 l  3833 -326 l  3861 -302 l 
3889 -281 l  3918 -262 l  3946 -246 l  3974 -235 l  4003 -227 l  4031 -224 l 
4059 -224 l  4087 -229 l  4116 -236 l  4144 -246 l  4172 -259 l  4201 -275 l 
4229 -292 l  4257 -312 l  4285 -333 l  4314 -355 l  4342 -378 l  4370 -401 l 
4399 -425 l  4427 -449 l  4455 -473 l  4484 -496 l  4512 -518 l  4540 -540 l 
4568 -559 l  4597 -578 l  4625 -595 l  4653 -610 l  4682 -624 l  4710 -636 l 
4738 -647 l  4766 -655 l  4795 -663 l  4823 -668 l  4851 -672 l  4880 -674 l 
4908 -675 l  4936 -673 l  4965 -670 l  4993 -665 l  5021 -658 l  5049 -649 l 
5078 -638 l  5106 -626 l  5134 -611 l  5163 -594 l  5191 -576 l  5219 -557 l 
5247 -536 l  5276 -515 l  5304 -493 l  5332 -471 l  5361 -449 l  5389 -427 l 
5417 -405 l  5446 -384 l  5474 -363 l  5502 -344 l  5530 -326 l  5559 -309 l 
5587 -294 l  5615 -281 l  5644 -271 l  5672 -263 l  5700 -257 l  5729 -254 l 
5757 -254 l  5785 -255 l  5813 -258 l  5842 -263 l  5870 -269 l  5898 -276 l 
5927 -284 l  5955 -292 l  5983 -302 l  6011 -311 l  6040 -321 l  6068 -330 l 
6096 -339 l  6125 -347 l  6153 -354 l  6181 -360 l  6210 -365 l  6238 -368 l 
6266 -370 l  6294 -370 l  6323 -368 l  6351 -365 l  6379 -361 l  6408 -355 l 
6436 -349 l  6464 -341 l  6492 -333 l  6521 -324 l  6549 -314 l  6577 -304 l 
6606 -293 l  6634 -283 l  6662 -272 l  6691 -261 l  6719 -250 l  6747 -240 l 
6775 -230 l  6804 -221 l  6832 -212 l  6860 -203 l  6889 -196 l  6917 -188 l 
6945 -182 l  6973 -176 l  7002 -170 l  7030 -165 l  7058 -161 l  7087 -157 l 
7115 -154 l  7143 -151 l  7172 -149 l  7200 -147 l  7228 -146 l  7256 -145 l 
7285 -145 l  7313 -145 l  7341 -146 l  7370 -147 l  7398 -148 l  7426 -150 l 
7454 -152 l  7483 -155 l  7511 -158 l  7539 -162 l  7568 -165 l  7596 -169 l 
7624 -173 l  7653 -178 l  7681 -183 l  7709 -187 l  7737 -193 l  7766 -198 l 
7794 -203 l  7822 -209 l  7851 -214 l  7879 -220 l  7907 -225 l  7936 -231 l 
ps
-8599 226 m  -8599 476 l  -8349 476 l  -8349 226 l  -8599 226 l  p ef
0 lw -8599 226 m  -8599 476 l  -8349 476 l  -8349 226 l  -8599 226 l  pc
-8034 -641 m  -8034 -391 l  -7784 -391 l  -7784 -641 l  -8034 -641 l  p ef
-8034 -641 m  -8034 -391 l  -7784 -391 l  -7784 -641 l  -8034 -641 l  pc
-7468 -360 m  -7468 -110 l  -7218 -110 l  -7218 -360 l  -7468 -360 l  p ef
-7468 -360 m  -7468 -110 l  -7218 -110 l  -7218 -360 l  -7468 -360 l  pc
-6902 -665 m  -6902 -415 l  -6652 -415 l  -6652 -665 l  -6902 -665 l  p ef
-6902 -665 m  -6902 -415 l  -6652 -415 l  -6652 -665 l  -6902 -665 l  pc
-6336 -751 m  -6336 -501 l  -6086 -501 l  -6086 -751 l  -6336 -751 l  p ef
-6336 -751 m  -6336 -501 l  -6086 -501 l  -6086 -751 l  -6336 -751 l  pc
-5770 -388 m  -5770 -138 l  -5520 -138 l  -5520 -388 l  -5770 -388 l  p ef
-5770 -388 m  -5770 -138 l  -5520 -138 l  -5520 -388 l  -5770 -388 l  pc
-5204 -493 m  -5204 -243 l  -4954 -243 l  -4954 -493 l  -5204 -493 l  p ef
-5204 -493 m  -5204 -243 l  -4954 -243 l  -4954 -493 l  -5204 -493 l  pc
-4638 -346 m  -4638 -96 l  -4388 -96 l  -4388 -346 l  -4638 -346 l  p ef
-4638 -346 m  -4638 -96 l  -4388 -96 l  -4388 -346 l  -4638 -346 l  pc
-4072 -272 m  -4072 -22 l  -3822 -22 l  -3822 -272 l  -4072 -272 l  p ef
-4072 -272 m  -4072 -22 l  -3822 -22 l  -3822 -272 l  -4072 -272 l  pc
-3506 -356 m  -3506 -106 l  -3256 -106 l  -3256 -356 l  -3506 -356 l  p ef
-3506 -356 m  -3506 -106 l  -3256 -106 l  -3256 -356 l  -3506 -356 l  pc
-2941 226 m  -2941 476 l  -2691 476 l  -2691 226 l  -2941 226 l  p ef
-2941 226 m  -2941 476 l  -2691 476 l  -2691 226 l  -2941 226 l  pc
-2375 -641 m  -2375 -391 l  -2125 -391 l  -2125 -641 l  -2375 -641 l  p ef
-2375 -641 m  -2375 -391 l  -2125 -391 l  -2125 -641 l  -2375 -641 l  pc
-1809 -360 m  -1809 -110 l  -1559 -110 l  -1559 -360 l  -1809 -360 l  p ef
-1809 -360 m  -1809 -110 l  -1559 -110 l  -1559 -360 l  -1809 -360 l  pc
-1243 -665 m  -1243 -415 l  -993 -415 l  -993 -665 l  -1243 -665 l  p ef
-1243 -665 m  -1243 -415 l  -993 -415 l  -993 -665 l  -1243 -665 l  pc
-677 -751 m  -677 -501 l  -427 -501 l  -427 -751 l  -677 -751 l  p ef
-677 -751 m  -677 -501 l  -427 -501 l  -427 -751 l  -677 -751 l  pc
-111 -388 m  -111 -138 l  138 -138 l  138 -388 l  -111 -388 l  p ef
-111 -388 m  -111 -138 l  138 -138 l  138 -388 l  -111 -388 l  pc
454 -493 m  454 -243 l  704 -243 l  704 -493 l  454 -493 l  p ef
454 -493 m  454 -243 l  704 -243 l  704 -493 l  454 -493 l  pc
1020 -346 m  1020 -96 l  1270 -96 l  1270 -346 l  1020 -346 l  p ef
1020 -346 m  1020 -96 l  1270 -96 l  1270 -346 l  1020 -346 l  pc
1586 -272 m  1586 -22 l  1836 -22 l  1836 -272 l  1586 -272 l  p ef
1586 -272 m  1586 -22 l  1836 -22 l  1836 -272 l  1586 -272 l  pc
2152 -356 m  2152 -106 l  2402 -106 l  2402 -356 l  2152 -356 l  p ef
2152 -356 m  2152 -106 l  2402 -106 l  2402 -356 l  2152 -356 l  pc
2717 226 m  2717 476 l  2967 476 l  2967 226 l  2717 226 l  p ef
2717 226 m  2717 476 l  2967 476 l  2967 226 l  2717 226 l  pc
3283 -641 m  3283 -391 l  3533 -391 l  3533 -641 l  3283 -641 l  p ef
3283 -641 m  3283 -391 l  3533 -391 l  3533 -641 l  3283 -641 l  pc
3849 -360 m  3849 -110 l  4099 -110 l  4099 -360 l  3849 -360 l  p ef
3849 -360 m  3849 -110 l  4099 -110 l  4099 -360 l  3849 -360 l  pc
4415 -665 m  4415 -415 l  4665 -415 l  4665 -665 l  4415 -665 l  p ef
4415 -665 m  4415 -415 l  4665 -415 l  4665 -665 l  4415 -665 l  pc
4981 -751 m  4981 -501 l  5231 -501 l  5231 -751 l  4981 -751 l  p ef
4981 -751 m  4981 -501 l  5231 -501 l  5231 -751 l  4981 -751 l  pc
5547 -388 m  5547 -138 l  5797 -138 l  5797 -388 l  5547 -388 l  p ef
5547 -388 m  5547 -138 l  5797 -138 l  5797 -388 l  5547 -388 l  pc
6113 -493 m  6113 -243 l  6363 -243 l  6363 -493 l  6113 -493 l  p ef
6113 -493 m  6113 -243 l  6363 -243 l  6363 -493 l  6113 -493 l  pc
6679 -346 m  6679 -96 l  6929 -96 l  6929 -346 l  6679 -346 l  p ef
6679 -346 m  6679 -96 l  6929 -96 l  6929 -346 l  6679 -346 l  pc
7245 -272 m  7245 -22 l  7495 -22 l  7495 -272 l  7245 -272 l  p ef
7245 -272 m  7245 -22 l  7495 -22 l  7495 -272 l  7245 -272 l  pc
7811 -356 m  7811 -106 l  8061 -106 l  8061 -356 l  7811 -356 l  p ef
7811 -356 m  7811 -106 l  8061 -106 l  8061 -356 l  7811 -356 l  pc
79.99611 lw 1.000 0.261 0.058 c -8474 -1650 m  -8446 -1633 l  -8418 -1616 l 
-8390 -1598 l  -8361 -1580 l  -8333 -1562 l  -8305 -1543 l  -8276 -1524 l 
-8248 -1503 l  -8220 -1482 l  -8192 -1459 l  -8163 -1436 l  -8135 -1411 l 
-8107 -1384 l  -8078 -1356 l  -8050 -1327 l  -8022 -1295 l  -7993 -1262 l 
-7965 -1227 l  -7937 -1189 l  -7909 -1149 l  -7880 -1107 l  -7852 -1063 l 
-7824 -1018 l  -7795 -972 l  -7767 -925 l  -7739 -879 l  -7711 -833 l 
-7682 -789 l  -7654 -746 l  -7626 -705 l  -7597 -667 l  -7569 -633 l  -7541 -602 l 
-7512 -575 l  -7484 -553 l  -7456 -536 l  -7428 -525 l  -7399 -520 l  -7371 -522 l 
-7343 -532 l  -7314 -549 l  -7286 -573 l  -7258 -603 l  -7230 -638 l  -7201 -677 l 
-7173 -721 l  -7145 -767 l  -7116 -815 l  -7088 -864 l  -7060 -913 l  -7031 -962 l 
-7003 -1009 l  -6975 -1054 l  -6947 -1096 l  -6918 -1134 l  -6890 -1167 l 
-6862 -1195 l  -6833 -1216 l  -6805 -1230 l  -6777 -1235 l  -6749 -1232 l 
-6720 -1221 l  -6692 -1203 l  -6664 -1178 l  -6635 -1147 l  -6607 -1112 l 
-6579 -1072 l  -6550 -1030 l  -6522 -985 l  -6494 -939 l  -6466 -893 l 
-6437 -846 l  -6409 -801 l  -6381 -758 l  -6352 -717 l  -6324 -680 l  -6296 -648 l 
-6268 -621 l  -6239 -600 l  -6211 -586 l  -6183 -580 l  -6154 -581 l  -6126 -589 l 
-6098 -603 l  -6069 -622 l  -6041 -646 l  -6013 -674 l  -5985 -705 l  -5956 -740 l 
-5928 -777 l  -5900 -815 l  -5871 -855 l  -5843 -895 l  -5815 -935 l  -5786 -975 l 
-5758 -1013 l  -5730 -1049 l  -5702 -1082 l  -5673 -1112 l  -5645 -1139 l 
-5617 -1161 l  -5588 -1179 l  -5560 -1194 l  -5532 -1204 l  -5504 -1212 l 
-5475 -1217 l  -5447 -1219 l  -5419 -1218 l  -5390 -1216 l  -5362 -1212 l 
-5334 -1206 l  -5305 -1199 l  -5277 -1192 l  -5249 -1183 l  -5221 -1175 l 
-5192 -1167 l  -5164 -1158 l  -5136 -1151 l  -5107 -1144 l  -5079 -1139 l 
-5051 -1135 l  -5023 -1133 l  -4994 -1131 l  -4966 -1132 l  -4938 -1133 l 
-4909 -1136 l  -4881 -1140 l  -4853 -1146 l  -4824 -1152 l  -4796 -1160 l 
-4768 -1169 l  -4740 -1178 l  -4711 -1189 l  -4683 -1200 l  -4655 -1213 l 
-4626 -1226 l  -4598 -1240 l  -4570 -1255 l  -4542 -1271 l  -4513 -1287 l 
-4485 -1303 l  -4457 -1321 l  -4428 -1338 l  -4400 -1356 l  -4372 -1373 l 
-4343 -1391 l  -4315 -1408 l  -4287 -1424 l  -4259 -1440 l  -4230 -1455 l 
-4202 -1468 l  -4174 -1481 l  -4145 -1492 l  -4117 -1502 l  -4089 -1510 l 
-4061 -1516 l  -4032 -1520 l  -4004 -1522 l  -3976 -1522 l  -3947 -1519 l 
-3919 -1513 l  -3891 -1506 l  -3862 -1496 l  -3834 -1485 l  -3806 -1472 l 
-3778 -1459 l  -3749 -1445 l  -3721 -1432 l  -3693 -1419 l  -3664 -1407 l 
-3636 -1395 l  -3608 -1386 l  -3579 -1378 l  -3551 -1373 l  -3523 -1371 l 
-3495 -1372 l  -3466 -1376 l  -3438 -1384 l  -3410 -1396 l  -3381 -1413 l 
-3353 -1435 l  -3325 -1462 l  -3297 -1492 l  -3268 -1526 l  -3240 -1562 l 
-3212 -1600 l  -3183 -1639 l  -3155 -1679 l  -3127 -1719 l  -3098 -1758 l 
-3070 -1797 l  -3042 -1833 l  -3014 -1867 l  -2985 -1899 l  -2957 -1926 l 
-2929 -1949 l  -2900 -1967 l  -2872 -1980 l  -2844 -1986 l  -2816 -1986 l 
-2787 -1978 l  -2759 -1964 l  -2731 -1943 l  -2702 -1917 l  -2674 -1885 l 
-2646 -1848 l  -2617 -1807 l  -2589 -1763 l  -2561 -1715 l  -2533 -1665 l 
-2504 -1613 l  -2476 -1559 l  -2448 -1505 l  -2419 -1450 l  -2391 -1395 l 
-2363 -1341 l  -2335 -1288 l  -2306 -1237 l  -2278 -1188 l  -2250 -1142 l 
-2221 -1099 l  -2193 -1059 l  -2165 -1023 l  -2136 -990 l  -2108 -959 l 
-2080 -932 l  -2052 -908 l  -2023 -886 l  -1995 -867 l  -1967 -851 l  -1938 -837 l 
-1910 -826 l  -1882 -817 l  -1854 -810 l  -1825 -806 l  -1797 -803 l  -1769 -803 l 
-1740 -805 l  -1712 -808 l  -1684 -813 l  -1655 -820 l  -1627 -829 l  -1599 -839 l 
-1571 -850 l  -1542 -862 l  -1514 -876 l  -1486 -890 l  -1457 -905 l  -1429 -921 l 
-1401 -938 l  -1372 -954 l  -1344 -971 l  -1316 -989 l  -1288 -1006 l 
-1259 -1023 l  -1231 -1040 l  -1203 -1056 l  -1174 -1072 l  -1146 -1088 l 
-1118 -1102 l  -1090 -1116 l  -1061 -1129 l  -1033 -1141 l  -1005 -1152 l 
-976 -1163 l  -948 -1172 l  -920 -1180 l  -891 -1188 l  -863 -1195 l  -835 -1201 l 
-807 -1206 l  -778 -1210 l  -750 -1213 l  -722 -1216 l  -693 -1217 l  -665 -1218 l 
-637 -1218 l  -609 -1217 l  -580 -1215 l  -552 -1212 l  -524 -1208 l  -495 -1204 l 
-467 -1199 l  -439 -1193 l  -410 -1187 l  -382 -1181 l  -354 -1174 l  -326 -1167 l 
-297 -1160 l  -269 -1153 l  -241 -1145 l  -212 -1138 l  -184 -1131 l  -156 -1125 l 
-128 -1119 l  -99 -1113 l  -71 -1108 l  -43 -1103 l  -14 -1100 l  13 -1097 l 
41 -1095 l  70 -1094 l  98 -1093 l  126 -1094 l  154 -1095 l  183 -1097 l 
211 -1100 l  239 -1103 l  268 -1107 l  296 -1112 l  324 -1117 l  352 -1123 l 
381 -1129 l  409 -1135 l  437 -1142 l  466 -1149 l  494 -1157 l  522 -1165 l 
551 -1173 l  579 -1181 l  607 -1190 l  635 -1198 l  664 -1207 l  692 -1216 l 
720 -1225 l  749 -1234 l  777 -1243 l  805 -1252 l  833 -1262 l  862 -1271 l 
890 -1281 l  918 -1291 l  947 -1301 l  975 -1310 l  1003 -1320 l  1032 -1330 l 
1060 -1341 l  1088 -1351 l  1116 -1361 l  1145 -1371 l  1173 -1381 l  1201 -1392 l 
1230 -1402 l  1258 -1411 l  1286 -1421 l  1315 -1429 l  1343 -1437 l  1371 -1445 l 
1399 -1451 l  1428 -1457 l  1456 -1461 l  1484 -1465 l  1513 -1467 l  1541 -1467 l 
1569 -1466 l  1597 -1464 l  1626 -1459 l  1654 -1453 l  1682 -1445 l  1711 -1434 l 
1739 -1422 l  1767 -1408 l  1796 -1392 l  1824 -1375 l  1852 -1358 l  1880 -1340 l 
1909 -1322 l  1937 -1304 l  1965 -1287 l  1994 -1272 l  2022 -1257 l  2050 -1245 l 
2078 -1235 l  2107 -1227 l  2135 -1222 l  2163 -1221 l  2192 -1223 l  2220 -1229 l 
2248 -1240 l  2277 -1255 l  2305 -1275 l  2333 -1300 l  2361 -1329 l  2390 -1361 l 
2418 -1395 l  2446 -1432 l  2475 -1470 l  2503 -1508 l  2531 -1547 l  2559 -1585 l 
2588 -1622 l  2616 -1657 l  2644 -1690 l  2673 -1719 l  2701 -1745 l  2729 -1767 l 
2758 -1784 l  2786 -1795 l  2814 -1800 l  2842 -1798 l  2871 -1789 l  2899 -1773 l 
2927 -1752 l  2956 -1724 l  2984 -1692 l  3012 -1656 l  3040 -1617 l  3069 -1575 l 
3097 -1531 l  3125 -1486 l  3154 -1441 l  3182 -1395 l  3210 -1350 l  3239 -1307 l 
3267 -1266 l  3295 -1228 l  3323 -1193 l  3352 -1163 l  3380 -1138 l  3408 -1118 l 
3437 -1105 l  3465 -1097 l  3493 -1095 l  3522 -1098 l  3550 -1106 l  3578 -1118 l 
3606 -1133 l  3635 -1153 l  3663 -1175 l  3691 -1200 l  3720 -1227 l  3748 -1256 l 
3776 -1286 l  3804 -1317 l  3833 -1349 l  3861 -1381 l  3889 -1412 l  3918 -1443 l 
3946 -1473 l  3974 -1501 l  4003 -1528 l  4031 -1552 l  4059 -1574 l  4087 -1595 l 
4116 -1613 l  4144 -1628 l  4172 -1642 l  4201 -1653 l  4229 -1662 l  4257 -1668 l 
4285 -1672 l  4314 -1673 l  4342 -1671 l  4370 -1667 l  4399 -1660 l  4427 -1649 l 
4455 -1637 l  4484 -1621 l  4512 -1602 l  4540 -1579 l  4568 -1554 l  4597 -1526 l 
4625 -1496 l  4653 -1463 l  4682 -1429 l  4710 -1393 l  4738 -1356 l  4766 -1319 l 
4795 -1282 l  4823 -1244 l  4851 -1207 l  4880 -1171 l  4908 -1136 l  4936 -1102 l 
4965 -1071 l  4993 -1041 l  5021 -1015 l  5049 -991 l  5078 -971 l  5106 -954 l 
5134 -941 l  5163 -932 l  5191 -927 l  5219 -925 l  5247 -925 l  5276 -928 l 
5304 -934 l  5332 -941 l  5361 -950 l  5389 -960 l  5417 -971 l  5446 -983 l 
5474 -995 l  5502 -1007 l  5530 -1019 l  5559 -1031 l  5587 -1041 l  5615 -1051 l 
5644 -1059 l  5672 -1065 l  5700 -1069 l  5729 -1072 l  5757 -1072 l  5785 -1072 l 
5813 -1070 l  5842 -1067 l  5870 -1064 l  5898 -1060 l  5927 -1056 l  5955 -1053 l 
5983 -1049 l  6011 -1047 l  6040 -1045 l  6068 -1044 l  6096 -1044 l  6125 -1047 l 
6153 -1050 l  6181 -1056 l  6210 -1065 l  6238 -1076 l  6266 -1089 l  6294 -1105 l 
6323 -1123 l  6351 -1144 l  6379 -1165 l  6408 -1188 l  6436 -1212 l  6464 -1237 l 
6492 -1262 l  6521 -1287 l  6549 -1312 l  6577 -1336 l  6606 -1360 l  6634 -1382 l 
6662 -1404 l  6691 -1423 l  6719 -1440 l  6747 -1455 l  6775 -1467 l  6804 -1477 l 
6832 -1483 l  6860 -1486 l  6889 -1487 l  6917 -1484 l  6945 -1480 l  6973 -1474 l 
7002 -1465 l  7030 -1455 l  7058 -1444 l  7087 -1432 l  7115 -1419 l  7143 -1405 l 
7172 -1390 l  7200 -1376 l  7228 -1361 l  7256 -1347 l  7285 -1333 l  7313 -1320 l 
7341 -1308 l  7370 -1297 l  7398 -1288 l  7426 -1280 l  7454 -1273 l  7483 -1267 l 
7511 -1263 l  7539 -1260 l  7568 -1257 l  7596 -1256 l  7624 -1256 l  7653 -1256 l 
7681 -1257 l  7709 -1259 l  7737 -1261 l  7766 -1264 l  7794 -1267 l  7822 -1270 l 
7851 -1274 l  7879 -1278 l  7907 -1282 l  7936 -1287 l  ps
-8599 -1650 m  -8474 -1525 l  -8349 -1650 l  -8474 -1775 l  -8599 -1650 l 
p ef
0 lw -8599 -1650 m  -8474 -1525 l  -8349 -1650 l  -8474 -1775 l  -8599 -1650 l 
pc
-8034 -1149 m  -7909 -1024 l  -7784 -1149 l  -7909 -1274 l  -8034 -1149 l 
p ef
-8034 -1149 m  -7909 -1024 l  -7784 -1149 l  -7909 -1274 l  -8034 -1149 l 
pc
-7468 -532 m  -7343 -407 l  -7218 -532 l  -7343 -657 l  -7468 -532 l  p ef
-7468 -532 m  -7343 -407 l  -7218 -532 l  -7343 -657 l  -7468 -532 l  pc
-6902 -1235 m  -6777 -1110 l  -6652 -1235 l  -6777 -1360 l  -6902 -1235 l 
p ef
-6902 -1235 m  -6777 -1110 l  -6652 -1235 l  -6777 -1360 l  -6902 -1235 l 
pc
-6336 -586 m  -6211 -461 l  -6086 -586 l  -6211 -711 l  -6336 -586 l  p ef
-6336 -586 m  -6211 -461 l  -6086 -586 l  -6211 -711 l  -6336 -586 l  pc
-5770 -1139 m  -5645 -1014 l  -5520 -1139 l  -5645 -1264 l  -5770 -1139 l 
p ef
-5770 -1139 m  -5645 -1014 l  -5520 -1139 l  -5645 -1264 l  -5770 -1139 l 
pc
-5204 -1139 m  -5079 -1014 l  -4954 -1139 l  -5079 -1264 l  -5204 -1139 l 
p ef
-5204 -1139 m  -5079 -1014 l  -4954 -1139 l  -5079 -1264 l  -5204 -1139 l 
pc
-4638 -1287 m  -4513 -1162 l  -4388 -1287 l  -4513 -1412 l  -4638 -1287 l 
p ef
-4638 -1287 m  -4513 -1162 l  -4388 -1287 l  -4513 -1412 l  -4638 -1287 l 
pc
-4072 -1519 m  -3947 -1394 l  -3822 -1519 l  -3947 -1644 l  -4072 -1519 l 
p ef
-4072 -1519 m  -3947 -1394 l  -3822 -1519 l  -3947 -1644 l  -4072 -1519 l 
pc
-3506 -1413 m  -3381 -1288 l  -3256 -1413 l  -3381 -1538 l  -3506 -1413 l 
p ef
-3506 -1413 m  -3381 -1288 l  -3256 -1413 l  -3381 -1538 l  -3506 -1413 l 
pc
-2941 -1986 m  -2816 -1861 l  -2691 -1986 l  -2816 -2111 l  -2941 -1986 l 
p ef
-2941 -1986 m  -2816 -1861 l  -2691 -1986 l  -2816 -2111 l  -2941 -1986 l 
pc
-2375 -1142 m  -2250 -1017 l  -2125 -1142 l  -2250 -1267 l  -2375 -1142 l 
p ef
-2375 -1142 m  -2250 -1017 l  -2125 -1142 l  -2250 -1267 l  -2375 -1142 l 
pc
-1809 -813 m  -1684 -688 l  -1559 -813 l  -1684 -938 l  -1809 -813 l  p ef
-1809 -813 m  -1684 -688 l  -1559 -813 l  -1684 -938 l  -1809 -813 l  pc
-1243 -1102 m  -1118 -977 l  -993 -1102 l  -1118 -1227 l  -1243 -1102 l 
p ef
-1243 -1102 m  -1118 -977 l  -993 -1102 l  -1118 -1227 l  -1243 -1102 l 
pc
-677 -1212 m  -552 -1087 l  -427 -1212 l  -552 -1337 l  -677 -1212 l  p ef
-677 -1212 m  -552 -1087 l  -427 -1212 l  -552 -1337 l  -677 -1212 l  pc
-111 -1097 m  13 -972 l  138 -1097 l  13 -1222 l  -111 -1097 l  p ef
-111 -1097 m  13 -972 l  138 -1097 l  13 -1222 l  -111 -1097 l  pc
454 -1181 m  579 -1056 l  704 -1181 l  579 -1306 l  454 -1181 l  p ef
454 -1181 m  579 -1056 l  704 -1181 l  579 -1306 l  454 -1181 l  pc
1020 -1371 m  1145 -1246 l  1270 -1371 l  1145 -1496 l  1020 -1371 l  p ef
1020 -1371 m  1145 -1246 l  1270 -1371 l  1145 -1496 l  1020 -1371 l  pc
1586 -1434 m  1711 -1309 l  1836 -1434 l  1711 -1559 l  1586 -1434 l  p ef
1586 -1434 m  1711 -1309 l  1836 -1434 l  1711 -1559 l  1586 -1434 l  pc
2152 -1255 m  2277 -1130 l  2402 -1255 l  2277 -1380 l  2152 -1255 l  p ef
2152 -1255 m  2277 -1130 l  2402 -1255 l  2277 -1380 l  2152 -1255 l  pc
2717 -1798 m  2842 -1673 l  2967 -1798 l  2842 -1923 l  2717 -1798 l  p ef
2717 -1798 m  2842 -1673 l  2967 -1798 l  2842 -1923 l  2717 -1798 l  pc
3283 -1118 m  3408 -993 l  3533 -1118 l  3408 -1243 l  3283 -1118 l  p ef
3283 -1118 m  3408 -993 l  3533 -1118 l  3408 -1243 l  3283 -1118 l  pc
3849 -1501 m  3974 -1376 l  4099 -1501 l  3974 -1626 l  3849 -1501 l  p ef
3849 -1501 m  3974 -1376 l  4099 -1501 l  3974 -1626 l  3849 -1501 l  pc
4415 -1579 m  4540 -1454 l  4665 -1579 l  4540 -1704 l  4415 -1579 l  p ef
4415 -1579 m  4540 -1454 l  4665 -1579 l  4540 -1704 l  4415 -1579 l  pc
4981 -954 m  5106 -829 l  5231 -954 l  5106 -1079 l  4981 -954 l  p ef
4981 -954 m  5106 -829 l  5231 -954 l  5106 -1079 l  4981 -954 l  pc
5547 -1065 m  5672 -940 l  5797 -1065 l  5672 -1190 l  5547 -1065 l  p ef
5547 -1065 m  5672 -940 l  5797 -1065 l  5672 -1190 l  5547 -1065 l  pc
6113 -1076 m  6238 -951 l  6363 -1076 l  6238 -1201 l  6113 -1076 l  p ef
6113 -1076 m  6238 -951 l  6363 -1076 l  6238 -1201 l  6113 -1076 l  pc
6679 -1477 m  6804 -1352 l  6929 -1477 l  6804 -1602 l  6679 -1477 l  p ef
6679 -1477 m  6804 -1352 l  6929 -1477 l  6804 -1602 l  6679 -1477 l  pc
7245 -1297 m  7370 -1172 l  7495 -1297 l  7370 -1422 l  7245 -1297 l  p ef
7245 -1297 m  7370 -1172 l  7495 -1297 l  7370 -1422 l  7245 -1297 l  pc
7811 -1287 m  7936 -1162 l  8061 -1287 l  7936 -1412 l  7811 -1287 l  p ef
7811 -1287 m  7936 -1162 l  8061 -1287 l  7936 -1412 l  7811 -1287 l  pc
0.003 0.003 0.003 c
/Helvetica f
353 sf -8567 4242 m  185 0 (1) bs
/Helvetica f
353 sf -8002 4242 m  185 0 (2) bs
/Helvetica f
353 sf -7436 4242 m  185 0 (3) bs
/Helvetica f
353 sf -6870 4242 m  185 0 (4) bs
/Helvetica f
353 sf -6304 4242 m  185 0 (5) bs
/Helvetica f
353 sf -5738 4242 m  185 0 (6) bs
/Helvetica f
353 sf -5172 4242 m  185 0 (7) bs
/Helvetica f
353 sf -4606 4242 m  185 0 (8) bs
/Helvetica f
353 sf -4040 4242 m  185 0 (9) bs
/Helvetica f
353 sf -3566 4242 m  185 0 (1) bs
185 185 (0) bs
/Helvetica f
353 sf -2988 4242 m  185 0 (1) bs
185 159 (1) bs
/Helvetica f
353 sf -2435 4242 m  185 0 (1) bs
185 185 (2) bs
/Helvetica f
353 sf -1869 4242 m  185 0 (1) bs
185 185 (3) bs
/Helvetica f
353 sf -1303 4242 m  185 0 (1) bs
185 185 (4) bs
/Helvetica f
353 sf -737 4242 m  185 0 (1) bs
185 185 (5) bs
/Helvetica f
353 sf -171 4242 m  185 0 (1) bs
185 185 (6) bs
/Helvetica f
353 sf 395 4242 m  185 0 (1) bs
185 185 (7) bs
/Helvetica f
353 sf 961 4242 m  185 0 (1) bs
185 185 (8) bs
/Helvetica f
353 sf 1527 4242 m  185 0 (1) bs
185 185 (9) bs
/Helvetica f
353 sf 2093 4242 m  185 0 (2) bs
185 185 (0) bs
/Helvetica f
353 sf 2658 4242 m  185 0 (2) bs
185 185 (1) bs
/Helvetica f
353 sf 3224 4242 m  185 0 (2) bs
185 185 (2) bs
/Helvetica f
353 sf 3790 4242 m  185 0 (2) bs
185 185 (3) bs
/Helvetica f
353 sf 4356 4242 m  185 0 (2) bs
185 185 (4) bs
/Helvetica f
353 sf 4922 4242 m  185 0 (2) bs
185 185 (5) bs
/Helvetica f
353 sf 5488 4242 m  185 0 (2) bs
185 185 (6) bs
/Helvetica f
353 sf 6054 4242 m  185 0 (2) bs
185 185 (7) bs
/Helvetica f
353 sf 6620 4242 m  185 0 (2) bs
185 185 (8) bs
/Helvetica f
353 sf 7186 4242 m  185 0 (2) bs
185 185 (9) bs
/Helvetica f
353 sf 7752 4242 m  185 0 (3) bs
185 185 (0) bs
/Helvetica f
353 sf -9703 3795 m  185 0 (0) bs
106 185 (,) bs
185 291 (0) bs
185 476 (0) bs
318 661 (%) bs
/Helvetica f
353 sf -9888 2956 m  185 0 (1) bs
185 185 (0) bs
106 370 (,) bs
185 476 (0) bs
185 661 (0) bs
318 847 (%) bs
/Helvetica f
353 sf -9888 2118 m  185 0 (2) bs
185 185 (0) bs
106 370 (,) bs
185 476 (0) bs
185 661 (0) bs
318 847 (%) bs
/Helvetica f
353 sf -9888 1280 m  185 0 (3) bs
185 185 (0) bs
106 370 (,) bs
185 476 (0) bs
185 661 (0) bs
318 847 (%) bs
/Helvetica f
353 sf -9888 442 m  185 0 (4) bs
185 185 (0) bs
106 370 (,) bs
185 476 (0) bs
185 661 (0) bs
318 847 (%) bs
/Helvetica f
353 sf -9888 -396 m  185 0 (5) bs
185 185 (0) bs
106 370 (,) bs
185 476 (0) bs
185 661 (0) bs
318 847 (%) bs
/Helvetica f
353 sf -9888 -1234 m  185 0 (6) bs
185 185 (0) bs
106 370 (,) bs
185 476 (0) bs
185 661 (0) bs
318 847 (%) bs
/Helvetica f
353 sf -9888 -2072 m  185 0 (7) bs
185 185 (0) bs
106 370 (,) bs
185 476 (0) bs
185 661 (0) bs
318 847 (%) bs
/Helvetica f
353 sf -9888 -2910 m  185 0 (8) bs
185 185 (0) bs
106 370 (,) bs
185 476 (0) bs
185 661 (0) bs
318 847 (%) bs
/Helvetica f
459 sf -2342 -3652 m  159 0 (r) bs
238 159 (e) bs
238 397 (p) bs
238 635 (o) bs
159 873 (r) bs
106 1032 (t) bs
238 1138 (_) bs
238 1376 (8) bs
238 1614 (_) bs
238 1852 (2) bs
238 2090 (_) bs
238 2328 (1) bs
132 2566 ( ) bs
159 2699 (-) bs
132 2858 ( ) bs
238 2990 (p) bs
159 3228 (r) bs
238 3387 (e) bs
238 3625 (d) bs
106 3863 (i) bs
238 3969 (c) bs
106 4207 (t) bs
132 4313 ( ) bs
238 4445 (3) bs
79.99611 lw 0.003 0.273 0.527 c 8650 -250 m  9450 -250 l  ps
8944 -355 m  8944 -144 l  9155 -144 l  9155 -355 l  8944 -355 l  p ef
0 lw 8944 -355 m  8944 -144 l  9155 -144 l  9155 -355 l  8944 -355 l  pc
79.99611 lw 1.000 0.261 0.058 c 8650 247 m  9450 247 l  ps
8944 247 m  9050 353 l  9155 247 l  9050 142 l  8944 247 l  p ef
0 lw 8944 247 m  9050 353 l  9155 247 l  9050 142 l  8944 247 l  pc
0.003 0.003 0.003 c
/Helvetica f
353 sf 9550 -130 m  238 0 (H) bs
185 238 (e) bs
/Helvetica f
353 sf 9550 367 m  238 0 (K) bs
185 238 (e) bs
0 9006 t 
pom
count op_count sub {pop} repeat countdictstack dict_count sub {end} repeat b4_inc_state restore
%%PageTrailer
%%Trailer
%%EOF
