%!PS-Adobe-3.0 EPSF-3.0 
%%BoundingBox: 0 0 584 255
%%Pages: 0
%%Creator: LibreOffice 4.4
%%Title: none
%%CreationDate: none
%%LanguageLevel: 2
%%EndComments
%%BeginProlog
%%BeginResource: procset SDRes-Prolog 1.0 0
/b4_inc_state save def
/dict_count countdictstack def
/op_count count 1 sub def
userdict begin
0 setgray 0 setlinecap 1 setlinewidth 0 setlinejoin 10 setmiterlimit[] 0 setdash newpath
/languagelevel where {pop languagelevel 1 ne {false setstrokeadjust false setoverprint} if} if
/bdef {bind def} bind def
/c {setrgbcolor} bdef
/l {neg lineto} bdef
/rl {neg rlineto} bdef
/lc {setlinecap} bdef
/lj {setlinejoin} bdef
/lw {setlinewidth} bdef
/ml {setmiterlimit} bdef
/ld {setdash} bdef
/m {neg moveto} bdef
/ct {6 2 roll neg 6 2 roll neg 6 2 roll neg curveto} bdef
/r {rotate} bdef
/t {neg translate} bdef
/s {scale} bdef
/sw {show} bdef
/gs {gsave} bdef
/gr {grestore} bdef
/f {findfont dup length dict begin
{1 index /FID ne {def} {pop pop} ifelse} forall /Encoding ISOLatin1Encoding def
currentdict end /NFont exch definefont pop /NFont findfont} bdef
/p {closepath} bdef
/sf {scalefont setfont} bdef
/ef {eofill}bdef
/pc {closepath stroke}bdef
/ps {stroke}bdef
/pum {matrix currentmatrix}bdef
/pom {setmatrix}bdef
/bs {/aString exch def /nXOfs exch def /nWidth exch def currentpoint nXOfs 0 rmoveto pum nWidth aString stringwidth pop div 1 scale aString show pom moveto} bdef
%%EndResource
%%EndProlog
%%BeginSetup
%%EndSetup
%%Page: 1 1
%%BeginPageSetup
%%EndPageSetup
pum
0.02834 0.02831 s 
0 -9006 t
/tm matrix currentmatrix def
tm setmatrix
10301 4503 t 
1 1 s 
1.000 1.000 1.000 c 0 4502 m  -10301 4502 l  -10301 -4503 l  10301 -4503 l 
10301 4502 l  0 4502 l  p ef
0 lw 1 lj 0.703 0.703 0.703 c -971 3675 m  -8474 3675 l  -8474 -3029 l 
6532 -3029 l  6532 3675 l  -971 3675 l  pc
6532 3674 m  -8474 3674 l  ps
6532 2835 m  -8474 2835 l  ps
6532 1997 m  -8474 1997 l  ps
6532 1159 m  -8474 1159 l  ps
6532 321 m  -8474 321 l  ps
6532 -516 m  -8474 -516 l  ps
6532 -1354 m  -8474 -1354 l  ps
6532 -2192 m  -8474 -2192 l  ps
6532 -3030 m  -8474 -3030 l  ps
-8474 3824 m  -8474 3674 l  ps
-8474 3824 m  -8474 3674 l  ps
-7957 3824 m  -7957 3674 l  ps
-7957 3824 m  -7957 3674 l  ps
-7440 3824 m  -7440 3674 l  ps
-7440 3824 m  -7440 3674 l  ps
-6922 3824 m  -6922 3674 l  ps
-6922 3824 m  -6922 3674 l  ps
-6405 3824 m  -6405 3674 l  ps
-6405 3824 m  -6405 3674 l  ps
-5887 3824 m  -5887 3674 l  ps
-5887 3824 m  -5887 3674 l  ps
-5370 3824 m  -5370 3674 l  ps
-5370 3824 m  -5370 3674 l  ps
-4852 3824 m  -4852 3674 l  ps
-4852 3824 m  -4852 3674 l  ps
-4335 3824 m  -4335 3674 l  ps
-4335 3824 m  -4335 3674 l  ps
-3817 3824 m  -3817 3674 l  ps
-3817 3824 m  -3817 3674 l  ps
-3300 3824 m  -3300 3674 l  ps
-3300 3824 m  -3300 3674 l  ps
-2782 3824 m  -2782 3674 l  ps
-2782 3824 m  -2782 3674 l  ps
-2265 3824 m  -2265 3674 l  ps
-2265 3824 m  -2265 3674 l  ps
-1747 3824 m  -1747 3674 l  ps
-1747 3824 m  -1747 3674 l  ps
-1230 3824 m  -1230 3674 l  ps
-1230 3824 m  -1230 3674 l  ps
-712 3824 m  -712 3674 l  ps
-712 3824 m  -712 3674 l  ps
-195 3824 m  -195 3674 l  ps
-195 3824 m  -195 3674 l  ps
322 3824 m  322 3674 l  ps
322 3824 m  322 3674 l  ps
839 3824 m  839 3674 l  ps
839 3824 m  839 3674 l  ps
1357 3824 m  1357 3674 l  ps
1357 3824 m  1357 3674 l  ps
1874 3824 m  1874 3674 l  ps
1874 3824 m  1874 3674 l  ps
2392 3824 m  2392 3674 l  ps
2392 3824 m  2392 3674 l  ps
2909 3824 m  2909 3674 l  ps
2909 3824 m  2909 3674 l  ps
3427 3824 m  3427 3674 l  ps
3427 3824 m  3427 3674 l  ps
3944 3824 m  3944 3674 l  ps
3944 3824 m  3944 3674 l  ps
4462 3824 m  4462 3674 l  ps
4462 3824 m  4462 3674 l  ps
4979 3824 m  4979 3674 l  ps
4979 3824 m  4979 3674 l  ps
5497 3824 m  5497 3674 l  ps
5497 3824 m  5497 3674 l  ps
6014 3824 m  6014 3674 l  ps
6014 3824 m  6014 3674 l  ps
6532 3824 m  6532 3674 l  ps
6532 3824 m  6532 3674 l  ps
-8474 3674 m  6532 3674 l  ps
-8624 3674 m  -8474 3674 l  ps
-8624 3674 m  -8474 3674 l  ps
-8624 2835 m  -8474 2835 l  ps
-8624 2835 m  -8474 2835 l  ps
-8624 1997 m  -8474 1997 l  ps
-8624 1997 m  -8474 1997 l  ps
-8624 1159 m  -8474 1159 l  ps
-8624 1159 m  -8474 1159 l  ps
-8624 321 m  -8474 321 l  ps
-8624 321 m  -8474 321 l  ps
-8624 -516 m  -8474 -516 l  ps
-8624 -516 m  -8474 -516 l  ps
-8624 -1354 m  -8474 -1354 l  ps
-8624 -1354 m  -8474 -1354 l  ps
-8624 -2192 m  -8474 -2192 l  ps
-8624 -2192 m  -8474 -2192 l  ps
-8624 -3030 m  -8474 -3030 l  ps
-8624 -3030 m  -8474 -3030 l  ps
-8474 3674 m  -8474 -3030 l  ps
79.99611 lw 0.003 0.273 0.527 c -8474 -619 m  -8449 -631 l  -8423 -643 l 
-8397 -655 l  -8371 -667 l  -8345 -679 l  -8319 -690 l  -8293 -701 l  -8268 -712 l 
-8242 -722 l  -8216 -731 l  -8190 -740 l  -8164 -749 l  -8138 -757 l  -8112 -764 l 
-8086 -770 l  -8061 -775 l  -8035 -779 l  -8009 -783 l  -7983 -785 l  -7957 -787 l 
-7931 -787 l  -7905 -786 l  -7879 -784 l  -7854 -782 l  -7828 -779 l  -7802 -775 l 
-7776 -771 l  -7750 -767 l  -7724 -762 l  -7698 -758 l  -7672 -754 l  -7647 -749 l 
-7621 -746 l  -7595 -742 l  -7569 -740 l  -7543 -738 l  -7517 -736 l  -7491 -736 l 
-7465 -737 l  -7440 -739 l  -7414 -743 l  -7388 -748 l  -7362 -753 l  -7336 -760 l 
-7310 -768 l  -7284 -777 l  -7258 -786 l  -7233 -796 l  -7207 -806 l  -7181 -817 l 
-7155 -828 l  -7129 -839 l  -7103 -850 l  -7077 -861 l  -7051 -872 l  -7026 -882 l 
-7000 -893 l  -6974 -902 l  -6948 -911 l  -6922 -920 l  -6896 -927 l  -6870 -934 l 
-6844 -940 l  -6819 -945 l  -6793 -949 l  -6767 -952 l  -6741 -954 l  -6715 -956 l 
-6689 -956 l  -6663 -956 l  -6637 -955 l  -6612 -952 l  -6586 -949 l  -6560 -945 l 
-6534 -939 l  -6508 -933 l  -6482 -926 l  -6456 -918 l  -6430 -909 l  -6405 -898 l 
-6379 -887 l  -6353 -875 l  -6327 -862 l  -6301 -848 l  -6275 -834 l  -6249 -820 l 
-6223 -806 l  -6198 -791 l  -6172 -777 l  -6146 -763 l  -6120 -750 l  -6094 -737 l 
-6068 -725 l  -6042 -714 l  -6016 -703 l  -5991 -695 l  -5965 -687 l  -5939 -681 l 
-5913 -677 l  -5887 -674 l  -5861 -674 l  -5835 -675 l  -5809 -678 l  -5784 -682 l 
-5758 -687 l  -5732 -694 l  -5706 -701 l  -5680 -708 l  -5654 -716 l  -5628 -725 l 
-5602 -733 l  -5577 -741 l  -5551 -748 l  -5525 -755 l  -5499 -761 l  -5473 -766 l 
-5447 -770 l  -5421 -772 l  -5395 -773 l  -5370 -772 l  -5344 -769 l  -5318 -764 l 
-5292 -758 l  -5266 -750 l  -5240 -740 l  -5214 -730 l  -5188 -718 l  -5163 -706 l 
-5137 -694 l  -5111 -681 l  -5085 -668 l  -5059 -654 l  -5033 -641 l  -5007 -629 l 
-4981 -617 l  -4956 -605 l  -4930 -595 l  -4904 -585 l  -4878 -577 l  -4852 -571 l 
-4826 -566 l  -4800 -562 l  -4774 -560 l  -4749 -560 l  -4723 -561 l  -4697 -563 l 
-4671 -566 l  -4645 -570 l  -4619 -575 l  -4593 -580 l  -4568 -587 l  -4542 -594 l 
-4516 -602 l  -4490 -610 l  -4464 -618 l  -4438 -627 l  -4412 -636 l  -4386 -645 l 
-4361 -654 l  -4335 -663 l  -4309 -671 l  -4283 -680 l  -4257 -688 l  -4231 -696 l 
-4205 -703 l  -4179 -710 l  -4154 -717 l  -4128 -723 l  -4102 -728 l  -4076 -733 l 
-4050 -737 l  -4024 -741 l  -3998 -743 l  -3972 -745 l  -3947 -746 l  -3921 -747 l 
-3895 -746 l  -3869 -744 l  -3843 -741 l  -3817 -738 l  -3791 -733 l  -3765 -727 l 
-3740 -720 l  -3714 -713 l  -3688 -705 l  -3662 -697 l  -3636 -688 l  -3610 -679 l 
-3584 -671 l  -3558 -662 l  -3533 -654 l  -3507 -647 l  -3481 -640 l  -3455 -633 l 
-3429 -628 l  -3403 -623 l  -3377 -620 l  -3351 -618 l  -3326 -618 l  -3300 -619 l 
-3274 -622 l  -3248 -627 l  -3222 -632 l  -3196 -640 l  -3170 -648 l  -3144 -657 l 
-3119 -667 l  -3093 -677 l  -3067 -688 l  -3041 -699 l  -3015 -711 l  -2989 -722 l 
-2963 -732 l  -2937 -743 l  -2912 -753 l  -2886 -762 l  -2860 -770 l  -2834 -777 l 
-2808 -782 l  -2782 -787 l  -2756 -789 l  -2730 -791 l  -2705 -790 l  -2679 -789 l 
-2653 -787 l  -2627 -784 l  -2601 -780 l  -2575 -776 l  -2549 -771 l  -2523 -766 l 
-2498 -762 l  -2472 -757 l  -2446 -752 l  -2420 -748 l  -2394 -744 l  -2368 -741 l 
-2342 -739 l  -2316 -738 l  -2291 -738 l  -2265 -739 l  -2239 -742 l  -2213 -746 l 
-2187 -752 l  -2161 -758 l  -2135 -766 l  -2109 -774 l  -2084 -783 l  -2058 -793 l 
-2032 -804 l  -2006 -814 l  -1980 -825 l  -1954 -837 l  -1928 -848 l  -1902 -859 l 
-1877 -871 l  -1851 -881 l  -1825 -892 l  -1799 -902 l  -1773 -911 l  -1747 -920 l 
-1721 -927 l  -1695 -934 l  -1670 -940 l  -1644 -945 l  -1618 -949 l  -1592 -953 l 
-1566 -955 l  -1540 -957 l  -1514 -957 l  -1488 -957 l  -1463 -955 l  -1437 -953 l 
-1411 -949 l  -1385 -945 l  -1359 -940 l  -1333 -934 l  -1307 -926 l  -1281 -918 l 
-1256 -909 l  -1230 -898 l  -1204 -887 l  -1178 -875 l  -1152 -862 l  -1126 -848 l 
-1100 -834 l  -1074 -820 l  -1049 -805 l  -1023 -791 l  -997 -777 l  -971 -763 l 
-945 -749 l  -919 -737 l  -893 -725 l  -868 -713 l  -842 -703 l  -816 -694 l 
-790 -687 l  -764 -681 l  -738 -677 l  -712 -674 l  -686 -674 l  -661 -675 l 
-635 -678 l  -609 -682 l  -583 -687 l  -557 -694 l  -531 -701 l  -505 -708 l 
-479 -716 l  -454 -725 l  -428 -733 l  -402 -741 l  -376 -748 l  -350 -755 l 
-324 -761 l  -298 -766 l  -272 -770 l  -247 -772 l  -221 -773 l  -195 -772 l 
-169 -769 l  -143 -764 l  -117 -758 l  -91 -750 l  -65 -740 l  -40 -730 l 
-14 -718 l  11 -706 l  37 -694 l  63 -681 l  89 -668 l  115 -654 l  141 -641 l 
166 -629 l  192 -617 l  218 -605 l  244 -595 l  270 -585 l  296 -577 l 
322 -571 l  348 -566 l  373 -562 l  399 -560 l  425 -560 l  451 -561 l 
477 -563 l  503 -566 l  529 -570 l  555 -575 l  580 -580 l  606 -587 l 
632 -594 l  658 -602 l  684 -610 l  710 -618 l  736 -627 l  762 -636 l 
787 -645 l  813 -654 l  839 -663 l  865 -671 l  891 -680 l  917 -688 l 
943 -696 l  969 -703 l  994 -710 l  1020 -717 l  1046 -723 l  1072 -728 l 
1098 -733 l  1124 -737 l  1150 -741 l  1176 -743 l  1201 -745 l  1227 -746 l 
1253 -747 l  1279 -746 l  1305 -744 l  1331 -741 l  1357 -738 l  1383 -733 l 
1408 -727 l  1434 -720 l  1460 -713 l  1486 -705 l  1512 -697 l  1538 -688 l 
1564 -679 l  1590 -671 l  1615 -662 l  1641 -654 l  1667 -647 l  1693 -640 l 
1719 -633 l  1745 -628 l  1771 -623 l  1797 -620 l  1822 -618 l  1848 -618 l 
1874 -619 l  1900 -622 l  1926 -627 l  1952 -632 l  1978 -640 l  2004 -648 l 
2029 -657 l  2055 -667 l  2081 -677 l  2107 -688 l  2133 -699 l  2159 -711 l 
2185 -722 l  2211 -732 l  2236 -743 l  2262 -753 l  2288 -762 l  2314 -770 l 
2340 -777 l  2366 -782 l  2392 -787 l  2418 -789 l  2443 -791 l  2469 -790 l 
2495 -789 l  2521 -787 l  2547 -784 l  2573 -780 l  2599 -776 l  2625 -771 l 
2650 -766 l  2676 -762 l  2702 -757 l  2728 -752 l  2754 -748 l  2780 -744 l 
2806 -741 l  2831 -739 l  2857 -738 l  2883 -738 l  2909 -739 l  2935 -742 l 
2961 -746 l  2987 -752 l  3013 -758 l  3038 -766 l  3064 -774 l  3090 -783 l 
3116 -793 l  3142 -804 l  3168 -814 l  3194 -825 l  3220 -837 l  3245 -848 l 
3271 -859 l  3297 -871 l  3323 -881 l  3349 -892 l  3375 -902 l  3401 -911 l 
3427 -920 l  3452 -927 l  3478 -934 l  3504 -940 l  3530 -945 l  3556 -950 l 
3582 -953 l  3608 -955 l  3634 -957 l  3659 -957 l  3685 -957 l  3711 -955 l 
3737 -953 l  3763 -949 l  3789 -945 l  3815 -940 l  3841 -934 l  3866 -926 l 
3892 -918 l  3918 -909 l  3944 -898 l  3970 -887 l  3996 -875 l  4022 -862 l 
4048 -848 l  4073 -834 l  4099 -820 l  4125 -805 l  4151 -791 l  4177 -777 l 
4203 -763 l  4229 -749 l  4255 -736 l  4280 -724 l  4306 -713 l  4332 -703 l 
4358 -694 l  4384 -687 l  4410 -681 l  4436 -677 l  4462 -674 l  4487 -674 l 
4513 -675 l  4539 -678 l  4565 -682 l  4591 -688 l  4617 -694 l  4643 -701 l 
4669 -709 l  4694 -717 l  4720 -725 l  4746 -733 l  4772 -741 l  4798 -749 l 
4824 -756 l  4850 -762 l  4876 -767 l  4901 -770 l  4927 -773 l  4953 -773 l 
4979 -772 l  5005 -769 l  5031 -764 l  5057 -757 l  5083 -749 l  5108 -739 l 
5134 -729 l  5160 -717 l  5186 -705 l  5212 -692 l  5238 -679 l  5264 -666 l 
5290 -653 l  5315 -640 l  5341 -627 l  5367 -615 l  5393 -604 l  5419 -594 l 
5445 -585 l  5471 -577 l  5497 -571 l  5522 -566 l  5548 -563 l  5574 -562 l 
5600 -562 l  5626 -564 l  5652 -566 l  5678 -570 l  5704 -574 l  5729 -580 l 
5755 -586 l  5781 -593 l  5807 -600 l  5833 -608 l  5859 -615 l  5885 -624 l 
5911 -632 l  5936 -640 l  5962 -648 l  5988 -656 l  6014 -663 l  6040 -670 l 
6066 -676 l  6092 -682 l  6118 -687 l  6143 -692 l  6169 -697 l  6195 -701 l 
6221 -706 l  6247 -709 l  6273 -713 l  6299 -716 l  6325 -719 l  6350 -722 l 
6376 -724 l  6402 -727 l  6428 -729 l  6454 -731 l  6480 -733 l  6506 -736 l 
6532 -738 l  ps
-8599 -744 m  -8599 -494 l  -8349 -494 l  -8349 -744 l  -8599 -744 l  p ef
0 lw -8599 -744 m  -8599 -494 l  -8349 -494 l  -8349 -744 l  -8599 -744 l 
pc
-8082 -912 m  -8082 -662 l  -7832 -662 l  -7832 -912 l  -8082 -912 l  p ef
-8082 -912 m  -8082 -662 l  -7832 -662 l  -7832 -912 l  -8082 -912 l  pc
-7565 -864 m  -7565 -614 l  -7315 -614 l  -7315 -864 l  -7565 -864 l  p ef
-7565 -864 m  -7565 -614 l  -7315 -614 l  -7315 -864 l  -7565 -864 l  pc
-7047 -1045 m  -7047 -795 l  -6797 -795 l  -6797 -1045 l  -7047 -1045 l 
p ef
-7047 -1045 m  -7047 -795 l  -6797 -795 l  -6797 -1045 l  -7047 -1045 l 
pc
-6530 -1023 m  -6530 -773 l  -6280 -773 l  -6280 -1023 l  -6530 -1023 l 
p ef
-6530 -1023 m  -6530 -773 l  -6280 -773 l  -6280 -1023 l  -6530 -1023 l 
pc
-6012 -799 m  -6012 -549 l  -5762 -549 l  -5762 -799 l  -6012 -799 l  p ef
-6012 -799 m  -6012 -549 l  -5762 -549 l  -5762 -799 l  -6012 -799 l  pc
-5495 -897 m  -5495 -647 l  -5245 -647 l  -5245 -897 l  -5495 -897 l  p ef
-5495 -897 m  -5495 -647 l  -5245 -647 l  -5245 -897 l  -5495 -897 l  pc
-4977 -696 m  -4977 -446 l  -4727 -446 l  -4727 -696 l  -4977 -696 l  p ef
-4977 -696 m  -4977 -446 l  -4727 -446 l  -4727 -696 l  -4977 -696 l  pc
-4460 -788 m  -4460 -538 l  -4210 -538 l  -4210 -788 l  -4460 -788 l  p ef
-4460 -788 m  -4460 -538 l  -4210 -538 l  -4210 -788 l  -4460 -788 l  pc
-3942 -863 m  -3942 -613 l  -3692 -613 l  -3692 -863 l  -3942 -863 l  p ef
-3942 -863 m  -3942 -613 l  -3692 -613 l  -3692 -863 l  -3942 -863 l  pc
-3425 -744 m  -3425 -494 l  -3175 -494 l  -3175 -744 l  -3425 -744 l  p ef
-3425 -744 m  -3425 -494 l  -3175 -494 l  -3175 -744 l  -3425 -744 l  pc
-2907 -912 m  -2907 -662 l  -2657 -662 l  -2657 -912 l  -2907 -912 l  p ef
-2907 -912 m  -2907 -662 l  -2657 -662 l  -2657 -912 l  -2907 -912 l  pc
-2390 -864 m  -2390 -614 l  -2140 -614 l  -2140 -864 l  -2390 -864 l  p ef
-2390 -864 m  -2390 -614 l  -2140 -614 l  -2140 -864 l  -2390 -864 l  pc
-1872 -1045 m  -1872 -795 l  -1622 -795 l  -1622 -1045 l  -1872 -1045 l 
p ef
-1872 -1045 m  -1872 -795 l  -1622 -795 l  -1622 -1045 l  -1872 -1045 l 
pc
-1355 -1023 m  -1355 -773 l  -1105 -773 l  -1105 -1023 l  -1355 -1023 l 
p ef
-1355 -1023 m  -1355 -773 l  -1105 -773 l  -1105 -1023 l  -1355 -1023 l 
pc
-837 -799 m  -837 -549 l  -587 -549 l  -587 -799 l  -837 -799 l  p ef
-837 -799 m  -837 -549 l  -587 -549 l  -587 -799 l  -837 -799 l  pc
-320 -897 m  -320 -647 l  -70 -647 l  -70 -897 l  -320 -897 l  p ef
-320 -897 m  -320 -647 l  -70 -647 l  -70 -897 l  -320 -897 l  pc
197 -696 m  197 -446 l  447 -446 l  447 -696 l  197 -696 l  p ef
197 -696 m  197 -446 l  447 -446 l  447 -696 l  197 -696 l  pc
714 -788 m  714 -538 l  964 -538 l  964 -788 l  714 -788 l  p ef
714 -788 m  714 -538 l  964 -538 l  964 -788 l  714 -788 l  pc
1232 -863 m  1232 -613 l  1482 -613 l  1482 -863 l  1232 -863 l  p ef
1232 -863 m  1232 -613 l  1482 -613 l  1482 -863 l  1232 -863 l  pc
1749 -744 m  1749 -494 l  1999 -494 l  1999 -744 l  1749 -744 l  p ef
1749 -744 m  1749 -494 l  1999 -494 l  1999 -744 l  1749 -744 l  pc
2267 -912 m  2267 -662 l  2517 -662 l  2517 -912 l  2267 -912 l  p ef
2267 -912 m  2267 -662 l  2517 -662 l  2517 -912 l  2267 -912 l  pc
2784 -864 m  2784 -614 l  3034 -614 l  3034 -864 l  2784 -864 l  p ef
2784 -864 m  2784 -614 l  3034 -614 l  3034 -864 l  2784 -864 l  pc
3302 -1045 m  3302 -795 l  3552 -795 l  3552 -1045 l  3302 -1045 l  p ef
3302 -1045 m  3302 -795 l  3552 -795 l  3552 -1045 l  3302 -1045 l  pc
3819 -1023 m  3819 -773 l  4069 -773 l  4069 -1023 l  3819 -1023 l  p ef
3819 -1023 m  3819 -773 l  4069 -773 l  4069 -1023 l  3819 -1023 l  pc
4337 -799 m  4337 -549 l  4587 -549 l  4587 -799 l  4337 -799 l  p ef
4337 -799 m  4337 -549 l  4587 -549 l  4587 -799 l  4337 -799 l  pc
4854 -897 m  4854 -647 l  5104 -647 l  5104 -897 l  4854 -897 l  p ef
4854 -897 m  4854 -647 l  5104 -647 l  5104 -897 l  4854 -897 l  pc
5372 -696 m  5372 -446 l  5622 -446 l  5622 -696 l  5372 -696 l  p ef
5372 -696 m  5372 -446 l  5622 -446 l  5622 -696 l  5372 -696 l  pc
5889 -788 m  5889 -538 l  6139 -538 l  6139 -788 l  5889 -788 l  p ef
5889 -788 m  5889 -538 l  6139 -538 l  6139 -788 l  5889 -788 l  pc
6407 -863 m  6407 -613 l  6657 -613 l  6657 -863 l  6407 -863 l  p ef
6407 -863 m  6407 -613 l  6657 -613 l  6657 -863 l  6407 -863 l  pc
79.99611 lw 1.000 0.828 0.128 c -8474 351 m  -8449 290 l  -8423 229 l 
-8397 169 l  -8371 110 l  -8345 51 l  -8319 -5 l  -8293 -60 l  -8268 -113 l 
-8242 -165 l  -8216 -214 l  -8190 -260 l  -8164 -304 l  -8138 -344 l  -8112 -381 l 
-8086 -414 l  -8061 -444 l  -8035 -469 l  -8009 -489 l  -7983 -505 l  -7957 -516 l 
-7931 -522 l  -7905 -523 l  -7879 -519 l  -7854 -512 l  -7828 -501 l  -7802 -487 l 
-7776 -471 l  -7750 -453 l  -7724 -432 l  -7698 -411 l  -7672 -389 l  -7647 -367 l 
-7621 -345 l  -7595 -324 l  -7569 -303 l  -7543 -285 l  -7517 -268 l  -7491 -254 l 
-7465 -243 l  -7440 -235 l  -7414 -230 l  -7388 -230 l  -7362 -233 l  -7336 -238 l 
-7310 -247 l  -7284 -258 l  -7258 -271 l  -7233 -287 l  -7207 -304 l  -7181 -323 l 
-7155 -343 l  -7129 -364 l  -7103 -386 l  -7077 -409 l  -7051 -431 l  -7026 -454 l 
-7000 -476 l  -6974 -498 l  -6948 -519 l  -6922 -540 l  -6896 -558 l  -6870 -576 l 
-6844 -592 l  -6819 -607 l  -6793 -621 l  -6767 -633 l  -6741 -643 l  -6715 -652 l 
-6689 -659 l  -6663 -665 l  -6637 -669 l  -6612 -672 l  -6586 -672 l  -6560 -671 l 
-6534 -668 l  -6508 -664 l  -6482 -657 l  -6456 -649 l  -6430 -638 l  -6405 -626 l 
-6379 -611 l  -6353 -595 l  -6327 -577 l  -6301 -558 l  -6275 -537 l  -6249 -516 l 
-6223 -495 l  -6198 -472 l  -6172 -450 l  -6146 -428 l  -6120 -406 l  -6094 -385 l 
-6068 -364 l  -6042 -345 l  -6016 -327 l  -5991 -310 l  -5965 -295 l  -5939 -282 l 
-5913 -271 l  -5887 -263 l  -5861 -257 l  -5835 -254 l  -5809 -253 l  -5784 -254 l 
-5758 -257 l  -5732 -261 l  -5706 -267 l  -5680 -274 l  -5654 -282 l  -5628 -290 l 
-5602 -300 l  -5577 -309 l  -5551 -319 l  -5525 -328 l  -5499 -337 l  -5473 -345 l 
-5447 -353 l  -5421 -359 l  -5395 -365 l  -5370 -368 l  -5344 -371 l  -5318 -371 l 
-5292 -370 l  -5266 -368 l  -5240 -364 l  -5214 -360 l  -5188 -354 l  -5163 -347 l 
-5137 -339 l  -5111 -330 l  -5085 -321 l  -5059 -311 l  -5033 -301 l  -5007 -290 l 
-4981 -278 l  -4956 -267 l  -4930 -255 l  -4904 -244 l  -4878 -232 l  -4852 -221 l 
-4826 -209 l  -4800 -198 l  -4774 -188 l  -4749 -178 l  -4723 -168 l  -4697 -160 l 
-4671 -152 l  -4645 -144 l  -4619 -138 l  -4593 -132 l  -4568 -128 l  -4542 -124 l 
-4516 -122 l  -4490 -121 l  -4464 -122 l  -4438 -124 l  -4412 -127 l  -4386 -132 l 
-4361 -138 l  -4335 -147 l  -4309 -157 l  -4283 -168 l  -4257 -181 l  -4231 -194 l 
-4205 -208 l  -4179 -222 l  -4154 -236 l  -4128 -249 l  -4102 -261 l  -4076 -271 l 
-4050 -280 l  -4024 -288 l  -3998 -292 l  -3972 -294 l  -3947 -293 l  -3921 -289 l 
-3895 -281 l  -3869 -269 l  -3843 -252 l  -3817 -231 l  -3791 -205 l  -3765 -174 l 
-3740 -140 l  -3714 -102 l  -3688 -63 l  -3662 -21 l  -3636 20 l  -3610 63 l 
-3584 106 l  -3558 147 l  -3533 186 l  -3507 224 l  -3481 258 l  -3455 288 l 
-3429 314 l  -3403 334 l  -3377 349 l  -3351 357 l  -3326 358 l  -3300 351 l 
-3274 335 l  -3248 312 l  -3222 282 l  -3196 246 l  -3170 204 l  -3144 157 l 
-3119 107 l  -3093 54 l  -3067 -1 l  -3041 -56 l  -3015 -113 l  -2989 -170 l 
-2963 -226 l  -2937 -279 l  -2912 -330 l  -2886 -378 l  -2860 -421 l  -2834 -459 l 
-2808 -491 l  -2782 -516 l  -2756 -534 l  -2730 -545 l  -2705 -550 l  -2679 -548 l 
-2653 -542 l  -2627 -531 l  -2601 -516 l  -2575 -498 l  -2549 -477 l  -2523 -453 l 
-2498 -429 l  -2472 -403 l  -2446 -377 l  -2420 -351 l  -2394 -326 l  -2368 -302 l 
-2342 -281 l  -2316 -262 l  -2291 -246 l  -2265 -235 l  -2239 -227 l  -2213 -224 l 
-2187 -224 l  -2161 -229 l  -2135 -236 l  -2109 -246 l  -2084 -259 l  -2058 -275 l 
-2032 -292 l  -2006 -312 l  -1980 -333 l  -1954 -355 l  -1928 -378 l  -1902 -401 l 
-1877 -425 l  -1851 -449 l  -1825 -473 l  -1799 -496 l  -1773 -518 l  -1747 -540 l 
-1721 -559 l  -1695 -578 l  -1670 -595 l  -1644 -610 l  -1618 -624 l  -1592 -636 l 
-1566 -646 l  -1540 -655 l  -1514 -663 l  -1488 -668 l  -1463 -672 l  -1437 -674 l 
-1411 -675 l  -1385 -673 l  -1359 -670 l  -1333 -665 l  -1307 -658 l  -1281 -649 l 
-1256 -638 l  -1230 -626 l  -1204 -611 l  -1178 -594 l  -1152 -576 l  -1126 -557 l 
-1100 -537 l  -1074 -515 l  -1049 -494 l  -1023 -472 l  -997 -449 l  -971 -427 l 
-945 -405 l  -919 -384 l  -893 -364 l  -868 -344 l  -842 -326 l  -816 -310 l 
-790 -295 l  -764 -282 l  -738 -271 l  -712 -263 l  -686 -257 l  -661 -254 l 
-635 -253 l  -609 -254 l  -583 -257 l  -557 -261 l  -531 -267 l  -505 -274 l 
-479 -282 l  -454 -291 l  -428 -300 l  -402 -309 l  -376 -319 l  -350 -328 l 
-324 -337 l  -298 -345 l  -272 -353 l  -247 -359 l  -221 -365 l  -195 -368 l 
-169 -371 l  -143 -371 l  -117 -370 l  -91 -368 l  -65 -364 l  -40 -360 l 
-14 -354 l  11 -347 l  37 -339 l  63 -330 l  89 -321 l  115 -311 l  141 -301 l 
166 -290 l  192 -278 l  218 -267 l  244 -255 l  270 -244 l  296 -232 l 
322 -221 l  348 -209 l  373 -198 l  399 -188 l  425 -178 l  451 -168 l 
477 -160 l  503 -152 l  529 -144 l  555 -138 l  580 -132 l  606 -128 l 
632 -124 l  658 -122 l  684 -121 l  710 -122 l  736 -124 l  762 -127 l 
787 -132 l  813 -138 l  839 -147 l  865 -157 l  891 -168 l  917 -181 l 
943 -194 l  969 -208 l  994 -222 l  1020 -236 l  1046 -249 l  1072 -261 l 
1098 -271 l  1124 -280 l  1150 -288 l  1176 -292 l  1201 -294 l  1227 -293 l 
1253 -289 l  1279 -281 l  1305 -269 l  1331 -252 l  1357 -231 l  1383 -205 l 
1408 -174 l  1434 -140 l  1460 -102 l  1486 -63 l  1512 -21 l  1538 20 l 
1564 63 l  1590 106 l  1615 147 l  1641 186 l  1667 224 l  1693 258 l 
1719 288 l  1745 314 l  1771 334 l  1797 349 l  1822 357 l  1848 358 l 
1874 351 l  1900 335 l  1926 312 l  1952 282 l  1978 246 l  2004 204 l 
2029 157 l  2055 107 l  2081 54 l  2107 -1 l  2133 -56 l  2159 -113 l 
2185 -170 l  2211 -226 l  2236 -279 l  2262 -330 l  2288 -378 l  2314 -421 l 
2340 -459 l  2366 -491 l  2392 -516 l  2418 -534 l  2443 -545 l  2469 -550 l 
2495 -548 l  2521 -542 l  2547 -531 l  2573 -516 l  2599 -498 l  2625 -477 l 
2650 -453 l  2676 -429 l  2702 -403 l  2728 -377 l  2754 -351 l  2780 -326 l 
2806 -302 l  2831 -281 l  2857 -262 l  2883 -246 l  2909 -235 l  2935 -227 l 
2961 -224 l  2987 -224 l  3013 -229 l  3038 -236 l  3064 -246 l  3090 -259 l 
3116 -275 l  3142 -292 l  3168 -312 l  3194 -333 l  3220 -355 l  3245 -378 l 
3271 -401 l  3297 -425 l  3323 -449 l  3349 -473 l  3375 -496 l  3401 -518 l 
3427 -540 l  3452 -559 l  3478 -578 l  3504 -595 l  3530 -610 l  3556 -624 l 
3582 -636 l  3608 -647 l  3634 -655 l  3659 -663 l  3685 -668 l  3711 -672 l 
3737 -674 l  3763 -675 l  3789 -673 l  3815 -670 l  3841 -665 l  3866 -658 l 
3892 -649 l  3918 -638 l  3944 -626 l  3970 -611 l  3996 -594 l  4022 -576 l 
4048 -557 l  4073 -536 l  4099 -515 l  4125 -493 l  4151 -471 l  4177 -449 l 
4203 -427 l  4229 -405 l  4255 -384 l  4280 -363 l  4306 -344 l  4332 -326 l 
4358 -309 l  4384 -294 l  4410 -281 l  4436 -271 l  4462 -263 l  4487 -257 l 
4513 -254 l  4539 -254 l  4565 -255 l  4591 -258 l  4617 -263 l  4643 -269 l 
4669 -276 l  4694 -284 l  4720 -292 l  4746 -302 l  4772 -311 l  4798 -321 l 
4824 -330 l  4850 -339 l  4876 -347 l  4901 -354 l  4927 -360 l  4953 -365 l 
4979 -368 l  5005 -370 l  5031 -370 l  5057 -368 l  5083 -365 l  5108 -361 l 
5134 -355 l  5160 -349 l  5186 -341 l  5212 -333 l  5238 -324 l  5264 -314 l 
5290 -304 l  5315 -293 l  5341 -283 l  5367 -272 l  5393 -261 l  5419 -250 l 
5445 -240 l  5471 -230 l  5497 -221 l  5522 -212 l  5548 -203 l  5574 -196 l 
5600 -188 l  5626 -182 l  5652 -176 l  5678 -170 l  5704 -165 l  5729 -161 l 
5755 -157 l  5781 -154 l  5807 -151 l  5833 -149 l  5859 -147 l  5885 -146 l 
5911 -145 l  5936 -145 l  5962 -145 l  5988 -146 l  6014 -147 l  6040 -148 l 
6066 -150 l  6092 -152 l  6118 -155 l  6143 -158 l  6169 -162 l  6195 -165 l 
6221 -169 l  6247 -173 l  6273 -178 l  6299 -183 l  6325 -187 l  6350 -193 l 
6376 -198 l  6402 -203 l  6428 -209 l  6454 -214 l  6480 -220 l  6506 -225 l 
6532 -231 l  ps
-8599 226 m  -8474 476 l  -8349 226 l  -8599 226 l  p ef
0 lw -8599 226 m  -8474 476 l  -8349 226 l  -8599 226 l  pc
-8082 -641 m  -7957 -391 l  -7832 -641 l  -8082 -641 l  p ef
-8082 -641 m  -7957 -391 l  -7832 -641 l  -8082 -641 l  pc
-7565 -360 m  -7440 -110 l  -7315 -360 l  -7565 -360 l  p ef
-7565 -360 m  -7440 -110 l  -7315 -360 l  -7565 -360 l  pc
-7047 -665 m  -6922 -415 l  -6797 -665 l  -7047 -665 l  p ef
-7047 -665 m  -6922 -415 l  -6797 -665 l  -7047 -665 l  pc
-6530 -751 m  -6405 -501 l  -6280 -751 l  -6530 -751 l  p ef
-6530 -751 m  -6405 -501 l  -6280 -751 l  -6530 -751 l  pc
-6012 -388 m  -5887 -138 l  -5762 -388 l  -6012 -388 l  p ef
-6012 -388 m  -5887 -138 l  -5762 -388 l  -6012 -388 l  pc
-5495 -493 m  -5370 -243 l  -5245 -493 l  -5495 -493 l  p ef
-5495 -493 m  -5370 -243 l  -5245 -493 l  -5495 -493 l  pc
-4977 -346 m  -4852 -96 l  -4727 -346 l  -4977 -346 l  p ef
-4977 -346 m  -4852 -96 l  -4727 -346 l  -4977 -346 l  pc
-4460 -272 m  -4335 -22 l  -4210 -272 l  -4460 -272 l  p ef
-4460 -272 m  -4335 -22 l  -4210 -272 l  -4460 -272 l  pc
-3942 -356 m  -3817 -106 l  -3692 -356 l  -3942 -356 l  p ef
-3942 -356 m  -3817 -106 l  -3692 -356 l  -3942 -356 l  pc
-3425 226 m  -3300 476 l  -3175 226 l  -3425 226 l  p ef
-3425 226 m  -3300 476 l  -3175 226 l  -3425 226 l  pc
-2907 -641 m  -2782 -391 l  -2657 -641 l  -2907 -641 l  p ef
-2907 -641 m  -2782 -391 l  -2657 -641 l  -2907 -641 l  pc
-2390 -360 m  -2265 -110 l  -2140 -360 l  -2390 -360 l  p ef
-2390 -360 m  -2265 -110 l  -2140 -360 l  -2390 -360 l  pc
-1872 -665 m  -1747 -415 l  -1622 -665 l  -1872 -665 l  p ef
-1872 -665 m  -1747 -415 l  -1622 -665 l  -1872 -665 l  pc
-1355 -751 m  -1230 -501 l  -1105 -751 l  -1355 -751 l  p ef
-1355 -751 m  -1230 -501 l  -1105 -751 l  -1355 -751 l  pc
-837 -388 m  -712 -138 l  -587 -388 l  -837 -388 l  p ef
-837 -388 m  -712 -138 l  -587 -388 l  -837 -388 l  pc
-320 -493 m  -195 -243 l  -70 -493 l  -320 -493 l  p ef
-320 -493 m  -195 -243 l  -70 -493 l  -320 -493 l  pc
197 -346 m  322 -96 l  447 -346 l  197 -346 l  p ef
197 -346 m  322 -96 l  447 -346 l  197 -346 l  pc
714 -272 m  839 -22 l  964 -272 l  714 -272 l  p ef
714 -272 m  839 -22 l  964 -272 l  714 -272 l  pc
1232 -356 m  1357 -106 l  1482 -356 l  1232 -356 l  p ef
1232 -356 m  1357 -106 l  1482 -356 l  1232 -356 l  pc
1749 226 m  1874 476 l  1999 226 l  1749 226 l  p ef
1749 226 m  1874 476 l  1999 226 l  1749 226 l  pc
2267 -641 m  2392 -391 l  2517 -641 l  2267 -641 l  p ef
2267 -641 m  2392 -391 l  2517 -641 l  2267 -641 l  pc
2784 -360 m  2909 -110 l  3034 -360 l  2784 -360 l  p ef
2784 -360 m  2909 -110 l  3034 -360 l  2784 -360 l  pc
3302 -665 m  3427 -415 l  3552 -665 l  3302 -665 l  p ef
3302 -665 m  3427 -415 l  3552 -665 l  3302 -665 l  pc
3819 -751 m  3944 -501 l  4069 -751 l  3819 -751 l  p ef
3819 -751 m  3944 -501 l  4069 -751 l  3819 -751 l  pc
4337 -388 m  4462 -138 l  4587 -388 l  4337 -388 l  p ef
4337 -388 m  4462 -138 l  4587 -388 l  4337 -388 l  pc
4854 -493 m  4979 -243 l  5104 -493 l  4854 -493 l  p ef
4854 -493 m  4979 -243 l  5104 -493 l  4854 -493 l  pc
5372 -346 m  5497 -96 l  5622 -346 l  5372 -346 l  p ef
5372 -346 m  5497 -96 l  5622 -346 l  5372 -346 l  pc
5889 -272 m  6014 -22 l  6139 -272 l  5889 -272 l  p ef
5889 -272 m  6014 -22 l  6139 -272 l  5889 -272 l  pc
6407 -356 m  6532 -106 l  6657 -356 l  6407 -356 l  p ef
6407 -356 m  6532 -106 l  6657 -356 l  6407 -356 l  pc
79.99611 lw 0.343 0.617 0.113 c -8474 366 m  -8449 350 l  -8423 333 l 
-8397 317 l  -8371 301 l  -8345 286 l  -8319 271 l  -8293 257 l  -8268 243 l 
-8242 231 l  -8216 220 l  -8190 209 l  -8164 200 l  -8138 193 l  -8112 187 l 
-8086 183 l  -8061 180 l  -8035 179 l  -8009 181 l  -7983 184 l  -7957 190 l 
-7931 198 l  -7905 207 l  -7879 219 l  -7854 232 l  -7828 246 l  -7802 260 l 
-7776 275 l  -7750 289 l  -7724 303 l  -7698 316 l  -7672 329 l  -7647 339 l 
-7621 348 l  -7595 355 l  -7569 359 l  -7543 360 l  -7517 358 l  -7491 352 l 
-7465 342 l  -7440 329 l  -7414 310 l  -7388 288 l  -7362 262 l  -7336 233 l 
-7310 201 l  -7284 168 l  -7258 133 l  -7233 98 l  -7207 62 l  -7181 27 l 
-7155 -7 l  -7129 -40 l  -7103 -71 l  -7077 -99 l  -7051 -125 l  -7026 -147 l 
-7000 -165 l  -6974 -178 l  -6948 -186 l  -6922 -188 l  -6896 -184 l  -6870 -174 l 
-6844 -159 l  -6819 -139 l  -6793 -115 l  -6767 -88 l  -6741 -57 l  -6715 -24 l 
-6689 10 l  -6663 47 l  -6637 84 l  -6612 121 l  -6586 159 l  -6560 195 l 
-6534 230 l  -6508 264 l  -6482 294 l  -6456 322 l  -6430 346 l  -6405 366 l 
-6379 382 l  -6353 393 l  -6327 400 l  -6301 404 l  -6275 403 l  -6249 400 l 
-6223 394 l  -6198 384 l  -6172 373 l  -6146 360 l  -6120 344 l  -6094 327 l 
-6068 309 l  -6042 290 l  -6016 271 l  -5991 251 l  -5965 231 l  -5939 211 l 
-5913 191 l  -5887 173 l  -5861 155 l  -5835 139 l  -5809 123 l  -5784 109 l 
-5758 95 l  -5732 83 l  -5706 71 l  -5680 61 l  -5654 51 l  -5628 43 l 
-5602 35 l  -5577 28 l  -5551 22 l  -5525 17 l  -5499 13 l  -5473 10 l 
-5447 7 l  -5421 6 l  -5395 5 l  -5370 5 l  -5344 5 l  -5318 7 l  -5292 9 l 
-5266 11 l  -5240 15 l  -5214 18 l  -5188 22 l  -5163 27 l  -5137 32 l 
-5111 37 l  -5085 42 l  -5059 47 l  -5033 53 l  -5007 58 l  -4981 64 l 
-4956 69 l  -4930 75 l  -4904 80 l  -4878 84 l  -4852 89 l  -4826 93 l 
-4800 96 l  -4774 100 l  -4749 102 l  -4723 105 l  -4697 107 l  -4671 108 l 
-4645 109 l  -4619 109 l  -4593 109 l  -4568 108 l  -4542 107 l  -4516 105 l 
-4490 102 l  -4464 99 l  -4438 95 l  -4412 90 l  -4386 85 l  -4361 79 l 
-4335 72 l  -4309 64 l  -4283 56 l  -4257 48 l  -4231 39 l  -4205 30 l 
-4179 21 l  -4154 13 l  -4128 5 l  -4102 -2 l  -4076 -9 l  -4050 -14 l 
-4024 -19 l  -3998 -22 l  -3972 -24 l  -3947 -24 l  -3921 -23 l  -3895 -19 l 
-3869 -13 l  -3843 -5 l  -3817 5 l  -3791 18 l  -3765 33 l  -3740 51 l 
-3714 70 l  -3688 91 l  -3662 113 l  -3636 136 l  -3610 159 l  -3584 183 l 
-3558 206 l  -3533 229 l  -3507 252 l  -3481 273 l  -3455 293 l  -3429 311 l 
-3403 327 l  -3377 341 l  -3351 353 l  -3326 361 l  -3300 366 l  -3274 368 l 
-3248 367 l  -3222 363 l  -3196 356 l  -3170 348 l  -3144 337 l  -3119 325 l 
-3093 312 l  -3067 298 l  -3041 284 l  -3015 269 l  -2989 255 l  -2963 241 l 
-2937 228 l  -2912 217 l  -2886 207 l  -2860 199 l  -2834 193 l  -2808 190 l 
-2782 190 l  -2756 193 l  -2730 198 l  -2705 207 l  -2679 217 l  -2653 229 l 
-2627 242 l  -2601 256 l  -2575 271 l  -2549 285 l  -2523 299 l  -2498 313 l 
-2472 325 l  -2446 335 l  -2420 343 l  -2394 349 l  -2368 353 l  -2342 352 l 
-2316 349 l  -2291 341 l  -2265 329 l  -2239 312 l  -2213 290 l  -2187 265 l 
-2161 237 l  -2135 206 l  -2109 173 l  -2084 138 l  -2058 103 l  -2032 67 l 
-2006 32 l  -1980 -2 l  -1954 -36 l  -1928 -67 l  -1902 -96 l  -1877 -123 l 
-1851 -145 l  -1825 -163 l  -1799 -177 l  -1773 -185 l  -1747 -188 l  -1721 -184 l 
-1695 -175 l  -1670 -160 l  -1644 -140 l  -1618 -116 l  -1592 -89 l  -1566 -58 l 
-1540 -25 l  -1514 9 l  -1488 45 l  -1463 83 l  -1437 120 l  -1411 158 l 
-1385 194 l  -1359 230 l  -1333 263 l  -1307 294 l  -1281 322 l  -1256 346 l 
-1230 366 l  -1204 382 l  -1178 393 l  -1152 401 l  -1126 404 l  -1100 404 l 
-1074 400 l  -1049 394 l  -1023 385 l  -997 373 l  -971 360 l  -945 345 l 
-919 328 l  -893 310 l  -868 291 l  -842 271 l  -816 251 l  -790 231 l 
-764 211 l  -738 192 l  -712 173 l  -686 155 l  -661 139 l  -635 123 l 
-609 109 l  -583 95 l  -557 83 l  -531 71 l  -505 61 l  -479 51 l  -454 43 l 
-428 35 l  -402 28 l  -376 22 l  -350 17 l  -324 13 l  -298 10 l  -272 7 l 
-247 6 l  -221 5 l  -195 5 l  -169 5 l  -143 7 l  -117 9 l  -91 11 l  -65 15 l 
-40 18 l  -14 22 l  11 27 l  37 32 l  63 37 l  89 42 l  115 48 l  141 53 l 
166 58 l  192 64 l  218 69 l  244 75 l  270 80 l  296 84 l  322 89 l  348 93 l 
373 96 l  399 100 l  425 102 l  451 105 l  477 107 l  503 108 l  529 109 l 
555 109 l  580 109 l  606 108 l  632 107 l  658 105 l  684 102 l  710 99 l 
736 95 l  762 90 l  787 85 l  813 79 l  839 72 l  865 64 l  891 56 l  917 48 l 
943 39 l  969 30 l  994 21 l  1020 13 l  1046 5 l  1072 -2 l  1098 -9 l 
1124 -14 l  1150 -19 l  1176 -22 l  1201 -24 l  1227 -24 l  1253 -23 l 
1279 -19 l  1305 -13 l  1331 -5 l  1357 5 l  1383 18 l  1408 33 l  1434 51 l 
1460 70 l  1486 91 l  1512 113 l  1538 136 l  1564 159 l  1590 183 l  1615 206 l 
1641 229 l  1667 252 l  1693 273 l  1719 293 l  1745 311 l  1771 327 l 
1797 341 l  1822 353 l  1848 361 l  1874 366 l  1900 368 l  1926 367 l 
1952 363 l  1978 356 l  2004 348 l  2029 337 l  2055 325 l  2081 312 l 
2107 298 l  2133 284 l  2159 269 l  2185 255 l  2211 241 l  2236 229 l 
2262 217 l  2288 207 l  2314 199 l  2340 193 l  2366 190 l  2392 190 l 
2418 193 l  2443 198 l  2469 207 l  2495 217 l  2521 229 l  2547 242 l 
2573 256 l  2599 271 l  2625 285 l  2650 299 l  2676 313 l  2702 325 l 
2728 335 l  2754 343 l  2780 349 l  2806 353 l  2831 352 l  2857 349 l 
2883 341 l  2909 329 l  2935 312 l  2961 290 l  2987 265 l  3013 237 l 
3038 206 l  3064 173 l  3090 138 l  3116 103 l  3142 67 l  3168 32 l  3194 -2 l 
3220 -36 l  3245 -67 l  3271 -96 l  3297 -123 l  3323 -145 l  3349 -163 l 
3375 -177 l  3401 -185 l  3427 -188 l  3452 -184 l  3478 -175 l  3504 -160 l 
3530 -140 l  3556 -116 l  3582 -89 l  3608 -58 l  3634 -25 l  3659 9 l 
3685 45 l  3711 83 l  3737 120 l  3763 158 l  3789 194 l  3815 230 l  3841 263 l 
3866 294 l  3892 322 l  3918 346 l  3944 366 l  3970 382 l  3996 393 l 
4022 401 l  4048 404 l  4073 404 l  4099 400 l  4125 394 l  4151 385 l 
4177 374 l  4203 360 l  4229 345 l  4255 328 l  4280 310 l  4306 291 l 
4332 271 l  4358 251 l  4384 231 l  4410 211 l  4436 192 l  4462 173 l 
4487 155 l  4513 139 l  4539 123 l  4565 108 l  4591 95 l  4617 82 l  4643 71 l 
4669 60 l  4694 50 l  4720 42 l  4746 34 l  4772 27 l  4798 21 l  4824 16 l 
4850 12 l  4876 9 l  4901 7 l  4927 5 l  4953 4 l  4979 5 l  5005 6 l 
5031 7 l  5057 10 l  5083 13 l  5108 17 l  5134 21 l  5160 25 l  5186 30 l 
5212 35 l  5238 40 l  5264 46 l  5290 51 l  5315 57 l  5341 62 l  5367 67 l 
5393 72 l  5419 77 l  5445 81 l  5471 85 l  5497 89 l  5522 92 l  5548 94 l 
5574 96 l  5600 97 l  5626 98 l  5652 98 l  5678 98 l  5704 98 l  5729 97 l 
5755 96 l  5781 94 l  5807 93 l  5833 91 l  5859 89 l  5885 86 l  5911 84 l 
5936 81 l  5962 78 l  5988 75 l  6014 72 l  6040 69 l  6066 66 l  6092 63 l 
6118 59 l  6143 56 l  6169 53 l  6195 50 l  6221 46 l  6247 43 l  6273 39 l 
6299 36 l  6325 33 l  6350 29 l  6376 26 l  6402 22 l  6428 19 l  6454 15 l 
6480 12 l  6506 8 l  6532 5 l  ps
-8599 491 m  -8349 491 l  -8474 241 l  -8599 491 l  p ef
0 lw -8599 491 m  -8349 491 l  -8474 241 l  -8599 491 l  pc
-8082 315 m  -7832 315 l  -7957 65 l  -8082 315 l  p ef
-8082 315 m  -7832 315 l  -7957 65 l  -8082 315 l  pc
-7565 454 m  -7315 454 l  -7440 204 l  -7565 454 l  p ef
-7565 454 m  -7315 454 l  -7440 204 l  -7565 454 l  pc
-7047 -63 m  -6797 -63 l  -6922 -313 l  -7047 -63 l  p ef
-7047 -63 m  -6797 -63 l  -6922 -313 l  -7047 -63 l  pc
-6530 491 m  -6280 491 l  -6405 241 l  -6530 491 l  p ef
-6530 491 m  -6280 491 l  -6405 241 l  -6530 491 l  pc
-6012 298 m  -5762 298 l  -5887 48 l  -6012 298 l  p ef
-6012 298 m  -5762 298 l  -5887 48 l  -6012 298 l  pc
-5495 130 m  -5245 130 l  -5370 -119 l  -5495 130 l  p ef
-5495 130 m  -5245 130 l  -5370 -119 l  -5495 130 l  pc
-4977 214 m  -4727 214 l  -4852 -35 l  -4977 214 l  p ef
-4977 214 m  -4727 214 l  -4852 -35 l  -4977 214 l  pc
-4460 197 m  -4210 197 l  -4335 -52 l  -4460 197 l  p ef
-4460 197 m  -4210 197 l  -4335 -52 l  -4460 197 l  pc
-3942 130 m  -3692 130 l  -3817 -119 l  -3942 130 l  p ef
-3942 130 m  -3692 130 l  -3817 -119 l  -3942 130 l  pc
-3425 491 m  -3175 491 l  -3300 241 l  -3425 491 l  p ef
-3425 491 m  -3175 491 l  -3300 241 l  -3425 491 l  pc
-2907 315 m  -2657 315 l  -2782 65 l  -2907 315 l  p ef
-2907 315 m  -2657 315 l  -2782 65 l  -2907 315 l  pc
-2390 454 m  -2140 454 l  -2265 204 l  -2390 454 l  p ef
-2390 454 m  -2140 454 l  -2265 204 l  -2390 454 l  pc
-1872 -63 m  -1622 -63 l  -1747 -313 l  -1872 -63 l  p ef
-1872 -63 m  -1622 -63 l  -1747 -313 l  -1872 -63 l  pc
-1355 491 m  -1105 491 l  -1230 241 l  -1355 491 l  p ef
-1355 491 m  -1105 491 l  -1230 241 l  -1355 491 l  pc
-837 298 m  -587 298 l  -712 48 l  -837 298 l  p ef
-837 298 m  -587 298 l  -712 48 l  -837 298 l  pc
-320 130 m  -70 130 l  -195 -119 l  -320 130 l  p ef
-320 130 m  -70 130 l  -195 -119 l  -320 130 l  pc
197 214 m  447 214 l  322 -35 l  197 214 l  p ef
197 214 m  447 214 l  322 -35 l  197 214 l  pc
714 197 m  964 197 l  839 -52 l  714 197 l  p ef
714 197 m  964 197 l  839 -52 l  714 197 l  pc
1232 130 m  1482 130 l  1357 -119 l  1232 130 l  p ef
1232 130 m  1482 130 l  1357 -119 l  1232 130 l  pc
1749 491 m  1999 491 l  1874 241 l  1749 491 l  p ef
1749 491 m  1999 491 l  1874 241 l  1749 491 l  pc
2267 315 m  2517 315 l  2392 65 l  2267 315 l  p ef
2267 315 m  2517 315 l  2392 65 l  2267 315 l  pc
2784 454 m  3034 454 l  2909 204 l  2784 454 l  p ef
2784 454 m  3034 454 l  2909 204 l  2784 454 l  pc
3302 -63 m  3552 -63 l  3427 -313 l  3302 -63 l  p ef
3302 -63 m  3552 -63 l  3427 -313 l  3302 -63 l  pc
3819 491 m  4069 491 l  3944 241 l  3819 491 l  p ef
3819 491 m  4069 491 l  3944 241 l  3819 491 l  pc
4337 298 m  4587 298 l  4462 48 l  4337 298 l  p ef
4337 298 m  4587 298 l  4462 48 l  4337 298 l  pc
4854 130 m  5104 130 l  4979 -119 l  4854 130 l  p ef
4854 130 m  5104 130 l  4979 -119 l  4854 130 l  pc
5372 214 m  5622 214 l  5497 -35 l  5372 214 l  p ef
5372 214 m  5622 214 l  5497 -35 l  5372 214 l  pc
5889 197 m  6139 197 l  6014 -52 l  5889 197 l  p ef
5889 197 m  6139 197 l  6014 -52 l  5889 197 l  pc
6407 130 m  6657 130 l  6532 -119 l  6407 130 l  p ef
6407 130 m  6657 130 l  6532 -119 l  6407 130 l  pc
79.99611 lw 0.496 0.003 0.132 c -8474 723 m  -8449 732 l  -8423 742 l  -8397 751 l 
-8371 761 l  -8345 771 l  -8319 782 l  -8293 794 l  -8268 806 l  -8242 820 l 
-8216 835 l  -8190 851 l  -8164 868 l  -8138 887 l  -8112 908 l  -8086 931 l 
-8061 955 l  -8035 982 l  -8009 1010 l  -7983 1042 l  -7957 1075 l  -7931 1111 l 
-7905 1149 l  -7879 1189 l  -7854 1229 l  -7828 1269 l  -7802 1310 l  -7776 1349 l 
-7750 1387 l  -7724 1422 l  -7698 1455 l  -7672 1485 l  -7647 1510 l  -7621 1531 l 
-7595 1548 l  -7569 1558 l  -7543 1562 l  -7517 1560 l  -7491 1550 l  -7465 1532 l 
-7440 1505 l  -7414 1469 l  -7388 1426 l  -7362 1374 l  -7336 1317 l  -7310 1254 l 
-7284 1186 l  -7258 1115 l  -7233 1041 l  -7207 965 l  -7181 888 l  -7155 811 l 
-7129 735 l  -7103 662 l  -7077 590 l  -7051 523 l  -7026 460 l  -7000 403 l 
-6974 352 l  -6948 309 l  -6922 274 l  -6896 248 l  -6870 231 l  -6844 221 l 
-6819 219 l  -6793 224 l  -6767 235 l  -6741 252 l  -6715 273 l  -6689 299 l 
-6663 328 l  -6637 360 l  -6612 395 l  -6586 431 l  -6560 469 l  -6534 507 l 
-6508 545 l  -6482 583 l  -6456 619 l  -6430 653 l  -6405 684 l  -6379 713 l 
-6353 738 l  -6327 761 l  -6301 780 l  -6275 797 l  -6249 812 l  -6223 824 l 
-6198 833 l  -6172 841 l  -6146 846 l  -6120 850 l  -6094 852 l  -6068 852 l 
-6042 850 l  -6016 847 l  -5991 843 l  -5965 838 l  -5939 831 l  -5913 824 l 
-5887 816 l  -5861 808 l  -5835 798 l  -5809 789 l  -5784 779 l  -5758 769 l 
-5732 758 l  -5706 748 l  -5680 737 l  -5654 727 l  -5628 717 l  -5602 708 l 
-5577 699 l  -5551 690 l  -5525 682 l  -5499 675 l  -5473 668 l  -5447 663 l 
-5421 658 l  -5395 655 l  -5370 653 l  -5344 652 l  -5318 653 l  -5292 654 l 
-5266 657 l  -5240 660 l  -5214 664 l  -5188 668 l  -5163 673 l  -5137 677 l 
-5111 683 l  -5085 687 l  -5059 692 l  -5033 697 l  -5007 701 l  -4981 704 l 
-4956 707 l  -4930 709 l  -4904 709 l  -4878 709 l  -4852 707 l  -4826 704 l 
-4800 700 l  -4774 694 l  -4749 688 l  -4723 680 l  -4697 671 l  -4671 661 l 
-4645 650 l  -4619 639 l  -4593 627 l  -4568 614 l  -4542 601 l  -4516 588 l 
-4490 574 l  -4464 560 l  -4438 546 l  -4412 532 l  -4386 518 l  -4361 504 l 
-4335 490 l  -4309 476 l  -4283 463 l  -4257 450 l  -4231 438 l  -4205 426 l 
-4179 415 l  -4154 405 l  -4128 396 l  -4102 388 l  -4076 380 l  -4050 374 l 
-4024 369 l  -3998 365 l  -3972 363 l  -3947 362 l  -3921 362 l  -3895 364 l 
-3869 368 l  -3843 374 l  -3817 381 l  -3791 390 l  -3765 401 l  -3740 414 l 
-3714 428 l  -3688 443 l  -3662 459 l  -3636 477 l  -3610 495 l  -3584 514 l 
-3558 534 l  -3533 553 l  -3507 574 l  -3481 594 l  -3455 614 l  -3429 634 l 
-3403 653 l  -3377 672 l  -3351 690 l  -3326 707 l  -3300 723 l  -3274 739 l 
-3248 753 l  -3222 766 l  -3196 779 l  -3170 792 l  -3144 804 l  -3119 816 l 
-3093 829 l  -3067 842 l  -3041 856 l  -3015 871 l  -2989 886 l  -2963 903 l 
-2937 922 l  -2912 942 l  -2886 964 l  -2860 988 l  -2834 1015 l  -2808 1043 l 
-2782 1075 l  -2756 1110 l  -2730 1146 l  -2705 1185 l  -2679 1224 l  -2653 1264 l 
-2627 1304 l  -2601 1343 l  -2575 1380 l  -2549 1416 l  -2523 1449 l  -2498 1479 l 
-2472 1505 l  -2446 1527 l  -2420 1544 l  -2394 1555 l  -2368 1560 l  -2342 1558 l 
-2316 1548 l  -2291 1531 l  -2265 1505 l  -2239 1470 l  -2213 1426 l  -2187 1375 l 
-2161 1318 l  -2135 1255 l  -2109 1188 l  -2084 1116 l  -2058 1042 l  -2032 966 l 
-2006 889 l  -1980 813 l  -1954 737 l  -1928 663 l  -1902 591 l  -1877 524 l 
-1851 461 l  -1825 404 l  -1799 353 l  -1773 309 l  -1747 274 l  -1721 248 l 
-1695 231 l  -1670 221 l  -1644 219 l  -1618 224 l  -1592 235 l  -1566 251 l 
-1540 273 l  -1514 298 l  -1488 327 l  -1463 360 l  -1437 395 l  -1411 431 l 
-1385 469 l  -1359 507 l  -1333 545 l  -1307 583 l  -1281 619 l  -1256 653 l 
-1230 684 l  -1204 713 l  -1178 738 l  -1152 761 l  -1126 780 l  -1100 797 l 
-1074 812 l  -1049 824 l  -1023 833 l  -997 841 l  -971 846 l  -945 850 l 
-919 852 l  -893 852 l  -868 850 l  -842 847 l  -816 843 l  -790 838 l 
-764 831 l  -738 824 l  -712 816 l  -686 808 l  -661 798 l  -635 789 l 
-609 779 l  -583 769 l  -557 758 l  -531 748 l  -505 737 l  -479 727 l 
-454 717 l  -428 708 l  -402 699 l  -376 690 l  -350 682 l  -324 675 l 
-298 668 l  -272 663 l  -247 658 l  -221 655 l  -195 653 l  -169 652 l 
-143 653 l  -117 654 l  -91 657 l  -65 660 l  -40 664 l  -14 668 l  11 673 l 
37 677 l  63 683 l  89 687 l  115 692 l  141 697 l  166 701 l  192 704 l 
218 707 l  244 709 l  270 709 l  296 709 l  322 707 l  348 704 l  373 700 l 
399 694 l  425 688 l  451 680 l  477 671 l  503 661 l  529 650 l  555 639 l 
580 627 l  606 614 l  632 601 l  658 588 l  684 574 l  710 560 l  736 546 l 
762 532 l  787 518 l  813 504 l  839 490 l  865 476 l  891 463 l  917 450 l 
943 438 l  969 426 l  994 415 l  1020 405 l  1046 396 l  1072 388 l  1098 380 l 
1124 374 l  1150 369 l  1176 365 l  1201 363 l  1227 362 l  1253 362 l 
1279 364 l  1305 368 l  1331 374 l  1357 381 l  1383 390 l  1408 401 l 
1434 414 l  1460 428 l  1486 443 l  1512 459 l  1538 477 l  1564 495 l 
1590 514 l  1615 534 l  1641 553 l  1667 574 l  1693 594 l  1719 614 l 
1745 634 l  1771 653 l  1797 672 l  1822 690 l  1848 707 l  1874 723 l 
1900 739 l  1926 753 l  1952 766 l  1978 779 l  2004 792 l  2029 804 l 
2055 816 l  2081 829 l  2107 842 l  2133 856 l  2159 871 l  2185 886 l 
2211 903 l  2236 922 l  2262 942 l  2288 964 l  2314 988 l  2340 1015 l 
2366 1043 l  2392 1075 l  2418 1110 l  2443 1146 l  2469 1185 l  2495 1224 l 
2521 1264 l  2547 1304 l  2573 1343 l  2599 1380 l  2625 1416 l  2650 1449 l 
2676 1479 l  2702 1505 l  2728 1527 l  2754 1544 l  2780 1555 l  2806 1560 l 
2831 1558 l  2857 1548 l  2883 1531 l  2909 1505 l  2935 1470 l  2961 1426 l 
2987 1375 l  3013 1318 l  3038 1255 l  3064 1188 l  3090 1116 l  3116 1042 l 
3142 966 l  3168 890 l  3194 813 l  3220 737 l  3245 663 l  3271 591 l 
3297 524 l  3323 461 l  3349 404 l  3375 353 l  3401 309 l  3427 274 l 
3452 248 l  3478 231 l  3504 221 l  3530 219 l  3556 224 l  3582 235 l 
3608 251 l  3634 273 l  3659 298 l  3685 327 l  3711 360 l  3737 394 l 
3763 431 l  3789 469 l  3815 507 l  3841 545 l  3866 583 l  3892 619 l 
3918 653 l  3944 684 l  3970 713 l  3996 738 l  4022 761 l  4048 781 l 
4073 797 l  4099 812 l  4125 824 l  4151 834 l  4177 841 l  4203 847 l 
4229 850 l  4255 852 l  4280 852 l  4306 850 l  4332 847 l  4358 843 l 
4384 838 l  4410 832 l  4436 824 l  4462 816 l  4487 808 l  4513 798 l 
4539 789 l  4565 779 l  4591 768 l  4617 758 l  4643 747 l  4669 737 l 
4694 727 l  4720 717 l  4746 707 l  4772 698 l  4798 689 l  4824 681 l 
4850 674 l  4876 668 l  4901 662 l  4927 658 l  4953 655 l  4979 653 l 
5005 652 l  5031 653 l  5057 655 l  5083 658 l  5108 661 l  5134 665 l 
5160 670 l  5186 675 l  5212 680 l  5238 685 l  5264 690 l  5290 695 l 
5315 699 l  5341 703 l  5367 707 l  5393 709 l  5419 710 l  5445 711 l 
5471 710 l  5497 707 l  5522 704 l  5548 698 l  5574 692 l  5600 684 l 
5626 675 l  5652 665 l  5678 654 l  5704 642 l  5729 630 l  5755 618 l 
5781 605 l  5807 591 l  5833 578 l  5859 564 l  5885 551 l  5911 538 l 
5936 525 l  5962 513 l  5988 501 l  6014 490 l  6040 479 l  6066 470 l 
6092 461 l  6118 453 l  6143 445 l  6169 438 l  6195 432 l  6221 426 l 
6247 420 l  6273 415 l  6299 411 l  6325 407 l  6350 403 l  6376 399 l 
6402 396 l  6428 392 l  6454 389 l  6480 386 l  6506 384 l  6532 381 l 
ps
-8599 598 m  -8599 848 l  -8349 723 l  -8599 598 l  p ef
0 lw -8599 598 m  -8599 848 l  -8349 723 l  -8599 598 l  pc
-8082 950 m  -8082 1200 l  -7832 1075 l  -8082 950 l  p ef
-8082 950 m  -8082 1200 l  -7832 1075 l  -8082 950 l  pc
-7565 1380 m  -7565 1630 l  -7315 1505 l  -7565 1380 l  p ef
-7565 1380 m  -7565 1630 l  -7315 1505 l  -7565 1380 l  pc
-7047 149 m  -7047 399 l  -6797 274 l  -7047 149 l  p ef
-7047 149 m  -7047 399 l  -6797 274 l  -7047 149 l  pc
-6530 559 m  -6530 809 l  -6280 684 l  -6530 559 l  p ef
-6530 559 m  -6530 809 l  -6280 684 l  -6530 559 l  pc
-6012 691 m  -6012 941 l  -5762 816 l  -6012 691 l  p ef
-6012 691 m  -6012 941 l  -5762 816 l  -6012 691 l  pc
-5495 528 m  -5495 778 l  -5245 653 l  -5495 528 l  p ef
-5495 528 m  -5495 778 l  -5245 653 l  -5495 528 l  pc
-4977 582 m  -4977 832 l  -4727 707 l  -4977 582 l  p ef
-4977 582 m  -4977 832 l  -4727 707 l  -4977 582 l  pc
-4460 365 m  -4460 615 l  -4210 490 l  -4460 365 l  p ef
-4460 365 m  -4460 615 l  -4210 490 l  -4460 365 l  pc
-3942 256 m  -3942 506 l  -3692 381 l  -3942 256 l  p ef
-3942 256 m  -3942 506 l  -3692 381 l  -3942 256 l  pc
-3425 598 m  -3425 848 l  -3175 723 l  -3425 598 l  p ef
-3425 598 m  -3425 848 l  -3175 723 l  -3425 598 l  pc
-2907 950 m  -2907 1200 l  -2657 1075 l  -2907 950 l  p ef
-2907 950 m  -2907 1200 l  -2657 1075 l  -2907 950 l  pc
-2390 1380 m  -2390 1630 l  -2140 1505 l  -2390 1380 l  p ef
-2390 1380 m  -2390 1630 l  -2140 1505 l  -2390 1380 l  pc
-1872 149 m  -1872 399 l  -1622 274 l  -1872 149 l  p ef
-1872 149 m  -1872 399 l  -1622 274 l  -1872 149 l  pc
-1355 559 m  -1355 809 l  -1105 684 l  -1355 559 l  p ef
-1355 559 m  -1355 809 l  -1105 684 l  -1355 559 l  pc
-837 691 m  -837 941 l  -587 816 l  -837 691 l  p ef
-837 691 m  -837 941 l  -587 816 l  -837 691 l  pc
-320 528 m  -320 778 l  -70 653 l  -320 528 l  p ef
-320 528 m  -320 778 l  -70 653 l  -320 528 l  pc
197 582 m  197 832 l  447 707 l  197 582 l  p ef
197 582 m  197 832 l  447 707 l  197 582 l  pc
714 365 m  714 615 l  964 490 l  714 365 l  p ef
714 365 m  714 615 l  964 490 l  714 365 l  pc
1232 256 m  1232 506 l  1482 381 l  1232 256 l  p ef
1232 256 m  1232 506 l  1482 381 l  1232 256 l  pc
1749 598 m  1749 848 l  1999 723 l  1749 598 l  p ef
1749 598 m  1749 848 l  1999 723 l  1749 598 l  pc
2267 950 m  2267 1200 l  2517 1075 l  2267 950 l  p ef
2267 950 m  2267 1200 l  2517 1075 l  2267 950 l  pc
2784 1380 m  2784 1630 l  3034 1505 l  2784 1380 l  p ef
2784 1380 m  2784 1630 l  3034 1505 l  2784 1380 l  pc
3302 149 m  3302 399 l  3552 274 l  3302 149 l  p ef
3302 149 m  3302 399 l  3552 274 l  3302 149 l  pc
3819 559 m  3819 809 l  4069 684 l  3819 559 l  p ef
3819 559 m  3819 809 l  4069 684 l  3819 559 l  pc
4337 691 m  4337 941 l  4587 816 l  4337 691 l  p ef
4337 691 m  4337 941 l  4587 816 l  4337 691 l  pc
4854 528 m  4854 778 l  5104 653 l  4854 528 l  p ef
4854 528 m  4854 778 l  5104 653 l  4854 528 l  pc
5372 582 m  5372 832 l  5622 707 l  5372 582 l  p ef
5372 582 m  5372 832 l  5622 707 l  5372 582 l  pc
5889 365 m  5889 615 l  6139 490 l  5889 365 l  p ef
5889 365 m  5889 615 l  6139 490 l  5889 365 l  pc
6407 256 m  6407 506 l  6657 381 l  6407 256 l  p ef
6407 256 m  6407 506 l  6657 381 l  6407 256 l  pc
79.99611 lw 1.000 0.261 0.058 c -8474 -1547 m  -8449 -1533 l  -8423 -1519 l 
-8397 -1505 l  -8371 -1491 l  -8345 -1476 l  -8319 -1461 l  -8293 -1444 l 
-8268 -1428 l  -8242 -1410 l  -8216 -1391 l  -8190 -1371 l  -8164 -1350 l 
-8138 -1327 l  -8112 -1303 l  -8086 -1278 l  -8061 -1250 l  -8035 -1221 l 
-8009 -1190 l  -7983 -1157 l  -7957 -1122 l  -7931 -1084 l  -7905 -1045 l 
-7879 -1004 l  -7854 -963 l  -7828 -921 l  -7802 -879 l  -7776 -838 l 
-7750 -798 l  -7724 -759 l  -7698 -723 l  -7672 -689 l  -7647 -657 l  -7621 -630 l 
-7595 -606 l  -7569 -587 l  -7543 -572 l  -7517 -563 l  -7491 -559 l  -7465 -562 l 
-7440 -572 l  -7414 -589 l  -7388 -612 l  -7362 -641 l  -7336 -674 l  -7310 -712 l 
-7284 -753 l  -7258 -796 l  -7233 -842 l  -7207 -888 l  -7181 -934 l  -7155 -979 l 
-7129 -1023 l  -7103 -1065 l  -7077 -1103 l  -7051 -1138 l  -7026 -1168 l 
-7000 -1192 l  -6974 -1210 l  -6948 -1221 l  -6922 -1225 l  -6896 -1219 l 
-6870 -1206 l  -6844 -1186 l  -6819 -1160 l  -6793 -1129 l  -6767 -1092 l 
-6741 -1052 l  -6715 -1009 l  -6689 -964 l  -6663 -918 l  -6637 -871 l 
-6612 -824 l  -6586 -779 l  -6560 -735 l  -6534 -694 l  -6508 -657 l  -6482 -624 l 
-6456 -596 l  -6430 -574 l  -6405 -559 l  -6379 -551 l  -6353 -551 l  -6327 -556 l 
-6301 -568 l  -6275 -585 l  -6249 -606 l  -6223 -632 l  -6198 -661 l  -6172 -693 l 
-6146 -727 l  -6120 -763 l  -6094 -800 l  -6068 -838 l  -6042 -875 l  -6016 -912 l 
-5991 -948 l  -5965 -981 l  -5939 -1013 l  -5913 -1041 l  -5887 -1065 l 
-5861 -1086 l  -5835 -1103 l  -5809 -1116 l  -5784 -1125 l  -5758 -1132 l 
-5732 -1136 l  -5706 -1138 l  -5680 -1137 l  -5654 -1135 l  -5628 -1131 l 
-5602 -1126 l  -5577 -1120 l  -5551 -1114 l  -5525 -1107 l  -5499 -1100 l 
-5473 -1094 l  -5447 -1088 l  -5421 -1083 l  -5395 -1079 l  -5370 -1077 l 
-5344 -1076 l  -5318 -1078 l  -5292 -1081 l  -5266 -1085 l  -5240 -1091 l 
-5214 -1098 l  -5188 -1106 l  -5163 -1116 l  -5137 -1126 l  -5111 -1138 l 
-5085 -1150 l  -5059 -1163 l  -5033 -1177 l  -5007 -1191 l  -4981 -1206 l 
-4956 -1221 l  -4930 -1237 l  -4904 -1253 l  -4878 -1268 l  -4852 -1284 l 
-4826 -1300 l  -4800 -1315 l  -4774 -1330 l  -4749 -1345 l  -4723 -1360 l 
-4697 -1373 l  -4671 -1386 l  -4645 -1398 l  -4619 -1410 l  -4593 -1420 l 
-4568 -1429 l  -4542 -1437 l  -4516 -1444 l  -4490 -1449 l  -4464 -1453 l 
-4438 -1455 l  -4412 -1455 l  -4386 -1454 l  -4361 -1450 l  -4335 -1445 l 
-4309 -1438 l  -4283 -1429 l  -4257 -1418 l  -4231 -1406 l  -4205 -1394 l 
-4179 -1381 l  -4154 -1368 l  -4128 -1356 l  -4102 -1344 l  -4076 -1333 l 
-4050 -1323 l  -4024 -1315 l  -3998 -1309 l  -3972 -1306 l  -3947 -1305 l 
-3921 -1307 l  -3895 -1313 l  -3869 -1322 l  -3843 -1335 l  -3817 -1353 l 
-3791 -1376 l  -3765 -1402 l  -3740 -1432 l  -3714 -1466 l  -3688 -1501 l 
-3662 -1539 l  -3636 -1577 l  -3610 -1616 l  -3584 -1655 l  -3558 -1694 l 
-3533 -1731 l  -3507 -1767 l  -3481 -1800 l  -3455 -1830 l  -3429 -1857 l 
-3403 -1880 l  -3377 -1897 l  -3351 -1910 l  -3326 -1916 l  -3300 -1916 l 
-3274 -1909 l  -3248 -1895 l  -3222 -1875 l  -3196 -1849 l  -3170 -1819 l 
-3144 -1784 l  -3119 -1745 l  -3093 -1702 l  -3067 -1656 l  -3041 -1608 l 
-3015 -1558 l  -2989 -1506 l  -2963 -1454 l  -2937 -1401 l  -2912 -1348 l 
-2886 -1296 l  -2860 -1245 l  -2834 -1196 l  -2808 -1149 l  -2782 -1104 l 
-2756 -1063 l  -2730 -1025 l  -2705 -990 l  -2679 -958 l  -2653 -929 l 
-2627 -903 l  -2601 -880 l  -2575 -859 l  -2549 -841 l  -2523 -826 l  -2498 -813 l 
-2472 -802 l  -2446 -794 l  -2420 -788 l  -2394 -784 l  -2368 -782 l  -2342 -783 l 
-2316 -785 l  -2291 -789 l  -2265 -795 l  -2239 -803 l  -2213 -812 l  -2187 -823 l 
-2161 -835 l  -2135 -848 l  -2109 -863 l  -2084 -878 l  -2058 -894 l  -2032 -910 l 
-2006 -927 l  -1980 -945 l  -1954 -962 l  -1928 -980 l  -1902 -998 l  -1877 -1016 l 
-1851 -1033 l  -1825 -1050 l  -1799 -1066 l  -1773 -1081 l  -1747 -1096 l 
-1721 -1109 l  -1695 -1122 l  -1670 -1134 l  -1644 -1144 l  -1618 -1154 l 
-1592 -1163 l  -1566 -1171 l  -1540 -1177 l  -1514 -1183 l  -1488 -1188 l 
-1463 -1193 l  -1437 -1196 l  -1411 -1198 l  -1385 -1200 l  -1359 -1200 l 
-1333 -1200 l  -1307 -1199 l  -1281 -1197 l  -1256 -1194 l  -1230 -1190 l 
-1204 -1186 l  -1178 -1181 l  -1152 -1175 l  -1126 -1168 l  -1100 -1162 l 
-1074 -1154 l  -1049 -1147 l  -1023 -1139 l  -997 -1131 l  -971 -1123 l 
-945 -1115 l  -919 -1107 l  -893 -1100 l  -868 -1092 l  -842 -1086 l  -816 -1079 l 
-790 -1073 l  -764 -1068 l  -738 -1063 l  -712 -1060 l  -686 -1057 l  -661 -1055 l 
-635 -1054 l  -609 -1053 l  -583 -1054 l  -557 -1055 l  -531 -1057 l  -505 -1059 l 
-479 -1062 l  -454 -1066 l  -428 -1070 l  -402 -1075 l  -376 -1080 l  -350 -1086 l 
-324 -1092 l  -298 -1099 l  -272 -1106 l  -247 -1113 l  -221 -1121 l  -195 -1129 l 
-169 -1137 l  -143 -1145 l  -117 -1154 l  -91 -1162 l  -65 -1171 l  -40 -1181 l 
-14 -1190 l  11 -1199 l  37 -1209 l  63 -1219 l  89 -1229 l  115 -1239 l 
141 -1249 l  166 -1260 l  192 -1270 l  218 -1281 l  244 -1292 l  270 -1302 l 
296 -1313 l  322 -1324 l  348 -1335 l  373 -1346 l  399 -1357 l  425 -1368 l 
451 -1378 l  477 -1388 l  503 -1397 l  529 -1405 l  555 -1412 l  580 -1419 l 
606 -1424 l  632 -1428 l  658 -1430 l  684 -1431 l  710 -1431 l  736 -1428 l 
762 -1424 l  787 -1418 l  813 -1410 l  839 -1399 l  865 -1386 l  891 -1372 l 
917 -1355 l  943 -1338 l  969 -1319 l  994 -1300 l  1020 -1281 l  1046 -1262 l 
1072 -1244 l  1098 -1226 l  1124 -1210 l  1150 -1196 l  1176 -1184 l  1201 -1174 l 
1227 -1167 l  1253 -1163 l  1279 -1163 l  1305 -1166 l  1331 -1174 l  1357 -1186 l 
1383 -1204 l  1408 -1225 l  1434 -1251 l  1460 -1279 l  1486 -1310 l  1512 -1344 l 
1538 -1378 l  1564 -1413 l  1590 -1449 l  1615 -1484 l  1641 -1518 l  1667 -1550 l 
1693 -1580 l  1719 -1607 l  1745 -1631 l  1771 -1650 l  1797 -1665 l  1822 -1675 l 
1848 -1678 l  1874 -1675 l  1900 -1666 l  1926 -1650 l  1952 -1628 l  1978 -1601 l 
2004 -1569 l  2029 -1534 l  2055 -1495 l  2081 -1455 l  2107 -1412 l  2133 -1368 l 
2159 -1324 l  2185 -1280 l  2211 -1238 l  2236 -1196 l  2262 -1157 l  2288 -1121 l 
2314 -1088 l  2340 -1060 l  2366 -1036 l  2392 -1018 l  2418 -1007 l  2443 -1001 l 
2469 -1000 l  2495 -1005 l  2521 -1014 l  2547 -1027 l  2573 -1044 l  2599 -1064 l 
2625 -1087 l  2650 -1113 l  2676 -1140 l  2702 -1170 l  2728 -1200 l  2754 -1232 l 
2780 -1263 l  2806 -1295 l  2831 -1326 l  2857 -1357 l  2883 -1386 l  2909 -1414 l 
2935 -1439 l  2961 -1462 l  2987 -1483 l  3013 -1502 l  3038 -1519 l  3064 -1533 l 
3090 -1545 l  3116 -1555 l  3142 -1562 l  3168 -1567 l  3194 -1570 l  3220 -1570 l 
3245 -1567 l  3271 -1563 l  3297 -1555 l  3323 -1545 l  3349 -1532 l  3375 -1517 l 
3401 -1499 l  3427 -1478 l  3452 -1454 l  3478 -1429 l  3504 -1401 l  3530 -1371 l 
3556 -1340 l  3582 -1307 l  3608 -1274 l  3634 -1240 l  3659 -1207 l  3685 -1173 l 
3711 -1140 l  3737 -1108 l  3763 -1077 l  3789 -1047 l  3815 -1020 l  3841 -994 l 
3866 -971 l  3892 -951 l  3918 -933 l  3944 -920 l  3970 -910 l  3996 -903 l 
4022 -900 l  4048 -899 l  4073 -901 l  4099 -906 l  4125 -912 l  4151 -920 l 
4177 -930 l  4203 -940 l  4229 -952 l  4255 -964 l  4280 -976 l  4306 -988 l 
4332 -1000 l  4358 -1011 l  4384 -1021 l  4410 -1030 l  4436 -1037 l  4462 -1042 l 
4487 -1046 l  4513 -1047 l  4539 -1047 l  4565 -1046 l  4591 -1043 l  4617 -1039 l 
4643 -1035 l  4669 -1031 l  4694 -1026 l  4720 -1021 l  4746 -1017 l  4772 -1013 l 
4798 -1011 l  4824 -1009 l  4850 -1009 l  4876 -1010 l  4901 -1013 l  4927 -1019 l 
4953 -1026 l  4979 -1037 l  5005 -1050 l  5031 -1066 l  5057 -1084 l  5083 -1103 l 
5108 -1125 l  5134 -1148 l  5160 -1172 l  5186 -1196 l  5212 -1221 l  5238 -1246 l 
5264 -1271 l  5290 -1295 l  5315 -1318 l  5341 -1340 l  5367 -1360 l  5393 -1379 l 
5419 -1395 l  5445 -1409 l  5471 -1420 l  5497 -1428 l  5522 -1433 l  5548 -1434 l 
5574 -1433 l  5600 -1428 l  5626 -1422 l  5652 -1413 l  5678 -1403 l  5704 -1391 l 
5729 -1377 l  5755 -1362 l  5781 -1347 l  5807 -1331 l  5833 -1314 l  5859 -1297 l 
5885 -1281 l  5911 -1265 l  5936 -1249 l  5962 -1235 l  5988 -1221 l  6014 -1209 l 
6040 -1199 l  6066 -1190 l  6092 -1183 l  6118 -1177 l  6143 -1173 l  6169 -1169 l 
6195 -1167 l  6221 -1166 l  6247 -1166 l  6273 -1167 l  6299 -1169 l  6325 -1172 l 
6350 -1175 l  6376 -1179 l  6402 -1183 l  6428 -1188 l  6454 -1193 l  6480 -1198 l 
6506 -1204 l  6532 -1209 l  ps
-8599 -1547 m  -8474 -1422 l  -8349 -1547 l  -8474 -1672 l  -8599 -1547 l 
p ef
0 lw -8599 -1547 m  -8474 -1422 l  -8349 -1547 l  -8474 -1672 l  -8599 -1547 l 
pc
-8082 -1122 m  -7957 -997 l  -7832 -1122 l  -7957 -1247 l  -8082 -1122 l 
p ef
-8082 -1122 m  -7957 -997 l  -7832 -1122 l  -7957 -1247 l  -8082 -1122 l 
pc
-7565 -572 m  -7440 -447 l  -7315 -572 l  -7440 -697 l  -7565 -572 l  p ef
-7565 -572 m  -7440 -447 l  -7315 -572 l  -7440 -697 l  -7565 -572 l  pc
-7047 -1225 m  -6922 -1100 l  -6797 -1225 l  -6922 -1350 l  -7047 -1225 l 
p ef
-7047 -1225 m  -6922 -1100 l  -6797 -1225 l  -6922 -1350 l  -7047 -1225 l 
pc
-6530 -559 m  -6405 -434 l  -6280 -559 l  -6405 -684 l  -6530 -559 l  p ef
-6530 -559 m  -6405 -434 l  -6280 -559 l  -6405 -684 l  -6530 -559 l  pc
-6012 -1065 m  -5887 -940 l  -5762 -1065 l  -5887 -1190 l  -6012 -1065 l 
p ef
-6012 -1065 m  -5887 -940 l  -5762 -1065 l  -5887 -1190 l  -6012 -1065 l 
pc
-5495 -1077 m  -5370 -952 l  -5245 -1077 l  -5370 -1202 l  -5495 -1077 l 
p ef
-5495 -1077 m  -5370 -952 l  -5245 -1077 l  -5370 -1202 l  -5495 -1077 l 
pc
-4977 -1284 m  -4852 -1159 l  -4727 -1284 l  -4852 -1409 l  -4977 -1284 l 
p ef
-4977 -1284 m  -4852 -1159 l  -4727 -1284 l  -4852 -1409 l  -4977 -1284 l 
pc
-4460 -1445 m  -4335 -1320 l  -4210 -1445 l  -4335 -1570 l  -4460 -1445 l 
p ef
-4460 -1445 m  -4335 -1320 l  -4210 -1445 l  -4335 -1570 l  -4460 -1445 l 
pc
-3942 -1353 m  -3817 -1228 l  -3692 -1353 l  -3817 -1478 l  -3942 -1353 l 
p ef
-3942 -1353 m  -3817 -1228 l  -3692 -1353 l  -3817 -1478 l  -3942 -1353 l 
pc
-3425 -1916 m  -3300 -1791 l  -3175 -1916 l  -3300 -2041 l  -3425 -1916 l 
p ef
-3425 -1916 m  -3300 -1791 l  -3175 -1916 l  -3300 -2041 l  -3425 -1916 l 
pc
-2907 -1104 m  -2782 -979 l  -2657 -1104 l  -2782 -1229 l  -2907 -1104 l 
p ef
-2907 -1104 m  -2782 -979 l  -2657 -1104 l  -2782 -1229 l  -2907 -1104 l 
pc
-2390 -795 m  -2265 -670 l  -2140 -795 l  -2265 -920 l  -2390 -795 l  p ef
-2390 -795 m  -2265 -670 l  -2140 -795 l  -2265 -920 l  -2390 -795 l  pc
-1872 -1096 m  -1747 -971 l  -1622 -1096 l  -1747 -1221 l  -1872 -1096 l 
p ef
-1872 -1096 m  -1747 -971 l  -1622 -1096 l  -1747 -1221 l  -1872 -1096 l 
pc
-1355 -1190 m  -1230 -1065 l  -1105 -1190 l  -1230 -1315 l  -1355 -1190 l 
p ef
-1355 -1190 m  -1230 -1065 l  -1105 -1190 l  -1230 -1315 l  -1355 -1190 l 
pc
-837 -1060 m  -712 -935 l  -587 -1060 l  -712 -1185 l  -837 -1060 l  p ef
-837 -1060 m  -712 -935 l  -587 -1060 l  -712 -1185 l  -837 -1060 l  pc
-320 -1129 m  -195 -1004 l  -70 -1129 l  -195 -1254 l  -320 -1129 l  p ef
-320 -1129 m  -195 -1004 l  -70 -1129 l  -195 -1254 l  -320 -1129 l  pc
197 -1324 m  322 -1199 l  447 -1324 l  322 -1449 l  197 -1324 l  p ef
197 -1324 m  322 -1199 l  447 -1324 l  322 -1449 l  197 -1324 l  pc
714 -1399 m  839 -1274 l  964 -1399 l  839 -1524 l  714 -1399 l  p ef
714 -1399 m  839 -1274 l  964 -1399 l  839 -1524 l  714 -1399 l  pc
1232 -1186 m  1357 -1061 l  1482 -1186 l  1357 -1311 l  1232 -1186 l  p ef
1232 -1186 m  1357 -1061 l  1482 -1186 l  1357 -1311 l  1232 -1186 l  pc
1749 -1675 m  1874 -1550 l  1999 -1675 l  1874 -1800 l  1749 -1675 l  p ef
1749 -1675 m  1874 -1550 l  1999 -1675 l  1874 -1800 l  1749 -1675 l  pc
2267 -1018 m  2392 -893 l  2517 -1018 l  2392 -1143 l  2267 -1018 l  p ef
2267 -1018 m  2392 -893 l  2517 -1018 l  2392 -1143 l  2267 -1018 l  pc
2784 -1414 m  2909 -1289 l  3034 -1414 l  2909 -1539 l  2784 -1414 l  p ef
2784 -1414 m  2909 -1289 l  3034 -1414 l  2909 -1539 l  2784 -1414 l  pc
3302 -1478 m  3427 -1353 l  3552 -1478 l  3427 -1603 l  3302 -1478 l  p ef
3302 -1478 m  3427 -1353 l  3552 -1478 l  3427 -1603 l  3302 -1478 l  pc
3819 -920 m  3944 -795 l  4069 -920 l  3944 -1045 l  3819 -920 l  p ef
3819 -920 m  3944 -795 l  4069 -920 l  3944 -1045 l  3819 -920 l  pc
4337 -1042 m  4462 -917 l  4587 -1042 l  4462 -1167 l  4337 -1042 l  p ef
4337 -1042 m  4462 -917 l  4587 -1042 l  4462 -1167 l  4337 -1042 l  pc
4854 -1037 m  4979 -912 l  5104 -1037 l  4979 -1162 l  4854 -1037 l  p ef
4854 -1037 m  4979 -912 l  5104 -1037 l  4979 -1162 l  4854 -1037 l  pc
5372 -1428 m  5497 -1303 l  5622 -1428 l  5497 -1553 l  5372 -1428 l  p ef
5372 -1428 m  5497 -1303 l  5622 -1428 l  5497 -1553 l  5372 -1428 l  pc
5889 -1209 m  6014 -1084 l  6139 -1209 l  6014 -1334 l  5889 -1209 l  p ef
5889 -1209 m  6014 -1084 l  6139 -1209 l  6014 -1334 l  5889 -1209 l  pc
6407 -1209 m  6532 -1084 l  6657 -1209 l  6532 -1334 l  6407 -1209 l  p ef
6407 -1209 m  6532 -1084 l  6657 -1209 l  6532 -1334 l  6407 -1209 l  pc
0.003 0.003 0.003 c
/Helvetica f
353 sf -8567 4242 m  185 0 (1) bs
/Helvetica f
353 sf -8050 4242 m  185 0 (2) bs
/Helvetica f
353 sf -7533 4242 m  185 0 (3) bs
/Helvetica f
353 sf -7015 4242 m  185 0 (4) bs
/Helvetica f
353 sf -6498 4242 m  185 0 (5) bs
/Helvetica f
353 sf -5980 4242 m  185 0 (6) bs
/Helvetica f
353 sf -5463 4242 m  185 0 (7) bs
/Helvetica f
353 sf -4945 4242 m  185 0 (8) bs
/Helvetica f
353 sf -4428 4242 m  185 0 (9) bs
/Helvetica f
353 sf -4002 4242 m  185 0 (1) bs
185 185 (0) bs
/Helvetica f
353 sf -3472 4242 m  185 0 (1) bs
185 159 (1) bs
/Helvetica f
353 sf -2967 4242 m  185 0 (1) bs
185 185 (2) bs
/Helvetica f
353 sf -2450 4242 m  185 0 (1) bs
185 185 (3) bs
/Helvetica f
353 sf -1932 4242 m  185 0 (1) bs
185 185 (4) bs
/Helvetica f
353 sf -1415 4242 m  185 0 (1) bs
185 185 (5) bs
/Helvetica f
353 sf -897 4242 m  185 0 (1) bs
185 185 (6) bs
/Helvetica f
353 sf -380 4242 m  185 0 (1) bs
185 185 (7) bs
/Helvetica f
353 sf 138 4242 m  185 0 (1) bs
185 185 (8) bs
/Helvetica f
353 sf 655 4242 m  185 0 (1) bs
185 185 (9) bs
/Helvetica f
353 sf 1173 4242 m  185 0 (2) bs
185 185 (0) bs
/Helvetica f
353 sf 1690 4242 m  185 0 (2) bs
185 185 (1) bs
/Helvetica f
353 sf 2208 4242 m  185 0 (2) bs
185 185 (2) bs
/Helvetica f
353 sf 2725 4242 m  185 0 (2) bs
185 185 (3) bs
/Helvetica f
353 sf 3243 4242 m  185 0 (2) bs
185 185 (4) bs
/Helvetica f
353 sf 3760 4242 m  185 0 (2) bs
185 185 (5) bs
/Helvetica f
353 sf 4278 4242 m  185 0 (2) bs
185 185 (6) bs
/Helvetica f
353 sf 4795 4242 m  185 0 (2) bs
185 185 (7) bs
/Helvetica f
353 sf 5313 4242 m  185 0 (2) bs
185 185 (8) bs
/Helvetica f
353 sf 5830 4242 m  185 0 (2) bs
185 185 (9) bs
/Helvetica f
353 sf 6348 4242 m  185 0 (3) bs
185 185 (0) bs
/Helvetica f
353 sf -9703 3795 m  185 0 (0) bs
106 185 (,) bs
185 291 (0) bs
185 476 (0) bs
318 661 (%) bs
/Helvetica f
353 sf -9888 2956 m  185 0 (1) bs
185 185 (0) bs
106 370 (,) bs
185 476 (0) bs
185 661 (0) bs
318 847 (%) bs
/Helvetica f
353 sf -9888 2118 m  185 0 (2) bs
185 185 (0) bs
106 370 (,) bs
185 476 (0) bs
185 661 (0) bs
318 847 (%) bs
/Helvetica f
353 sf -9888 1280 m  185 0 (3) bs
185 185 (0) bs
106 370 (,) bs
185 476 (0) bs
185 661 (0) bs
318 847 (%) bs
/Helvetica f
353 sf -9888 442 m  185 0 (4) bs
185 185 (0) bs
106 370 (,) bs
185 476 (0) bs
185 661 (0) bs
318 847 (%) bs
/Helvetica f
353 sf -9888 -396 m  185 0 (5) bs
185 185 (0) bs
106 370 (,) bs
185 476 (0) bs
185 661 (0) bs
318 847 (%) bs
/Helvetica f
353 sf -9888 -1234 m  185 0 (6) bs
185 185 (0) bs
106 370 (,) bs
185 476 (0) bs
185 661 (0) bs
318 847 (%) bs
/Helvetica f
353 sf -9888 -2072 m  185 0 (7) bs
185 185 (0) bs
106 370 (,) bs
185 476 (0) bs
185 661 (0) bs
318 847 (%) bs
/Helvetica f
353 sf -9888 -2910 m  185 0 (8) bs
185 185 (0) bs
106 370 (,) bs
185 476 (0) bs
185 661 (0) bs
318 847 (%) bs
/Helvetica f
459 sf -1283 -3652 m  159 0 (r) bs
238 159 (e) bs
238 397 (p) bs
238 635 (o) bs
159 873 (r) bs
106 1032 (t) bs
238 1138 (_) bs
238 1376 (8) bs
238 1614 (_) bs
238 1852 (2) bs
238 2090 (_) bs
238 2328 (1) bs
79.99611 lw 0.003 0.273 0.527 c 7247 -997 m  8047 -997 l  ps
7541 -1102 m  7541 -891 l  7752 -891 l  7752 -1102 l  7541 -1102 l  p ef
0 lw 7541 -1102 m  7541 -891 l  7752 -891 l  7752 -1102 l  7541 -1102 l 
pc
79.99611 lw 1.000 0.828 0.128 c 7247 -499 m  8047 -499 l  ps
7541 -604 m  7647 -393 l  7752 -604 l  7541 -604 l  p ef
0 lw 7541 -604 m  7647 -393 l  7752 -604 l  7541 -604 l  pc
79.99611 lw 0.343 0.617 0.113 c 7247 -1 m  8047 -1 l  ps
7541 104 m  7752 104 l  7647 -106 l  7541 104 l  p ef
0 lw 7541 104 m  7752 104 l  7647 -106 l  7541 104 l  pc
79.99611 lw 0.496 0.003 0.132 c 7247 496 m  8047 496 l  ps
7541 391 m  7541 602 l  7752 496 l  7541 391 l  p ef
0 lw 7541 391 m  7541 602 l  7752 496 l  7541 391 l  pc
79.99611 lw 1.000 0.261 0.058 c 7247 994 m  8047 994 l  ps
7541 994 m  7647 1100 l  7752 994 l  7647 889 l  7541 994 l  p ef
0 lw 7541 994 m  7647 1100 l  7752 994 l  7647 889 l  7541 994 l  pc
0.003 0.003 0.003 c
/Helvetica f
353 sf 8147 -877 m  238 0 (H) bs
185 238 (e) bs
106 423 ( ) bs
106 529 (-) bs
106 635 ( ) bs
185 741 (k) bs
106 926 ( ) bs
212 1032 (=) bs
106 1244 ( ) bs
185 1349 (1) bs
106 1535 (,) bs
185 1640 (5) bs
/Helvetica f
353 sf 8147 -379 m  238 0 (H) bs
185 238 (e) bs
106 423 ( ) bs
106 529 (-) bs
106 635 ( ) bs
185 741 (k) bs
106 926 ( ) bs
212 1032 (=) bs
106 1244 ( ) bs
185 1349 (3) bs
/Helvetica f
353 sf 8147 118 m  238 0 (H) bs
185 238 (e) bs
106 423 ( ) bs
106 529 (-) bs
106 635 ( ) bs
185 741 (k) bs
106 926 ( ) bs
212 1032 (=) bs
106 1244 ( ) bs
185 1349 (5) bs
/Helvetica f
353 sf 8147 616 m  238 0 (H) bs
185 238 (e) bs
106 423 ( ) bs
106 529 (-) bs
106 635 ( ) bs
185 741 (k) bs
106 926 ( ) bs
212 1032 (=) bs
106 1244 ( ) bs
185 1349 (8) bs
/Helvetica f
353 sf 8147 1114 m  238 0 (K) bs
185 238 (e) bs
0 9006 t 
pom
count op_count sub {pop} repeat countdictstack dict_count sub {end} repeat b4_inc_state restore
%%PageTrailer
%%Trailer
%%EOF
