%!PS-Adobe-3.0 EPSF-3.0 
%%BoundingBox: 0 0 584 255
%%Pages: 0
%%Creator: LibreOffice 4.4
%%Title: none
%%CreationDate: none
%%LanguageLevel: 2
%%EndComments
%%BeginProlog
%%BeginResource: procset SDRes-Prolog 1.0 0
/b4_inc_state save def
/dict_count countdictstack def
/op_count count 1 sub def
userdict begin
0 setgray 0 setlinecap 1 setlinewidth 0 setlinejoin 10 setmiterlimit[] 0 setdash newpath
/languagelevel where {pop languagelevel 1 ne {false setstrokeadjust false setoverprint} if} if
/bdef {bind def} bind def
/c {setrgbcolor} bdef
/l {neg lineto} bdef
/rl {neg rlineto} bdef
/lc {setlinecap} bdef
/lj {setlinejoin} bdef
/lw {setlinewidth} bdef
/ml {setmiterlimit} bdef
/ld {setdash} bdef
/m {neg moveto} bdef
/ct {6 2 roll neg 6 2 roll neg 6 2 roll neg curveto} bdef
/r {rotate} bdef
/t {neg translate} bdef
/s {scale} bdef
/sw {show} bdef
/gs {gsave} bdef
/gr {grestore} bdef
/f {findfont dup length dict begin
{1 index /FID ne {def} {pop pop} ifelse} forall /Encoding ISOLatin1Encoding def
currentdict end /NFont exch definefont pop /NFont findfont} bdef
/p {closepath} bdef
/sf {scalefont setfont} bdef
/ef {eofill}bdef
/pc {closepath stroke}bdef
/ps {stroke}bdef
/pum {matrix currentmatrix}bdef
/pom {setmatrix}bdef
/bs {/aString exch def /nXOfs exch def /nWidth exch def currentpoint nXOfs 0 rmoveto pum nWidth aString stringwidth pop div 1 scale aString show pom moveto} bdef
%%EndResource
%%EndProlog
%%BeginSetup
%%EndSetup
%%Page: 1 1
%%BeginPageSetup
%%EndPageSetup
pum
0.02834 0.02831 s 
0 -9006 t
/tm matrix currentmatrix def
tm setmatrix
10301 4503 t 
1 1 s 
1.000 1.000 1.000 c 0 4502 m  -10301 4502 l  -10301 -4503 l  10301 -4503 l 
10301 4502 l  0 4502 l  p ef
0 lw 1 lj 0.703 0.703 0.703 c -269 3675 m  -8474 3675 l  -8474 -3029 l 
7936 -3029 l  7936 3675 l  -269 3675 l  pc
7936 3674 m  -8474 3674 l  ps
7936 2835 m  -8474 2835 l  ps
7936 1997 m  -8474 1997 l  ps
7936 1159 m  -8474 1159 l  ps
7936 321 m  -8474 321 l  ps
7936 -516 m  -8474 -516 l  ps
7936 -1354 m  -8474 -1354 l  ps
7936 -2192 m  -8474 -2192 l  ps
7936 -3030 m  -8474 -3030 l  ps
-8474 3824 m  -8474 3674 l  ps
-8474 3824 m  -8474 3674 l  ps
-7909 3824 m  -7909 3674 l  ps
-7909 3824 m  -7909 3674 l  ps
-7343 3824 m  -7343 3674 l  ps
-7343 3824 m  -7343 3674 l  ps
-6777 3824 m  -6777 3674 l  ps
-6777 3824 m  -6777 3674 l  ps
-6211 3824 m  -6211 3674 l  ps
-6211 3824 m  -6211 3674 l  ps
-5645 3824 m  -5645 3674 l  ps
-5645 3824 m  -5645 3674 l  ps
-5079 3824 m  -5079 3674 l  ps
-5079 3824 m  -5079 3674 l  ps
-4513 3824 m  -4513 3674 l  ps
-4513 3824 m  -4513 3674 l  ps
-3947 3824 m  -3947 3674 l  ps
-3947 3824 m  -3947 3674 l  ps
-3381 3824 m  -3381 3674 l  ps
-3381 3824 m  -3381 3674 l  ps
-2816 3824 m  -2816 3674 l  ps
-2816 3824 m  -2816 3674 l  ps
-2250 3824 m  -2250 3674 l  ps
-2250 3824 m  -2250 3674 l  ps
-1684 3824 m  -1684 3674 l  ps
-1684 3824 m  -1684 3674 l  ps
-1118 3824 m  -1118 3674 l  ps
-1118 3824 m  -1118 3674 l  ps
-552 3824 m  -552 3674 l  ps
-552 3824 m  -552 3674 l  ps
13 3824 m  13 3674 l  ps
13 3824 m  13 3674 l  ps
579 3824 m  579 3674 l  ps
579 3824 m  579 3674 l  ps
1145 3824 m  1145 3674 l  ps
1145 3824 m  1145 3674 l  ps
1711 3824 m  1711 3674 l  ps
1711 3824 m  1711 3674 l  ps
2277 3824 m  2277 3674 l  ps
2277 3824 m  2277 3674 l  ps
2842 3824 m  2842 3674 l  ps
2842 3824 m  2842 3674 l  ps
3408 3824 m  3408 3674 l  ps
3408 3824 m  3408 3674 l  ps
3974 3824 m  3974 3674 l  ps
3974 3824 m  3974 3674 l  ps
4540 3824 m  4540 3674 l  ps
4540 3824 m  4540 3674 l  ps
5106 3824 m  5106 3674 l  ps
5106 3824 m  5106 3674 l  ps
5672 3824 m  5672 3674 l  ps
5672 3824 m  5672 3674 l  ps
6238 3824 m  6238 3674 l  ps
6238 3824 m  6238 3674 l  ps
6804 3824 m  6804 3674 l  ps
6804 3824 m  6804 3674 l  ps
7370 3824 m  7370 3674 l  ps
7370 3824 m  7370 3674 l  ps
7936 3824 m  7936 3674 l  ps
7936 3824 m  7936 3674 l  ps
-8474 3674 m  7936 3674 l  ps
-8624 3674 m  -8474 3674 l  ps
-8624 3674 m  -8474 3674 l  ps
-8624 2835 m  -8474 2835 l  ps
-8624 2835 m  -8474 2835 l  ps
-8624 1997 m  -8474 1997 l  ps
-8624 1997 m  -8474 1997 l  ps
-8624 1159 m  -8474 1159 l  ps
-8624 1159 m  -8474 1159 l  ps
-8624 321 m  -8474 321 l  ps
-8624 321 m  -8474 321 l  ps
-8624 -516 m  -8474 -516 l  ps
-8624 -516 m  -8474 -516 l  ps
-8624 -1354 m  -8474 -1354 l  ps
-8624 -1354 m  -8474 -1354 l  ps
-8624 -2192 m  -8474 -2192 l  ps
-8624 -2192 m  -8474 -2192 l  ps
-8624 -3030 m  -8474 -3030 l  ps
-8624 -3030 m  -8474 -3030 l  ps
-8474 3674 m  -8474 -3030 l  ps
79.99611 lw 0.003 0.273 0.527 c -8474 723 m  -8446 732 l  -8418 742 l  -8390 751 l 
-8361 761 l  -8333 771 l  -8305 782 l  -8276 794 l  -8248 806 l  -8220 820 l 
-8192 835 l  -8163 851 l  -8135 868 l  -8107 887 l  -8078 908 l  -8050 931 l 
-8022 955 l  -7993 982 l  -7965 1010 l  -7937 1042 l  -7909 1075 l  -7880 1111 l 
-7852 1149 l  -7824 1189 l  -7795 1229 l  -7767 1269 l  -7739 1310 l  -7711 1349 l 
-7682 1387 l  -7654 1422 l  -7626 1455 l  -7597 1485 l  -7569 1510 l  -7541 1531 l 
-7512 1548 l  -7484 1558 l  -7456 1562 l  -7428 1560 l  -7399 1550 l  -7371 1532 l 
-7343 1505 l  -7314 1469 l  -7286 1426 l  -7258 1374 l  -7230 1317 l  -7201 1254 l 
-7173 1186 l  -7145 1115 l  -7116 1041 l  -7088 965 l  -7060 888 l  -7031 811 l 
-7003 735 l  -6975 662 l  -6947 590 l  -6918 523 l  -6890 460 l  -6862 403 l 
-6833 352 l  -6805 309 l  -6777 274 l  -6749 248 l  -6720 231 l  -6692 221 l 
-6664 219 l  -6635 224 l  -6607 235 l  -6579 252 l  -6550 273 l  -6522 299 l 
-6494 328 l  -6466 360 l  -6437 395 l  -6409 431 l  -6381 469 l  -6352 507 l 
-6324 545 l  -6296 583 l  -6268 619 l  -6239 653 l  -6211 684 l  -6183 713 l 
-6154 738 l  -6126 761 l  -6098 780 l  -6069 797 l  -6041 812 l  -6013 824 l 
-5985 833 l  -5956 841 l  -5928 846 l  -5900 850 l  -5871 852 l  -5843 852 l 
-5815 850 l  -5786 847 l  -5758 843 l  -5730 838 l  -5702 831 l  -5673 824 l 
-5645 816 l  -5617 808 l  -5588 798 l  -5560 789 l  -5532 779 l  -5504 769 l 
-5475 758 l  -5447 748 l  -5419 737 l  -5390 727 l  -5362 717 l  -5334 708 l 
-5305 699 l  -5277 690 l  -5249 682 l  -5221 675 l  -5192 668 l  -5164 663 l 
-5136 658 l  -5107 655 l  -5079 653 l  -5051 652 l  -5023 653 l  -4994 654 l 
-4966 657 l  -4938 660 l  -4909 664 l  -4881 668 l  -4853 673 l  -4824 677 l 
-4796 683 l  -4768 687 l  -4740 692 l  -4711 697 l  -4683 701 l  -4655 704 l 
-4626 707 l  -4598 709 l  -4570 709 l  -4542 709 l  -4513 707 l  -4485 704 l 
-4457 700 l  -4428 694 l  -4400 688 l  -4372 680 l  -4343 671 l  -4315 661 l 
-4287 650 l  -4259 639 l  -4230 627 l  -4202 614 l  -4174 601 l  -4145 588 l 
-4117 574 l  -4089 560 l  -4061 546 l  -4032 532 l  -4004 518 l  -3976 504 l 
-3947 490 l  -3919 476 l  -3891 463 l  -3862 450 l  -3834 438 l  -3806 426 l 
-3778 415 l  -3749 405 l  -3721 396 l  -3693 388 l  -3664 380 l  -3636 374 l 
-3608 369 l  -3579 365 l  -3551 363 l  -3523 362 l  -3495 362 l  -3466 364 l 
-3438 368 l  -3410 374 l  -3381 381 l  -3353 390 l  -3325 401 l  -3297 414 l 
-3268 428 l  -3240 443 l  -3212 459 l  -3183 477 l  -3155 495 l  -3127 514 l 
-3098 534 l  -3070 553 l  -3042 574 l  -3014 594 l  -2985 614 l  -2957 634 l 
-2929 653 l  -2900 672 l  -2872 690 l  -2844 707 l  -2816 723 l  -2787 739 l 
-2759 753 l  -2731 766 l  -2702 779 l  -2674 792 l  -2646 804 l  -2617 816 l 
-2589 829 l  -2561 842 l  -2533 856 l  -2504 871 l  -2476 886 l  -2448 903 l 
-2419 922 l  -2391 942 l  -2363 964 l  -2335 988 l  -2306 1015 l  -2278 1043 l 
-2250 1075 l  -2221 1110 l  -2193 1146 l  -2165 1185 l  -2136 1224 l  -2108 1264 l 
-2080 1304 l  -2052 1343 l  -2023 1380 l  -1995 1416 l  -1967 1449 l  -1938 1479 l 
-1910 1505 l  -1882 1527 l  -1854 1544 l  -1825 1555 l  -1797 1560 l  -1769 1558 l 
-1740 1548 l  -1712 1531 l  -1684 1505 l  -1655 1470 l  -1627 1426 l  -1599 1375 l 
-1571 1318 l  -1542 1255 l  -1514 1188 l  -1486 1116 l  -1457 1042 l  -1429 966 l 
-1401 889 l  -1372 813 l  -1344 737 l  -1316 663 l  -1288 591 l  -1259 524 l 
-1231 461 l  -1203 404 l  -1174 353 l  -1146 309 l  -1118 274 l  -1090 248 l 
-1061 231 l  -1033 221 l  -1005 219 l  -976 224 l  -948 235 l  -920 251 l 
-891 273 l  -863 298 l  -835 327 l  -807 360 l  -778 395 l  -750 431 l 
-722 469 l  -693 507 l  -665 545 l  -637 583 l  -609 619 l  -580 653 l 
-552 684 l  -524 713 l  -495 738 l  -467 761 l  -439 780 l  -410 797 l 
-382 812 l  -354 824 l  -326 833 l  -297 841 l  -269 846 l  -241 850 l 
-212 852 l  -184 852 l  -156 850 l  -128 847 l  -99 843 l  -71 838 l  -43 831 l 
-14 824 l  13 816 l  41 808 l  70 798 l  98 789 l  126 779 l  154 769 l 
183 758 l  211 748 l  239 737 l  268 727 l  296 717 l  324 708 l  352 699 l 
381 690 l  409 682 l  437 675 l  466 668 l  494 663 l  522 658 l  551 655 l 
579 653 l  607 652 l  635 653 l  664 654 l  692 657 l  720 660 l  749 664 l 
777 668 l  805 673 l  833 677 l  862 683 l  890 687 l  918 692 l  947 697 l 
975 701 l  1003 704 l  1032 707 l  1060 709 l  1088 709 l  1116 709 l 
1145 707 l  1173 704 l  1201 700 l  1230 694 l  1258 688 l  1286 680 l 
1315 671 l  1343 661 l  1371 650 l  1399 639 l  1428 627 l  1456 614 l 
1484 601 l  1513 588 l  1541 574 l  1569 560 l  1597 546 l  1626 532 l 
1654 518 l  1682 504 l  1711 490 l  1739 476 l  1767 463 l  1796 450 l 
1824 438 l  1852 426 l  1880 415 l  1909 405 l  1937 396 l  1965 388 l 
1994 380 l  2022 374 l  2050 369 l  2078 365 l  2107 363 l  2135 362 l 
2163 362 l  2192 364 l  2220 368 l  2248 374 l  2277 381 l  2305 390 l 
2333 401 l  2361 414 l  2390 428 l  2418 443 l  2446 459 l  2475 477 l 
2503 495 l  2531 514 l  2559 534 l  2588 553 l  2616 574 l  2644 594 l 
2673 614 l  2701 634 l  2729 653 l  2758 672 l  2786 690 l  2814 707 l 
2842 723 l  2871 739 l  2899 753 l  2927 766 l  2956 779 l  2984 792 l 
3012 804 l  3040 816 l  3069 829 l  3097 842 l  3125 856 l  3154 871 l 
3182 886 l  3210 903 l  3239 922 l  3267 942 l  3295 964 l  3323 988 l 
3352 1015 l  3380 1043 l  3408 1075 l  3437 1110 l  3465 1146 l  3493 1185 l 
3522 1224 l  3550 1264 l  3578 1304 l  3606 1343 l  3635 1380 l  3663 1416 l 
3691 1449 l  3720 1479 l  3748 1505 l  3776 1527 l  3804 1544 l  3833 1555 l 
3861 1560 l  3889 1558 l  3918 1548 l  3946 1531 l  3974 1505 l  4003 1470 l 
4031 1426 l  4059 1375 l  4087 1318 l  4116 1255 l  4144 1188 l  4172 1116 l 
4201 1042 l  4229 966 l  4257 890 l  4285 813 l  4314 737 l  4342 663 l 
4370 591 l  4399 524 l  4427 461 l  4455 404 l  4484 353 l  4512 309 l 
4540 274 l  4568 248 l  4597 231 l  4625 221 l  4653 219 l  4682 224 l 
4710 235 l  4738 251 l  4766 273 l  4795 298 l  4823 327 l  4851 360 l 
4880 394 l  4908 431 l  4936 469 l  4965 507 l  4993 545 l  5021 583 l 
5049 619 l  5078 653 l  5106 684 l  5134 713 l  5163 738 l  5191 761 l 
5219 781 l  5247 797 l  5276 812 l  5304 824 l  5332 834 l  5361 841 l 
5389 847 l  5417 850 l  5446 852 l  5474 852 l  5502 850 l  5530 847 l 
5559 843 l  5587 838 l  5615 832 l  5644 824 l  5672 816 l  5700 808 l 
5729 798 l  5757 789 l  5785 779 l  5813 768 l  5842 758 l  5870 747 l 
5898 737 l  5927 727 l  5955 717 l  5983 707 l  6011 698 l  6040 689 l 
6068 681 l  6096 674 l  6125 668 l  6153 662 l  6181 658 l  6210 655 l 
6238 653 l  6266 652 l  6294 653 l  6323 655 l  6351 658 l  6379 661 l 
6408 665 l  6436 670 l  6464 675 l  6492 680 l  6521 685 l  6549 690 l 
6577 695 l  6606 699 l  6634 703 l  6662 707 l  6691 709 l  6719 710 l 
6747 711 l  6775 710 l  6804 707 l  6832 704 l  6860 698 l  6889 692 l 
6917 684 l  6945 675 l  6973 665 l  7002 654 l  7030 642 l  7058 630 l 
7087 618 l  7115 605 l  7143 591 l  7172 578 l  7200 564 l  7228 551 l 
7256 538 l  7285 525 l  7313 513 l  7341 501 l  7370 490 l  7398 479 l 
7426 470 l  7454 461 l  7483 453 l  7511 445 l  7539 438 l  7568 432 l 
7596 426 l  7624 420 l  7653 415 l  7681 411 l  7709 407 l  7737 403 l 
7766 399 l  7794 396 l  7822 392 l  7851 389 l  7879 386 l  7907 384 l 
7936 381 l  ps
-8599 598 m  -8599 848 l  -8349 848 l  -8349 598 l  -8599 598 l  p ef
0 lw -8599 598 m  -8599 848 l  -8349 848 l  -8349 598 l  -8599 598 l  pc
-8034 950 m  -8034 1200 l  -7784 1200 l  -7784 950 l  -8034 950 l  p ef
-8034 950 m  -8034 1200 l  -7784 1200 l  -7784 950 l  -8034 950 l  pc
-7468 1380 m  -7468 1630 l  -7218 1630 l  -7218 1380 l  -7468 1380 l  p ef
-7468 1380 m  -7468 1630 l  -7218 1630 l  -7218 1380 l  -7468 1380 l  pc
-6902 149 m  -6902 399 l  -6652 399 l  -6652 149 l  -6902 149 l  p ef
-6902 149 m  -6902 399 l  -6652 399 l  -6652 149 l  -6902 149 l  pc
-6336 559 m  -6336 809 l  -6086 809 l  -6086 559 l  -6336 559 l  p ef
-6336 559 m  -6336 809 l  -6086 809 l  -6086 559 l  -6336 559 l  pc
-5770 691 m  -5770 941 l  -5520 941 l  -5520 691 l  -5770 691 l  p ef
-5770 691 m  -5770 941 l  -5520 941 l  -5520 691 l  -5770 691 l  pc
-5204 528 m  -5204 778 l  -4954 778 l  -4954 528 l  -5204 528 l  p ef
-5204 528 m  -5204 778 l  -4954 778 l  -4954 528 l  -5204 528 l  pc
-4638 582 m  -4638 832 l  -4388 832 l  -4388 582 l  -4638 582 l  p ef
-4638 582 m  -4638 832 l  -4388 832 l  -4388 582 l  -4638 582 l  pc
-4072 365 m  -4072 615 l  -3822 615 l  -3822 365 l  -4072 365 l  p ef
-4072 365 m  -4072 615 l  -3822 615 l  -3822 365 l  -4072 365 l  pc
-3506 256 m  -3506 506 l  -3256 506 l  -3256 256 l  -3506 256 l  p ef
-3506 256 m  -3506 506 l  -3256 506 l  -3256 256 l  -3506 256 l  pc
-2941 598 m  -2941 848 l  -2691 848 l  -2691 598 l  -2941 598 l  p ef
-2941 598 m  -2941 848 l  -2691 848 l  -2691 598 l  -2941 598 l  pc
-2375 950 m  -2375 1200 l  -2125 1200 l  -2125 950 l  -2375 950 l  p ef
-2375 950 m  -2375 1200 l  -2125 1200 l  -2125 950 l  -2375 950 l  pc
-1809 1380 m  -1809 1630 l  -1559 1630 l  -1559 1380 l  -1809 1380 l  p ef
-1809 1380 m  -1809 1630 l  -1559 1630 l  -1559 1380 l  -1809 1380 l  pc
-1243 149 m  -1243 399 l  -993 399 l  -993 149 l  -1243 149 l  p ef
-1243 149 m  -1243 399 l  -993 399 l  -993 149 l  -1243 149 l  pc
-677 559 m  -677 809 l  -427 809 l  -427 559 l  -677 559 l  p ef
-677 559 m  -677 809 l  -427 809 l  -427 559 l  -677 559 l  pc
-111 691 m  -111 941 l  138 941 l  138 691 l  -111 691 l  p ef
-111 691 m  -111 941 l  138 941 l  138 691 l  -111 691 l  pc
454 528 m  454 778 l  704 778 l  704 528 l  454 528 l  p ef
454 528 m  454 778 l  704 778 l  704 528 l  454 528 l  pc
1020 582 m  1020 832 l  1270 832 l  1270 582 l  1020 582 l  p ef
1020 582 m  1020 832 l  1270 832 l  1270 582 l  1020 582 l  pc
1586 365 m  1586 615 l  1836 615 l  1836 365 l  1586 365 l  p ef
1586 365 m  1586 615 l  1836 615 l  1836 365 l  1586 365 l  pc
2152 256 m  2152 506 l  2402 506 l  2402 256 l  2152 256 l  p ef
2152 256 m  2152 506 l  2402 506 l  2402 256 l  2152 256 l  pc
2717 598 m  2717 848 l  2967 848 l  2967 598 l  2717 598 l  p ef
2717 598 m  2717 848 l  2967 848 l  2967 598 l  2717 598 l  pc
3283 950 m  3283 1200 l  3533 1200 l  3533 950 l  3283 950 l  p ef
3283 950 m  3283 1200 l  3533 1200 l  3533 950 l  3283 950 l  pc
3849 1380 m  3849 1630 l  4099 1630 l  4099 1380 l  3849 1380 l  p ef
3849 1380 m  3849 1630 l  4099 1630 l  4099 1380 l  3849 1380 l  pc
4415 149 m  4415 399 l  4665 399 l  4665 149 l  4415 149 l  p ef
4415 149 m  4415 399 l  4665 399 l  4665 149 l  4415 149 l  pc
4981 559 m  4981 809 l  5231 809 l  5231 559 l  4981 559 l  p ef
4981 559 m  4981 809 l  5231 809 l  5231 559 l  4981 559 l  pc
5547 691 m  5547 941 l  5797 941 l  5797 691 l  5547 691 l  p ef
5547 691 m  5547 941 l  5797 941 l  5797 691 l  5547 691 l  pc
6113 528 m  6113 778 l  6363 778 l  6363 528 l  6113 528 l  p ef
6113 528 m  6113 778 l  6363 778 l  6363 528 l  6113 528 l  pc
6679 582 m  6679 832 l  6929 832 l  6929 582 l  6679 582 l  p ef
6679 582 m  6679 832 l  6929 832 l  6929 582 l  6679 582 l  pc
7245 365 m  7245 615 l  7495 615 l  7495 365 l  7245 365 l  p ef
7245 365 m  7245 615 l  7495 615 l  7495 365 l  7245 365 l  pc
7811 256 m  7811 506 l  8061 506 l  8061 256 l  7811 256 l  p ef
7811 256 m  7811 506 l  8061 506 l  8061 256 l  7811 256 l  pc
79.99611 lw 1.000 0.261 0.058 c -8474 -1581 m  -8446 -1570 l  -8418 -1560 l 
-8390 -1549 l  -8361 -1537 l  -8333 -1525 l  -8305 -1512 l  -8276 -1498 l 
-8248 -1483 l  -8220 -1466 l  -8192 -1448 l  -8163 -1429 l  -8135 -1407 l 
-8107 -1384 l  -8078 -1358 l  -8050 -1330 l  -8022 -1300 l  -7993 -1267 l 
-7965 -1232 l  -7937 -1193 l  -7909 -1151 l  -7880 -1106 l  -7852 -1059 l 
-7824 -1009 l  -7795 -958 l  -7767 -906 l  -7739 -854 l  -7711 -803 l 
-7682 -752 l  -7654 -704 l  -7626 -658 l  -7597 -615 l  -7569 -575 l  -7541 -540 l 
-7512 -510 l  -7484 -485 l  -7456 -467 l  -7428 -455 l  -7399 -451 l  -7371 -455 l 
-7343 -467 l  -7314 -489 l  -7286 -519 l  -7258 -556 l  -7230 -600 l  -7201 -649 l 
-7173 -702 l  -7145 -759 l  -7116 -818 l  -7088 -879 l  -7060 -939 l  -7031 -1000 l 
-7003 -1058 l  -6975 -1114 l  -6947 -1166 l  -6918 -1214 l  -6890 -1255 l 
-6862 -1291 l  -6833 -1318 l  -6805 -1337 l  -6777 -1346 l  -6749 -1345 l 
-6720 -1335 l  -6692 -1315 l  -6664 -1288 l  -6635 -1254 l  -6607 -1214 l 
-6579 -1170 l  -6550 -1121 l  -6522 -1069 l  -6494 -1016 l  -6466 -961 l 
-6437 -907 l  -6409 -853 l  -6381 -802 l  -6352 -753 l  -6324 -708 l  -6296 -667 l 
-6268 -633 l  -6239 -605 l  -6211 -585 l  -6183 -573 l  -6154 -569 l  -6126 -572 l 
-6098 -582 l  -6069 -599 l  -6041 -620 l  -6013 -647 l  -5985 -678 l  -5956 -712 l 
-5928 -749 l  -5900 -789 l  -5871 -830 l  -5843 -872 l  -5815 -915 l  -5786 -957 l 
-5758 -998 l  -5730 -1038 l  -5702 -1076 l  -5673 -1111 l  -5645 -1142 l 
-5617 -1170 l  -5588 -1193 l  -5560 -1213 l  -5532 -1230 l  -5504 -1244 l 
-5475 -1255 l  -5447 -1263 l  -5419 -1269 l  -5390 -1273 l  -5362 -1275 l 
-5334 -1276 l  -5305 -1275 l  -5277 -1273 l  -5249 -1270 l  -5221 -1267 l 
-5192 -1263 l  -5164 -1260 l  -5136 -1256 l  -5107 -1253 l  -5079 -1251 l 
-5051 -1249 l  -5023 -1249 l  -4994 -1249 l  -4966 -1250 l  -4938 -1252 l 
-4909 -1255 l  -4881 -1258 l  -4853 -1262 l  -4824 -1267 l  -4796 -1273 l 
-4768 -1279 l  -4740 -1286 l  -4711 -1293 l  -4683 -1301 l  -4655 -1310 l 
-4626 -1319 l  -4598 -1328 l  -4570 -1338 l  -4542 -1349 l  -4513 -1360 l 
-4485 -1371 l  -4457 -1382 l  -4428 -1394 l  -4400 -1406 l  -4372 -1417 l 
-4343 -1429 l  -4315 -1440 l  -4287 -1450 l  -4259 -1460 l  -4230 -1469 l 
-4202 -1478 l  -4174 -1485 l  -4145 -1491 l  -4117 -1497 l  -4089 -1500 l 
-4061 -1503 l  -4032 -1504 l  -4004 -1503 l  -3976 -1500 l  -3947 -1496 l 
-3919 -1489 l  -3891 -1481 l  -3862 -1471 l  -3834 -1461 l  -3806 -1449 l 
-3778 -1438 l  -3749 -1426 l  -3721 -1414 l  -3693 -1403 l  -3664 -1393 l 
-3636 -1384 l  -3608 -1377 l  -3579 -1371 l  -3551 -1368 l  -3523 -1368 l 
-3495 -1370 l  -3466 -1375 l  -3438 -1384 l  -3410 -1397 l  -3381 -1414 l 
-3353 -1436 l  -3325 -1461 l  -3297 -1490 l  -3268 -1521 l  -3240 -1555 l 
-3212 -1591 l  -3183 -1628 l  -3155 -1665 l  -3127 -1702 l  -3098 -1739 l 
-3070 -1775 l  -3042 -1809 l  -3014 -1840 l  -2985 -1869 l  -2957 -1895 l 
-2929 -1916 l  -2900 -1933 l  -2872 -1945 l  -2844 -1952 l  -2816 -1952 l 
-2787 -1946 l  -2759 -1933 l  -2731 -1914 l  -2702 -1891 l  -2674 -1862 l 
-2646 -1828 l  -2617 -1791 l  -2589 -1749 l  -2561 -1705 l  -2533 -1658 l 
-2504 -1608 l  -2476 -1557 l  -2448 -1504 l  -2419 -1450 l  -2391 -1396 l 
-2363 -1341 l  -2335 -1287 l  -2306 -1234 l  -2278 -1182 l  -2250 -1132 l 
-2221 -1083 l  -2193 -1037 l  -2165 -993 l  -2136 -952 l  -2108 -913 l 
-2080 -876 l  -2052 -842 l  -2023 -810 l  -1995 -781 l  -1967 -755 l  -1938 -732 l 
-1910 -712 l  -1882 -695 l  -1854 -680 l  -1825 -669 l  -1797 -661 l  -1769 -657 l 
-1740 -655 l  -1712 -657 l  -1684 -663 l  -1655 -672 l  -1627 -684 l  -1599 -699 l 
-1571 -717 l  -1542 -738 l  -1514 -760 l  -1486 -785 l  -1457 -811 l  -1429 -838 l 
-1401 -867 l  -1372 -896 l  -1344 -926 l  -1316 -956 l  -1288 -986 l  -1259 -1016 l 
-1231 -1045 l  -1203 -1074 l  -1174 -1101 l  -1146 -1127 l  -1118 -1151 l 
-1090 -1173 l  -1061 -1194 l  -1033 -1212 l  -1005 -1229 l  -976 -1244 l 
-948 -1258 l  -920 -1270 l  -891 -1280 l  -863 -1289 l  -835 -1297 l  -807 -1303 l 
-778 -1308 l  -750 -1311 l  -722 -1314 l  -693 -1315 l  -665 -1316 l  -637 -1315 l 
-609 -1313 l  -580 -1311 l  -552 -1307 l  -524 -1303 l  -495 -1298 l  -467 -1293 l 
-439 -1287 l  -410 -1281 l  -382 -1274 l  -354 -1266 l  -326 -1259 l  -297 -1251 l 
-269 -1243 l  -241 -1235 l  -212 -1227 l  -184 -1219 l  -156 -1211 l  -128 -1203 l 
-99 -1196 l  -71 -1188 l  -43 -1182 l  -14 -1175 l  13 -1169 l  41 -1164 l 
70 -1159 l  98 -1155 l  126 -1151 l  154 -1148 l  183 -1146 l  211 -1144 l 
239 -1144 l  268 -1143 l  296 -1144 l  324 -1145 l  352 -1148 l  381 -1151 l 
409 -1155 l  437 -1159 l  466 -1165 l  494 -1171 l  522 -1179 l  551 -1187 l 
579 -1196 l  607 -1207 l  635 -1218 l  664 -1230 l  692 -1243 l  720 -1256 l 
749 -1270 l  777 -1284 l  805 -1299 l  833 -1314 l  862 -1329 l  890 -1344 l 
918 -1359 l  947 -1374 l  975 -1389 l  1003 -1403 l  1032 -1418 l  1060 -1431 l 
1088 -1444 l  1116 -1457 l  1145 -1469 l  1173 -1479 l  1201 -1489 l  1230 -1499 l 
1258 -1507 l  1286 -1514 l  1315 -1520 l  1343 -1525 l  1371 -1528 l  1399 -1531 l 
1428 -1532 l  1456 -1533 l  1484 -1531 l  1513 -1529 l  1541 -1525 l  1569 -1519 l 
1597 -1512 l  1626 -1504 l  1654 -1494 l  1682 -1482 l  1711 -1469 l  1739 -1453 l 
1767 -1437 l  1796 -1420 l  1824 -1401 l  1852 -1383 l  1880 -1364 l  1909 -1346 l 
1937 -1328 l  1965 -1311 l  1994 -1295 l  2022 -1281 l  2050 -1269 l  2078 -1258 l 
2107 -1251 l  2135 -1246 l  2163 -1245 l  2192 -1247 l  2220 -1253 l  2248 -1263 l 
2277 -1278 l  2305 -1297 l  2333 -1321 l  2361 -1348 l  2390 -1379 l  2418 -1411 l 
2446 -1446 l  2475 -1482 l  2503 -1518 l  2531 -1554 l  2559 -1590 l  2588 -1624 l 
2616 -1657 l  2644 -1687 l  2673 -1714 l  2701 -1737 l  2729 -1756 l  2758 -1770 l 
2786 -1778 l  2814 -1781 l  2842 -1776 l  2871 -1765 l  2899 -1746 l  2927 -1722 l 
2956 -1693 l  2984 -1659 l  3012 -1620 l  3040 -1579 l  3069 -1535 l  3097 -1489 l 
3125 -1442 l  3154 -1394 l  3182 -1347 l  3210 -1300 l  3239 -1255 l  3267 -1212 l 
3295 -1172 l  3323 -1135 l  3352 -1103 l  3380 -1075 l  3408 -1053 l  3437 -1038 l 
3465 -1028 l  3493 -1023 l  3522 -1024 l  3550 -1029 l  3578 -1039 l  3606 -1053 l 
3635 -1070 l  3663 -1091 l  3691 -1115 l  3720 -1141 l  3748 -1169 l  3776 -1199 l 
3804 -1230 l  3833 -1262 l  3861 -1295 l  3889 -1328 l  3918 -1361 l  3946 -1393 l 
3974 -1425 l  4003 -1455 l  4031 -1484 l  4059 -1511 l  4087 -1536 l  4116 -1560 l 
4144 -1582 l  4172 -1602 l  4201 -1620 l  4229 -1635 l  4257 -1648 l  4285 -1659 l 
4314 -1667 l  4342 -1672 l  4370 -1674 l  4399 -1673 l  4427 -1669 l  4455 -1662 l 
4484 -1652 l  4512 -1638 l  4540 -1620 l  4568 -1599 l  4597 -1574 l  4625 -1546 l 
4653 -1516 l  4682 -1484 l  4710 -1450 l  4738 -1414 l  4766 -1378 l  4795 -1341 l 
4823 -1304 l  4851 -1267 l  4880 -1231 l  4908 -1196 l  4936 -1163 l  4965 -1131 l 
4993 -1102 l  5021 -1075 l  5049 -1051 l  5078 -1031 l  5106 -1014 l  5134 -1002 l 
5163 -994 l  5191 -989 l  5219 -988 l  5247 -990 l  5276 -994 l  5304 -1001 l 
5332 -1010 l  5361 -1021 l  5389 -1033 l  5417 -1046 l  5446 -1061 l  5474 -1075 l 
5502 -1091 l  5530 -1106 l  5559 -1120 l  5587 -1134 l  5615 -1147 l  5644 -1159 l 
5672 -1169 l  5700 -1178 l  5729 -1184 l  5757 -1189 l  5785 -1193 l  5813 -1196 l 
5842 -1197 l  5870 -1198 l  5898 -1198 l  5927 -1198 l  5955 -1198 l  5983 -1197 l 
6011 -1197 l  6040 -1197 l  6068 -1198 l  6096 -1199 l  6125 -1201 l  6153 -1205 l 
6181 -1210 l  6210 -1216 l  6238 -1224 l  6266 -1233 l  6294 -1245 l  6323 -1257 l 
6351 -1271 l  6379 -1286 l  6408 -1302 l  6436 -1319 l  6464 -1336 l  6492 -1353 l 
6521 -1370 l  6549 -1387 l  6577 -1403 l  6606 -1419 l  6634 -1434 l  6662 -1448 l 
6691 -1461 l  6719 -1472 l  6747 -1482 l  6775 -1490 l  6804 -1496 l  6832 -1499 l 
6860 -1501 l  6889 -1500 l  6917 -1498 l  6945 -1494 l  6973 -1489 l  7002 -1483 l 
7030 -1475 l  7058 -1467 l  7087 -1457 l  7115 -1448 l  7143 -1437 l  7172 -1427 l 
7200 -1416 l  7228 -1406 l  7256 -1395 l  7285 -1385 l  7313 -1376 l  7341 -1367 l 
7370 -1360 l  7398 -1353 l  7426 -1347 l  7454 -1343 l  7483 -1339 l  7511 -1336 l 
7539 -1334 l  7568 -1333 l  7596 -1332 l  7624 -1332 l  7653 -1333 l  7681 -1334 l 
7709 -1336 l  7737 -1338 l  7766 -1340 l  7794 -1343 l  7822 -1346 l  7851 -1349 l 
7879 -1353 l  7907 -1356 l  7936 -1360 l  ps
-8599 -1581 m  -8474 -1456 l  -8349 -1581 l  -8474 -1706 l  -8599 -1581 l 
p ef
0 lw -8599 -1581 m  -8474 -1456 l  -8349 -1581 l  -8474 -1706 l  -8599 -1581 l 
pc
-8034 -1151 m  -7909 -1026 l  -7784 -1151 l  -7909 -1276 l  -8034 -1151 l 
p ef
-8034 -1151 m  -7909 -1026 l  -7784 -1151 l  -7909 -1276 l  -8034 -1151 l 
pc
-7468 -467 m  -7343 -342 l  -7218 -467 l  -7343 -592 l  -7468 -467 l  p ef
-7468 -467 m  -7343 -342 l  -7218 -467 l  -7343 -592 l  -7468 -467 l  pc
-6902 -1346 m  -6777 -1221 l  -6652 -1346 l  -6777 -1471 l  -6902 -1346 l 
p ef
-6902 -1346 m  -6777 -1221 l  -6652 -1346 l  -6777 -1471 l  -6902 -1346 l 
pc
-6336 -585 m  -6211 -460 l  -6086 -585 l  -6211 -710 l  -6336 -585 l  p ef
-6336 -585 m  -6211 -460 l  -6086 -585 l  -6211 -710 l  -6336 -585 l  pc
-5770 -1142 m  -5645 -1017 l  -5520 -1142 l  -5645 -1267 l  -5770 -1142 l 
p ef
-5770 -1142 m  -5645 -1017 l  -5520 -1142 l  -5645 -1267 l  -5770 -1142 l 
pc
-5204 -1251 m  -5079 -1126 l  -4954 -1251 l  -5079 -1376 l  -5204 -1251 l 
p ef
-5204 -1251 m  -5079 -1126 l  -4954 -1251 l  -5079 -1376 l  -5204 -1251 l 
pc
-4638 -1360 m  -4513 -1235 l  -4388 -1360 l  -4513 -1485 l  -4638 -1360 l 
p ef
-4638 -1360 m  -4513 -1235 l  -4388 -1360 l  -4513 -1485 l  -4638 -1360 l 
pc
-4072 -1496 m  -3947 -1371 l  -3822 -1496 l  -3947 -1621 l  -4072 -1496 l 
p ef
-4072 -1496 m  -3947 -1371 l  -3822 -1496 l  -3947 -1621 l  -4072 -1496 l 
pc
-3506 -1414 m  -3381 -1289 l  -3256 -1414 l  -3381 -1539 l  -3506 -1414 l 
p ef
-3506 -1414 m  -3381 -1289 l  -3256 -1414 l  -3381 -1539 l  -3506 -1414 l 
pc
-2941 -1952 m  -2816 -1827 l  -2691 -1952 l  -2816 -2077 l  -2941 -1952 l 
p ef
-2941 -1952 m  -2816 -1827 l  -2691 -1952 l  -2816 -2077 l  -2941 -1952 l 
pc
-2375 -1132 m  -2250 -1007 l  -2125 -1132 l  -2250 -1257 l  -2375 -1132 l 
p ef
-2375 -1132 m  -2250 -1007 l  -2125 -1132 l  -2250 -1257 l  -2375 -1132 l 
pc
-1809 -663 m  -1684 -538 l  -1559 -663 l  -1684 -788 l  -1809 -663 l  p ef
-1809 -663 m  -1684 -538 l  -1559 -663 l  -1684 -788 l  -1809 -663 l  pc
-1243 -1151 m  -1118 -1026 l  -993 -1151 l  -1118 -1276 l  -1243 -1151 l 
p ef
-1243 -1151 m  -1118 -1026 l  -993 -1151 l  -1118 -1276 l  -1243 -1151 l 
pc
-677 -1307 m  -552 -1182 l  -427 -1307 l  -552 -1432 l  -677 -1307 l  p ef
-677 -1307 m  -552 -1182 l  -427 -1307 l  -552 -1432 l  -677 -1307 l  pc
-111 -1169 m  13 -1044 l  138 -1169 l  13 -1294 l  -111 -1169 l  p ef
-111 -1169 m  13 -1044 l  138 -1169 l  13 -1294 l  -111 -1169 l  pc
454 -1196 m  579 -1071 l  704 -1196 l  579 -1321 l  454 -1196 l  p ef
454 -1196 m  579 -1071 l  704 -1196 l  579 -1321 l  454 -1196 l  pc
1020 -1469 m  1145 -1344 l  1270 -1469 l  1145 -1594 l  1020 -1469 l  p ef
1020 -1469 m  1145 -1344 l  1270 -1469 l  1145 -1594 l  1020 -1469 l  pc
1586 -1469 m  1711 -1344 l  1836 -1469 l  1711 -1594 l  1586 -1469 l  p ef
1586 -1469 m  1711 -1344 l  1836 -1469 l  1711 -1594 l  1586 -1469 l  pc
2152 -1278 m  2277 -1153 l  2402 -1278 l  2277 -1403 l  2152 -1278 l  p ef
2152 -1278 m  2277 -1153 l  2402 -1278 l  2277 -1403 l  2152 -1278 l  pc
2717 -1776 m  2842 -1651 l  2967 -1776 l  2842 -1901 l  2717 -1776 l  p ef
2717 -1776 m  2842 -1651 l  2967 -1776 l  2842 -1901 l  2717 -1776 l  pc
3283 -1053 m  3408 -928 l  3533 -1053 l  3408 -1178 l  3283 -1053 l  p ef
3283 -1053 m  3408 -928 l  3533 -1053 l  3408 -1178 l  3283 -1053 l  pc
3849 -1425 m  3974 -1300 l  4099 -1425 l  3974 -1550 l  3849 -1425 l  p ef
3849 -1425 m  3974 -1300 l  4099 -1425 l  3974 -1550 l  3849 -1425 l  pc
4415 -1620 m  4540 -1495 l  4665 -1620 l  4540 -1745 l  4415 -1620 l  p ef
4415 -1620 m  4540 -1495 l  4665 -1620 l  4540 -1745 l  4415 -1620 l  pc
4981 -1014 m  5106 -889 l  5231 -1014 l  5106 -1139 l  4981 -1014 l  p ef
4981 -1014 m  5106 -889 l  5231 -1014 l  5106 -1139 l  4981 -1014 l  pc
5547 -1169 m  5672 -1044 l  5797 -1169 l  5672 -1294 l  5547 -1169 l  p ef
5547 -1169 m  5672 -1044 l  5797 -1169 l  5672 -1294 l  5547 -1169 l  pc
6113 -1224 m  6238 -1099 l  6363 -1224 l  6238 -1349 l  6113 -1224 l  p ef
6113 -1224 m  6238 -1099 l  6363 -1224 l  6238 -1349 l  6113 -1224 l  pc
6679 -1496 m  6804 -1371 l  6929 -1496 l  6804 -1621 l  6679 -1496 l  p ef
6679 -1496 m  6804 -1371 l  6929 -1496 l  6804 -1621 l  6679 -1496 l  pc
7245 -1360 m  7370 -1235 l  7495 -1360 l  7370 -1485 l  7245 -1360 l  p ef
7245 -1360 m  7370 -1235 l  7495 -1360 l  7370 -1485 l  7245 -1360 l  pc
7811 -1360 m  7936 -1235 l  8061 -1360 l  7936 -1485 l  7811 -1360 l  p ef
7811 -1360 m  7936 -1235 l  8061 -1360 l  7936 -1485 l  7811 -1360 l  pc
0.003 0.003 0.003 c
/Helvetica f
353 sf -8567 4242 m  185 0 (1) bs
/Helvetica f
353 sf -8002 4242 m  185 0 (2) bs
/Helvetica f
353 sf -7436 4242 m  185 0 (3) bs
/Helvetica f
353 sf -6870 4242 m  185 0 (4) bs
/Helvetica f
353 sf -6304 4242 m  185 0 (5) bs
/Helvetica f
353 sf -5738 4242 m  185 0 (6) bs
/Helvetica f
353 sf -5172 4242 m  185 0 (7) bs
/Helvetica f
353 sf -4606 4242 m  185 0 (8) bs
/Helvetica f
353 sf -4040 4242 m  185 0 (9) bs
/Helvetica f
353 sf -3566 4242 m  185 0 (1) bs
185 185 (0) bs
/Helvetica f
353 sf -2988 4242 m  185 0 (1) bs
185 159 (1) bs
/Helvetica f
353 sf -2435 4242 m  185 0 (1) bs
185 185 (2) bs
/Helvetica f
353 sf -1869 4242 m  185 0 (1) bs
185 185 (3) bs
/Helvetica f
353 sf -1303 4242 m  185 0 (1) bs
185 185 (4) bs
/Helvetica f
353 sf -737 4242 m  185 0 (1) bs
185 185 (5) bs
/Helvetica f
353 sf -171 4242 m  185 0 (1) bs
185 185 (6) bs
/Helvetica f
353 sf 395 4242 m  185 0 (1) bs
185 185 (7) bs
/Helvetica f
353 sf 961 4242 m  185 0 (1) bs
185 185 (8) bs
/Helvetica f
353 sf 1527 4242 m  185 0 (1) bs
185 185 (9) bs
/Helvetica f
353 sf 2093 4242 m  185 0 (2) bs
185 185 (0) bs
/Helvetica f
353 sf 2658 4242 m  185 0 (2) bs
185 185 (1) bs
/Helvetica f
353 sf 3224 4242 m  185 0 (2) bs
185 185 (2) bs
/Helvetica f
353 sf 3790 4242 m  185 0 (2) bs
185 185 (3) bs
/Helvetica f
353 sf 4356 4242 m  185 0 (2) bs
185 185 (4) bs
/Helvetica f
353 sf 4922 4242 m  185 0 (2) bs
185 185 (5) bs
/Helvetica f
353 sf 5488 4242 m  185 0 (2) bs
185 185 (6) bs
/Helvetica f
353 sf 6054 4242 m  185 0 (2) bs
185 185 (7) bs
/Helvetica f
353 sf 6620 4242 m  185 0 (2) bs
185 185 (8) bs
/Helvetica f
353 sf 7186 4242 m  185 0 (2) bs
185 185 (9) bs
/Helvetica f
353 sf 7752 4242 m  185 0 (3) bs
185 185 (0) bs
/Helvetica f
353 sf -9703 3795 m  185 0 (0) bs
106 185 (,) bs
185 291 (0) bs
185 476 (0) bs
318 661 (%) bs
/Helvetica f
353 sf -9888 2956 m  185 0 (1) bs
185 185 (0) bs
106 370 (,) bs
185 476 (0) bs
185 661 (0) bs
318 847 (%) bs
/Helvetica f
353 sf -9888 2118 m  185 0 (2) bs
185 185 (0) bs
106 370 (,) bs
185 476 (0) bs
185 661 (0) bs
318 847 (%) bs
/Helvetica f
353 sf -9888 1280 m  185 0 (3) bs
185 185 (0) bs
106 370 (,) bs
185 476 (0) bs
185 661 (0) bs
318 847 (%) bs
/Helvetica f
353 sf -9888 442 m  185 0 (4) bs
185 185 (0) bs
106 370 (,) bs
185 476 (0) bs
185 661 (0) bs
318 847 (%) bs
/Helvetica f
353 sf -9888 -396 m  185 0 (5) bs
185 185 (0) bs
106 370 (,) bs
185 476 (0) bs
185 661 (0) bs
318 847 (%) bs
/Helvetica f
353 sf -9888 -1234 m  185 0 (6) bs
185 185 (0) bs
106 370 (,) bs
185 476 (0) bs
185 661 (0) bs
318 847 (%) bs
/Helvetica f
353 sf -9888 -2072 m  185 0 (7) bs
185 185 (0) bs
106 370 (,) bs
185 476 (0) bs
185 661 (0) bs
318 847 (%) bs
/Helvetica f
353 sf -9888 -2910 m  185 0 (8) bs
185 185 (0) bs
106 370 (,) bs
185 476 (0) bs
185 661 (0) bs
318 847 (%) bs
/Helvetica f
459 sf -2342 -3652 m  159 0 (r) bs
238 159 (e) bs
238 397 (p) bs
238 635 (o) bs
159 873 (r) bs
106 1032 (t) bs
238 1138 (_) bs
238 1376 (8) bs
238 1614 (_) bs
238 1852 (2) bs
238 2090 (_) bs
238 2328 (1) bs
132 2566 ( ) bs
159 2699 (-) bs
132 2858 ( ) bs
238 2990 (p) bs
159 3228 (r) bs
238 3387 (e) bs
238 3625 (d) bs
106 3863 (i) bs
238 3969 (c) bs
106 4207 (t) bs
132 4313 ( ) bs
238 4445 (8) bs
79.99611 lw 0.003 0.273 0.527 c 8650 -250 m  9450 -250 l  ps
8944 -355 m  8944 -144 l  9155 -144 l  9155 -355 l  8944 -355 l  p ef
0 lw 8944 -355 m  8944 -144 l  9155 -144 l  9155 -355 l  8944 -355 l  pc
79.99611 lw 1.000 0.261 0.058 c 8650 247 m  9450 247 l  ps
8944 247 m  9050 353 l  9155 247 l  9050 142 l  8944 247 l  p ef
0 lw 8944 247 m  9050 353 l  9155 247 l  9050 142 l  8944 247 l  pc
0.003 0.003 0.003 c
/Helvetica f
353 sf 9550 -130 m  238 0 (H) bs
185 238 (e) bs
/Helvetica f
353 sf 9550 367 m  238 0 (K) bs
185 238 (e) bs
0 9006 t 
pom
count op_count sub {pop} repeat countdictstack dict_count sub {end} repeat b4_inc_state restore
%%PageTrailer
%%Trailer
%%EOF
