%!PS-Adobe-3.0 EPSF-3.0 
%%BoundingBox: 0 0 584 255
%%Pages: 0
%%Creator: LibreOffice 4.4
%%Title: none
%%CreationDate: none
%%LanguageLevel: 2
%%EndComments
%%BeginProlog
%%BeginResource: procset SDRes-Prolog 1.0 0
/b4_inc_state save def
/dict_count countdictstack def
/op_count count 1 sub def
userdict begin
0 setgray 0 setlinecap 1 setlinewidth 0 setlinejoin 10 setmiterlimit[] 0 setdash newpath
/languagelevel where {pop languagelevel 1 ne {false setstrokeadjust false setoverprint} if} if
/bdef {bind def} bind def
/c {setrgbcolor} bdef
/l {neg lineto} bdef
/rl {neg rlineto} bdef
/lc {setlinecap} bdef
/lj {setlinejoin} bdef
/lw {setlinewidth} bdef
/ml {setmiterlimit} bdef
/ld {setdash} bdef
/m {neg moveto} bdef
/ct {6 2 roll neg 6 2 roll neg 6 2 roll neg curveto} bdef
/r {rotate} bdef
/t {neg translate} bdef
/s {scale} bdef
/sw {show} bdef
/gs {gsave} bdef
/gr {grestore} bdef
/f {findfont dup length dict begin
{1 index /FID ne {def} {pop pop} ifelse} forall /Encoding ISOLatin1Encoding def
currentdict end /NFont exch definefont pop /NFont findfont} bdef
/p {closepath} bdef
/sf {scalefont setfont} bdef
/ef {eofill}bdef
/pc {closepath stroke}bdef
/ps {stroke}bdef
/pum {matrix currentmatrix}bdef
/pom {setmatrix}bdef
/bs {/aString exch def /nXOfs exch def /nWidth exch def currentpoint nXOfs 0 rmoveto pum nWidth aString stringwidth pop div 1 scale aString show pom moveto} bdef
%%EndResource
%%EndProlog
%%BeginSetup
%%EndSetup
%%Page: 1 1
%%BeginPageSetup
%%EndPageSetup
pum
0.02834 0.02831 s 
0 -9006 t
/tm matrix currentmatrix def
tm setmatrix
10301 4503 t 
1 1 s 
1.000 1.000 1.000 c 0 4502 m  -10301 4502 l  -10301 -4503 l  10301 -4503 l 
10301 4502 l  0 4502 l  p ef
0 lw 1 lj 0.703 0.703 0.703 c -269 3675 m  -8474 3675 l  -8474 -3029 l 
7936 -3029 l  7936 3675 l  -269 3675 l  pc
7936 3674 m  -8474 3674 l  ps
7936 2835 m  -8474 2835 l  ps
7936 1997 m  -8474 1997 l  ps
7936 1159 m  -8474 1159 l  ps
7936 321 m  -8474 321 l  ps
7936 -516 m  -8474 -516 l  ps
7936 -1354 m  -8474 -1354 l  ps
7936 -2192 m  -8474 -2192 l  ps
7936 -3030 m  -8474 -3030 l  ps
-8474 3824 m  -8474 3674 l  ps
-8474 3824 m  -8474 3674 l  ps
-7909 3824 m  -7909 3674 l  ps
-7909 3824 m  -7909 3674 l  ps
-7343 3824 m  -7343 3674 l  ps
-7343 3824 m  -7343 3674 l  ps
-6777 3824 m  -6777 3674 l  ps
-6777 3824 m  -6777 3674 l  ps
-6211 3824 m  -6211 3674 l  ps
-6211 3824 m  -6211 3674 l  ps
-5645 3824 m  -5645 3674 l  ps
-5645 3824 m  -5645 3674 l  ps
-5079 3824 m  -5079 3674 l  ps
-5079 3824 m  -5079 3674 l  ps
-4513 3824 m  -4513 3674 l  ps
-4513 3824 m  -4513 3674 l  ps
-3947 3824 m  -3947 3674 l  ps
-3947 3824 m  -3947 3674 l  ps
-3381 3824 m  -3381 3674 l  ps
-3381 3824 m  -3381 3674 l  ps
-2816 3824 m  -2816 3674 l  ps
-2816 3824 m  -2816 3674 l  ps
-2250 3824 m  -2250 3674 l  ps
-2250 3824 m  -2250 3674 l  ps
-1684 3824 m  -1684 3674 l  ps
-1684 3824 m  -1684 3674 l  ps
-1118 3824 m  -1118 3674 l  ps
-1118 3824 m  -1118 3674 l  ps
-552 3824 m  -552 3674 l  ps
-552 3824 m  -552 3674 l  ps
13 3824 m  13 3674 l  ps
13 3824 m  13 3674 l  ps
579 3824 m  579 3674 l  ps
579 3824 m  579 3674 l  ps
1145 3824 m  1145 3674 l  ps
1145 3824 m  1145 3674 l  ps
1711 3824 m  1711 3674 l  ps
1711 3824 m  1711 3674 l  ps
2277 3824 m  2277 3674 l  ps
2277 3824 m  2277 3674 l  ps
2842 3824 m  2842 3674 l  ps
2842 3824 m  2842 3674 l  ps
3408 3824 m  3408 3674 l  ps
3408 3824 m  3408 3674 l  ps
3974 3824 m  3974 3674 l  ps
3974 3824 m  3974 3674 l  ps
4540 3824 m  4540 3674 l  ps
4540 3824 m  4540 3674 l  ps
5106 3824 m  5106 3674 l  ps
5106 3824 m  5106 3674 l  ps
5672 3824 m  5672 3674 l  ps
5672 3824 m  5672 3674 l  ps
6238 3824 m  6238 3674 l  ps
6238 3824 m  6238 3674 l  ps
6804 3824 m  6804 3674 l  ps
6804 3824 m  6804 3674 l  ps
7370 3824 m  7370 3674 l  ps
7370 3824 m  7370 3674 l  ps
7936 3824 m  7936 3674 l  ps
7936 3824 m  7936 3674 l  ps
-8474 3674 m  7936 3674 l  ps
-8624 3674 m  -8474 3674 l  ps
-8624 3674 m  -8474 3674 l  ps
-8624 2835 m  -8474 2835 l  ps
-8624 2835 m  -8474 2835 l  ps
-8624 1997 m  -8474 1997 l  ps
-8624 1997 m  -8474 1997 l  ps
-8624 1159 m  -8474 1159 l  ps
-8624 1159 m  -8474 1159 l  ps
-8624 321 m  -8474 321 l  ps
-8624 321 m  -8474 321 l  ps
-8624 -516 m  -8474 -516 l  ps
-8624 -516 m  -8474 -516 l  ps
-8624 -1354 m  -8474 -1354 l  ps
-8624 -1354 m  -8474 -1354 l  ps
-8624 -2192 m  -8474 -2192 l  ps
-8624 -2192 m  -8474 -2192 l  ps
-8624 -3030 m  -8474 -3030 l  ps
-8624 -3030 m  -8474 -3030 l  ps
-8474 3674 m  -8474 -3030 l  ps
79.99611 lw 0.003 0.273 0.527 c -8474 -619 m  -8446 -631 l  -8418 -643 l 
-8390 -655 l  -8361 -667 l  -8333 -679 l  -8305 -690 l  -8276 -701 l  -8248 -712 l 
-8220 -722 l  -8192 -731 l  -8163 -740 l  -8135 -749 l  -8107 -757 l  -8078 -764 l 
-8050 -770 l  -8022 -775 l  -7993 -779 l  -7965 -783 l  -7937 -785 l  -7909 -787 l 
-7880 -787 l  -7852 -786 l  -7824 -784 l  -7795 -782 l  -7767 -779 l  -7739 -775 l 
-7711 -771 l  -7682 -767 l  -7654 -762 l  -7626 -758 l  -7597 -754 l  -7569 -749 l 
-7541 -746 l  -7512 -742 l  -7484 -740 l  -7456 -738 l  -7428 -736 l  -7399 -736 l 
-7371 -737 l  -7343 -739 l  -7314 -743 l  -7286 -748 l  -7258 -753 l  -7230 -760 l 
-7201 -768 l  -7173 -777 l  -7145 -786 l  -7116 -796 l  -7088 -806 l  -7060 -817 l 
-7031 -828 l  -7003 -839 l  -6975 -850 l  -6947 -861 l  -6918 -872 l  -6890 -882 l 
-6862 -893 l  -6833 -902 l  -6805 -911 l  -6777 -920 l  -6749 -927 l  -6720 -934 l 
-6692 -940 l  -6664 -945 l  -6635 -949 l  -6607 -952 l  -6579 -954 l  -6550 -956 l 
-6522 -956 l  -6494 -956 l  -6466 -955 l  -6437 -952 l  -6409 -949 l  -6381 -945 l 
-6352 -939 l  -6324 -933 l  -6296 -926 l  -6268 -918 l  -6239 -909 l  -6211 -898 l 
-6183 -887 l  -6154 -875 l  -6126 -862 l  -6098 -848 l  -6069 -834 l  -6041 -820 l 
-6013 -806 l  -5985 -791 l  -5956 -777 l  -5928 -763 l  -5900 -750 l  -5871 -737 l 
-5843 -725 l  -5815 -714 l  -5786 -703 l  -5758 -695 l  -5730 -687 l  -5702 -681 l 
-5673 -677 l  -5645 -674 l  -5617 -674 l  -5588 -675 l  -5560 -678 l  -5532 -682 l 
-5504 -687 l  -5475 -694 l  -5447 -701 l  -5419 -708 l  -5390 -716 l  -5362 -725 l 
-5334 -733 l  -5305 -741 l  -5277 -748 l  -5249 -755 l  -5221 -761 l  -5192 -766 l 
-5164 -770 l  -5136 -772 l  -5107 -773 l  -5079 -772 l  -5051 -769 l  -5023 -764 l 
-4994 -758 l  -4966 -750 l  -4938 -740 l  -4909 -730 l  -4881 -718 l  -4853 -706 l 
-4824 -694 l  -4796 -681 l  -4768 -668 l  -4740 -654 l  -4711 -641 l  -4683 -629 l 
-4655 -617 l  -4626 -605 l  -4598 -595 l  -4570 -585 l  -4542 -577 l  -4513 -571 l 
-4485 -566 l  -4457 -562 l  -4428 -560 l  -4400 -560 l  -4372 -561 l  -4343 -563 l 
-4315 -566 l  -4287 -570 l  -4259 -575 l  -4230 -580 l  -4202 -587 l  -4174 -594 l 
-4145 -602 l  -4117 -610 l  -4089 -618 l  -4061 -627 l  -4032 -636 l  -4004 -645 l 
-3976 -654 l  -3947 -663 l  -3919 -671 l  -3891 -680 l  -3862 -688 l  -3834 -696 l 
-3806 -703 l  -3778 -710 l  -3749 -717 l  -3721 -723 l  -3693 -728 l  -3664 -733 l 
-3636 -737 l  -3608 -741 l  -3579 -743 l  -3551 -745 l  -3523 -746 l  -3495 -747 l 
-3466 -746 l  -3438 -744 l  -3410 -741 l  -3381 -738 l  -3353 -733 l  -3325 -727 l 
-3297 -720 l  -3268 -713 l  -3240 -705 l  -3212 -697 l  -3183 -688 l  -3155 -679 l 
-3127 -671 l  -3098 -662 l  -3070 -654 l  -3042 -647 l  -3014 -640 l  -2985 -633 l 
-2957 -628 l  -2929 -623 l  -2900 -620 l  -2872 -618 l  -2844 -618 l  -2816 -619 l 
-2787 -622 l  -2759 -627 l  -2731 -632 l  -2702 -640 l  -2674 -648 l  -2646 -657 l 
-2617 -667 l  -2589 -677 l  -2561 -688 l  -2533 -699 l  -2504 -711 l  -2476 -722 l 
-2448 -732 l  -2419 -743 l  -2391 -753 l  -2363 -762 l  -2335 -770 l  -2306 -777 l 
-2278 -782 l  -2250 -787 l  -2221 -789 l  -2193 -791 l  -2165 -790 l  -2136 -789 l 
-2108 -787 l  -2080 -784 l  -2052 -780 l  -2023 -776 l  -1995 -771 l  -1967 -766 l 
-1938 -762 l  -1910 -757 l  -1882 -752 l  -1854 -748 l  -1825 -744 l  -1797 -741 l 
-1769 -739 l  -1740 -738 l  -1712 -738 l  -1684 -739 l  -1655 -742 l  -1627 -746 l 
-1599 -752 l  -1571 -758 l  -1542 -766 l  -1514 -774 l  -1486 -783 l  -1457 -793 l 
-1429 -804 l  -1401 -814 l  -1372 -825 l  -1344 -837 l  -1316 -848 l  -1288 -859 l 
-1259 -871 l  -1231 -881 l  -1203 -892 l  -1174 -902 l  -1146 -911 l  -1118 -920 l 
-1090 -927 l  -1061 -934 l  -1033 -940 l  -1005 -945 l  -976 -949 l  -948 -953 l 
-920 -955 l  -891 -957 l  -863 -957 l  -835 -957 l  -807 -955 l  -778 -953 l 
-750 -949 l  -722 -945 l  -693 -940 l  -665 -934 l  -637 -926 l  -609 -918 l 
-580 -909 l  -552 -898 l  -524 -887 l  -495 -875 l  -467 -862 l  -439 -848 l 
-410 -834 l  -382 -820 l  -354 -805 l  -326 -791 l  -297 -777 l  -269 -763 l 
-241 -749 l  -212 -737 l  -184 -725 l  -156 -713 l  -128 -703 l  -99 -694 l 
-71 -687 l  -43 -681 l  -14 -677 l  13 -674 l  41 -674 l  70 -675 l  98 -678 l 
126 -682 l  154 -687 l  183 -694 l  211 -701 l  239 -708 l  268 -716 l 
296 -725 l  324 -733 l  352 -741 l  381 -748 l  409 -755 l  437 -761 l 
466 -766 l  494 -770 l  522 -772 l  551 -773 l  579 -772 l  607 -769 l 
635 -764 l  664 -758 l  692 -750 l  720 -740 l  749 -730 l  777 -718 l 
805 -706 l  833 -694 l  862 -681 l  890 -668 l  918 -654 l  947 -641 l 
975 -629 l  1003 -617 l  1032 -605 l  1060 -595 l  1088 -585 l  1116 -577 l 
1145 -571 l  1173 -566 l  1201 -562 l  1230 -560 l  1258 -560 l  1286 -561 l 
1315 -563 l  1343 -566 l  1371 -570 l  1399 -575 l  1428 -580 l  1456 -587 l 
1484 -594 l  1513 -602 l  1541 -610 l  1569 -618 l  1597 -627 l  1626 -636 l 
1654 -645 l  1682 -654 l  1711 -663 l  1739 -671 l  1767 -680 l  1796 -688 l 
1824 -696 l  1852 -703 l  1880 -710 l  1909 -717 l  1937 -723 l  1965 -728 l 
1994 -733 l  2022 -737 l  2050 -741 l  2078 -743 l  2107 -745 l  2135 -746 l 
2163 -747 l  2192 -746 l  2220 -744 l  2248 -741 l  2277 -738 l  2305 -733 l 
2333 -727 l  2361 -720 l  2390 -713 l  2418 -705 l  2446 -697 l  2475 -688 l 
2503 -679 l  2531 -671 l  2559 -662 l  2588 -654 l  2616 -647 l  2644 -640 l 
2673 -633 l  2701 -628 l  2729 -623 l  2758 -620 l  2786 -618 l  2814 -618 l 
2842 -619 l  2871 -622 l  2899 -627 l  2927 -632 l  2956 -640 l  2984 -648 l 
3012 -657 l  3040 -667 l  3069 -677 l  3097 -688 l  3125 -699 l  3154 -711 l 
3182 -722 l  3210 -732 l  3239 -743 l  3267 -753 l  3295 -762 l  3323 -770 l 
3352 -777 l  3380 -782 l  3408 -787 l  3437 -789 l  3465 -791 l  3493 -790 l 
3522 -789 l  3550 -787 l  3578 -784 l  3606 -780 l  3635 -776 l  3663 -771 l 
3691 -766 l  3720 -762 l  3748 -757 l  3776 -752 l  3804 -748 l  3833 -744 l 
3861 -741 l  3889 -739 l  3918 -738 l  3946 -738 l  3974 -739 l  4003 -742 l 
4031 -746 l  4059 -752 l  4087 -758 l  4116 -766 l  4144 -774 l  4172 -783 l 
4201 -793 l  4229 -804 l  4257 -814 l  4285 -825 l  4314 -837 l  4342 -848 l 
4370 -859 l  4399 -871 l  4427 -881 l  4455 -892 l  4484 -902 l  4512 -911 l 
4540 -920 l  4568 -927 l  4597 -934 l  4625 -940 l  4653 -945 l  4682 -950 l 
4710 -953 l  4738 -955 l  4766 -957 l  4795 -957 l  4823 -957 l  4851 -955 l 
4880 -953 l  4908 -949 l  4936 -945 l  4965 -940 l  4993 -934 l  5021 -926 l 
5049 -918 l  5078 -909 l  5106 -898 l  5134 -887 l  5163 -875 l  5191 -862 l 
5219 -848 l  5247 -834 l  5276 -820 l  5304 -805 l  5332 -791 l  5361 -777 l 
5389 -763 l  5417 -749 l  5446 -736 l  5474 -724 l  5502 -713 l  5530 -703 l 
5559 -694 l  5587 -687 l  5615 -681 l  5644 -677 l  5672 -674 l  5700 -674 l 
5729 -675 l  5757 -678 l  5785 -682 l  5813 -688 l  5842 -694 l  5870 -701 l 
5898 -709 l  5927 -717 l  5955 -725 l  5983 -733 l  6011 -741 l  6040 -749 l 
6068 -756 l  6096 -762 l  6125 -767 l  6153 -770 l  6181 -773 l  6210 -773 l 
6238 -772 l  6266 -769 l  6294 -764 l  6323 -757 l  6351 -749 l  6379 -739 l 
6408 -729 l  6436 -717 l  6464 -705 l  6492 -692 l  6521 -679 l  6549 -666 l 
6577 -653 l  6606 -640 l  6634 -627 l  6662 -615 l  6691 -604 l  6719 -594 l 
6747 -585 l  6775 -577 l  6804 -571 l  6832 -566 l  6860 -563 l  6889 -562 l 
6917 -562 l  6945 -564 l  6973 -566 l  7002 -570 l  7030 -574 l  7058 -580 l 
7087 -586 l  7115 -593 l  7143 -600 l  7172 -608 l  7200 -615 l  7228 -624 l 
7256 -632 l  7285 -640 l  7313 -648 l  7341 -656 l  7370 -663 l  7398 -670 l 
7426 -676 l  7454 -682 l  7483 -687 l  7511 -692 l  7539 -697 l  7568 -701 l 
7596 -706 l  7624 -709 l  7653 -713 l  7681 -716 l  7709 -719 l  7737 -722 l 
7766 -724 l  7794 -727 l  7822 -729 l  7851 -731 l  7879 -733 l  7907 -736 l 
7936 -738 l  ps
-8599 -744 m  -8599 -494 l  -8349 -494 l  -8349 -744 l  -8599 -744 l  p ef
0 lw -8599 -744 m  -8599 -494 l  -8349 -494 l  -8349 -744 l  -8599 -744 l 
pc
-8034 -912 m  -8034 -662 l  -7784 -662 l  -7784 -912 l  -8034 -912 l  p ef
-8034 -912 m  -8034 -662 l  -7784 -662 l  -7784 -912 l  -8034 -912 l  pc
-7468 -864 m  -7468 -614 l  -7218 -614 l  -7218 -864 l  -7468 -864 l  p ef
-7468 -864 m  -7468 -614 l  -7218 -614 l  -7218 -864 l  -7468 -864 l  pc
-6902 -1045 m  -6902 -795 l  -6652 -795 l  -6652 -1045 l  -6902 -1045 l 
p ef
-6902 -1045 m  -6902 -795 l  -6652 -795 l  -6652 -1045 l  -6902 -1045 l 
pc
-6336 -1023 m  -6336 -773 l  -6086 -773 l  -6086 -1023 l  -6336 -1023 l 
p ef
-6336 -1023 m  -6336 -773 l  -6086 -773 l  -6086 -1023 l  -6336 -1023 l 
pc
-5770 -799 m  -5770 -549 l  -5520 -549 l  -5520 -799 l  -5770 -799 l  p ef
-5770 -799 m  -5770 -549 l  -5520 -549 l  -5520 -799 l  -5770 -799 l  pc
-5204 -897 m  -5204 -647 l  -4954 -647 l  -4954 -897 l  -5204 -897 l  p ef
-5204 -897 m  -5204 -647 l  -4954 -647 l  -4954 -897 l  -5204 -897 l  pc
-4638 -696 m  -4638 -446 l  -4388 -446 l  -4388 -696 l  -4638 -696 l  p ef
-4638 -696 m  -4638 -446 l  -4388 -446 l  -4388 -696 l  -4638 -696 l  pc
-4072 -788 m  -4072 -538 l  -3822 -538 l  -3822 -788 l  -4072 -788 l  p ef
-4072 -788 m  -4072 -538 l  -3822 -538 l  -3822 -788 l  -4072 -788 l  pc
-3506 -863 m  -3506 -613 l  -3256 -613 l  -3256 -863 l  -3506 -863 l  p ef
-3506 -863 m  -3506 -613 l  -3256 -613 l  -3256 -863 l  -3506 -863 l  pc
-2941 -744 m  -2941 -494 l  -2691 -494 l  -2691 -744 l  -2941 -744 l  p ef
-2941 -744 m  -2941 -494 l  -2691 -494 l  -2691 -744 l  -2941 -744 l  pc
-2375 -912 m  -2375 -662 l  -2125 -662 l  -2125 -912 l  -2375 -912 l  p ef
-2375 -912 m  -2375 -662 l  -2125 -662 l  -2125 -912 l  -2375 -912 l  pc
-1809 -864 m  -1809 -614 l  -1559 -614 l  -1559 -864 l  -1809 -864 l  p ef
-1809 -864 m  -1809 -614 l  -1559 -614 l  -1559 -864 l  -1809 -864 l  pc
-1243 -1045 m  -1243 -795 l  -993 -795 l  -993 -1045 l  -1243 -1045 l 
p ef
-1243 -1045 m  -1243 -795 l  -993 -795 l  -993 -1045 l  -1243 -1045 l 
pc
-677 -1023 m  -677 -773 l  -427 -773 l  -427 -1023 l  -677 -1023 l  p ef
-677 -1023 m  -677 -773 l  -427 -773 l  -427 -1023 l  -677 -1023 l  pc
-111 -799 m  -111 -549 l  138 -549 l  138 -799 l  -111 -799 l  p ef
-111 -799 m  -111 -549 l  138 -549 l  138 -799 l  -111 -799 l  pc
454 -897 m  454 -647 l  704 -647 l  704 -897 l  454 -897 l  p ef
454 -897 m  454 -647 l  704 -647 l  704 -897 l  454 -897 l  pc
1020 -696 m  1020 -446 l  1270 -446 l  1270 -696 l  1020 -696 l  p ef
1020 -696 m  1020 -446 l  1270 -446 l  1270 -696 l  1020 -696 l  pc
1586 -788 m  1586 -538 l  1836 -538 l  1836 -788 l  1586 -788 l  p ef
1586 -788 m  1586 -538 l  1836 -538 l  1836 -788 l  1586 -788 l  pc
2152 -863 m  2152 -613 l  2402 -613 l  2402 -863 l  2152 -863 l  p ef
2152 -863 m  2152 -613 l  2402 -613 l  2402 -863 l  2152 -863 l  pc
2717 -744 m  2717 -494 l  2967 -494 l  2967 -744 l  2717 -744 l  p ef
2717 -744 m  2717 -494 l  2967 -494 l  2967 -744 l  2717 -744 l  pc
3283 -912 m  3283 -662 l  3533 -662 l  3533 -912 l  3283 -912 l  p ef
3283 -912 m  3283 -662 l  3533 -662 l  3533 -912 l  3283 -912 l  pc
3849 -864 m  3849 -614 l  4099 -614 l  4099 -864 l  3849 -864 l  p ef
3849 -864 m  3849 -614 l  4099 -614 l  4099 -864 l  3849 -864 l  pc
4415 -1045 m  4415 -795 l  4665 -795 l  4665 -1045 l  4415 -1045 l  p ef
4415 -1045 m  4415 -795 l  4665 -795 l  4665 -1045 l  4415 -1045 l  pc
4981 -1023 m  4981 -773 l  5231 -773 l  5231 -1023 l  4981 -1023 l  p ef
4981 -1023 m  4981 -773 l  5231 -773 l  5231 -1023 l  4981 -1023 l  pc
5547 -799 m  5547 -549 l  5797 -549 l  5797 -799 l  5547 -799 l  p ef
5547 -799 m  5547 -549 l  5797 -549 l  5797 -799 l  5547 -799 l  pc
6113 -897 m  6113 -647 l  6363 -647 l  6363 -897 l  6113 -897 l  p ef
6113 -897 m  6113 -647 l  6363 -647 l  6363 -897 l  6113 -897 l  pc
6679 -696 m  6679 -446 l  6929 -446 l  6929 -696 l  6679 -696 l  p ef
6679 -696 m  6679 -446 l  6929 -446 l  6929 -696 l  6679 -696 l  pc
7245 -788 m  7245 -538 l  7495 -538 l  7495 -788 l  7245 -788 l  p ef
7245 -788 m  7245 -538 l  7495 -538 l  7495 -788 l  7245 -788 l  pc
7811 -863 m  7811 -613 l  8061 -613 l  8061 -863 l  7811 -863 l  p ef
7811 -863 m  7811 -613 l  8061 -613 l  8061 -863 l  7811 -863 l  pc
79.99611 lw 1.000 0.261 0.058 c -8474 -1547 m  -8446 -1533 l  -8418 -1519 l 
-8390 -1505 l  -8361 -1491 l  -8333 -1476 l  -8305 -1461 l  -8276 -1444 l 
-8248 -1428 l  -8220 -1410 l  -8192 -1391 l  -8163 -1371 l  -8135 -1350 l 
-8107 -1327 l  -8078 -1303 l  -8050 -1278 l  -8022 -1250 l  -7993 -1221 l 
-7965 -1190 l  -7937 -1157 l  -7909 -1122 l  -7880 -1084 l  -7852 -1045 l 
-7824 -1004 l  -7795 -963 l  -7767 -921 l  -7739 -879 l  -7711 -838 l 
-7682 -798 l  -7654 -759 l  -7626 -723 l  -7597 -689 l  -7569 -657 l  -7541 -630 l 
-7512 -606 l  -7484 -587 l  -7456 -572 l  -7428 -563 l  -7399 -559 l  -7371 -562 l 
-7343 -572 l  -7314 -589 l  -7286 -612 l  -7258 -641 l  -7230 -674 l  -7201 -712 l 
-7173 -753 l  -7145 -796 l  -7116 -842 l  -7088 -888 l  -7060 -934 l  -7031 -979 l 
-7003 -1023 l  -6975 -1065 l  -6947 -1103 l  -6918 -1138 l  -6890 -1168 l 
-6862 -1192 l  -6833 -1210 l  -6805 -1221 l  -6777 -1225 l  -6749 -1219 l 
-6720 -1206 l  -6692 -1186 l  -6664 -1160 l  -6635 -1129 l  -6607 -1092 l 
-6579 -1052 l  -6550 -1009 l  -6522 -964 l  -6494 -918 l  -6466 -871 l 
-6437 -824 l  -6409 -779 l  -6381 -735 l  -6352 -694 l  -6324 -657 l  -6296 -624 l 
-6268 -596 l  -6239 -574 l  -6211 -559 l  -6183 -551 l  -6154 -551 l  -6126 -556 l 
-6098 -568 l  -6069 -585 l  -6041 -606 l  -6013 -632 l  -5985 -661 l  -5956 -693 l 
-5928 -727 l  -5900 -763 l  -5871 -800 l  -5843 -838 l  -5815 -875 l  -5786 -912 l 
-5758 -948 l  -5730 -981 l  -5702 -1013 l  -5673 -1041 l  -5645 -1065 l 
-5617 -1086 l  -5588 -1103 l  -5560 -1116 l  -5532 -1125 l  -5504 -1132 l 
-5475 -1136 l  -5447 -1138 l  -5419 -1137 l  -5390 -1135 l  -5362 -1131 l 
-5334 -1126 l  -5305 -1120 l  -5277 -1114 l  -5249 -1107 l  -5221 -1100 l 
-5192 -1094 l  -5164 -1088 l  -5136 -1083 l  -5107 -1079 l  -5079 -1077 l 
-5051 -1076 l  -5023 -1078 l  -4994 -1081 l  -4966 -1085 l  -4938 -1091 l 
-4909 -1098 l  -4881 -1106 l  -4853 -1116 l  -4824 -1126 l  -4796 -1138 l 
-4768 -1150 l  -4740 -1163 l  -4711 -1177 l  -4683 -1191 l  -4655 -1206 l 
-4626 -1221 l  -4598 -1237 l  -4570 -1253 l  -4542 -1268 l  -4513 -1284 l 
-4485 -1300 l  -4457 -1315 l  -4428 -1330 l  -4400 -1345 l  -4372 -1360 l 
-4343 -1373 l  -4315 -1386 l  -4287 -1398 l  -4259 -1410 l  -4230 -1420 l 
-4202 -1429 l  -4174 -1437 l  -4145 -1444 l  -4117 -1449 l  -4089 -1453 l 
-4061 -1455 l  -4032 -1455 l  -4004 -1454 l  -3976 -1450 l  -3947 -1445 l 
-3919 -1438 l  -3891 -1429 l  -3862 -1418 l  -3834 -1406 l  -3806 -1394 l 
-3778 -1381 l  -3749 -1368 l  -3721 -1356 l  -3693 -1344 l  -3664 -1333 l 
-3636 -1323 l  -3608 -1315 l  -3579 -1309 l  -3551 -1306 l  -3523 -1305 l 
-3495 -1307 l  -3466 -1313 l  -3438 -1322 l  -3410 -1335 l  -3381 -1353 l 
-3353 -1376 l  -3325 -1402 l  -3297 -1432 l  -3268 -1466 l  -3240 -1501 l 
-3212 -1539 l  -3183 -1577 l  -3155 -1616 l  -3127 -1655 l  -3098 -1694 l 
-3070 -1731 l  -3042 -1767 l  -3014 -1800 l  -2985 -1830 l  -2957 -1857 l 
-2929 -1880 l  -2900 -1897 l  -2872 -1910 l  -2844 -1916 l  -2816 -1916 l 
-2787 -1909 l  -2759 -1895 l  -2731 -1875 l  -2702 -1849 l  -2674 -1819 l 
-2646 -1784 l  -2617 -1745 l  -2589 -1702 l  -2561 -1656 l  -2533 -1608 l 
-2504 -1558 l  -2476 -1506 l  -2448 -1454 l  -2419 -1401 l  -2391 -1348 l 
-2363 -1296 l  -2335 -1245 l  -2306 -1196 l  -2278 -1149 l  -2250 -1104 l 
-2221 -1063 l  -2193 -1025 l  -2165 -990 l  -2136 -958 l  -2108 -929 l 
-2080 -903 l  -2052 -880 l  -2023 -859 l  -1995 -841 l  -1967 -826 l  -1938 -813 l 
-1910 -802 l  -1882 -794 l  -1854 -788 l  -1825 -784 l  -1797 -782 l  -1769 -783 l 
-1740 -785 l  -1712 -789 l  -1684 -795 l  -1655 -803 l  -1627 -812 l  -1599 -823 l 
-1571 -835 l  -1542 -848 l  -1514 -863 l  -1486 -878 l  -1457 -894 l  -1429 -910 l 
-1401 -927 l  -1372 -945 l  -1344 -962 l  -1316 -980 l  -1288 -998 l  -1259 -1016 l 
-1231 -1033 l  -1203 -1050 l  -1174 -1066 l  -1146 -1081 l  -1118 -1096 l 
-1090 -1109 l  -1061 -1122 l  -1033 -1134 l  -1005 -1144 l  -976 -1154 l 
-948 -1163 l  -920 -1171 l  -891 -1177 l  -863 -1183 l  -835 -1188 l  -807 -1193 l 
-778 -1196 l  -750 -1198 l  -722 -1200 l  -693 -1200 l  -665 -1200 l  -637 -1199 l 
-609 -1197 l  -580 -1194 l  -552 -1190 l  -524 -1186 l  -495 -1181 l  -467 -1175 l 
-439 -1168 l  -410 -1162 l  -382 -1154 l  -354 -1147 l  -326 -1139 l  -297 -1131 l 
-269 -1123 l  -241 -1115 l  -212 -1107 l  -184 -1100 l  -156 -1092 l  -128 -1086 l 
-99 -1079 l  -71 -1073 l  -43 -1068 l  -14 -1063 l  13 -1060 l  41 -1057 l 
70 -1055 l  98 -1054 l  126 -1053 l  154 -1054 l  183 -1055 l  211 -1057 l 
239 -1059 l  268 -1062 l  296 -1066 l  324 -1070 l  352 -1075 l  381 -1080 l 
409 -1086 l  437 -1092 l  466 -1099 l  494 -1106 l  522 -1113 l  551 -1121 l 
579 -1129 l  607 -1137 l  635 -1145 l  664 -1154 l  692 -1162 l  720 -1171 l 
749 -1181 l  777 -1190 l  805 -1199 l  833 -1209 l  862 -1219 l  890 -1229 l 
918 -1239 l  947 -1249 l  975 -1260 l  1003 -1270 l  1032 -1281 l  1060 -1292 l 
1088 -1302 l  1116 -1313 l  1145 -1324 l  1173 -1335 l  1201 -1346 l  1230 -1357 l 
1258 -1368 l  1286 -1378 l  1315 -1388 l  1343 -1397 l  1371 -1405 l  1399 -1412 l 
1428 -1419 l  1456 -1424 l  1484 -1428 l  1513 -1430 l  1541 -1431 l  1569 -1431 l 
1597 -1428 l  1626 -1424 l  1654 -1418 l  1682 -1410 l  1711 -1399 l  1739 -1386 l 
1767 -1372 l  1796 -1355 l  1824 -1338 l  1852 -1319 l  1880 -1300 l  1909 -1281 l 
1937 -1262 l  1965 -1244 l  1994 -1226 l  2022 -1210 l  2050 -1196 l  2078 -1184 l 
2107 -1174 l  2135 -1167 l  2163 -1163 l  2192 -1163 l  2220 -1166 l  2248 -1174 l 
2277 -1186 l  2305 -1204 l  2333 -1225 l  2361 -1251 l  2390 -1279 l  2418 -1310 l 
2446 -1344 l  2475 -1378 l  2503 -1413 l  2531 -1449 l  2559 -1484 l  2588 -1518 l 
2616 -1550 l  2644 -1580 l  2673 -1607 l  2701 -1631 l  2729 -1650 l  2758 -1665 l 
2786 -1675 l  2814 -1678 l  2842 -1675 l  2871 -1666 l  2899 -1650 l  2927 -1628 l 
2956 -1601 l  2984 -1569 l  3012 -1534 l  3040 -1495 l  3069 -1455 l  3097 -1412 l 
3125 -1368 l  3154 -1324 l  3182 -1280 l  3210 -1238 l  3239 -1196 l  3267 -1157 l 
3295 -1121 l  3323 -1088 l  3352 -1060 l  3380 -1036 l  3408 -1018 l  3437 -1007 l 
3465 -1001 l  3493 -1000 l  3522 -1005 l  3550 -1014 l  3578 -1027 l  3606 -1044 l 
3635 -1064 l  3663 -1087 l  3691 -1113 l  3720 -1140 l  3748 -1170 l  3776 -1200 l 
3804 -1232 l  3833 -1263 l  3861 -1295 l  3889 -1326 l  3918 -1357 l  3946 -1386 l 
3974 -1414 l  4003 -1439 l  4031 -1462 l  4059 -1483 l  4087 -1502 l  4116 -1519 l 
4144 -1533 l  4172 -1545 l  4201 -1555 l  4229 -1562 l  4257 -1567 l  4285 -1570 l 
4314 -1570 l  4342 -1567 l  4370 -1563 l  4399 -1555 l  4427 -1545 l  4455 -1532 l 
4484 -1517 l  4512 -1499 l  4540 -1478 l  4568 -1454 l  4597 -1429 l  4625 -1401 l 
4653 -1371 l  4682 -1340 l  4710 -1307 l  4738 -1274 l  4766 -1240 l  4795 -1207 l 
4823 -1173 l  4851 -1140 l  4880 -1108 l  4908 -1077 l  4936 -1047 l  4965 -1020 l 
4993 -994 l  5021 -971 l  5049 -951 l  5078 -933 l  5106 -920 l  5134 -910 l 
5163 -903 l  5191 -900 l  5219 -899 l  5247 -901 l  5276 -906 l  5304 -912 l 
5332 -920 l  5361 -930 l  5389 -940 l  5417 -952 l  5446 -964 l  5474 -976 l 
5502 -988 l  5530 -1000 l  5559 -1011 l  5587 -1021 l  5615 -1030 l  5644 -1037 l 
5672 -1042 l  5700 -1046 l  5729 -1047 l  5757 -1047 l  5785 -1046 l  5813 -1043 l 
5842 -1039 l  5870 -1035 l  5898 -1031 l  5927 -1026 l  5955 -1021 l  5983 -1017 l 
6011 -1013 l  6040 -1011 l  6068 -1009 l  6096 -1009 l  6125 -1010 l  6153 -1013 l 
6181 -1019 l  6210 -1026 l  6238 -1037 l  6266 -1050 l  6294 -1066 l  6323 -1084 l 
6351 -1103 l  6379 -1125 l  6408 -1148 l  6436 -1172 l  6464 -1196 l  6492 -1221 l 
6521 -1246 l  6549 -1271 l  6577 -1295 l  6606 -1318 l  6634 -1340 l  6662 -1360 l 
6691 -1379 l  6719 -1395 l  6747 -1409 l  6775 -1420 l  6804 -1428 l  6832 -1433 l 
6860 -1434 l  6889 -1433 l  6917 -1428 l  6945 -1422 l  6973 -1413 l  7002 -1403 l 
7030 -1391 l  7058 -1377 l  7087 -1362 l  7115 -1347 l  7143 -1331 l  7172 -1314 l 
7200 -1297 l  7228 -1281 l  7256 -1265 l  7285 -1249 l  7313 -1235 l  7341 -1221 l 
7370 -1209 l  7398 -1199 l  7426 -1190 l  7454 -1183 l  7483 -1177 l  7511 -1173 l 
7539 -1169 l  7568 -1167 l  7596 -1166 l  7624 -1166 l  7653 -1167 l  7681 -1169 l 
7709 -1172 l  7737 -1175 l  7766 -1179 l  7794 -1183 l  7822 -1188 l  7851 -1193 l 
7879 -1198 l  7907 -1204 l  7936 -1209 l  ps
-8599 -1547 m  -8474 -1422 l  -8349 -1547 l  -8474 -1672 l  -8599 -1547 l 
p ef
0 lw -8599 -1547 m  -8474 -1422 l  -8349 -1547 l  -8474 -1672 l  -8599 -1547 l 
pc
-8034 -1122 m  -7909 -997 l  -7784 -1122 l  -7909 -1247 l  -8034 -1122 l 
p ef
-8034 -1122 m  -7909 -997 l  -7784 -1122 l  -7909 -1247 l  -8034 -1122 l 
pc
-7468 -572 m  -7343 -447 l  -7218 -572 l  -7343 -697 l  -7468 -572 l  p ef
-7468 -572 m  -7343 -447 l  -7218 -572 l  -7343 -697 l  -7468 -572 l  pc
-6902 -1225 m  -6777 -1100 l  -6652 -1225 l  -6777 -1350 l  -6902 -1225 l 
p ef
-6902 -1225 m  -6777 -1100 l  -6652 -1225 l  -6777 -1350 l  -6902 -1225 l 
pc
-6336 -559 m  -6211 -434 l  -6086 -559 l  -6211 -684 l  -6336 -559 l  p ef
-6336 -559 m  -6211 -434 l  -6086 -559 l  -6211 -684 l  -6336 -559 l  pc
-5770 -1065 m  -5645 -940 l  -5520 -1065 l  -5645 -1190 l  -5770 -1065 l 
p ef
-5770 -1065 m  -5645 -940 l  -5520 -1065 l  -5645 -1190 l  -5770 -1065 l 
pc
-5204 -1077 m  -5079 -952 l  -4954 -1077 l  -5079 -1202 l  -5204 -1077 l 
p ef
-5204 -1077 m  -5079 -952 l  -4954 -1077 l  -5079 -1202 l  -5204 -1077 l 
pc
-4638 -1284 m  -4513 -1159 l  -4388 -1284 l  -4513 -1409 l  -4638 -1284 l 
p ef
-4638 -1284 m  -4513 -1159 l  -4388 -1284 l  -4513 -1409 l  -4638 -1284 l 
pc
-4072 -1445 m  -3947 -1320 l  -3822 -1445 l  -3947 -1570 l  -4072 -1445 l 
p ef
-4072 -1445 m  -3947 -1320 l  -3822 -1445 l  -3947 -1570 l  -4072 -1445 l 
pc
-3506 -1353 m  -3381 -1228 l  -3256 -1353 l  -3381 -1478 l  -3506 -1353 l 
p ef
-3506 -1353 m  -3381 -1228 l  -3256 -1353 l  -3381 -1478 l  -3506 -1353 l 
pc
-2941 -1916 m  -2816 -1791 l  -2691 -1916 l  -2816 -2041 l  -2941 -1916 l 
p ef
-2941 -1916 m  -2816 -1791 l  -2691 -1916 l  -2816 -2041 l  -2941 -1916 l 
pc
-2375 -1104 m  -2250 -979 l  -2125 -1104 l  -2250 -1229 l  -2375 -1104 l 
p ef
-2375 -1104 m  -2250 -979 l  -2125 -1104 l  -2250 -1229 l  -2375 -1104 l 
pc
-1809 -795 m  -1684 -670 l  -1559 -795 l  -1684 -920 l  -1809 -795 l  p ef
-1809 -795 m  -1684 -670 l  -1559 -795 l  -1684 -920 l  -1809 -795 l  pc
-1243 -1096 m  -1118 -971 l  -993 -1096 l  -1118 -1221 l  -1243 -1096 l 
p ef
-1243 -1096 m  -1118 -971 l  -993 -1096 l  -1118 -1221 l  -1243 -1096 l 
pc
-677 -1190 m  -552 -1065 l  -427 -1190 l  -552 -1315 l  -677 -1190 l  p ef
-677 -1190 m  -552 -1065 l  -427 -1190 l  -552 -1315 l  -677 -1190 l  pc
-111 -1060 m  13 -935 l  138 -1060 l  13 -1185 l  -111 -1060 l  p ef
-111 -1060 m  13 -935 l  138 -1060 l  13 -1185 l  -111 -1060 l  pc
454 -1129 m  579 -1004 l  704 -1129 l  579 -1254 l  454 -1129 l  p ef
454 -1129 m  579 -1004 l  704 -1129 l  579 -1254 l  454 -1129 l  pc
1020 -1324 m  1145 -1199 l  1270 -1324 l  1145 -1449 l  1020 -1324 l  p ef
1020 -1324 m  1145 -1199 l  1270 -1324 l  1145 -1449 l  1020 -1324 l  pc
1586 -1399 m  1711 -1274 l  1836 -1399 l  1711 -1524 l  1586 -1399 l  p ef
1586 -1399 m  1711 -1274 l  1836 -1399 l  1711 -1524 l  1586 -1399 l  pc
2152 -1186 m  2277 -1061 l  2402 -1186 l  2277 -1311 l  2152 -1186 l  p ef
2152 -1186 m  2277 -1061 l  2402 -1186 l  2277 -1311 l  2152 -1186 l  pc
2717 -1675 m  2842 -1550 l  2967 -1675 l  2842 -1800 l  2717 -1675 l  p ef
2717 -1675 m  2842 -1550 l  2967 -1675 l  2842 -1800 l  2717 -1675 l  pc
3283 -1018 m  3408 -893 l  3533 -1018 l  3408 -1143 l  3283 -1018 l  p ef
3283 -1018 m  3408 -893 l  3533 -1018 l  3408 -1143 l  3283 -1018 l  pc
3849 -1414 m  3974 -1289 l  4099 -1414 l  3974 -1539 l  3849 -1414 l  p ef
3849 -1414 m  3974 -1289 l  4099 -1414 l  3974 -1539 l  3849 -1414 l  pc
4415 -1478 m  4540 -1353 l  4665 -1478 l  4540 -1603 l  4415 -1478 l  p ef
4415 -1478 m  4540 -1353 l  4665 -1478 l  4540 -1603 l  4415 -1478 l  pc
4981 -920 m  5106 -795 l  5231 -920 l  5106 -1045 l  4981 -920 l  p ef
4981 -920 m  5106 -795 l  5231 -920 l  5106 -1045 l  4981 -920 l  pc
5547 -1042 m  5672 -917 l  5797 -1042 l  5672 -1167 l  5547 -1042 l  p ef
5547 -1042 m  5672 -917 l  5797 -1042 l  5672 -1167 l  5547 -1042 l  pc
6113 -1037 m  6238 -912 l  6363 -1037 l  6238 -1162 l  6113 -1037 l  p ef
6113 -1037 m  6238 -912 l  6363 -1037 l  6238 -1162 l  6113 -1037 l  pc
6679 -1428 m  6804 -1303 l  6929 -1428 l  6804 -1553 l  6679 -1428 l  p ef
6679 -1428 m  6804 -1303 l  6929 -1428 l  6804 -1553 l  6679 -1428 l  pc
7245 -1209 m  7370 -1084 l  7495 -1209 l  7370 -1334 l  7245 -1209 l  p ef
7245 -1209 m  7370 -1084 l  7495 -1209 l  7370 -1334 l  7245 -1209 l  pc
7811 -1209 m  7936 -1084 l  8061 -1209 l  7936 -1334 l  7811 -1209 l  p ef
7811 -1209 m  7936 -1084 l  8061 -1209 l  7936 -1334 l  7811 -1209 l  pc
0.003 0.003 0.003 c
/Helvetica f
353 sf -8567 4242 m  185 0 (1) bs
/Helvetica f
353 sf -8002 4242 m  185 0 (2) bs
/Helvetica f
353 sf -7436 4242 m  185 0 (3) bs
/Helvetica f
353 sf -6870 4242 m  185 0 (4) bs
/Helvetica f
353 sf -6304 4242 m  185 0 (5) bs
/Helvetica f
353 sf -5738 4242 m  185 0 (6) bs
/Helvetica f
353 sf -5172 4242 m  185 0 (7) bs
/Helvetica f
353 sf -4606 4242 m  185 0 (8) bs
/Helvetica f
353 sf -4040 4242 m  185 0 (9) bs
/Helvetica f
353 sf -3566 4242 m  185 0 (1) bs
185 185 (0) bs
/Helvetica f
353 sf -2988 4242 m  185 0 (1) bs
185 159 (1) bs
/Helvetica f
353 sf -2435 4242 m  185 0 (1) bs
185 185 (2) bs
/Helvetica f
353 sf -1869 4242 m  185 0 (1) bs
185 185 (3) bs
/Helvetica f
353 sf -1303 4242 m  185 0 (1) bs
185 185 (4) bs
/Helvetica f
353 sf -737 4242 m  185 0 (1) bs
185 185 (5) bs
/Helvetica f
353 sf -171 4242 m  185 0 (1) bs
185 185 (6) bs
/Helvetica f
353 sf 395 4242 m  185 0 (1) bs
185 185 (7) bs
/Helvetica f
353 sf 961 4242 m  185 0 (1) bs
185 185 (8) bs
/Helvetica f
353 sf 1527 4242 m  185 0 (1) bs
185 185 (9) bs
/Helvetica f
353 sf 2093 4242 m  185 0 (2) bs
185 185 (0) bs
/Helvetica f
353 sf 2658 4242 m  185 0 (2) bs
185 185 (1) bs
/Helvetica f
353 sf 3224 4242 m  185 0 (2) bs
185 185 (2) bs
/Helvetica f
353 sf 3790 4242 m  185 0 (2) bs
185 185 (3) bs
/Helvetica f
353 sf 4356 4242 m  185 0 (2) bs
185 185 (4) bs
/Helvetica f
353 sf 4922 4242 m  185 0 (2) bs
185 185 (5) bs
/Helvetica f
353 sf 5488 4242 m  185 0 (2) bs
185 185 (6) bs
/Helvetica f
353 sf 6054 4242 m  185 0 (2) bs
185 185 (7) bs
/Helvetica f
353 sf 6620 4242 m  185 0 (2) bs
185 185 (8) bs
/Helvetica f
353 sf 7186 4242 m  185 0 (2) bs
185 185 (9) bs
/Helvetica f
353 sf 7752 4242 m  185 0 (3) bs
185 185 (0) bs
/Helvetica f
353 sf -9703 3795 m  185 0 (0) bs
106 185 (,) bs
185 291 (0) bs
185 476 (0) bs
318 661 (%) bs
/Helvetica f
353 sf -9888 2956 m  185 0 (1) bs
185 185 (0) bs
106 370 (,) bs
185 476 (0) bs
185 661 (0) bs
318 847 (%) bs
/Helvetica f
353 sf -9888 2118 m  185 0 (2) bs
185 185 (0) bs
106 370 (,) bs
185 476 (0) bs
185 661 (0) bs
318 847 (%) bs
/Helvetica f
353 sf -9888 1280 m  185 0 (3) bs
185 185 (0) bs
106 370 (,) bs
185 476 (0) bs
185 661 (0) bs
318 847 (%) bs
/Helvetica f
353 sf -9888 442 m  185 0 (4) bs
185 185 (0) bs
106 370 (,) bs
185 476 (0) bs
185 661 (0) bs
318 847 (%) bs
/Helvetica f
353 sf -9888 -396 m  185 0 (5) bs
185 185 (0) bs
106 370 (,) bs
185 476 (0) bs
185 661 (0) bs
318 847 (%) bs
/Helvetica f
353 sf -9888 -1234 m  185 0 (6) bs
185 185 (0) bs
106 370 (,) bs
185 476 (0) bs
185 661 (0) bs
318 847 (%) bs
/Helvetica f
353 sf -9888 -2072 m  185 0 (7) bs
185 185 (0) bs
106 370 (,) bs
185 476 (0) bs
185 661 (0) bs
318 847 (%) bs
/Helvetica f
353 sf -9888 -2910 m  185 0 (8) bs
185 185 (0) bs
106 370 (,) bs
185 476 (0) bs
185 661 (0) bs
318 847 (%) bs
/Helvetica f
459 sf -2527 -3652 m  159 0 (r) bs
238 159 (e) bs
238 397 (p) bs
238 635 (o) bs
159 873 (r) bs
106 1032 (t) bs
238 1138 (_) bs
238 1376 (8) bs
238 1614 (_) bs
238 1852 (2) bs
238 2090 (_) bs
238 2328 (1) bs
132 2566 ( ) bs
159 2699 (-) bs
132 2858 ( ) bs
238 2990 (p) bs
159 3228 (r) bs
238 3387 (e) bs
238 3625 (d) bs
106 3863 (i) bs
238 3969 (c) bs
106 4207 (t) bs
132 4313 ( ) bs
238 4445 (1) bs
132 4683 (,) bs
238 4815 (5) bs
79.99611 lw 0.003 0.273 0.527 c 8650 -250 m  9450 -250 l  ps
8944 -355 m  8944 -144 l  9155 -144 l  9155 -355 l  8944 -355 l  p ef
0 lw 8944 -355 m  8944 -144 l  9155 -144 l  9155 -355 l  8944 -355 l  pc
79.99611 lw 1.000 0.261 0.058 c 8650 247 m  9450 247 l  ps
8944 247 m  9050 353 l  9155 247 l  9050 142 l  8944 247 l  p ef
0 lw 8944 247 m  9050 353 l  9155 247 l  9050 142 l  8944 247 l  pc
0.003 0.003 0.003 c
/Helvetica f
353 sf 9550 -130 m  238 0 (H) bs
185 238 (e) bs
/Helvetica f
353 sf 9550 367 m  238 0 (K) bs
185 238 (e) bs
0 9006 t 
pom
count op_count sub {pop} repeat countdictstack dict_count sub {end} repeat b4_inc_state restore
%%PageTrailer
%%Trailer
%%EOF
